i, Result
0, 0.0
1, 0.0
2, 0.0
3, 1.0
4, 2.0
5, 2.0
6, 2.0
7, 3.0
8, 4.0
9, 4.0
10, 5.0
11, 6.0
12, 6.0
13, 7.0
14, 7.0
15, 8.0
16, 8.0
17, 9.0
18, 10.0
19, 10.0
20, 10.0
21, 11.0
22, 12.0
23, 12.0
24, 13.0
25, 14.0
26, 15.0
27, 15.0
28, 15.0
29, 16.0
30, 17.0
31, 17.0
32, 18.0
33, 18.0
34, 18.0
35, 19.0
36, 19.0
37, 19.0
38, 19.0
39, 20.0
40, 20.0
41, 20.0
42, 20.0
43, 20.0
44, 20.0
45, 21.0
46, 22.0
47, 23.0
48, 23.0
49, 23.0
50, 23.0
51, 23.0
52, 24.0
53, 24.0
54, 24.0
55, 25.0
56, 26.0
57, 27.0
58, 28.0
59, 28.0
60, 29.0
61, 30.0
62, 31.0
63, 32.0
64, 32.0
65, 32.0
66, 32.0
67, 33.0
68, 33.0
69, 33.0
70, 33.0
71, 33.0
72, 33.0
73, 33.0
74, 33.0
75, 33.0
76, 33.0
77, 33.0
78, 33.0
79, 33.0
80, 33.0
81, 33.0
82, 33.0
83, 33.0
84, 33.0
85, 33.0
86, 33.0
87, 33.0
88, 33.0
89, 33.0
90, 33.0
91, 33.0
92, 33.0
93, 33.0
94, 33.0
95, 33.0
96, 33.0
97, 33.0
98, 33.0
99, 33.0
100, 33.0
101, 33.0
102, 33.0
103, 33.0
104, 33.0
105, 33.0
