i, Result
0, 0.0
1, 0.0
2, 0.0
3, 1.0
4, 1.0
5, 2.0
6, 3.0
7, 3.0
8, 4.0
9, 5.0
10, 5.0
11, 6.0
12, 6.0
13, 7.0
14, 8.0
15, 8.0
16, 8.0
17, 9.0
18, 9.0
19, 9.0
20, 9.0
21, 9.0
22, 10.0
23, 10.0
24, 11.0
25, 12.0
26, 13.0
27, 14.0
28, 14.0
29, 15.0
30, 15.0
31, 16.0
32, 17.0
33, 18.0
34, 19.0
35, 19.0
36, 19.0
37, 19.0
38, 20.0
39, 20.0
40, 21.0
41, 21.0
42, 21.0
43, 22.0
44, 22.0
45, 23.0
46, 24.0
47, 24.0
48, 24.0
49, 25.0
50, 26.0
51, 27.0
52, 28.0
53, 28.0
54, 29.0
55, 29.0
56, 30.0
57, 31.0
58, 31.0
59, 32.0
60, 33.0
61, 34.0
62, 35.0
63, 36.0
64, 37.0
65, 38.0
66, 38.0
67, 38.0
68, 39.0
69, 39.0
70, 40.0
71, 40.0
72, 40.0
73, 40.0
74, 40.0
75, 40.0
76, 40.0
77, 40.0
78, 40.0
79, 40.0
80, 40.0
81, 40.0
82, 40.0
83, 40.0
84, 40.0
85, 40.0
86, 40.0
87, 40.0
88, 40.0
89, 40.0
90, 40.0
91, 40.0
92, 40.0
93, 40.0
94, 40.0
95, 40.0
96, 40.0
97, 40.0
98, 40.0
99, 40.0
100, 40.0
101, 40.0
102, 40.0
103, 40.0
104, 40.0
105, 40.0
