i, Result
0, 0.0
1, 0.0
2, 0.0
3, 1.0
4, 2.0
5, 2.0
6, 3.0
7, 4.0
8, 4.0
9, 5.0
10, 6.0
11, 6.0
12, 6.0
13, 7.0
14, 7.0
15, 7.0
16, 7.0
17, 8.0
18, 8.0
19, 8.0
20, 9.0
21, 10.0
22, 11.0
23, 12.0
24, 12.0
25, 13.0
26, 14.0
27, 15.0
28, 15.0
29, 15.0
30, 15.0
31, 15.0
32, 16.0
33, 17.0
34, 18.0
35, 19.0
36, 20.0
37, 21.0
38, 21.0
39, 22.0
40, 22.0
41, 23.0
42, 24.0
43, 25.0
44, 26.0
45, 27.0
46, 28.0
47, 29.0
48, 30.0
49, 31.0
50, 31.0
51, 31.0
52, 31.0
53, 31.0
54, 31.0
55, 31.0
56, 31.0
57, 31.0
58, 31.0
59, 31.0
60, 31.0
61, 32.0
62, 33.0
63, 34.0
64, 34.0
65, 35.0
66, 35.0
67, 36.0
68, 37.0
69, 38.0
70, 38.0
71, 38.0
72, 38.0
73, 38.0
74, 38.0
75, 38.0
76, 38.0
77, 38.0
78, 38.0
79, 38.0
80, 38.0
81, 38.0
82, 38.0
83, 38.0
84, 38.0
85, 38.0
86, 38.0
87, 38.0
88, 38.0
89, 38.0
90, 38.0
91, 38.0
92, 38.0
93, 38.0
94, 38.0
95, 38.0
96, 38.0
97, 38.0
98, 38.0
99, 38.0
100, 38.0
101, 38.0
102, 38.0
103, 38.0
104, 38.0
105, 38.0
