i, Result
0, 0.0
1, 0.0
2, 0.0
3, 0.0
4, 0.0
5, 1.0
6, 2.0
7, 2.0
8, 3.0
9, 4.0
10, 4.0
11, 5.0
12, 6.0
13, 7.0
14, 7.0
15, 8.0
16, 9.0
17, 10.0
18, 11.0
19, 12.0
20, 13.0
21, 14.0
22, 15.0
23, 15.0
24, 15.0
25, 15.0
26, 15.0
27, 16.0
28, 16.0
29, 16.0
30, 17.0
31, 18.0
32, 19.0
33, 20.0
34, 20.0
35, 20.0
36, 21.0
37, 21.0
38, 22.0
39, 23.0
40, 23.0
41, 23.0
42, 24.0
43, 24.0
44, 25.0
45, 25.0
46, 26.0
47, 27.0
48, 28.0
49, 28.0
50, 29.0
51, 29.0
52, 30.0
53, 31.0
54, 32.0
55, 33.0
56, 33.0
57, 34.0
58, 35.0
59, 35.0
60, 36.0
61, 37.0
62, 38.0
63, 38.0
64, 38.0
65, 39.0
66, 39.0
67, 40.0
68, 40.0
69, 40.0
70, 40.0
71, 40.0
72, 40.0
73, 41.0
74, 41.0
75, 41.0
76, 41.0
77, 41.0
78, 41.0
79, 41.0
80, 41.0
81, 41.0
82, 41.0
83, 41.0
84, 41.0
85, 41.0
86, 41.0
87, 41.0
88, 41.0
89, 41.0
90, 41.0
91, 41.0
92, 41.0
93, 41.0
94, 41.0
95, 41.0
96, 41.0
97, 41.0
98, 41.0
99, 41.0
100, 41.0
101, 41.0
102, 41.0
103, 41.0
104, 41.0
105, 41.0
