i, Result
0, 0.0
1, 0.0
2, 0.0
3, 1.0
4, 2.0
5, 3.0
6, 3.0
7, 3.0
8, 3.0
9, 4.0
10, 5.0
11, 6.0
12, 6.0
13, 7.0
14, 8.0
15, 9.0
16, 9.0
17, 10.0
18, 11.0
19, 12.0
20, 13.0
21, 14.0
22, 14.0
23, 15.0
24, 16.0
25, 17.0
26, 18.0
27, 19.0
28, 19.0
29, 20.0
30, 21.0
31, 21.0
32, 22.0
33, 22.0
34, 23.0
35, 24.0
36, 25.0
37, 26.0
38, 27.0
39, 28.0
40, 29.0
41, 30.0
42, 30.0
43, 31.0
44, 32.0
45, 32.0
46, 33.0
47, 33.0
48, 34.0
49, 35.0
50, 35.0
51, 35.0
52, 35.0
53, 36.0
54, 36.0
55, 37.0
56, 38.0
57, 39.0
58, 40.0
59, 40.0
60, 40.0
61, 40.0
62, 41.0
63, 42.0
64, 43.0
65, 43.0
66, 44.0
67, 45.0
68, 45.0
69, 45.0
70, 46.0
71, 47.0
72, 47.0
73, 48.0
74, 49.0
75, 49.0
76, 49.0
77, 49.0
78, 49.0
79, 49.0
80, 49.0
81, 49.0
82, 49.0
83, 49.0
84, 49.0
85, 49.0
86, 49.0
87, 49.0
88, 49.0
89, 49.0
90, 49.0
91, 49.0
92, 49.0
93, 49.0
94, 49.0
95, 49.0
96, 49.0
97, 49.0
98, 49.0
99, 49.0
100, 49.0
101, 49.0
102, 49.0
103, 49.0
104, 49.0
105, 49.0
