i, Result
0, 0.0
1, 0.0
2, 0.0
3, 1.0
4, 2.0
5, 3.0
6, 3.0
7, 3.0
8, 4.0
9, 5.0
10, 5.0
11, 6.0
12, 7.0
13, 7.0
14, 7.0
15, 8.0
16, 9.0
17, 9.0
18, 10.0
19, 10.0
20, 11.0
21, 11.0
22, 11.0
23, 11.0
24, 11.0
25, 11.0
26, 11.0
27, 12.0
28, 13.0
29, 13.0
30, 14.0
31, 14.0
32, 14.0
33, 14.0
34, 15.0
35, 16.0
36, 17.0
37, 18.0
38, 18.0
39, 18.0
40, 18.0
41, 18.0
42, 18.0
43, 19.0
44, 19.0
45, 20.0
46, 20.0
47, 20.0
48, 21.0
49, 21.0
50, 22.0
51, 22.0
52, 23.0
53, 24.0
54, 25.0
55, 26.0
56, 27.0
57, 27.0
58, 27.0
59, 28.0
60, 28.0
61, 28.0
62, 29.0
63, 30.0
64, 31.0
65, 32.0
66, 33.0
67, 33.0
68, 33.0
69, 34.0
70, 34.0
71, 34.0
72, 34.0
73, 34.0
74, 34.0
75, 34.0
76, 34.0
77, 34.0
78, 34.0
79, 34.0
80, 34.0
81, 34.0
82, 34.0
83, 34.0
84, 34.0
85, 34.0
86, 34.0
87, 34.0
88, 34.0
89, 34.0
90, 34.0
91, 34.0
92, 34.0
93, 34.0
94, 34.0
95, 34.0
96, 34.0
97, 34.0
98, 34.0
99, 34.0
100, 34.0
101, 34.0
102, 34.0
103, 34.0
104, 34.0
105, 34.0
