i, Result
0, 0.0
1, 0.0
2, 0.0
3, 0.0
4, 0.0
5, 0.0
6, 0.0
7, 1.0
8, 2.0
9, 3.0
10, 3.0
11, 4.0
12, 4.0
13, 4.0
14, 5.0
15, 5.0
16, 5.0
17, 6.0
18, 6.0
19, 6.0
20, 6.0
21, 6.0
22, 6.0
23, 6.0
24, 6.0
25, 7.0
26, 8.0
27, 8.0
28, 8.0
29, 9.0
30, 9.0
31, 9.0
32, 9.0
33, 10.0
34, 10.0
35, 10.0
36, 10.0
37, 10.0
38, 10.0
39, 10.0
40, 10.0
41, 10.0
42, 10.0
43, 11.0
44, 12.0
45, 12.0
46, 12.0
47, 12.0
48, 12.0
49, 13.0
50, 14.0
51, 15.0
52, 16.0
53, 17.0
54, 17.0
55, 17.0
56, 18.0
57, 18.0
58, 18.0
59, 18.0
60, 18.0
61, 18.0
62, 18.0
63, 18.0
64, 18.0
65, 18.0
66, 18.0
67, 18.0
68, 18.0
69, 18.0
70, 18.0
71, 18.0
72, 18.0
73, 18.0
74, 18.0
75, 18.0
76, 18.0
77, 18.0
78, 18.0
79, 18.0
80, 18.0
81, 18.0
82, 18.0
83, 18.0
84, 18.0
85, 18.0
86, 18.0
87, 18.0
88, 18.0
89, 18.0
90, 18.0
91, 18.0
92, 18.0
93, 18.0
94, 18.0
95, 18.0
96, 18.0
97, 18.0
98, 18.0
99, 18.0
100, 18.0
101, 18.0
102, 18.0
103, 18.0
104, 18.0
105, 18.0
