i, Result
0, 0.0
1, 0.0
2, 0.0
3, 1.0
4, 2.0
5, 3.0
6, 3.0
7, 3.0
8, 4.0
9, 5.0
10, 6.0
11, 7.0
12, 7.0
13, 7.0
14, 8.0
15, 9.0
16, 10.0
17, 11.0
18, 11.0
19, 12.0
20, 13.0
21, 13.0
22, 13.0
23, 13.0
24, 14.0
25, 15.0
26, 15.0
27, 16.0
28, 16.0
29, 16.0
30, 16.0
31, 16.0
32, 17.0
33, 18.0
34, 19.0
35, 20.0
36, 20.0
37, 21.0
38, 22.0
39, 23.0
40, 24.0
41, 24.0
42, 25.0
43, 26.0
44, 27.0
45, 27.0
46, 28.0
47, 28.0
48, 29.0
49, 29.0
50, 29.0
51, 29.0
52, 29.0
53, 29.0
54, 30.0
55, 31.0
56, 32.0
57, 33.0
58, 33.0
59, 33.0
60, 34.0
61, 34.0
62, 35.0
63, 35.0
64, 36.0
65, 37.0
66, 37.0
67, 38.0
68, 39.0
69, 40.0
70, 41.0
71, 41.0
72, 42.0
73, 42.0
74, 42.0
75, 42.0
76, 42.0
77, 42.0
78, 42.0
79, 42.0
80, 42.0
81, 42.0
82, 42.0
83, 42.0
84, 42.0
85, 42.0
86, 42.0
87, 42.0
88, 42.0
89, 42.0
90, 42.0
91, 42.0
92, 42.0
93, 42.0
94, 42.0
95, 42.0
96, 42.0
97, 42.0
98, 42.0
99, 42.0
100, 42.0
101, 42.0
102, 42.0
103, 42.0
104, 42.0
105, 42.0
