i, Result
0, 0.0
1, 0.0
2, 0.0
3, 1.0
4, 1.0
5, 1.0
6, 2.0
7, 3.0
8, 3.0
9, 4.0
10, 5.0
11, 6.0
12, 7.0
13, 8.0
14, 9.0
15, 10.0
16, 11.0
17, 11.0
18, 12.0
19, 13.0
20, 14.0
21, 14.0
22, 14.0
23, 15.0
24, 16.0
25, 16.0
26, 16.0
27, 16.0
28, 16.0
29, 17.0
30, 18.0
31, 19.0
32, 20.0
33, 20.0
34, 21.0
35, 22.0
36, 23.0
37, 24.0
38, 25.0
39, 25.0
40, 26.0
41, 27.0
42, 27.0
43, 27.0
44, 27.0
45, 28.0
46, 29.0
47, 29.0
48, 29.0
49, 29.0
50, 29.0
51, 30.0
52, 30.0
53, 31.0
54, 32.0
55, 33.0
56, 33.0
57, 33.0
58, 33.0
59, 34.0
60, 35.0
61, 35.0
62, 35.0
63, 35.0
64, 36.0
65, 37.0
66, 38.0
67, 38.0
68, 39.0
69, 40.0
70, 40.0
71, 41.0
72, 41.0
73, 42.0
74, 43.0
75, 43.0
76, 43.0
77, 43.0
78, 43.0
79, 43.0
80, 43.0
81, 43.0
82, 43.0
83, 43.0
84, 43.0
85, 43.0
86, 43.0
87, 43.0
88, 43.0
89, 43.0
90, 43.0
91, 43.0
92, 43.0
93, 43.0
94, 43.0
95, 43.0
96, 43.0
97, 43.0
98, 43.0
99, 43.0
100, 43.0
101, 43.0
102, 43.0
103, 43.0
104, 43.0
105, 43.0
