i, Result
0, 0.0
1, 0.0
2, 0.0
3, 0.0
4, 0.0
5, 1.0
6, 1.0
7, 2.0
8, 2.0
9, 2.0
10, 2.0
11, 2.0
12, 2.0
13, 3.0
14, 4.0
15, 4.0
16, 4.0
17, 4.0
18, 5.0
19, 6.0
20, 7.0
21, 7.0
22, 7.0
23, 8.0
24, 9.0
25, 9.0
26, 9.0
27, 9.0
28, 9.0
29, 10.0
30, 10.0
31, 10.0
32, 11.0
33, 11.0
34, 11.0
35, 11.0
36, 12.0
37, 12.0
38, 13.0
39, 13.0
40, 14.0
41, 15.0
42, 15.0
43, 15.0
44, 15.0
45, 15.0
46, 16.0
47, 17.0
48, 18.0
49, 18.0
50, 19.0
51, 19.0
52, 19.0
53, 20.0
54, 21.0
55, 22.0
56, 23.0
57, 24.0
58, 25.0
59, 26.0
60, 27.0
61, 27.0
62, 28.0
63, 29.0
64, 29.0
65, 30.0
66, 31.0
67, 32.0
68, 32.0
69, 32.0
70, 32.0
71, 32.0
72, 32.0
73, 32.0
74, 32.0
75, 32.0
76, 32.0
77, 32.0
78, 32.0
79, 32.0
80, 32.0
81, 32.0
82, 32.0
83, 32.0
84, 32.0
85, 32.0
86, 32.0
87, 32.0
88, 32.0
89, 32.0
90, 32.0
91, 32.0
92, 32.0
93, 32.0
94, 32.0
95, 32.0
96, 32.0
97, 32.0
98, 32.0
99, 32.0
100, 32.0
101, 32.0
102, 32.0
103, 32.0
104, 32.0
105, 32.0
