i, Result
0, 0.0
1, 0.0
2, 0.0
3, 1.0
4, 1.0
5, 1.0
6, 2.0
7, 2.0
8, 3.0
9, 3.0
10, 4.0
11, 5.0
12, 5.0
13, 6.0
14, 7.0
15, 7.0
16, 7.0
17, 7.0
18, 7.0
19, 7.0
20, 8.0
21, 8.0
22, 9.0
23, 10.0
24, 11.0
25, 12.0
26, 13.0
27, 14.0
28, 15.0
29, 15.0
30, 16.0
31, 17.0
32, 18.0
33, 19.0
34, 19.0
35, 20.0
36, 20.0
37, 20.0
38, 21.0
39, 22.0
40, 22.0
41, 23.0
42, 24.0
43, 25.0
44, 25.0
45, 25.0
46, 25.0
47, 26.0
48, 27.0
49, 28.0
50, 29.0
51, 30.0
52, 31.0
53, 31.0
54, 32.0
55, 33.0
56, 33.0
57, 34.0
58, 34.0
59, 35.0
60, 36.0
61, 36.0
62, 37.0
63, 37.0
64, 37.0
65, 37.0
66, 37.0
67, 37.0
68, 37.0
69, 37.0
70, 37.0
71, 37.0
72, 37.0
73, 37.0
74, 37.0
75, 37.0
76, 37.0
77, 37.0
78, 37.0
79, 37.0
80, 37.0
81, 37.0
82, 37.0
83, 37.0
84, 37.0
85, 37.0
86, 37.0
87, 37.0
88, 37.0
89, 37.0
90, 37.0
91, 37.0
92, 37.0
93, 37.0
94, 37.0
95, 37.0
96, 37.0
97, 37.0
98, 37.0
99, 37.0
100, 37.0
101, 37.0
102, 37.0
103, 37.0
104, 37.0
105, 37.0
