i, Result
0, 0.0
1, 0.0
2, 0.0
3, 1.0
4, 2.0
5, 3.0
6, 3.0
7, 4.0
8, 4.0
9, 4.0
10, 5.0
11, 6.0
12, 7.0
13, 7.0
14, 8.0
15, 9.0
16, 9.0
17, 9.0
18, 9.0
19, 9.0
20, 9.0
21, 9.0
22, 9.0
23, 9.0
24, 10.0
25, 10.0
26, 11.0
27, 12.0
28, 13.0
29, 13.0
30, 13.0
31, 13.0
32, 14.0
33, 14.0
34, 15.0
35, 15.0
36, 15.0
37, 15.0
38, 16.0
39, 17.0
40, 17.0
41, 18.0
42, 18.0
43, 18.0
44, 18.0
45, 19.0
46, 19.0
47, 19.0
48, 19.0
49, 19.0
50, 20.0
51, 21.0
52, 22.0
53, 22.0
54, 22.0
55, 23.0
56, 24.0
57, 25.0
58, 25.0
59, 26.0
60, 27.0
61, 27.0
62, 28.0
63, 28.0
64, 29.0
65, 29.0
66, 29.0
67, 29.0
68, 29.0
69, 29.0
70, 29.0
71, 29.0
72, 29.0
73, 29.0
74, 29.0
75, 29.0
76, 29.0
77, 29.0
78, 29.0
79, 29.0
80, 29.0
81, 29.0
82, 29.0
83, 29.0
84, 29.0
85, 29.0
86, 29.0
87, 29.0
88, 29.0
89, 29.0
90, 29.0
91, 29.0
92, 29.0
93, 29.0
94, 29.0
95, 29.0
96, 29.0
97, 29.0
98, 29.0
99, 29.0
100, 29.0
101, 29.0
102, 29.0
103, 29.0
104, 29.0
105, 29.0
