i, Result
0, 0.0
1, 0.0
2, 0.0
3, 1.0
4, 1.0
5, 2.0
6, 3.0
7, 3.0
8, 4.0
9, 4.0
10, 5.0
11, 5.0
12, 5.0
13, 5.0
14, 5.0
15, 5.0
16, 5.0
17, 6.0
18, 7.0
19, 8.0
20, 9.0
21, 9.0
22, 10.0
23, 10.0
24, 10.0
25, 10.0
26, 11.0
27, 12.0
28, 12.0
29, 13.0
30, 13.0
31, 14.0
32, 14.0
33, 15.0
34, 16.0
35, 16.0
36, 17.0
37, 18.0
38, 19.0
39, 19.0
40, 20.0
41, 20.0
42, 21.0
43, 22.0
44, 22.0
45, 22.0
46, 22.0
47, 22.0
48, 22.0
49, 23.0
50, 23.0
51, 24.0
52, 25.0
53, 25.0
54, 25.0
55, 26.0
56, 27.0
57, 27.0
58, 27.0
59, 28.0
60, 29.0
61, 29.0
62, 29.0
63, 30.0
64, 31.0
65, 31.0
66, 32.0
67, 33.0
68, 33.0
69, 34.0
70, 34.0
71, 35.0
72, 36.0
73, 37.0
74, 38.0
75, 38.0
76, 38.0
77, 38.0
78, 38.0
79, 38.0
80, 38.0
81, 38.0
82, 38.0
83, 38.0
84, 38.0
85, 38.0
86, 38.0
87, 38.0
88, 38.0
89, 38.0
90, 38.0
91, 38.0
92, 38.0
93, 38.0
94, 38.0
95, 38.0
96, 38.0
97, 38.0
98, 38.0
99, 38.0
100, 38.0
101, 38.0
102, 38.0
103, 38.0
104, 38.0
105, 38.0
