i, Result
0, 0.0
1, 0.0
2, 0.0
3, 0.0
4, 0.0
5, 1.0
6, 2.0
7, 2.0
8, 3.0
9, 4.0
10, 5.0
11, 6.0
12, 6.0
13, 7.0
14, 8.0
15, 9.0
16, 9.0
17, 10.0
18, 11.0
19, 12.0
20, 13.0
21, 14.0
22, 15.0
23, 16.0
24, 16.0
25, 17.0
26, 18.0
27, 18.0
28, 18.0
29, 18.0
30, 19.0
31, 20.0
32, 21.0
33, 22.0
34, 23.0
35, 24.0
36, 25.0
37, 26.0
38, 26.0
39, 27.0
40, 27.0
41, 27.0
42, 27.0
43, 28.0
44, 28.0
45, 29.0
46, 29.0
47, 29.0
48, 30.0
49, 31.0
50, 32.0
51, 33.0
52, 33.0
53, 34.0
54, 34.0
55, 35.0
56, 35.0
57, 36.0
58, 37.0
59, 38.0
60, 39.0
61, 40.0
62, 40.0
63, 40.0
64, 41.0
65, 42.0
66, 43.0
67, 43.0
68, 43.0
69, 43.0
70, 43.0
71, 43.0
72, 43.0
73, 43.0
74, 43.0
75, 43.0
76, 43.0
77, 43.0
78, 43.0
79, 43.0
80, 43.0
81, 43.0
82, 43.0
83, 43.0
84, 43.0
85, 43.0
86, 43.0
87, 43.0
88, 43.0
89, 43.0
90, 43.0
91, 43.0
92, 43.0
93, 43.0
94, 43.0
95, 43.0
96, 43.0
97, 43.0
98, 43.0
99, 43.0
100, 43.0
101, 43.0
102, 43.0
103, 43.0
104, 43.0
105, 43.0
