i, Result
0, 0.0
1, 0.0
2, 0.0
3, 1.0
4, 2.0
5, 3.0
6, 3.0
7, 3.0
8, 4.0
9, 5.0
10, 6.0
11, 7.0
12, 7.0
13, 7.0
14, 7.0
15, 8.0
16, 9.0
17, 9.0
18, 9.0
19, 9.0
20, 10.0
21, 11.0
22, 12.0
23, 13.0
24, 13.0
25, 14.0
26, 15.0
27, 16.0
28, 16.0
29, 17.0
30, 18.0
31, 19.0
32, 20.0
33, 20.0
34, 20.0
35, 21.0
36, 21.0
37, 21.0
38, 22.0
39, 23.0
40, 24.0
41, 25.0
42, 26.0
43, 26.0
44, 26.0
45, 26.0
46, 26.0
47, 26.0
48, 26.0
49, 26.0
50, 26.0
51, 27.0
52, 27.0
53, 27.0
54, 28.0
55, 28.0
56, 28.0
57, 28.0
58, 29.0
59, 29.0
60, 30.0
61, 31.0
62, 31.0
63, 31.0
64, 31.0
65, 32.0
66, 33.0
67, 34.0
68, 34.0
69, 34.0
70, 34.0
71, 34.0
72, 34.0
73, 34.0
74, 34.0
75, 34.0
76, 34.0
77, 34.0
78, 34.0
79, 34.0
80, 34.0
81, 34.0
82, 34.0
83, 34.0
84, 34.0
85, 34.0
86, 34.0
87, 34.0
88, 34.0
89, 34.0
90, 34.0
91, 34.0
92, 34.0
93, 34.0
94, 34.0
95, 34.0
96, 34.0
97, 34.0
98, 34.0
99, 34.0
100, 34.0
101, 34.0
102, 34.0
103, 34.0
104, 34.0
105, 34.0
