i, Result
0, 0.0
1, 0.0
2, 0.0
3, 1.0
4, 1.0
5, 2.0
6, 3.0
7, 4.0
8, 4.0
9, 4.0
10, 5.0
11, 6.0
12, 7.0
13, 8.0
14, 8.0
15, 9.0
16, 10.0
17, 11.0
18, 12.0
19, 12.0
20, 12.0
21, 12.0
22, 13.0
23, 13.0
24, 14.0
25, 14.0
26, 14.0
27, 15.0
28, 16.0
29, 16.0
30, 16.0
31, 16.0
32, 16.0
33, 17.0
34, 17.0
35, 17.0
36, 17.0
37, 17.0
38, 17.0
39, 17.0
40, 17.0
41, 17.0
42, 18.0
43, 18.0
44, 19.0
45, 19.0
46, 20.0
47, 20.0
48, 21.0
49, 21.0
50, 21.0
51, 22.0
52, 22.0
53, 23.0
54, 23.0
55, 24.0
56, 25.0
57, 25.0
58, 25.0
59, 26.0
60, 27.0
61, 28.0
62, 29.0
63, 29.0
64, 29.0
65, 29.0
66, 29.0
67, 30.0
68, 30.0
69, 30.0
70, 30.0
71, 30.0
72, 30.0
73, 30.0
74, 30.0
75, 30.0
76, 30.0
77, 30.0
78, 30.0
79, 30.0
80, 30.0
81, 30.0
82, 30.0
83, 30.0
84, 30.0
85, 30.0
86, 30.0
87, 30.0
88, 30.0
89, 30.0
90, 30.0
91, 30.0
92, 30.0
93, 30.0
94, 30.0
95, 30.0
96, 30.0
97, 30.0
98, 30.0
99, 30.0
100, 30.0
101, 30.0
102, 30.0
103, 30.0
104, 30.0
105, 30.0
