i, Result
0, 0.0
1, 0.0
2, 0.0
3, 1.0
4, 1.0
5, 2.0
6, 3.0
7, 3.0
8, 3.0
9, 3.0
10, 3.0
11, 3.0
12, 3.0
13, 3.0
14, 4.0
15, 4.0
16, 4.0
17, 5.0
18, 6.0
19, 7.0
20, 7.0
21, 7.0
22, 7.0
23, 7.0
24, 7.0
25, 7.0
26, 7.0
27, 7.0
28, 7.0
29, 7.0
30, 8.0
31, 9.0
32, 9.0
33, 9.0
34, 9.0
35, 9.0
36, 9.0
37, 9.0
38, 10.0
39, 11.0
40, 11.0
41, 11.0
42, 11.0
43, 12.0
44, 13.0
45, 14.0
46, 15.0
47, 16.0
48, 16.0
49, 16.0
50, 17.0
51, 18.0
52, 19.0
53, 20.0
54, 21.0
55, 21.0
56, 22.0
57, 22.0
58, 23.0
59, 24.0
60, 24.0
61, 25.0
62, 25.0
63, 25.0
64, 25.0
65, 25.0
66, 25.0
67, 25.0
68, 25.0
69, 25.0
70, 25.0
71, 25.0
72, 25.0
73, 25.0
74, 25.0
75, 25.0
76, 25.0
77, 25.0
78, 25.0
79, 25.0
80, 25.0
81, 25.0
82, 25.0
83, 25.0
84, 25.0
85, 25.0
86, 25.0
87, 25.0
88, 25.0
89, 25.0
90, 25.0
91, 25.0
92, 25.0
93, 25.0
94, 25.0
95, 25.0
96, 25.0
97, 25.0
98, 25.0
99, 25.0
100, 25.0
101, 25.0
102, 25.0
103, 25.0
104, 25.0
105, 25.0
