i, Result
0, 0.0
1, 0.0
2, 0.0
3, 0.0
4, 1.0
5, 2.0
6, 3.0
7, 3.0
8, 3.0
9, 4.0
10, 4.0
11, 5.0
12, 5.0
13, 5.0
14, 6.0
15, 7.0
16, 8.0
17, 8.0
18, 8.0
19, 9.0
20, 10.0
21, 11.0
22, 12.0
23, 13.0
24, 13.0
25, 13.0
26, 14.0
27, 14.0
28, 15.0
29, 16.0
30, 17.0
31, 18.0
32, 18.0
33, 19.0
34, 19.0
35, 20.0
36, 21.0
37, 22.0
38, 23.0
39, 24.0
40, 24.0
41, 24.0
42, 24.0
43, 25.0
44, 25.0
45, 26.0
46, 27.0
47, 28.0
48, 29.0
49, 29.0
50, 29.0
51, 29.0
52, 30.0
53, 31.0
54, 32.0
55, 33.0
56, 33.0
57, 34.0
58, 35.0
59, 35.0
60, 35.0
61, 36.0
62, 37.0
63, 38.0
64, 39.0
65, 40.0
66, 40.0
67, 41.0
68, 41.0
69, 41.0
70, 42.0
71, 43.0
72, 44.0
73, 45.0
74, 45.0
75, 45.0
76, 45.0
77, 45.0
78, 45.0
79, 45.0
80, 45.0
81, 45.0
82, 45.0
83, 45.0
84, 45.0
85, 45.0
86, 45.0
87, 45.0
88, 45.0
89, 45.0
90, 45.0
91, 45.0
92, 45.0
93, 45.0
94, 45.0
95, 45.0
96, 45.0
97, 45.0
98, 45.0
99, 45.0
100, 45.0
101, 45.0
102, 45.0
103, 45.0
104, 45.0
105, 45.0
