i, Result
0, 0.0
1, 0.0
2, 0.0
3, 0.0
4, 0.0
5, 0.0
6, 1.0
7, 1.0
8, 1.0
9, 2.0
10, 2.0
11, 2.0
12, 2.0
13, 3.0
14, 3.0
15, 4.0
16, 5.0
17, 5.0
18, 5.0
19, 6.0
20, 6.0
21, 7.0
22, 8.0
23, 8.0
24, 9.0
25, 9.0
26, 10.0
27, 10.0
28, 10.0
29, 10.0
30, 10.0
31, 11.0
32, 11.0
33, 12.0
34, 12.0
35, 13.0
36, 14.0
37, 14.0
38, 14.0
39, 14.0
40, 15.0
41, 16.0
42, 16.0
43, 16.0
44, 16.0
45, 16.0
46, 17.0
47, 18.0
48, 19.0
49, 19.0
50, 20.0
51, 20.0
52, 21.0
53, 21.0
54, 21.0
55, 21.0
56, 21.0
57, 21.0
58, 21.0
59, 22.0
60, 23.0
61, 24.0
62, 24.0
63, 25.0
64, 25.0
65, 25.0
66, 25.0
67, 26.0
68, 26.0
69, 26.0
70, 26.0
71, 26.0
72, 26.0
73, 26.0
74, 26.0
75, 26.0
76, 26.0
77, 26.0
78, 26.0
79, 26.0
80, 26.0
81, 26.0
82, 26.0
83, 26.0
84, 26.0
85, 26.0
86, 26.0
87, 26.0
88, 26.0
89, 26.0
90, 26.0
91, 26.0
92, 26.0
93, 26.0
94, 26.0
95, 26.0
96, 26.0
97, 26.0
98, 26.0
99, 26.0
100, 26.0
101, 26.0
102, 26.0
103, 26.0
104, 26.0
105, 26.0
