i, Result
0, 0.0
1, 0.0
2, 0.0
3, 1.0
4, 2.0
5, 3.0
6, 4.0
7, 5.0
8, 6.0
9, 7.0
10, 8.0
11, 8.0
12, 8.0
13, 9.0
14, 9.0
15, 10.0
16, 10.0
17, 10.0
18, 10.0
19, 11.0
20, 11.0
21, 11.0
22, 11.0
23, 12.0
24, 12.0
25, 13.0
26, 13.0
27, 13.0
28, 14.0
29, 14.0
30, 15.0
31, 15.0
32, 16.0
33, 17.0
34, 17.0
35, 18.0
36, 19.0
37, 19.0
38, 19.0
39, 19.0
40, 19.0
41, 19.0
42, 19.0
43, 20.0
44, 21.0
45, 22.0
46, 23.0
47, 24.0
48, 25.0
49, 26.0
50, 26.0
51, 27.0
52, 27.0
53, 28.0
54, 29.0
55, 30.0
56, 30.0
57, 31.0
58, 31.0
59, 31.0
60, 31.0
61, 31.0
62, 31.0
63, 32.0
64, 32.0
65, 33.0
66, 34.0
67, 34.0
68, 34.0
69, 34.0
70, 34.0
71, 34.0
72, 34.0
73, 34.0
74, 34.0
75, 34.0
76, 34.0
77, 34.0
78, 34.0
79, 34.0
80, 34.0
81, 34.0
82, 34.0
83, 34.0
84, 34.0
85, 34.0
86, 34.0
87, 34.0
88, 34.0
89, 34.0
90, 34.0
91, 34.0
92, 34.0
93, 34.0
94, 34.0
95, 34.0
96, 34.0
97, 34.0
98, 34.0
99, 34.0
100, 34.0
101, 34.0
102, 34.0
103, 34.0
104, 34.0
105, 34.0
