i, Result
0, 0.0
1, 0.0
2, 0.0
3, 0.0
4, 0.0
5, 1.0
6, 1.0
7, 1.0
8, 1.0
9, 2.0
10, 2.0
11, 2.0
12, 3.0
13, 3.0
14, 4.0
15, 4.0
16, 5.0
17, 5.0
18, 5.0
19, 5.0
20, 6.0
21, 6.0
22, 6.0
23, 7.0
24, 8.0
25, 8.0
26, 8.0
27, 8.0
28, 8.0
29, 9.0
30, 10.0
31, 10.0
32, 11.0
33, 12.0
34, 12.0
35, 12.0
36, 12.0
37, 13.0
38, 13.0
39, 14.0
40, 14.0
41, 15.0
42, 15.0
43, 16.0
44, 16.0
45, 16.0
46, 17.0
47, 18.0
48, 18.0
49, 19.0
50, 19.0
51, 19.0
52, 19.0
53, 19.0
54, 20.0
55, 21.0
56, 22.0
57, 22.0
58, 23.0
59, 23.0
60, 24.0
61, 24.0
62, 24.0
63, 25.0
64, 25.0
65, 26.0
66, 27.0
67, 27.0
68, 28.0
69, 29.0
70, 30.0
71, 30.0
72, 30.0
73, 30.0
74, 30.0
75, 30.0
76, 30.0
77, 30.0
78, 30.0
79, 30.0
80, 30.0
81, 30.0
82, 30.0
83, 30.0
84, 30.0
85, 30.0
86, 30.0
87, 30.0
88, 30.0
89, 30.0
90, 30.0
91, 30.0
92, 30.0
93, 30.0
94, 30.0
95, 30.0
96, 30.0
97, 30.0
98, 30.0
99, 30.0
100, 30.0
101, 30.0
102, 30.0
103, 30.0
104, 30.0
105, 30.0
