i, Result
0, 0.0
1, 0.0
2, 0.0
3, 1.0
4, 2.0
5, 2.0
6, 2.0
7, 3.0
8, 3.0
9, 4.0
10, 5.0
11, 5.0
12, 6.0
13, 7.0
14, 7.0
15, 7.0
16, 7.0
17, 7.0
18, 7.0
19, 7.0
20, 8.0
21, 8.0
22, 9.0
23, 10.0
24, 10.0
25, 11.0
26, 12.0
27, 13.0
28, 13.0
29, 14.0
30, 14.0
31, 14.0
32, 15.0
33, 16.0
34, 16.0
35, 17.0
36, 17.0
37, 17.0
38, 18.0
39, 18.0
40, 18.0
41, 18.0
42, 19.0
43, 19.0
44, 20.0
45, 21.0
46, 22.0
47, 23.0
48, 24.0
49, 24.0
50, 25.0
51, 25.0
52, 26.0
53, 26.0
54, 27.0
55, 27.0
56, 27.0
57, 28.0
58, 29.0
59, 29.0
60, 29.0
61, 29.0
62, 30.0
63, 31.0
64, 32.0
65, 33.0
66, 34.0
67, 35.0
68, 36.0
69, 37.0
70, 38.0
71, 38.0
72, 38.0
73, 39.0
74, 39.0
75, 39.0
76, 39.0
77, 39.0
78, 39.0
79, 39.0
80, 39.0
81, 39.0
82, 39.0
83, 39.0
84, 39.0
85, 39.0
86, 39.0
87, 39.0
88, 39.0
89, 39.0
90, 39.0
91, 39.0
92, 39.0
93, 39.0
94, 39.0
95, 39.0
96, 39.0
97, 39.0
98, 39.0
99, 39.0
100, 39.0
101, 39.0
102, 39.0
103, 39.0
104, 39.0
105, 39.0
