i, Result
0, 0.0
1, 0.0
2, 0.0
3, 0.0
4, 0.0
5, 0.0
6, 1.0
7, 1.0
8, 2.0
9, 2.0
10, 2.0
11, 2.0
12, 3.0
13, 3.0
14, 3.0
15, 4.0
16, 4.0
17, 4.0
18, 4.0
19, 4.0
20, 5.0
21, 5.0
22, 5.0
23, 6.0
24, 7.0
25, 7.0
26, 7.0
27, 7.0
28, 8.0
29, 8.0
30, 8.0
31, 9.0
32, 9.0
33, 10.0
34, 11.0
35, 11.0
36, 12.0
37, 12.0
38, 13.0
39, 14.0
40, 14.0
41, 14.0
42, 14.0
43, 15.0
44, 16.0
45, 17.0
46, 17.0
47, 17.0
48, 17.0
49, 17.0
50, 18.0
51, 18.0
52, 18.0
53, 18.0
54, 19.0
55, 20.0
56, 21.0
57, 21.0
58, 22.0
59, 23.0
60, 23.0
61, 24.0
62, 24.0
63, 25.0
64, 25.0
65, 26.0
66, 27.0
67, 28.0
68, 29.0
69, 30.0
70, 30.0
71, 31.0
72, 31.0
73, 31.0
74, 31.0
75, 31.0
76, 31.0
77, 31.0
78, 31.0
79, 31.0
80, 31.0
81, 31.0
82, 31.0
83, 31.0
84, 31.0
85, 31.0
86, 31.0
87, 31.0
88, 31.0
89, 31.0
90, 31.0
91, 31.0
92, 31.0
93, 31.0
94, 31.0
95, 31.0
96, 31.0
97, 31.0
98, 31.0
99, 31.0
100, 31.0
101, 31.0
102, 31.0
103, 31.0
104, 31.0
105, 31.0
