i, Result
0, 0.0
1, 0.0
2, 0.0
3, 1.0
4, 1.0
5, 2.0
6, 2.0
7, 2.0
8, 3.0
9, 4.0
10, 5.0
11, 5.0
12, 6.0
13, 7.0
14, 7.0
15, 7.0
16, 7.0
17, 8.0
18, 9.0
19, 9.0
20, 9.0
21, 10.0
22, 10.0
23, 11.0
24, 11.0
25, 11.0
26, 11.0
27, 12.0
28, 13.0
29, 14.0
30, 14.0
31, 14.0
32, 14.0
33, 15.0
34, 15.0
35, 15.0
36, 16.0
37, 17.0
38, 18.0
39, 19.0
40, 20.0
41, 21.0
42, 22.0
43, 23.0
44, 23.0
45, 23.0
46, 23.0
47, 23.0
48, 23.0
49, 23.0
50, 23.0
51, 23.0
52, 24.0
53, 25.0
54, 26.0
55, 27.0
56, 27.0
57, 27.0
58, 28.0
59, 28.0
60, 29.0
61, 29.0
62, 29.0
63, 30.0
64, 31.0
65, 32.0
66, 33.0
67, 34.0
68, 34.0
69, 34.0
70, 34.0
71, 34.0
72, 34.0
73, 34.0
74, 34.0
75, 34.0
76, 34.0
77, 34.0
78, 34.0
79, 34.0
80, 34.0
81, 34.0
82, 34.0
83, 34.0
84, 34.0
85, 34.0
86, 34.0
87, 34.0
88, 34.0
89, 34.0
90, 34.0
91, 34.0
92, 34.0
93, 34.0
94, 34.0
95, 34.0
96, 34.0
97, 34.0
98, 34.0
99, 34.0
100, 34.0
101, 34.0
102, 34.0
103, 34.0
104, 34.0
105, 34.0
