i, Result
0, 0.0
1, 0.0
2, 0.0
3, 0.0
4, 1.0
5, 1.0
6, 1.0
7, 1.0
8, 2.0
9, 2.0
10, 2.0
11, 3.0
12, 4.0
13, 5.0
14, 6.0
15, 7.0
16, 8.0
17, 9.0
18, 10.0
19, 10.0
20, 10.0
21, 11.0
22, 12.0
23, 13.0
24, 13.0
25, 14.0
26, 14.0
27, 15.0
28, 16.0
29, 17.0
30, 17.0
31, 18.0
32, 19.0
33, 20.0
34, 21.0
35, 22.0
36, 23.0
37, 23.0
38, 23.0
39, 24.0
40, 25.0
41, 25.0
42, 25.0
43, 25.0
44, 26.0
45, 26.0
46, 26.0
47, 26.0
48, 26.0
49, 27.0
50, 27.0
51, 28.0
52, 28.0
53, 29.0
54, 30.0
55, 30.0
56, 31.0
57, 31.0
58, 31.0
59, 32.0
60, 33.0
61, 33.0
62, 34.0
63, 34.0
64, 34.0
65, 34.0
66, 34.0
67, 34.0
68, 34.0
69, 34.0
70, 34.0
71, 34.0
72, 34.0
73, 34.0
74, 34.0
75, 34.0
76, 34.0
77, 34.0
78, 34.0
79, 34.0
80, 34.0
81, 34.0
82, 34.0
83, 34.0
84, 34.0
85, 34.0
86, 34.0
87, 34.0
88, 34.0
89, 34.0
90, 34.0
91, 34.0
92, 34.0
93, 34.0
94, 34.0
95, 34.0
96, 34.0
97, 34.0
98, 34.0
99, 34.0
100, 34.0
101, 34.0
102, 34.0
103, 34.0
104, 34.0
105, 34.0
