i, Result
0, 0.0
1, 0.0
2, 0.0
3, 1.0
4, 1.0
5, 2.0
6, 3.0
7, 4.0
8, 4.0
9, 5.0
10, 6.0
11, 6.0
12, 7.0
13, 8.0
14, 9.0
15, 10.0
16, 10.0
17, 10.0
18, 10.0
19, 10.0
20, 11.0
21, 11.0
22, 11.0
23, 11.0
24, 12.0
25, 12.0
26, 12.0
27, 12.0
28, 12.0
29, 12.0
30, 12.0
31, 12.0
32, 12.0
33, 12.0
34, 13.0
35, 14.0
36, 14.0
37, 15.0
38, 15.0
39, 16.0
40, 16.0
41, 17.0
42, 18.0
43, 18.0
44, 19.0
45, 20.0
46, 21.0
47, 21.0
48, 21.0
49, 21.0
50, 21.0
51, 21.0
52, 21.0
53, 21.0
54, 21.0
55, 22.0
56, 22.0
57, 22.0
58, 22.0
59, 22.0
60, 23.0
61, 24.0
62, 24.0
63, 24.0
64, 24.0
65, 24.0
66, 24.0
67, 24.0
68, 24.0
69, 24.0
70, 24.0
71, 24.0
72, 24.0
73, 24.0
74, 24.0
75, 24.0
76, 24.0
77, 24.0
78, 24.0
79, 24.0
80, 24.0
81, 24.0
82, 24.0
83, 24.0
84, 24.0
85, 24.0
86, 24.0
87, 24.0
88, 24.0
89, 24.0
90, 24.0
91, 24.0
92, 24.0
93, 24.0
94, 24.0
95, 24.0
96, 24.0
97, 24.0
98, 24.0
99, 24.0
100, 24.0
101, 24.0
102, 24.0
103, 24.0
104, 24.0
105, 24.0
