i, Result
0, 0.0
1, 0.0
2, 0.0
3, 1.0
4, 1.0
5, 2.0
6, 3.0
7, 4.0
8, 4.0
9, 4.0
10, 5.0
11, 6.0
12, 6.0
13, 7.0
14, 8.0
15, 9.0
16, 9.0
17, 10.0
18, 10.0
19, 10.0
20, 10.0
21, 11.0
22, 12.0
23, 12.0
24, 13.0
25, 13.0
26, 14.0
27, 15.0
28, 16.0
29, 16.0
30, 17.0
31, 18.0
32, 19.0
33, 20.0
34, 21.0
35, 22.0
36, 22.0
37, 23.0
38, 23.0
39, 24.0
40, 25.0
41, 26.0
42, 27.0
43, 27.0
44, 28.0
45, 29.0
46, 30.0
47, 31.0
48, 32.0
49, 33.0
50, 34.0
51, 34.0
52, 34.0
53, 34.0
54, 35.0
55, 35.0
56, 36.0
57, 37.0
58, 37.0
59, 38.0
60, 39.0
61, 40.0
62, 41.0
63, 41.0
64, 42.0
65, 42.0
66, 43.0
67, 43.0
68, 44.0
69, 44.0
70, 45.0
71, 46.0
72, 47.0
73, 48.0
74, 48.0
75, 49.0
76, 49.0
77, 49.0
78, 49.0
79, 49.0
80, 49.0
81, 49.0
82, 49.0
83, 49.0
84, 49.0
85, 49.0
86, 49.0
87, 49.0
88, 49.0
89, 49.0
90, 49.0
91, 49.0
92, 49.0
93, 49.0
94, 49.0
95, 49.0
96, 49.0
97, 49.0
98, 49.0
99, 49.0
100, 49.0
101, 49.0
102, 49.0
103, 49.0
104, 49.0
105, 49.0
