i, Result
0, 0.0
1, 0.0
2, 0.0
3, 1.0
4, 1.0
5, 2.0
6, 3.0
7, 3.0
8, 4.0
9, 4.0
10, 4.0
11, 4.0
12, 4.0
13, 4.0
14, 5.0
15, 5.0
16, 5.0
17, 5.0
18, 5.0
19, 5.0
20, 5.0
21, 6.0
22, 7.0
23, 8.0
24, 9.0
25, 10.0
26, 11.0
27, 12.0
28, 13.0
29, 14.0
30, 14.0
31, 15.0
32, 16.0
33, 17.0
34, 18.0
35, 19.0
36, 19.0
37, 20.0
38, 21.0
39, 22.0
40, 22.0
41, 22.0
42, 22.0
43, 23.0
44, 23.0
45, 23.0
46, 23.0
47, 23.0
48, 24.0
49, 24.0
50, 25.0
51, 25.0
52, 26.0
53, 26.0
54, 26.0
55, 27.0
56, 28.0
57, 29.0
58, 30.0
59, 31.0
60, 32.0
61, 33.0
62, 33.0
63, 33.0
64, 34.0
65, 34.0
66, 34.0
67, 35.0
68, 36.0
69, 37.0
70, 38.0
71, 38.0
72, 39.0
73, 40.0
74, 41.0
75, 42.0
76, 43.0
77, 43.0
78, 43.0
79, 43.0
80, 43.0
81, 43.0
82, 43.0
83, 43.0
84, 43.0
85, 43.0
86, 43.0
87, 43.0
88, 43.0
89, 43.0
90, 43.0
91, 43.0
92, 43.0
93, 43.0
94, 43.0
95, 43.0
96, 43.0
97, 43.0
98, 43.0
99, 43.0
100, 43.0
101, 43.0
102, 43.0
103, 43.0
104, 43.0
105, 43.0
