i, Result
0, 0.0
1, 0.0
2, 0.0
3, 0.0
4, 0.0
5, 0.0
6, 1.0
7, 1.0
8, 1.0
9, 1.0
10, 1.0
11, 2.0
12, 2.0
13, 2.0
14, 2.0
15, 3.0
16, 3.0
17, 4.0
18, 4.0
19, 5.0
20, 5.0
21, 6.0
22, 7.0
23, 7.0
24, 8.0
25, 8.0
26, 9.0
27, 10.0
28, 10.0
29, 11.0
30, 11.0
31, 11.0
32, 12.0
33, 12.0
34, 13.0
35, 14.0
36, 14.0
37, 15.0
38, 15.0
39, 16.0
40, 16.0
41, 17.0
42, 18.0
43, 19.0
44, 20.0
45, 21.0
46, 21.0
47, 21.0
48, 22.0
49, 22.0
50, 22.0
51, 23.0
52, 24.0
53, 25.0
54, 26.0
55, 27.0
56, 27.0
57, 28.0
58, 29.0
59, 30.0
60, 30.0
61, 30.0
62, 30.0
63, 31.0
64, 32.0
65, 32.0
66, 33.0
67, 33.0
68, 34.0
69, 34.0
70, 34.0
71, 35.0
72, 35.0
73, 35.0
74, 35.0
75, 35.0
76, 36.0
77, 36.0
78, 36.0
79, 36.0
80, 36.0
81, 36.0
82, 36.0
83, 36.0
84, 36.0
85, 36.0
86, 36.0
87, 36.0
88, 36.0
89, 36.0
90, 36.0
91, 36.0
92, 36.0
93, 36.0
94, 36.0
95, 36.0
96, 36.0
97, 36.0
98, 36.0
99, 36.0
100, 36.0
101, 36.0
102, 36.0
103, 36.0
104, 36.0
105, 36.0
