i, Result
0, 0.0
1, 0.0
2, 0.0
3, 0.0
4, 0.0
5, 0.0
6, 0.0
7, 1.0
8, 1.0
9, 2.0
10, 2.0
11, 3.0
12, 3.0
13, 4.0
14, 4.0
15, 4.0
16, 5.0
17, 5.0
18, 5.0
19, 5.0
20, 5.0
21, 5.0
22, 5.0
23, 5.0
24, 6.0
25, 7.0
26, 8.0
27, 8.0
28, 8.0
29, 8.0
30, 9.0
31, 9.0
32, 10.0
33, 10.0
34, 10.0
35, 10.0
36, 11.0
37, 11.0
38, 12.0
39, 13.0
40, 13.0
41, 14.0
42, 15.0
43, 16.0
44, 16.0
45, 17.0
46, 18.0
47, 19.0
48, 19.0
49, 20.0
50, 21.0
51, 22.0
52, 23.0
53, 23.0
54, 23.0
55, 23.0
56, 24.0
57, 24.0
58, 25.0
59, 25.0
60, 25.0
61, 26.0
62, 27.0
63, 28.0
64, 29.0
65, 29.0
66, 29.0
67, 30.0
68, 31.0
69, 32.0
70, 32.0
71, 32.0
72, 32.0
73, 32.0
74, 32.0
75, 32.0
76, 32.0
77, 32.0
78, 32.0
79, 32.0
80, 32.0
81, 32.0
82, 32.0
83, 32.0
84, 32.0
85, 32.0
86, 32.0
87, 32.0
88, 32.0
89, 32.0
90, 32.0
91, 32.0
92, 32.0
93, 32.0
94, 32.0
95, 32.0
96, 32.0
97, 32.0
98, 32.0
99, 32.0
100, 32.0
101, 32.0
102, 32.0
103, 32.0
104, 32.0
105, 32.0
