i, Result
0, 0.0
1, 0.0
2, 0.0
3, 0.0
4, 1.0
5, 2.0
6, 2.0
7, 3.0
8, 4.0
9, 4.0
10, 5.0
11, 5.0
12, 6.0
13, 6.0
14, 6.0
15, 6.0
16, 7.0
17, 7.0
18, 7.0
19, 7.0
20, 7.0
21, 8.0
22, 8.0
23, 8.0
24, 8.0
25, 8.0
26, 8.0
27, 8.0
28, 8.0
29, 9.0
30, 9.0
31, 10.0
32, 10.0
33, 10.0
34, 10.0
35, 10.0
36, 11.0
37, 12.0
38, 12.0
39, 12.0
40, 13.0
41, 13.0
42, 14.0
43, 14.0
44, 14.0
45, 14.0
46, 14.0
47, 14.0
48, 14.0
49, 14.0
50, 15.0
51, 15.0
52, 16.0
53, 16.0
54, 17.0
55, 18.0
56, 19.0
57, 19.0
58, 20.0
59, 20.0
60, 21.0
61, 21.0
62, 21.0
63, 21.0
64, 21.0
65, 21.0
66, 21.0
67, 21.0
68, 21.0
69, 21.0
70, 21.0
71, 21.0
72, 21.0
73, 21.0
74, 21.0
75, 21.0
76, 21.0
77, 21.0
78, 21.0
79, 21.0
80, 21.0
81, 21.0
82, 21.0
83, 21.0
84, 21.0
85, 21.0
86, 21.0
87, 21.0
88, 21.0
89, 21.0
90, 21.0
91, 21.0
92, 21.0
93, 21.0
94, 21.0
95, 21.0
96, 21.0
97, 21.0
98, 21.0
99, 21.0
100, 21.0
101, 21.0
102, 21.0
103, 21.0
104, 21.0
105, 21.0
