i, Result
0, 0.0
1, 0.0
2, 0.0
3, 1.0
4, 1.0
5, 1.0
6, 1.0
7, 1.0
8, 1.0
9, 1.0
10, 1.0
11, 1.0
12, 1.0
13, 2.0
14, 2.0
15, 3.0
16, 4.0
17, 5.0
18, 6.0
19, 7.0
20, 7.0
21, 7.0
22, 8.0
23, 9.0
24, 9.0
25, 10.0
26, 10.0
27, 10.0
28, 11.0
29, 11.0
30, 11.0
31, 11.0
32, 12.0
33, 12.0
34, 13.0
35, 13.0
36, 13.0
37, 13.0
38, 14.0
39, 14.0
40, 15.0
41, 16.0
42, 17.0
43, 17.0
44, 17.0
45, 17.0
46, 17.0
47, 18.0
48, 19.0
49, 20.0
50, 21.0
51, 21.0
52, 22.0
53, 23.0
54, 24.0
55, 24.0
56, 24.0
57, 24.0
58, 25.0
59, 26.0
60, 27.0
61, 27.0
62, 28.0
63, 28.0
64, 28.0
65, 28.0
66, 28.0
67, 29.0
68, 30.0
69, 30.0
70, 31.0
71, 31.0
72, 31.0
73, 31.0
74, 31.0
75, 31.0
76, 31.0
77, 31.0
78, 31.0
79, 31.0
80, 31.0
81, 31.0
82, 31.0
83, 31.0
84, 31.0
85, 31.0
86, 31.0
87, 31.0
88, 31.0
89, 31.0
90, 31.0
91, 31.0
92, 31.0
93, 31.0
94, 31.0
95, 31.0
96, 31.0
97, 31.0
98, 31.0
99, 31.0
100, 31.0
101, 31.0
102, 31.0
103, 31.0
104, 31.0
105, 31.0
