i, Result
0, 0.0
1, 0.0
2, 0.0
3, 0.0
4, 1.0
5, 1.0
6, 1.0
7, 1.0
8, 2.0
9, 2.0
10, 2.0
11, 2.0
12, 3.0
13, 3.0
14, 4.0
15, 4.0
16, 4.0
17, 4.0
18, 4.0
19, 4.0
20, 5.0
21, 5.0
22, 5.0
23, 6.0
24, 7.0
25, 7.0
26, 7.0
27, 8.0
28, 8.0
29, 8.0
30, 8.0
31, 8.0
32, 9.0
33, 10.0
34, 10.0
35, 11.0
36, 12.0
37, 12.0
38, 12.0
39, 13.0
40, 13.0
41, 13.0
42, 13.0
43, 13.0
44, 14.0
45, 14.0
46, 14.0
47, 14.0
48, 14.0
49, 15.0
50, 16.0
51, 16.0
52, 17.0
53, 17.0
54, 17.0
55, 18.0
56, 19.0
57, 19.0
58, 20.0
59, 20.0
60, 20.0
61, 20.0
62, 20.0
63, 20.0
64, 20.0
65, 20.0
66, 20.0
67, 20.0
68, 20.0
69, 20.0
70, 20.0
71, 20.0
72, 20.0
73, 20.0
74, 20.0
75, 20.0
76, 20.0
77, 20.0
78, 20.0
79, 20.0
80, 20.0
81, 20.0
82, 20.0
83, 20.0
84, 20.0
85, 20.0
86, 20.0
87, 20.0
88, 20.0
89, 20.0
90, 20.0
91, 20.0
92, 20.0
93, 20.0
94, 20.0
95, 20.0
96, 20.0
97, 20.0
98, 20.0
99, 20.0
100, 20.0
101, 20.0
102, 20.0
103, 20.0
104, 20.0
105, 20.0
