i, Result
0, 0.0
1, 0.0
2, 0.0
3, 1.0
4, 2.0
5, 3.0
6, 3.0
7, 3.0
8, 3.0
9, 4.0
10, 4.0
11, 4.0
12, 5.0
13, 6.0
14, 7.0
15, 7.0
16, 7.0
17, 7.0
18, 7.0
19, 7.0
20, 8.0
21, 8.0
22, 8.0
23, 8.0
24, 9.0
25, 10.0
26, 11.0
27, 12.0
28, 12.0
29, 13.0
30, 13.0
31, 13.0
32, 14.0
33, 15.0
34, 15.0
35, 15.0
36, 15.0
37, 15.0
38, 16.0
39, 17.0
40, 18.0
41, 19.0
42, 19.0
43, 19.0
44, 19.0
45, 20.0
46, 21.0
47, 22.0
48, 22.0
49, 23.0
50, 23.0
51, 24.0
52, 25.0
53, 25.0
54, 26.0
55, 26.0
56, 26.0
57, 27.0
58, 27.0
59, 28.0
60, 28.0
61, 28.0
62, 29.0
63, 30.0
64, 30.0
65, 30.0
66, 31.0
67, 31.0
68, 32.0
69, 32.0
70, 33.0
71, 33.0
72, 33.0
73, 33.0
74, 33.0
75, 33.0
76, 33.0
77, 33.0
78, 33.0
79, 33.0
80, 33.0
81, 33.0
82, 33.0
83, 33.0
84, 33.0
85, 33.0
86, 33.0
87, 33.0
88, 33.0
89, 33.0
90, 33.0
91, 33.0
92, 33.0
93, 33.0
94, 33.0
95, 33.0
96, 33.0
97, 33.0
98, 33.0
99, 33.0
100, 33.0
101, 33.0
102, 33.0
103, 33.0
104, 33.0
105, 33.0
