i, Result
0, 0.0
1, 0.0
2, 0.0
3, 0.0
4, 0.0
5, 0.0
6, 0.0
7, 0.0
8, 1.0
9, 2.0
10, 2.0
11, 2.0
12, 2.0
13, 2.0
14, 3.0
15, 3.0
16, 3.0
17, 4.0
18, 5.0
19, 5.0
20, 5.0
21, 6.0
22, 6.0
23, 7.0
24, 8.0
25, 9.0
26, 10.0
27, 10.0
28, 11.0
29, 12.0
30, 13.0
31, 14.0
32, 15.0
33, 16.0
34, 16.0
35, 16.0
36, 17.0
37, 18.0
38, 18.0
39, 18.0
40, 18.0
41, 19.0
42, 19.0
43, 19.0
44, 19.0
45, 19.0
46, 20.0
47, 21.0
48, 22.0
49, 23.0
50, 23.0
51, 24.0
52, 24.0
53, 25.0
54, 25.0
55, 26.0
56, 27.0
57, 27.0
58, 27.0
59, 28.0
60, 29.0
61, 30.0
62, 31.0
63, 32.0
64, 33.0
65, 33.0
66, 34.0
67, 34.0
68, 35.0
69, 36.0
70, 36.0
71, 36.0
72, 36.0
73, 37.0
74, 38.0
75, 38.0
76, 38.0
77, 38.0
78, 38.0
79, 38.0
80, 38.0
81, 38.0
82, 38.0
83, 38.0
84, 38.0
85, 38.0
86, 38.0
87, 38.0
88, 38.0
89, 38.0
90, 38.0
91, 38.0
92, 38.0
93, 38.0
94, 38.0
95, 38.0
96, 38.0
97, 38.0
98, 38.0
99, 38.0
100, 38.0
101, 38.0
102, 38.0
103, 38.0
104, 38.0
105, 38.0
