i, Result
0, 0.0
1, 0.0
2, 0.0
3, 1.0
4, 2.0
5, 2.0
6, 3.0
7, 3.0
8, 4.0
9, 5.0
10, 6.0
11, 6.0
12, 7.0
13, 8.0
14, 9.0
15, 10.0
16, 10.0
17, 11.0
18, 12.0
19, 12.0
20, 12.0
21, 13.0
22, 13.0
23, 14.0
24, 15.0
25, 16.0
26, 17.0
27, 18.0
28, 19.0
29, 19.0
30, 20.0
31, 20.0
32, 20.0
33, 20.0
34, 21.0
35, 22.0
36, 23.0
37, 23.0
38, 23.0
39, 23.0
40, 23.0
41, 23.0
42, 23.0
43, 23.0
44, 23.0
45, 24.0
46, 24.0
47, 25.0
48, 25.0
49, 26.0
50, 26.0
51, 26.0
52, 27.0
53, 27.0
54, 28.0
55, 29.0
56, 29.0
57, 30.0
58, 31.0
59, 32.0
60, 33.0
61, 34.0
62, 34.0
63, 34.0
64, 35.0
65, 36.0
66, 37.0
67, 37.0
68, 37.0
69, 37.0
70, 37.0
71, 38.0
72, 38.0
73, 38.0
74, 38.0
75, 38.0
76, 38.0
77, 38.0
78, 38.0
79, 38.0
80, 38.0
81, 38.0
82, 38.0
83, 38.0
84, 38.0
85, 38.0
86, 38.0
87, 38.0
88, 38.0
89, 38.0
90, 38.0
91, 38.0
92, 38.0
93, 38.0
94, 38.0
95, 38.0
96, 38.0
97, 38.0
98, 38.0
99, 38.0
100, 38.0
101, 38.0
102, 38.0
103, 38.0
104, 38.0
105, 38.0
