i, Result
0, 0.0
1, 0.0
2, 0.0
3, 0.0
4, 0.0
5, 0.0
6, 1.0
7, 1.0
8, 1.0
9, 2.0
10, 2.0
11, 2.0
12, 2.0
13, 2.0
14, 2.0
15, 2.0
16, 3.0
17, 3.0
18, 4.0
19, 5.0
20, 5.0
21, 5.0
22, 5.0
23, 5.0
24, 6.0
25, 7.0
26, 8.0
27, 8.0
28, 8.0
29, 8.0
30, 8.0
31, 8.0
32, 9.0
33, 10.0
34, 10.0
35, 11.0
36, 11.0
37, 11.0
38, 12.0
39, 13.0
40, 14.0
41, 14.0
42, 14.0
43, 14.0
44, 14.0
45, 15.0
46, 16.0
47, 16.0
48, 16.0
49, 17.0
50, 18.0
51, 19.0
52, 20.0
53, 21.0
54, 22.0
55, 23.0
56, 24.0
57, 25.0
58, 25.0
59, 26.0
60, 27.0
61, 28.0
62, 29.0
63, 29.0
64, 30.0
65, 31.0
66, 31.0
67, 31.0
68, 31.0
69, 31.0
70, 31.0
71, 31.0
72, 31.0
73, 31.0
74, 31.0
75, 31.0
76, 31.0
77, 31.0
78, 31.0
79, 31.0
80, 31.0
81, 31.0
82, 31.0
83, 31.0
84, 31.0
85, 31.0
86, 31.0
87, 31.0
88, 31.0
89, 31.0
90, 31.0
91, 31.0
92, 31.0
93, 31.0
94, 31.0
95, 31.0
96, 31.0
97, 31.0
98, 31.0
99, 31.0
100, 31.0
101, 31.0
102, 31.0
103, 31.0
104, 31.0
105, 31.0
