i, Result
0, 0.0
1, 0.0
2, 0.0
3, 0.0
4, 0.0
5, 1.0
6, 1.0
7, 1.0
8, 1.0
9, 2.0
10, 3.0
11, 3.0
12, 4.0
13, 4.0
14, 5.0
15, 6.0
16, 7.0
17, 7.0
18, 8.0
19, 8.0
20, 8.0
21, 8.0
22, 9.0
23, 10.0
24, 11.0
25, 11.0
26, 11.0
27, 11.0
28, 12.0
29, 13.0
30, 14.0
31, 15.0
32, 16.0
33, 16.0
34, 16.0
35, 17.0
36, 18.0
37, 18.0
38, 18.0
39, 19.0
40, 19.0
41, 19.0
42, 20.0
43, 20.0
44, 20.0
45, 21.0
46, 21.0
47, 21.0
48, 21.0
49, 21.0
50, 21.0
51, 22.0
52, 22.0
53, 23.0
54, 24.0
55, 24.0
56, 24.0
57, 24.0
58, 24.0
59, 24.0
60, 24.0
61, 24.0
62, 24.0
63, 24.0
64, 24.0
65, 24.0
66, 24.0
67, 24.0
68, 24.0
69, 24.0
70, 24.0
71, 24.0
72, 24.0
73, 24.0
74, 24.0
75, 24.0
76, 24.0
77, 24.0
78, 24.0
79, 24.0
80, 24.0
81, 24.0
82, 24.0
83, 24.0
84, 24.0
85, 24.0
86, 24.0
87, 24.0
88, 24.0
89, 24.0
90, 24.0
91, 24.0
92, 24.0
93, 24.0
94, 24.0
95, 24.0
96, 24.0
97, 24.0
98, 24.0
99, 24.0
100, 24.0
101, 24.0
102, 24.0
103, 24.0
104, 24.0
105, 24.0
