i, Result
0, 0.0
1, 0.0
2, 0.0
3, 1.0
4, 2.0
5, 3.0
6, 3.0
7, 4.0
8, 4.0
9, 5.0
10, 6.0
11, 6.0
12, 7.0
13, 8.0
14, 9.0
15, 9.0
16, 10.0
17, 11.0
18, 11.0
19, 11.0
20, 12.0
21, 13.0
22, 14.0
23, 15.0
24, 15.0
25, 15.0
26, 16.0
27, 17.0
28, 17.0
29, 17.0
30, 17.0
31, 17.0
32, 17.0
33, 18.0
34, 19.0
35, 19.0
36, 19.0
37, 19.0
38, 20.0
39, 21.0
40, 22.0
41, 23.0
42, 24.0
43, 24.0
44, 24.0
45, 24.0
46, 24.0
47, 24.0
48, 25.0
49, 26.0
50, 26.0
51, 26.0
52, 26.0
53, 26.0
54, 27.0
55, 28.0
56, 28.0
57, 29.0
58, 29.0
59, 29.0
60, 30.0
61, 30.0
62, 31.0
63, 31.0
64, 32.0
65, 33.0
66, 34.0
67, 35.0
68, 36.0
69, 37.0
70, 37.0
71, 38.0
72, 39.0
73, 40.0
74, 41.0
75, 41.0
76, 41.0
77, 41.0
78, 41.0
79, 41.0
80, 41.0
81, 41.0
82, 41.0
83, 41.0
84, 41.0
85, 41.0
86, 41.0
87, 41.0
88, 41.0
89, 41.0
90, 41.0
91, 41.0
92, 41.0
93, 41.0
94, 41.0
95, 41.0
96, 41.0
97, 41.0
98, 41.0
99, 41.0
100, 41.0
101, 41.0
102, 41.0
103, 41.0
104, 41.0
105, 41.0
