i, Result
0, 0.0
1, 0.0
2, 0.0
3, 0.0
4, 0.0
5, 0.0
6, 0.0
7, 0.0
8, 0.0
9, 1.0
10, 2.0
11, 3.0
12, 4.0
13, 4.0
14, 5.0
15, 6.0
16, 6.0
17, 6.0
18, 7.0
19, 7.0
20, 8.0
21, 9.0
22, 9.0
23, 9.0
24, 9.0
25, 9.0
26, 9.0
27, 9.0
28, 10.0
29, 11.0
30, 11.0
31, 11.0
32, 11.0
33, 11.0
34, 11.0
35, 11.0
36, 12.0
37, 13.0
38, 13.0
39, 13.0
40, 13.0
41, 13.0
42, 13.0
43, 14.0
44, 14.0
45, 15.0
46, 15.0
47, 16.0
48, 17.0
49, 18.0
50, 19.0
51, 19.0
52, 19.0
53, 19.0
54, 20.0
55, 20.0
56, 20.0
57, 20.0
58, 20.0
59, 20.0
60, 21.0
61, 21.0
62, 21.0
63, 21.0
64, 21.0
65, 21.0
66, 21.0
67, 21.0
68, 21.0
69, 21.0
70, 21.0
71, 21.0
72, 21.0
73, 21.0
74, 21.0
75, 21.0
76, 21.0
77, 21.0
78, 21.0
79, 21.0
80, 21.0
81, 21.0
82, 21.0
83, 21.0
84, 21.0
85, 21.0
86, 21.0
87, 21.0
88, 21.0
89, 21.0
90, 21.0
91, 21.0
92, 21.0
93, 21.0
94, 21.0
95, 21.0
96, 21.0
97, 21.0
98, 21.0
99, 21.0
100, 21.0
101, 21.0
102, 21.0
103, 21.0
104, 21.0
105, 21.0
