i, Result
0, 0.0
1, 0.0
2, 0.0
3, 1.0
4, 1.0
5, 2.0
6, 3.0
7, 3.0
8, 4.0
9, 4.0
10, 5.0
11, 6.0
12, 6.0
13, 7.0
14, 7.0
15, 7.0
16, 7.0
17, 7.0
18, 8.0
19, 8.0
20, 8.0
21, 8.0
22, 8.0
23, 9.0
24, 10.0
25, 10.0
26, 10.0
27, 11.0
28, 12.0
29, 12.0
30, 12.0
31, 12.0
32, 13.0
33, 14.0
34, 15.0
35, 16.0
36, 17.0
37, 18.0
38, 19.0
39, 20.0
40, 21.0
41, 21.0
42, 22.0
43, 23.0
44, 24.0
45, 25.0
46, 25.0
47, 26.0
48, 26.0
49, 27.0
50, 27.0
51, 28.0
52, 29.0
53, 30.0
54, 30.0
55, 30.0
56, 30.0
57, 30.0
58, 30.0
59, 31.0
60, 31.0
61, 31.0
62, 32.0
63, 32.0
64, 33.0
65, 33.0
66, 34.0
67, 34.0
68, 34.0
69, 34.0
70, 34.0
71, 34.0
72, 34.0
73, 34.0
74, 34.0
75, 34.0
76, 34.0
77, 34.0
78, 34.0
79, 34.0
80, 34.0
81, 34.0
82, 34.0
83, 34.0
84, 34.0
85, 34.0
86, 34.0
87, 34.0
88, 34.0
89, 34.0
90, 34.0
91, 34.0
92, 34.0
93, 34.0
94, 34.0
95, 34.0
96, 34.0
97, 34.0
98, 34.0
99, 34.0
100, 34.0
101, 34.0
102, 34.0
103, 34.0
104, 34.0
105, 34.0
