i, Result
0, 0.0
1, 0.0
2, 0.0
3, 1.0
4, 2.0
5, 3.0
6, 3.0
7, 4.0
8, 5.0
9, 6.0
10, 7.0
11, 7.0
12, 8.0
13, 8.0
14, 9.0
15, 9.0
16, 10.0
17, 10.0
18, 11.0
19, 12.0
20, 12.0
21, 12.0
22, 13.0
23, 14.0
24, 15.0
25, 16.0
26, 17.0
27, 18.0
28, 18.0
29, 19.0
30, 19.0
31, 19.0
32, 19.0
33, 19.0
34, 19.0
35, 19.0
36, 20.0
37, 20.0
38, 20.0
39, 20.0
40, 21.0
41, 21.0
42, 22.0
43, 22.0
44, 23.0
45, 24.0
46, 25.0
47, 25.0
48, 26.0
49, 27.0
50, 28.0
51, 28.0
52, 28.0
53, 29.0
54, 29.0
55, 30.0
56, 30.0
57, 31.0
58, 32.0
59, 33.0
60, 34.0
61, 34.0
62, 34.0
63, 35.0
64, 35.0
65, 35.0
66, 35.0
67, 35.0
68, 35.0
69, 35.0
70, 35.0
71, 35.0
72, 35.0
73, 35.0
74, 35.0
75, 35.0
76, 35.0
77, 35.0
78, 35.0
79, 35.0
80, 35.0
81, 35.0
82, 35.0
83, 35.0
84, 35.0
85, 35.0
86, 35.0
87, 35.0
88, 35.0
89, 35.0
90, 35.0
91, 35.0
92, 35.0
93, 35.0
94, 35.0
95, 35.0
96, 35.0
97, 35.0
98, 35.0
99, 35.0
100, 35.0
101, 35.0
102, 35.0
103, 35.0
104, 35.0
105, 35.0
