i, Result
0, 0.0
1, 0.0
2, 0.0
3, 0.0
4, 1.0
5, 2.0
6, 3.0
7, 3.0
8, 3.0
9, 4.0
10, 5.0
11, 6.0
12, 7.0
13, 8.0
14, 9.0
15, 9.0
16, 9.0
17, 10.0
18, 11.0
19, 11.0
20, 11.0
21, 11.0
22, 12.0
23, 13.0
24, 14.0
25, 14.0
26, 15.0
27, 16.0
28, 16.0
29, 16.0
30, 17.0
31, 17.0
32, 18.0
33, 19.0
34, 20.0
35, 21.0
36, 21.0
37, 22.0
38, 23.0
39, 23.0
40, 24.0
41, 25.0
42, 26.0
43, 27.0
44, 27.0
45, 27.0
46, 27.0
47, 27.0
48, 28.0
49, 29.0
50, 30.0
51, 31.0
52, 32.0
53, 32.0
54, 33.0
55, 33.0
56, 33.0
57, 34.0
58, 34.0
59, 35.0
60, 36.0
61, 37.0
62, 38.0
63, 38.0
64, 39.0
65, 39.0
66, 40.0
67, 41.0
68, 41.0
69, 41.0
70, 42.0
71, 42.0
72, 42.0
73, 42.0
74, 42.0
75, 42.0
76, 42.0
77, 42.0
78, 42.0
79, 42.0
80, 42.0
81, 42.0
82, 42.0
83, 42.0
84, 42.0
85, 42.0
86, 42.0
87, 42.0
88, 42.0
89, 42.0
90, 42.0
91, 42.0
92, 42.0
93, 42.0
94, 42.0
95, 42.0
96, 42.0
97, 42.0
98, 42.0
99, 42.0
100, 42.0
101, 42.0
102, 42.0
103, 42.0
104, 42.0
105, 42.0
