i, Result
0, 0.0
1, 0.0
2, 0.0
3, 1.0
4, 2.0
5, 3.0
6, 4.0
7, 4.0
8, 5.0
9, 5.0
10, 6.0
11, 6.0
12, 6.0
13, 7.0
14, 8.0
15, 9.0
16, 10.0
17, 10.0
18, 11.0
19, 11.0
20, 12.0
21, 13.0
22, 14.0
23, 14.0
24, 14.0
25, 14.0
26, 15.0
27, 15.0
28, 15.0
29, 15.0
30, 15.0
31, 15.0
32, 15.0
33, 15.0
34, 16.0
35, 17.0
36, 17.0
37, 18.0
38, 19.0
39, 20.0
40, 21.0
41, 21.0
42, 21.0
43, 21.0
44, 21.0
45, 22.0
46, 23.0
47, 23.0
48, 23.0
49, 24.0
50, 25.0
51, 26.0
52, 26.0
53, 26.0
54, 26.0
55, 27.0
56, 27.0
57, 27.0
58, 28.0
59, 29.0
60, 30.0
61, 31.0
62, 31.0
63, 31.0
64, 31.0
65, 31.0
66, 31.0
67, 32.0
68, 33.0
69, 34.0
70, 34.0
71, 34.0
72, 34.0
73, 34.0
74, 34.0
75, 34.0
76, 34.0
77, 34.0
78, 34.0
79, 34.0
80, 34.0
81, 34.0
82, 34.0
83, 34.0
84, 34.0
85, 34.0
86, 34.0
87, 34.0
88, 34.0
89, 34.0
90, 34.0
91, 34.0
92, 34.0
93, 34.0
94, 34.0
95, 34.0
96, 34.0
97, 34.0
98, 34.0
99, 34.0
100, 34.0
101, 34.0
102, 34.0
103, 34.0
104, 34.0
105, 34.0
