i, Result
0, 0.0
1, 0.0
2, 0.0
3, 1.0
4, 1.0
5, 1.0
6, 2.0
7, 2.0
8, 3.0
9, 4.0
10, 4.0
11, 5.0
12, 5.0
13, 6.0
14, 6.0
15, 7.0
16, 7.0
17, 7.0
18, 7.0
19, 7.0
20, 8.0
21, 8.0
22, 8.0
23, 8.0
24, 9.0
25, 9.0
26, 10.0
27, 10.0
28, 10.0
29, 10.0
30, 11.0
31, 12.0
32, 12.0
33, 13.0
34, 14.0
35, 15.0
36, 16.0
37, 16.0
38, 17.0
39, 17.0
40, 18.0
41, 18.0
42, 19.0
43, 20.0
44, 21.0
45, 21.0
46, 22.0
47, 23.0
48, 24.0
49, 25.0
50, 25.0
51, 26.0
52, 27.0
53, 27.0
54, 27.0
55, 27.0
56, 28.0
57, 29.0
58, 29.0
59, 29.0
60, 29.0
61, 30.0
62, 30.0
63, 31.0
64, 32.0
65, 32.0
66, 33.0
67, 34.0
68, 34.0
69, 34.0
70, 34.0
71, 34.0
72, 34.0
73, 34.0
74, 34.0
75, 34.0
76, 34.0
77, 34.0
78, 34.0
79, 34.0
80, 34.0
81, 34.0
82, 34.0
83, 34.0
84, 34.0
85, 34.0
86, 34.0
87, 34.0
88, 34.0
89, 34.0
90, 34.0
91, 34.0
92, 34.0
93, 34.0
94, 34.0
95, 34.0
96, 34.0
97, 34.0
98, 34.0
99, 34.0
100, 34.0
101, 34.0
102, 34.0
103, 34.0
104, 34.0
105, 34.0
