i, Result
0, 0.0
1, 0.0
2, 0.0
3, 0.0
4, 0.0
5, 0.0
6, 0.0
7, 1.0
8, 2.0
9, 3.0
10, 3.0
11, 4.0
12, 5.0
13, 5.0
14, 6.0
15, 6.0
16, 7.0
17, 8.0
18, 8.0
19, 9.0
20, 10.0
21, 10.0
22, 10.0
23, 11.0
24, 11.0
25, 12.0
26, 13.0
27, 13.0
28, 14.0
29, 15.0
30, 16.0
31, 17.0
32, 18.0
33, 18.0
34, 18.0
35, 19.0
36, 20.0
37, 20.0
38, 21.0
39, 22.0
40, 23.0
41, 23.0
42, 24.0
43, 25.0
44, 25.0
45, 26.0
46, 27.0
47, 28.0
48, 28.0
49, 28.0
50, 28.0
51, 29.0
52, 30.0
53, 31.0
54, 31.0
55, 31.0
56, 31.0
57, 31.0
58, 32.0
59, 33.0
60, 34.0
61, 34.0
62, 35.0
63, 36.0
64, 36.0
65, 36.0
66, 37.0
67, 38.0
68, 39.0
69, 40.0
70, 41.0
71, 41.0
72, 42.0
73, 43.0
74, 43.0
75, 43.0
76, 43.0
77, 43.0
78, 43.0
79, 43.0
80, 43.0
81, 43.0
82, 43.0
83, 43.0
84, 43.0
85, 43.0
86, 43.0
87, 43.0
88, 43.0
89, 43.0
90, 43.0
91, 43.0
92, 43.0
93, 43.0
94, 43.0
95, 43.0
96, 43.0
97, 43.0
98, 43.0
99, 43.0
100, 43.0
101, 43.0
102, 43.0
103, 43.0
104, 43.0
105, 43.0
