i, Result
0, 0.0
1, 0.0
2, 0.0
3, 1.0
4, 2.0
5, 3.0
6, 4.0
7, 5.0
8, 6.0
9, 7.0
10, 8.0
11, 9.0
12, 10.0
13, 11.0
14, 11.0
15, 11.0
16, 12.0
17, 12.0
18, 13.0
19, 13.0
20, 13.0
21, 14.0
22, 14.0
23, 15.0
24, 15.0
25, 15.0
26, 15.0
27, 15.0
28, 15.0
29, 15.0
30, 15.0
31, 15.0
32, 15.0
33, 16.0
34, 17.0
35, 18.0
36, 18.0
37, 18.0
38, 19.0
39, 19.0
40, 20.0
41, 20.0
42, 20.0
43, 20.0
44, 21.0
45, 21.0
46, 21.0
47, 21.0
48, 22.0
49, 22.0
50, 23.0
51, 23.0
52, 23.0
53, 23.0
54, 24.0
55, 24.0
56, 24.0
57, 25.0
58, 26.0
59, 26.0
60, 26.0
61, 26.0
62, 26.0
63, 27.0
64, 27.0
65, 27.0
66, 27.0
67, 27.0
68, 27.0
69, 27.0
70, 27.0
71, 27.0
72, 27.0
73, 27.0
74, 27.0
75, 27.0
76, 27.0
77, 27.0
78, 27.0
79, 27.0
80, 27.0
81, 27.0
82, 27.0
83, 27.0
84, 27.0
85, 27.0
86, 27.0
87, 27.0
88, 27.0
89, 27.0
90, 27.0
91, 27.0
92, 27.0
93, 27.0
94, 27.0
95, 27.0
96, 27.0
97, 27.0
98, 27.0
99, 27.0
100, 27.0
101, 27.0
102, 27.0
103, 27.0
104, 27.0
105, 27.0
