i, Result
0, 0.0
1, 0.0
2, 0.0
3, 0.0
4, 1.0
5, 1.0
6, 1.0
7, 1.0
8, 2.0
9, 2.0
10, 2.0
11, 2.0
12, 3.0
13, 4.0
14, 5.0
15, 6.0
16, 6.0
17, 7.0
18, 8.0
19, 8.0
20, 8.0
21, 9.0
22, 10.0
23, 11.0
24, 12.0
25, 12.0
26, 13.0
27, 14.0
28, 15.0
29, 15.0
30, 16.0
31, 16.0
32, 16.0
33, 16.0
34, 16.0
35, 17.0
36, 18.0
37, 18.0
38, 19.0
39, 20.0
40, 20.0
41, 21.0
42, 21.0
43, 21.0
44, 22.0
45, 22.0
46, 22.0
47, 22.0
48, 22.0
49, 22.0
50, 22.0
51, 22.0
52, 23.0
53, 23.0
54, 24.0
55, 24.0
56, 25.0
57, 26.0
58, 26.0
59, 26.0
60, 27.0
61, 27.0
62, 28.0
63, 29.0
64, 30.0
65, 30.0
66, 30.0
67, 30.0
68, 30.0
69, 30.0
70, 30.0
71, 30.0
72, 30.0
73, 30.0
74, 30.0
75, 30.0
76, 30.0
77, 30.0
78, 30.0
79, 30.0
80, 30.0
81, 30.0
82, 30.0
83, 30.0
84, 30.0
85, 30.0
86, 30.0
87, 30.0
88, 30.0
89, 30.0
90, 30.0
91, 30.0
92, 30.0
93, 30.0
94, 30.0
95, 30.0
96, 30.0
97, 30.0
98, 30.0
99, 30.0
100, 30.0
101, 30.0
102, 30.0
103, 30.0
104, 30.0
105, 30.0
