i, Result
0, 0.0
1, 0.0
2, 0.0
3, 1.0
4, 2.0
5, 3.0
6, 4.0
7, 4.0
8, 4.0
9, 4.0
10, 5.0
11, 6.0
12, 7.0
13, 7.0
14, 7.0
15, 8.0
16, 9.0
17, 9.0
18, 9.0
19, 10.0
20, 11.0
21, 12.0
22, 13.0
23, 14.0
24, 15.0
25, 16.0
26, 16.0
27, 17.0
28, 18.0
29, 19.0
30, 19.0
31, 19.0
32, 20.0
33, 21.0
34, 21.0
35, 21.0
36, 21.0
37, 22.0
38, 22.0
39, 23.0
40, 23.0
41, 24.0
42, 25.0
43, 25.0
44, 26.0
45, 26.0
46, 26.0
47, 26.0
48, 27.0
49, 27.0
50, 27.0
51, 27.0
52, 28.0
53, 28.0
54, 29.0
55, 29.0
56, 29.0
57, 29.0
58, 30.0
59, 31.0
60, 32.0
61, 33.0
62, 34.0
63, 35.0
64, 35.0
65, 36.0
66, 36.0
67, 37.0
68, 37.0
69, 37.0
70, 37.0
71, 37.0
72, 37.0
73, 37.0
74, 37.0
75, 37.0
76, 37.0
77, 37.0
78, 37.0
79, 37.0
80, 37.0
81, 37.0
82, 37.0
83, 37.0
84, 37.0
85, 37.0
86, 37.0
87, 37.0
88, 37.0
89, 37.0
90, 37.0
91, 37.0
92, 37.0
93, 37.0
94, 37.0
95, 37.0
96, 37.0
97, 37.0
98, 37.0
99, 37.0
100, 37.0
101, 37.0
102, 37.0
103, 37.0
104, 37.0
105, 37.0
