i, Result
0, 0.0
1, 0.0
2, 0.0
3, 0.0
4, 0.0
5, 0.0
6, 1.0
7, 2.0
8, 3.0
9, 3.0
10, 4.0
11, 5.0
12, 6.0
13, 7.0
14, 8.0
15, 9.0
16, 10.0
17, 10.0
18, 11.0
19, 11.0
20, 11.0
21, 11.0
22, 11.0
23, 12.0
24, 12.0
25, 12.0
26, 13.0
27, 14.0
28, 14.0
29, 14.0
30, 15.0
31, 16.0
32, 17.0
33, 18.0
34, 18.0
35, 19.0
36, 19.0
37, 20.0
38, 21.0
39, 22.0
40, 23.0
41, 24.0
42, 24.0
43, 25.0
44, 25.0
45, 26.0
46, 26.0
47, 27.0
48, 28.0
49, 29.0
50, 29.0
51, 29.0
52, 29.0
53, 30.0
54, 31.0
55, 32.0
56, 33.0
57, 33.0
58, 34.0
59, 35.0
60, 36.0
61, 37.0
62, 37.0
63, 38.0
64, 38.0
65, 38.0
66, 38.0
67, 38.0
68, 38.0
69, 38.0
70, 38.0
71, 38.0
72, 38.0
73, 38.0
74, 38.0
75, 38.0
76, 38.0
77, 38.0
78, 38.0
79, 38.0
80, 38.0
81, 38.0
82, 38.0
83, 38.0
84, 38.0
85, 38.0
86, 38.0
87, 38.0
88, 38.0
89, 38.0
90, 38.0
91, 38.0
92, 38.0
93, 38.0
94, 38.0
95, 38.0
96, 38.0
97, 38.0
98, 38.0
99, 38.0
100, 38.0
101, 38.0
102, 38.0
103, 38.0
104, 38.0
105, 38.0
