i, Result
0, 0.0
1, 0.0
2, 0.0
3, 1.0
4, 1.0
5, 1.0
6, 1.0
7, 2.0
8, 3.0
9, 3.0
10, 3.0
11, 3.0
12, 3.0
13, 4.0
14, 4.0
15, 5.0
16, 5.0
17, 5.0
18, 5.0
19, 5.0
20, 6.0
21, 6.0
22, 6.0
23, 6.0
24, 6.0
25, 6.0
26, 7.0
27, 8.0
28, 8.0
29, 8.0
30, 8.0
31, 9.0
32, 10.0
33, 10.0
34, 10.0
35, 11.0
36, 12.0
37, 13.0
38, 14.0
39, 14.0
40, 15.0
41, 16.0
42, 16.0
43, 16.0
44, 16.0
45, 17.0
46, 17.0
47, 18.0
48, 19.0
49, 19.0
50, 20.0
51, 21.0
52, 22.0
53, 22.0
54, 23.0
55, 24.0
56, 25.0
57, 26.0
58, 27.0
59, 28.0
60, 28.0
61, 28.0
62, 29.0
63, 30.0
64, 31.0
65, 31.0
66, 32.0
67, 32.0
68, 33.0
69, 33.0
70, 34.0
71, 34.0
72, 34.0
73, 34.0
74, 34.0
75, 34.0
76, 34.0
77, 34.0
78, 34.0
79, 34.0
80, 34.0
81, 34.0
82, 34.0
83, 34.0
84, 34.0
85, 34.0
86, 34.0
87, 34.0
88, 34.0
89, 34.0
90, 34.0
91, 34.0
92, 34.0
93, 34.0
94, 34.0
95, 34.0
96, 34.0
97, 34.0
98, 34.0
99, 34.0
100, 34.0
101, 34.0
102, 34.0
103, 34.0
104, 34.0
105, 34.0
