i, Result
0, 0.0
1, 0.0
2, 0.0
3, 1.0
4, 1.0
5, 2.0
6, 3.0
7, 3.0
8, 3.0
9, 4.0
10, 5.0
11, 6.0
12, 6.0
13, 7.0
14, 8.0
15, 9.0
16, 9.0
17, 10.0
18, 10.0
19, 11.0
20, 12.0
21, 12.0
22, 12.0
23, 12.0
24, 13.0
25, 13.0
26, 13.0
27, 14.0
28, 14.0
29, 14.0
30, 14.0
31, 15.0
32, 15.0
33, 16.0
34, 17.0
35, 17.0
36, 17.0
37, 17.0
38, 18.0
39, 19.0
40, 20.0
41, 21.0
42, 21.0
43, 21.0
44, 21.0
45, 21.0
46, 22.0
47, 23.0
48, 23.0
49, 23.0
50, 23.0
51, 23.0
52, 23.0
53, 24.0
54, 24.0
55, 25.0
56, 25.0
57, 25.0
58, 26.0
59, 26.0
60, 26.0
61, 26.0
62, 27.0
63, 27.0
64, 27.0
65, 27.0
66, 28.0
67, 28.0
68, 28.0
69, 28.0
70, 28.0
71, 28.0
72, 28.0
73, 28.0
74, 28.0
75, 28.0
76, 28.0
77, 28.0
78, 28.0
79, 28.0
80, 28.0
81, 28.0
82, 28.0
83, 28.0
84, 28.0
85, 28.0
86, 28.0
87, 28.0
88, 28.0
89, 28.0
90, 28.0
91, 28.0
92, 28.0
93, 28.0
94, 28.0
95, 28.0
96, 28.0
97, 28.0
98, 28.0
99, 28.0
100, 28.0
101, 28.0
102, 28.0
103, 28.0
104, 28.0
105, 28.0
