i, Result
0, 0.0
1, 0.0
2, 0.0
3, 0.0
4, 1.0
5, 1.0
6, 1.0
7, 2.0
8, 3.0
9, 4.0
10, 5.0
11, 6.0
12, 6.0
13, 7.0
14, 7.0
15, 7.0
16, 7.0
17, 7.0
18, 7.0
19, 8.0
20, 8.0
21, 9.0
22, 9.0
23, 10.0
24, 10.0
25, 11.0
26, 11.0
27, 11.0
28, 12.0
29, 13.0
30, 14.0
31, 14.0
32, 15.0
33, 16.0
34, 17.0
35, 17.0
36, 17.0
37, 17.0
38, 18.0
39, 18.0
40, 18.0
41, 19.0
42, 19.0
43, 20.0
44, 21.0
45, 22.0
46, 23.0
47, 24.0
48, 25.0
49, 25.0
50, 25.0
51, 25.0
52, 25.0
53, 26.0
54, 26.0
55, 27.0
56, 28.0
57, 29.0
58, 30.0
59, 31.0
60, 32.0
61, 33.0
62, 33.0
63, 33.0
64, 33.0
65, 33.0
66, 33.0
67, 33.0
68, 33.0
69, 33.0
70, 33.0
71, 33.0
72, 33.0
73, 33.0
74, 33.0
75, 33.0
76, 33.0
77, 33.0
78, 33.0
79, 33.0
80, 33.0
81, 33.0
82, 33.0
83, 33.0
84, 33.0
85, 33.0
86, 33.0
87, 33.0
88, 33.0
89, 33.0
90, 33.0
91, 33.0
92, 33.0
93, 33.0
94, 33.0
95, 33.0
96, 33.0
97, 33.0
98, 33.0
99, 33.0
100, 33.0
101, 33.0
102, 33.0
103, 33.0
104, 33.0
105, 33.0
