i, Result
0, 0.0
1, 0.0
2, 0.0
3, 1.0
4, 2.0
5, 3.0
6, 4.0
7, 4.0
8, 5.0
9, 6.0
10, 7.0
11, 8.0
12, 9.0
13, 10.0
14, 11.0
15, 11.0
16, 12.0
17, 13.0
18, 14.0
19, 14.0
20, 14.0
21, 15.0
22, 16.0
23, 16.0
24, 17.0
25, 18.0
26, 19.0
27, 20.0
28, 21.0
29, 21.0
30, 21.0
31, 22.0
32, 22.0
33, 23.0
34, 23.0
35, 24.0
36, 25.0
37, 26.0
38, 27.0
39, 28.0
40, 29.0
41, 29.0
42, 30.0
43, 31.0
44, 31.0
45, 31.0
46, 32.0
47, 33.0
48, 33.0
49, 33.0
50, 34.0
51, 35.0
52, 35.0
53, 35.0
54, 35.0
55, 36.0
56, 36.0
57, 36.0
58, 36.0
59, 36.0
60, 37.0
61, 38.0
62, 38.0
63, 39.0
64, 40.0
65, 40.0
66, 41.0
67, 41.0
68, 42.0
69, 42.0
70, 42.0
71, 42.0
72, 42.0
73, 43.0
74, 44.0
75, 45.0
76, 46.0
77, 47.0
78, 47.0
79, 47.0
80, 48.0
81, 48.0
82, 48.0
83, 48.0
84, 48.0
85, 48.0
86, 48.0
87, 48.0
88, 48.0
89, 48.0
90, 48.0
91, 48.0
92, 48.0
93, 48.0
94, 48.0
95, 48.0
96, 48.0
97, 48.0
98, 48.0
99, 48.0
100, 48.0
101, 48.0
102, 48.0
103, 48.0
104, 48.0
105, 48.0
