i, Result
0, 0.0
1, 0.0
2, 0.0
3, 0.0
4, 0.0
5, 1.0
6, 2.0
7, 2.0
8, 2.0
9, 3.0
10, 4.0
11, 4.0
12, 5.0
13, 6.0
14, 7.0
15, 7.0
16, 7.0
17, 8.0
18, 9.0
19, 10.0
20, 11.0
21, 12.0
22, 12.0
23, 13.0
24, 13.0
25, 14.0
26, 14.0
27, 15.0
28, 16.0
29, 17.0
30, 17.0
31, 18.0
32, 19.0
33, 20.0
34, 21.0
35, 21.0
36, 22.0
37, 23.0
38, 24.0
39, 24.0
40, 24.0
41, 25.0
42, 26.0
43, 27.0
44, 28.0
45, 29.0
46, 30.0
47, 30.0
48, 31.0
49, 31.0
50, 31.0
51, 31.0
52, 31.0
53, 31.0
54, 31.0
55, 31.0
56, 31.0
57, 31.0
58, 31.0
59, 31.0
60, 31.0
61, 31.0
62, 31.0
63, 31.0
64, 31.0
65, 31.0
66, 31.0
67, 31.0
68, 31.0
69, 31.0
70, 31.0
71, 31.0
72, 31.0
73, 31.0
74, 31.0
75, 31.0
76, 31.0
77, 31.0
78, 31.0
79, 31.0
80, 31.0
81, 31.0
82, 31.0
83, 31.0
84, 31.0
85, 31.0
86, 31.0
87, 31.0
88, 31.0
89, 31.0
90, 31.0
91, 31.0
92, 31.0
93, 31.0
94, 31.0
95, 31.0
96, 31.0
97, 31.0
98, 31.0
99, 31.0
100, 31.0
101, 31.0
102, 31.0
103, 31.0
104, 31.0
105, 31.0
