i, Result
0, 0.0
1, 0.0
2, 0.0
3, 1.0
4, 2.0
5, 2.0
6, 2.0
7, 3.0
8, 4.0
9, 5.0
10, 6.0
11, 6.0
12, 6.0
13, 7.0
14, 8.0
15, 9.0
16, 9.0
17, 10.0
18, 11.0
19, 12.0
20, 13.0
21, 14.0
22, 15.0
23, 15.0
24, 15.0
25, 16.0
26, 17.0
27, 18.0
28, 19.0
29, 20.0
30, 20.0
31, 21.0
32, 22.0
33, 22.0
34, 23.0
35, 24.0
36, 24.0
37, 24.0
38, 25.0
39, 26.0
40, 27.0
41, 28.0
42, 29.0
43, 30.0
44, 31.0
45, 31.0
46, 31.0
47, 31.0
48, 31.0
49, 32.0
50, 33.0
51, 34.0
52, 35.0
53, 35.0
54, 35.0
55, 35.0
56, 35.0
57, 36.0
58, 37.0
59, 38.0
60, 39.0
61, 40.0
62, 40.0
63, 40.0
64, 41.0
65, 41.0
66, 42.0
67, 42.0
68, 42.0
69, 43.0
70, 43.0
71, 43.0
72, 43.0
73, 43.0
74, 43.0
75, 43.0
76, 43.0
77, 43.0
78, 43.0
79, 43.0
80, 43.0
81, 43.0
82, 43.0
83, 43.0
84, 43.0
85, 43.0
86, 43.0
87, 43.0
88, 43.0
89, 43.0
90, 43.0
91, 43.0
92, 43.0
93, 43.0
94, 43.0
95, 43.0
96, 43.0
97, 43.0
98, 43.0
99, 43.0
100, 43.0
101, 43.0
102, 43.0
103, 43.0
104, 43.0
105, 43.0
