i, Result
0, 0.0
1, 0.0
2, 0.0
3, 1.0
4, 2.0
5, 3.0
6, 4.0
7, 5.0
8, 6.0
9, 7.0
10, 7.0
11, 7.0
12, 8.0
13, 8.0
14, 8.0
15, 9.0
16, 10.0
17, 10.0
18, 10.0
19, 10.0
20, 11.0
21, 12.0
22, 12.0
23, 12.0
24, 12.0
25, 13.0
26, 13.0
27, 14.0
28, 15.0
29, 15.0
30, 16.0
31, 17.0
32, 17.0
33, 18.0
34, 18.0
35, 18.0
36, 18.0
37, 19.0
38, 19.0
39, 20.0
40, 20.0
41, 20.0
42, 21.0
43, 21.0
44, 22.0
45, 22.0
46, 22.0
47, 22.0
48, 22.0
49, 23.0
50, 23.0
51, 23.0
52, 23.0
53, 23.0
54, 23.0
55, 24.0
56, 25.0
57, 26.0
58, 27.0
59, 27.0
60, 28.0
61, 29.0
62, 30.0
63, 31.0
64, 31.0
65, 31.0
66, 31.0
67, 31.0
68, 31.0
69, 31.0
70, 31.0
71, 31.0
72, 31.0
73, 31.0
74, 31.0
75, 31.0
76, 31.0
77, 31.0
78, 31.0
79, 31.0
80, 31.0
81, 31.0
82, 31.0
83, 31.0
84, 31.0
85, 31.0
86, 31.0
87, 31.0
88, 31.0
89, 31.0
90, 31.0
91, 31.0
92, 31.0
93, 31.0
94, 31.0
95, 31.0
96, 31.0
97, 31.0
98, 31.0
99, 31.0
100, 31.0
101, 31.0
102, 31.0
103, 31.0
104, 31.0
105, 31.0
