i, Result
0, 0.0
1, 0.0
2, 0.0
3, 0.0
4, 0.0
5, 1.0
6, 2.0
7, 2.0
8, 2.0
9, 2.0
10, 3.0
11, 4.0
12, 4.0
13, 4.0
14, 4.0
15, 5.0
16, 6.0
17, 6.0
18, 7.0
19, 8.0
20, 9.0
21, 10.0
22, 10.0
23, 11.0
24, 11.0
25, 11.0
26, 11.0
27, 11.0
28, 12.0
29, 12.0
30, 12.0
31, 12.0
32, 12.0
33, 12.0
34, 12.0
35, 12.0
36, 12.0
37, 13.0
38, 14.0
39, 14.0
40, 15.0
41, 16.0
42, 16.0
43, 17.0
44, 18.0
45, 18.0
46, 18.0
47, 19.0
48, 19.0
49, 19.0
50, 19.0
51, 19.0
52, 19.0
53, 20.0
54, 20.0
55, 21.0
56, 21.0
57, 21.0
58, 22.0
59, 23.0
60, 23.0
61, 24.0
62, 25.0
63, 25.0
64, 25.0
65, 25.0
66, 25.0
67, 25.0
68, 25.0
69, 25.0
70, 25.0
71, 25.0
72, 25.0
73, 25.0
74, 25.0
75, 25.0
76, 25.0
77, 25.0
78, 25.0
79, 25.0
80, 25.0
81, 25.0
82, 25.0
83, 25.0
84, 25.0
85, 25.0
86, 25.0
87, 25.0
88, 25.0
89, 25.0
90, 25.0
91, 25.0
92, 25.0
93, 25.0
94, 25.0
95, 25.0
96, 25.0
97, 25.0
98, 25.0
99, 25.0
100, 25.0
101, 25.0
102, 25.0
103, 25.0
104, 25.0
105, 25.0
