i, Result
0, 0.0
1, 0.0
2, 0.0
3, 1.0
4, 2.0
5, 3.0
6, 3.0
7, 4.0
8, 5.0
9, 5.0
10, 6.0
11, 7.0
12, 7.0
13, 7.0
14, 8.0
15, 9.0
16, 10.0
17, 10.0
18, 11.0
19, 12.0
20, 13.0
21, 13.0
22, 14.0
23, 14.0
24, 14.0
25, 15.0
26, 15.0
27, 16.0
28, 17.0
29, 18.0
30, 19.0
31, 20.0
32, 20.0
33, 20.0
34, 20.0
35, 21.0
36, 22.0
37, 23.0
38, 23.0
39, 23.0
40, 23.0
41, 24.0
42, 25.0
43, 26.0
44, 26.0
45, 27.0
46, 28.0
47, 28.0
48, 29.0
49, 30.0
50, 30.0
51, 30.0
52, 30.0
53, 30.0
54, 30.0
55, 30.0
56, 30.0
57, 30.0
58, 30.0
59, 30.0
60, 30.0
61, 30.0
62, 30.0
63, 30.0
64, 31.0
65, 31.0
66, 32.0
67, 32.0
68, 32.0
69, 32.0
70, 32.0
71, 32.0
72, 32.0
73, 32.0
74, 32.0
75, 32.0
76, 32.0
77, 32.0
78, 32.0
79, 32.0
80, 32.0
81, 32.0
82, 32.0
83, 32.0
84, 32.0
85, 32.0
86, 32.0
87, 32.0
88, 32.0
89, 32.0
90, 32.0
91, 32.0
92, 32.0
93, 32.0
94, 32.0
95, 32.0
96, 32.0
97, 32.0
98, 32.0
99, 32.0
100, 32.0
101, 32.0
102, 32.0
103, 32.0
104, 32.0
105, 32.0
