i, Result
0, 0.0
1, 0.0
2, 0.0
3, 0.0
4, 1.0
5, 2.0
6, 3.0
7, 4.0
8, 5.0
9, 6.0
10, 6.0
11, 6.0
12, 6.0
13, 7.0
14, 7.0
15, 8.0
16, 9.0
17, 9.0
18, 10.0
19, 10.0
20, 11.0
21, 12.0
22, 13.0
23, 14.0
24, 14.0
25, 15.0
26, 15.0
27, 16.0
28, 17.0
29, 18.0
30, 18.0
31, 18.0
32, 19.0
33, 20.0
34, 21.0
35, 21.0
36, 22.0
37, 23.0
38, 24.0
39, 25.0
40, 26.0
41, 27.0
42, 28.0
43, 29.0
44, 29.0
45, 29.0
46, 29.0
47, 30.0
48, 31.0
49, 32.0
50, 33.0
51, 33.0
52, 34.0
53, 34.0
54, 34.0
55, 35.0
56, 35.0
57, 35.0
58, 36.0
59, 36.0
60, 36.0
61, 37.0
62, 37.0
63, 38.0
64, 38.0
65, 38.0
66, 38.0
67, 38.0
68, 38.0
69, 38.0
70, 38.0
71, 38.0
72, 38.0
73, 38.0
74, 38.0
75, 38.0
76, 38.0
77, 38.0
78, 38.0
79, 38.0
80, 38.0
81, 38.0
82, 38.0
83, 38.0
84, 38.0
85, 38.0
86, 38.0
87, 38.0
88, 38.0
89, 38.0
90, 38.0
91, 38.0
92, 38.0
93, 38.0
94, 38.0
95, 38.0
96, 38.0
97, 38.0
98, 38.0
99, 38.0
100, 38.0
101, 38.0
102, 38.0
103, 38.0
104, 38.0
105, 38.0
