i, Result
0, 0.0
1, 0.0
2, 0.0
3, 1.0
4, 2.0
5, 2.0
6, 2.0
7, 3.0
8, 4.0
9, 5.0
10, 5.0
11, 5.0
12, 5.0
13, 5.0
14, 5.0
15, 5.0
16, 5.0
17, 6.0
18, 6.0
19, 7.0
20, 7.0
21, 7.0
22, 8.0
23, 8.0
24, 9.0
25, 10.0
26, 10.0
27, 11.0
28, 12.0
29, 13.0
30, 13.0
31, 14.0
32, 15.0
33, 15.0
34, 15.0
35, 16.0
36, 17.0
37, 18.0
38, 18.0
39, 19.0
40, 20.0
41, 20.0
42, 21.0
43, 21.0
44, 22.0
45, 22.0
46, 22.0
47, 22.0
48, 23.0
49, 24.0
50, 24.0
51, 24.0
52, 25.0
53, 26.0
54, 27.0
55, 27.0
56, 27.0
57, 28.0
58, 29.0
59, 30.0
60, 30.0
61, 31.0
62, 32.0
63, 32.0
64, 32.0
65, 32.0
66, 32.0
67, 32.0
68, 32.0
69, 32.0
70, 32.0
71, 32.0
72, 32.0
73, 32.0
74, 32.0
75, 32.0
76, 32.0
77, 32.0
78, 32.0
79, 32.0
80, 32.0
81, 32.0
82, 32.0
83, 32.0
84, 32.0
85, 32.0
86, 32.0
87, 32.0
88, 32.0
89, 32.0
90, 32.0
91, 32.0
92, 32.0
93, 32.0
94, 32.0
95, 32.0
96, 32.0
97, 32.0
98, 32.0
99, 32.0
100, 32.0
101, 32.0
102, 32.0
103, 32.0
104, 32.0
105, 32.0
