i, Result
0, 0.0
1, 0.0
2, 0.0
3, 0.0
4, 0.0
5, 0.0
6, 0.0
7, 0.0
8, 0.0
9, 0.0
10, 0.0
11, 1.0
12, 1.0
13, 1.0
14, 1.0
15, 1.0
16, 2.0
17, 3.0
18, 4.0
19, 5.0
20, 5.0
21, 5.0
22, 6.0
23, 6.0
24, 7.0
25, 7.0
26, 8.0
27, 9.0
28, 10.0
29, 11.0
30, 11.0
31, 11.0
32, 11.0
33, 11.0
34, 12.0
35, 13.0
36, 14.0
37, 15.0
38, 16.0
39, 17.0
40, 17.0
41, 18.0
42, 18.0
43, 19.0
44, 20.0
45, 21.0
46, 21.0
47, 21.0
48, 21.0
49, 21.0
50, 22.0
51, 22.0
52, 22.0
53, 22.0
54, 22.0
55, 23.0
56, 24.0
57, 24.0
58, 24.0
59, 25.0
60, 26.0
61, 27.0
62, 27.0
63, 27.0
64, 27.0
65, 27.0
66, 27.0
67, 27.0
68, 27.0
69, 27.0
70, 27.0
71, 27.0
72, 27.0
73, 27.0
74, 27.0
75, 27.0
76, 27.0
77, 27.0
78, 27.0
79, 27.0
80, 27.0
81, 27.0
82, 27.0
83, 27.0
84, 27.0
85, 27.0
86, 27.0
87, 27.0
88, 27.0
89, 27.0
90, 27.0
91, 27.0
92, 27.0
93, 27.0
94, 27.0
95, 27.0
96, 27.0
97, 27.0
98, 27.0
99, 27.0
100, 27.0
101, 27.0
102, 27.0
103, 27.0
104, 27.0
105, 27.0
