i, Result
0, 0.0
1, 0.0
2, 0.0
3, 0.0
4, 1.0
5, 1.0
6, 1.0
7, 1.0
8, 1.0
9, 2.0
10, 3.0
11, 3.0
12, 3.0
13, 3.0
14, 3.0
15, 3.0
16, 3.0
17, 3.0
18, 4.0
19, 5.0
20, 6.0
21, 6.0
22, 7.0
23, 8.0
24, 9.0
25, 9.0
26, 10.0
27, 10.0
28, 11.0
29, 11.0
30, 12.0
31, 13.0
32, 14.0
33, 14.0
34, 15.0
35, 16.0
36, 17.0
37, 18.0
38, 18.0
39, 18.0
40, 19.0
41, 20.0
42, 21.0
43, 21.0
44, 22.0
45, 23.0
46, 24.0
47, 25.0
48, 26.0
49, 26.0
50, 26.0
51, 27.0
52, 27.0
53, 28.0
54, 28.0
55, 28.0
56, 29.0
57, 30.0
58, 31.0
59, 31.0
60, 32.0
61, 33.0
62, 33.0
63, 33.0
64, 34.0
65, 35.0
66, 36.0
67, 37.0
68, 38.0
69, 38.0
70, 38.0
71, 38.0
72, 38.0
73, 38.0
74, 39.0
75, 39.0
76, 39.0
77, 40.0
78, 40.0
79, 40.0
80, 40.0
81, 40.0
82, 40.0
83, 40.0
84, 40.0
85, 40.0
86, 40.0
87, 40.0
88, 40.0
89, 40.0
90, 40.0
91, 40.0
92, 40.0
93, 40.0
94, 40.0
95, 40.0
96, 40.0
97, 40.0
98, 40.0
99, 40.0
100, 40.0
101, 40.0
102, 40.0
103, 40.0
104, 40.0
105, 40.0
