i, Result
0, 0.0
1, 0.0
2, 0.0
3, 1.0
4, 1.0
5, 2.0
6, 3.0
7, 3.0
8, 3.0
9, 3.0
10, 4.0
11, 5.0
12, 6.0
13, 7.0
14, 8.0
15, 9.0
16, 9.0
17, 10.0
18, 11.0
19, 12.0
20, 13.0
21, 13.0
22, 13.0
23, 13.0
24, 14.0
25, 14.0
26, 15.0
27, 16.0
28, 16.0
29, 16.0
30, 16.0
31, 17.0
32, 17.0
33, 18.0
34, 19.0
35, 20.0
36, 20.0
37, 20.0
38, 20.0
39, 20.0
40, 20.0
41, 20.0
42, 21.0
43, 21.0
44, 21.0
45, 21.0
46, 21.0
47, 22.0
48, 22.0
49, 22.0
50, 22.0
51, 22.0
52, 23.0
53, 23.0
54, 24.0
55, 25.0
56, 25.0
57, 25.0
58, 26.0
59, 26.0
60, 27.0
61, 27.0
62, 27.0
63, 27.0
64, 27.0
65, 27.0
66, 27.0
67, 27.0
68, 27.0
69, 27.0
70, 27.0
71, 27.0
72, 27.0
73, 27.0
74, 27.0
75, 27.0
76, 27.0
77, 27.0
78, 27.0
79, 27.0
80, 27.0
81, 27.0
82, 27.0
83, 27.0
84, 27.0
85, 27.0
86, 27.0
87, 27.0
88, 27.0
89, 27.0
90, 27.0
91, 27.0
92, 27.0
93, 27.0
94, 27.0
95, 27.0
96, 27.0
97, 27.0
98, 27.0
99, 27.0
100, 27.0
101, 27.0
102, 27.0
103, 27.0
104, 27.0
105, 27.0
