i, Result
0, 0.0
1, 0.0
2, 0.0
3, 1.0
4, 1.0
5, 1.0
6, 2.0
7, 2.0
8, 3.0
9, 3.0
10, 4.0
11, 4.0
12, 4.0
13, 5.0
14, 5.0
15, 6.0
16, 6.0
17, 6.0
18, 6.0
19, 6.0
20, 7.0
21, 7.0
22, 7.0
23, 8.0
24, 8.0
25, 9.0
26, 9.0
27, 9.0
28, 9.0
29, 9.0
30, 9.0
31, 10.0
32, 11.0
33, 11.0
34, 11.0
35, 11.0
36, 11.0
37, 12.0
38, 12.0
39, 13.0
40, 14.0
41, 14.0
42, 14.0
43, 14.0
44, 14.0
45, 15.0
46, 16.0
47, 16.0
48, 16.0
49, 17.0
50, 17.0
51, 17.0
52, 17.0
53, 17.0
54, 17.0
55, 17.0
56, 17.0
57, 17.0
58, 17.0
59, 17.0
60, 17.0
61, 17.0
62, 17.0
63, 17.0
64, 17.0
65, 17.0
66, 17.0
67, 17.0
68, 17.0
69, 17.0
70, 17.0
71, 17.0
72, 17.0
73, 17.0
74, 17.0
75, 17.0
76, 17.0
77, 17.0
78, 17.0
79, 17.0
80, 17.0
81, 17.0
82, 17.0
83, 17.0
84, 17.0
85, 17.0
86, 17.0
87, 17.0
88, 17.0
89, 17.0
90, 17.0
91, 17.0
92, 17.0
93, 17.0
94, 17.0
95, 17.0
96, 17.0
97, 17.0
98, 17.0
99, 17.0
100, 17.0
101, 17.0
102, 17.0
103, 17.0
104, 17.0
105, 17.0
