i, Result
0, 0.0
1, 0.0
2, 0.0
3, 1.0
4, 2.0
5, 3.0
6, 3.0
7, 4.0
8, 5.0
9, 5.0
10, 6.0
11, 6.0
12, 6.0
13, 7.0
14, 8.0
15, 9.0
16, 9.0
17, 9.0
18, 9.0
19, 10.0
20, 11.0
21, 11.0
22, 12.0
23, 13.0
24, 13.0
25, 13.0
26, 14.0
27, 14.0
28, 14.0
29, 14.0
30, 14.0
31, 14.0
32, 14.0
33, 15.0
34, 15.0
35, 15.0
36, 15.0
37, 15.0
38, 15.0
39, 16.0
40, 16.0
41, 16.0
42, 17.0
43, 17.0
44, 18.0
45, 19.0
46, 20.0
47, 20.0
48, 20.0
49, 21.0
50, 22.0
51, 22.0
52, 22.0
53, 23.0
54, 24.0
55, 25.0
56, 26.0
57, 27.0
58, 27.0
59, 27.0
60, 28.0
61, 29.0
62, 29.0
63, 30.0
64, 31.0
65, 32.0
66, 32.0
67, 32.0
68, 32.0
69, 32.0
70, 32.0
71, 32.0
72, 32.0
73, 32.0
74, 32.0
75, 32.0
76, 32.0
77, 32.0
78, 32.0
79, 32.0
80, 32.0
81, 32.0
82, 32.0
83, 32.0
84, 32.0
85, 32.0
86, 32.0
87, 32.0
88, 32.0
89, 32.0
90, 32.0
91, 32.0
92, 32.0
93, 32.0
94, 32.0
95, 32.0
96, 32.0
97, 32.0
98, 32.0
99, 32.0
100, 32.0
101, 32.0
102, 32.0
103, 32.0
104, 32.0
105, 32.0
