i, Result
0, 0.0
1, 0.0
2, 0.0
3, 0.0
4, 1.0
5, 2.0
6, 2.0
7, 3.0
8, 4.0
9, 5.0
10, 6.0
11, 6.0
12, 6.0
13, 7.0
14, 8.0
15, 9.0
16, 10.0
17, 10.0
18, 10.0
19, 11.0
20, 12.0
21, 13.0
22, 14.0
23, 14.0
24, 14.0
25, 15.0
26, 16.0
27, 16.0
28, 16.0
29, 17.0
30, 17.0
31, 18.0
32, 19.0
33, 19.0
34, 19.0
35, 19.0
36, 20.0
37, 21.0
38, 22.0
39, 23.0
40, 23.0
41, 24.0
42, 25.0
43, 25.0
44, 26.0
45, 27.0
46, 27.0
47, 27.0
48, 28.0
49, 29.0
50, 29.0
51, 30.0
52, 30.0
53, 30.0
54, 31.0
55, 32.0
56, 33.0
57, 34.0
58, 34.0
59, 35.0
60, 36.0
61, 36.0
62, 36.0
63, 36.0
64, 36.0
65, 36.0
66, 36.0
67, 36.0
68, 36.0
69, 36.0
70, 36.0
71, 36.0
72, 36.0
73, 36.0
74, 36.0
75, 36.0
76, 36.0
77, 36.0
78, 36.0
79, 36.0
80, 36.0
81, 36.0
82, 36.0
83, 36.0
84, 36.0
85, 36.0
86, 36.0
87, 36.0
88, 36.0
89, 36.0
90, 36.0
91, 36.0
92, 36.0
93, 36.0
94, 36.0
95, 36.0
96, 36.0
97, 36.0
98, 36.0
99, 36.0
100, 36.0
101, 36.0
102, 36.0
103, 36.0
104, 36.0
105, 36.0
