i, Result
0, 0.0
1, 0.0
2, 0.0
3, 0.0
4, 0.0
5, 1.0
6, 2.0
7, 3.0
8, 4.0
9, 5.0
10, 5.0
11, 6.0
12, 7.0
13, 8.0
14, 8.0
15, 9.0
16, 10.0
17, 11.0
18, 12.0
19, 13.0
20, 14.0
21, 14.0
22, 15.0
23, 15.0
24, 15.0
25, 15.0
26, 16.0
27, 17.0
28, 18.0
29, 18.0
30, 19.0
31, 19.0
32, 19.0
33, 20.0
34, 21.0
35, 21.0
36, 21.0
37, 22.0
38, 22.0
39, 22.0
40, 23.0
41, 24.0
42, 25.0
43, 26.0
44, 27.0
45, 27.0
46, 28.0
47, 29.0
48, 30.0
49, 31.0
50, 32.0
51, 33.0
52, 33.0
53, 34.0
54, 35.0
55, 35.0
56, 36.0
57, 36.0
58, 37.0
59, 38.0
60, 38.0
61, 38.0
62, 39.0
63, 39.0
64, 39.0
65, 40.0
66, 41.0
67, 41.0
68, 41.0
69, 41.0
70, 41.0
71, 42.0
72, 42.0
73, 43.0
74, 43.0
75, 43.0
76, 43.0
77, 43.0
78, 43.0
79, 43.0
80, 43.0
81, 43.0
82, 43.0
83, 43.0
84, 43.0
85, 43.0
86, 43.0
87, 43.0
88, 43.0
89, 43.0
90, 43.0
91, 43.0
92, 43.0
93, 43.0
94, 43.0
95, 43.0
96, 43.0
97, 43.0
98, 43.0
99, 43.0
100, 43.0
101, 43.0
102, 43.0
103, 43.0
104, 43.0
105, 43.0
