i, Result
0, 0.0
1, 0.0
2, 0.0
3, 1.0
4, 1.0
5, 2.0
6, 3.0
7, 3.0
8, 4.0
9, 5.0
10, 5.0
11, 6.0
12, 7.0
13, 8.0
14, 9.0
15, 9.0
16, 9.0
17, 9.0
18, 10.0
19, 10.0
20, 10.0
21, 11.0
22, 12.0
23, 12.0
24, 13.0
25, 14.0
26, 14.0
27, 14.0
28, 15.0
29, 16.0
30, 17.0
31, 17.0
32, 17.0
33, 18.0
34, 18.0
35, 19.0
36, 20.0
37, 21.0
38, 22.0
39, 22.0
40, 22.0
41, 23.0
42, 23.0
43, 23.0
44, 23.0
45, 24.0
46, 24.0
47, 24.0
48, 25.0
49, 26.0
50, 27.0
51, 28.0
52, 28.0
53, 29.0
54, 29.0
55, 30.0
56, 31.0
57, 32.0
58, 32.0
59, 33.0
60, 34.0
61, 34.0
62, 35.0
63, 35.0
64, 36.0
65, 37.0
66, 37.0
67, 38.0
68, 39.0
69, 39.0
70, 40.0
71, 40.0
72, 40.0
73, 40.0
74, 40.0
75, 40.0
76, 40.0
77, 40.0
78, 40.0
79, 40.0
80, 40.0
81, 40.0
82, 40.0
83, 40.0
84, 40.0
85, 40.0
86, 40.0
87, 40.0
88, 40.0
89, 40.0
90, 40.0
91, 40.0
92, 40.0
93, 40.0
94, 40.0
95, 40.0
96, 40.0
97, 40.0
98, 40.0
99, 40.0
100, 40.0
101, 40.0
102, 40.0
103, 40.0
104, 40.0
105, 40.0
