i, Result
0, 0.0
1, 0.0
2, 0.0
3, 0.0
4, 1.0
5, 1.0
6, 1.0
7, 1.0
8, 2.0
9, 3.0
10, 4.0
11, 5.0
12, 6.0
13, 6.0
14, 7.0
15, 8.0
16, 9.0
17, 9.0
18, 10.0
19, 10.0
20, 11.0
21, 12.0
22, 12.0
23, 13.0
24, 13.0
25, 13.0
26, 14.0
27, 15.0
28, 15.0
29, 16.0
30, 16.0
31, 17.0
32, 17.0
33, 17.0
34, 17.0
35, 17.0
36, 18.0
37, 18.0
38, 18.0
39, 18.0
40, 19.0
41, 19.0
42, 20.0
43, 20.0
44, 20.0
45, 20.0
46, 21.0
47, 21.0
48, 22.0
49, 22.0
50, 22.0
51, 22.0
52, 22.0
53, 22.0
54, 22.0
55, 23.0
56, 23.0
57, 23.0
58, 24.0
59, 25.0
60, 26.0
61, 26.0
62, 27.0
63, 28.0
64, 29.0
65, 29.0
66, 29.0
67, 29.0
68, 29.0
69, 29.0
70, 29.0
71, 29.0
72, 29.0
73, 29.0
74, 29.0
75, 29.0
76, 29.0
77, 29.0
78, 29.0
79, 29.0
80, 29.0
81, 29.0
82, 29.0
83, 29.0
84, 29.0
85, 29.0
86, 29.0
87, 29.0
88, 29.0
89, 29.0
90, 29.0
91, 29.0
92, 29.0
93, 29.0
94, 29.0
95, 29.0
96, 29.0
97, 29.0
98, 29.0
99, 29.0
100, 29.0
101, 29.0
102, 29.0
103, 29.0
104, 29.0
105, 29.0
