i, Result
0, 0.0
1, 0.0
2, 0.0
3, 0.0
4, 1.0
5, 1.0
6, 1.0
7, 1.0
8, 2.0
9, 3.0
10, 3.0
11, 4.0
12, 4.0
13, 5.0
14, 5.0
15, 6.0
16, 6.0
17, 6.0
18, 7.0
19, 7.0
20, 7.0
21, 8.0
22, 9.0
23, 10.0
24, 11.0
25, 11.0
26, 11.0
27, 12.0
28, 13.0
29, 14.0
30, 15.0
31, 16.0
32, 17.0
33, 17.0
34, 18.0
35, 18.0
36, 19.0
37, 20.0
38, 21.0
39, 22.0
40, 23.0
41, 24.0
42, 25.0
43, 25.0
44, 26.0
45, 26.0
46, 27.0
47, 27.0
48, 28.0
49, 29.0
50, 30.0
51, 30.0
52, 31.0
53, 32.0
54, 32.0
55, 32.0
56, 33.0
57, 33.0
58, 34.0
59, 35.0
60, 36.0
61, 37.0
62, 38.0
63, 39.0
64, 39.0
65, 39.0
66, 39.0
67, 39.0
68, 39.0
69, 39.0
70, 39.0
71, 40.0
72, 41.0
73, 42.0
74, 42.0
75, 42.0
76, 42.0
77, 42.0
78, 42.0
79, 42.0
80, 42.0
81, 42.0
82, 42.0
83, 42.0
84, 42.0
85, 42.0
86, 42.0
87, 42.0
88, 42.0
89, 42.0
90, 42.0
91, 42.0
92, 42.0
93, 42.0
94, 42.0
95, 42.0
96, 42.0
97, 42.0
98, 42.0
99, 42.0
100, 42.0
101, 42.0
102, 42.0
103, 42.0
104, 42.0
105, 42.0
