i, Result
0, 0.0
1, 0.0
2, 0.0
3, 1.0
4, 2.0
5, 2.0
6, 3.0
7, 3.0
8, 4.0
9, 5.0
10, 5.0
11, 6.0
12, 6.0
13, 6.0
14, 7.0
15, 7.0
16, 7.0
17, 8.0
18, 9.0
19, 9.0
20, 10.0
21, 11.0
22, 12.0
23, 13.0
24, 13.0
25, 13.0
26, 14.0
27, 14.0
28, 15.0
29, 15.0
30, 15.0
31, 16.0
32, 17.0
33, 18.0
34, 18.0
35, 18.0
36, 19.0
37, 19.0
38, 20.0
39, 21.0
40, 22.0
41, 23.0
42, 24.0
43, 24.0
44, 24.0
45, 25.0
46, 26.0
47, 26.0
48, 26.0
49, 26.0
50, 26.0
51, 27.0
52, 27.0
53, 28.0
54, 29.0
55, 30.0
56, 31.0
57, 31.0
58, 32.0
59, 33.0
60, 34.0
61, 34.0
62, 34.0
63, 34.0
64, 34.0
65, 34.0
66, 34.0
67, 35.0
68, 35.0
69, 35.0
70, 35.0
71, 35.0
72, 36.0
73, 37.0
74, 37.0
75, 37.0
76, 37.0
77, 37.0
78, 37.0
79, 37.0
80, 37.0
81, 37.0
82, 37.0
83, 37.0
84, 37.0
85, 37.0
86, 37.0
87, 37.0
88, 37.0
89, 37.0
90, 37.0
91, 37.0
92, 37.0
93, 37.0
94, 37.0
95, 37.0
96, 37.0
97, 37.0
98, 37.0
99, 37.0
100, 37.0
101, 37.0
102, 37.0
103, 37.0
104, 37.0
105, 37.0
