i, Result
0, 0.0
1, 0.0
2, 0.0
3, 0.0
4, 1.0
5, 2.0
6, 2.0
7, 3.0
8, 4.0
9, 5.0
10, 5.0
11, 5.0
12, 5.0
13, 5.0
14, 5.0
15, 6.0
16, 6.0
17, 6.0
18, 6.0
19, 7.0
20, 7.0
21, 7.0
22, 7.0
23, 7.0
24, 7.0
25, 8.0
26, 9.0
27, 9.0
28, 10.0
29, 11.0
30, 11.0
31, 12.0
32, 12.0
33, 13.0
34, 13.0
35, 14.0
36, 15.0
37, 15.0
38, 16.0
39, 16.0
40, 17.0
41, 18.0
42, 18.0
43, 19.0
44, 20.0
45, 20.0
46, 21.0
47, 22.0
48, 23.0
49, 24.0
50, 24.0
51, 25.0
52, 26.0
53, 26.0
54, 26.0
55, 27.0
56, 27.0
57, 28.0
58, 29.0
59, 30.0
60, 31.0
61, 32.0
62, 33.0
63, 34.0
64, 35.0
65, 35.0
66, 35.0
67, 35.0
68, 35.0
69, 35.0
70, 35.0
71, 35.0
72, 35.0
73, 35.0
74, 35.0
75, 35.0
76, 35.0
77, 35.0
78, 35.0
79, 35.0
80, 35.0
81, 35.0
82, 35.0
83, 35.0
84, 35.0
85, 35.0
86, 35.0
87, 35.0
88, 35.0
89, 35.0
90, 35.0
91, 35.0
92, 35.0
93, 35.0
94, 35.0
95, 35.0
96, 35.0
97, 35.0
98, 35.0
99, 35.0
100, 35.0
101, 35.0
102, 35.0
103, 35.0
104, 35.0
105, 35.0
