i, Result
0, 0.0
1, 0.0
2, 0.0
3, 0.0
4, 1.0
5, 1.0
6, 2.0
7, 3.0
8, 3.0
9, 4.0
10, 4.0
11, 4.0
12, 5.0
13, 6.0
14, 6.0
15, 6.0
16, 6.0
17, 6.0
18, 7.0
19, 7.0
20, 7.0
21, 8.0
22, 8.0
23, 9.0
24, 10.0
25, 10.0
26, 11.0
27, 11.0
28, 11.0
29, 11.0
30, 11.0
31, 11.0
32, 12.0
33, 12.0
34, 13.0
35, 13.0
36, 13.0
37, 13.0
38, 14.0
39, 14.0
40, 14.0
41, 15.0
42, 15.0
43, 15.0
44, 15.0
45, 15.0
46, 15.0
47, 16.0
48, 16.0
49, 16.0
50, 16.0
51, 16.0
52, 16.0
53, 16.0
54, 16.0
55, 16.0
56, 16.0
57, 16.0
58, 16.0
59, 16.0
60, 16.0
61, 16.0
62, 16.0
63, 16.0
64, 16.0
65, 16.0
66, 16.0
67, 16.0
68, 16.0
69, 16.0
70, 16.0
71, 16.0
72, 16.0
73, 16.0
74, 16.0
75, 16.0
76, 16.0
77, 16.0
78, 16.0
79, 16.0
80, 16.0
81, 16.0
82, 16.0
83, 16.0
84, 16.0
85, 16.0
86, 16.0
87, 16.0
88, 16.0
89, 16.0
90, 16.0
91, 16.0
92, 16.0
93, 16.0
94, 16.0
95, 16.0
96, 16.0
97, 16.0
98, 16.0
99, 16.0
100, 16.0
101, 16.0
102, 16.0
103, 16.0
104, 16.0
105, 16.0
