i, Result
0, 0.0
1, 0.0
2, 0.0
3, 1.0
4, 2.0
5, 2.0
6, 3.0
7, 3.0
8, 4.0
9, 4.0
10, 5.0
11, 6.0
12, 7.0
13, 8.0
14, 9.0
15, 9.0
16, 10.0
17, 11.0
18, 12.0
19, 12.0
20, 13.0
21, 14.0
22, 15.0
23, 16.0
24, 17.0
25, 17.0
26, 17.0
27, 17.0
28, 18.0
29, 18.0
30, 18.0
31, 18.0
32, 19.0
33, 19.0
34, 19.0
35, 19.0
36, 19.0
37, 19.0
38, 19.0
39, 19.0
40, 19.0
41, 20.0
42, 20.0
43, 20.0
44, 20.0
45, 21.0
46, 21.0
47, 22.0
48, 23.0
49, 23.0
50, 24.0
51, 24.0
52, 25.0
53, 25.0
54, 26.0
55, 26.0
56, 26.0
57, 26.0
58, 27.0
59, 28.0
60, 28.0
61, 28.0
62, 28.0
63, 28.0
64, 29.0
65, 29.0
66, 29.0
67, 29.0
68, 29.0
69, 29.0
70, 29.0
71, 29.0
72, 29.0
73, 29.0
74, 29.0
75, 29.0
76, 29.0
77, 29.0
78, 29.0
79, 29.0
80, 29.0
81, 29.0
82, 29.0
83, 29.0
84, 29.0
85, 29.0
86, 29.0
87, 29.0
88, 29.0
89, 29.0
90, 29.0
91, 29.0
92, 29.0
93, 29.0
94, 29.0
95, 29.0
96, 29.0
97, 29.0
98, 29.0
99, 29.0
100, 29.0
101, 29.0
102, 29.0
103, 29.0
104, 29.0
105, 29.0
