i, Result
0, 0.0
1, 0.0
2, 0.0
3, 1.0
4, 2.0
5, 3.0
6, 3.0
7, 3.0
8, 4.0
9, 5.0
10, 6.0
11, 6.0
12, 6.0
13, 7.0
14, 8.0
15, 9.0
16, 10.0
17, 10.0
18, 10.0
19, 11.0
20, 12.0
21, 13.0
22, 14.0
23, 15.0
24, 16.0
25, 16.0
26, 16.0
27, 16.0
28, 17.0
29, 17.0
30, 17.0
31, 17.0
32, 17.0
33, 17.0
34, 18.0
35, 18.0
36, 18.0
37, 19.0
38, 20.0
39, 21.0
40, 21.0
41, 22.0
42, 23.0
43, 23.0
44, 23.0
45, 23.0
46, 23.0
47, 23.0
48, 23.0
49, 24.0
50, 25.0
51, 25.0
52, 25.0
53, 25.0
54, 25.0
55, 26.0
56, 26.0
57, 27.0
58, 27.0
59, 27.0
60, 27.0
61, 28.0
62, 28.0
63, 28.0
64, 28.0
65, 28.0
66, 28.0
67, 28.0
68, 28.0
69, 28.0
70, 28.0
71, 28.0
72, 28.0
73, 28.0
74, 28.0
75, 28.0
76, 28.0
77, 28.0
78, 28.0
79, 28.0
80, 28.0
81, 28.0
82, 28.0
83, 28.0
84, 28.0
85, 28.0
86, 28.0
87, 28.0
88, 28.0
89, 28.0
90, 28.0
91, 28.0
92, 28.0
93, 28.0
94, 28.0
95, 28.0
96, 28.0
97, 28.0
98, 28.0
99, 28.0
100, 28.0
101, 28.0
102, 28.0
103, 28.0
104, 28.0
105, 28.0
