i, Result
0, 0.0
1, 0.0
2, 0.0
3, 0.0
4, 0.0
5, 1.0
6, 1.0
7, 2.0
8, 3.0
9, 3.0
10, 3.0
11, 3.0
12, 3.0
13, 4.0
14, 4.0
15, 5.0
16, 5.0
17, 6.0
18, 7.0
19, 7.0
20, 7.0
21, 8.0
22, 8.0
23, 8.0
24, 8.0
25, 9.0
26, 9.0
27, 10.0
28, 10.0
29, 11.0
30, 12.0
31, 13.0
32, 14.0
33, 14.0
34, 15.0
35, 16.0
36, 17.0
37, 18.0
38, 18.0
39, 19.0
40, 19.0
41, 19.0
42, 20.0
43, 21.0
44, 22.0
45, 23.0
46, 24.0
47, 24.0
48, 25.0
49, 26.0
50, 27.0
51, 27.0
52, 27.0
53, 27.0
54, 28.0
55, 29.0
56, 30.0
57, 31.0
58, 32.0
59, 33.0
60, 34.0
61, 35.0
62, 35.0
63, 35.0
64, 35.0
65, 35.0
66, 36.0
67, 36.0
68, 36.0
69, 36.0
70, 36.0
71, 36.0
72, 36.0
73, 36.0
74, 36.0
75, 36.0
76, 36.0
77, 36.0
78, 36.0
79, 36.0
80, 36.0
81, 36.0
82, 36.0
83, 36.0
84, 36.0
85, 36.0
86, 36.0
87, 36.0
88, 36.0
89, 36.0
90, 36.0
91, 36.0
92, 36.0
93, 36.0
94, 36.0
95, 36.0
96, 36.0
97, 36.0
98, 36.0
99, 36.0
100, 36.0
101, 36.0
102, 36.0
103, 36.0
104, 36.0
105, 36.0
