i, Result
0, 0.0
1, 0.0
2, 0.0
3, 0.0
4, 1.0
5, 1.0
6, 2.0
7, 3.0
8, 3.0
9, 3.0
10, 3.0
11, 3.0
12, 3.0
13, 3.0
14, 3.0
15, 4.0
16, 4.0
17, 5.0
18, 5.0
19, 5.0
20, 5.0
21, 5.0
22, 6.0
23, 6.0
24, 6.0
25, 6.0
26, 6.0
27, 7.0
28, 7.0
29, 7.0
30, 7.0
31, 7.0
32, 8.0
33, 9.0
34, 10.0
35, 10.0
36, 10.0
37, 10.0
38, 10.0
39, 11.0
40, 12.0
41, 13.0
42, 13.0
43, 13.0
44, 14.0
45, 15.0
46, 15.0
47, 15.0
48, 16.0
49, 16.0
50, 17.0
51, 18.0
52, 18.0
53, 18.0
54, 19.0
55, 19.0
56, 19.0
57, 19.0
58, 20.0
59, 21.0
60, 21.0
61, 21.0
62, 22.0
63, 22.0
64, 23.0
65, 23.0
66, 23.0
67, 23.0
68, 24.0
69, 24.0
70, 25.0
71, 25.0
72, 25.0
73, 25.0
74, 25.0
75, 25.0
76, 25.0
77, 25.0
78, 25.0
79, 25.0
80, 25.0
81, 25.0
82, 25.0
83, 25.0
84, 25.0
85, 25.0
86, 25.0
87, 25.0
88, 25.0
89, 25.0
90, 25.0
91, 25.0
92, 25.0
93, 25.0
94, 25.0
95, 25.0
96, 25.0
97, 25.0
98, 25.0
99, 25.0
100, 25.0
101, 25.0
102, 25.0
103, 25.0
104, 25.0
105, 25.0
