i, Result
0, 0.0
1, 0.0
2, 0.0
3, 1.0
4, 2.0
5, 2.0
6, 3.0
7, 4.0
8, 4.0
9, 4.0
10, 5.0
11, 5.0
12, 6.0
13, 6.0
14, 6.0
15, 7.0
16, 8.0
17, 8.0
18, 9.0
19, 9.0
20, 9.0
21, 10.0
22, 11.0
23, 11.0
24, 11.0
25, 12.0
26, 12.0
27, 13.0
28, 13.0
29, 14.0
30, 15.0
31, 16.0
32, 16.0
33, 17.0
34, 18.0
35, 19.0
36, 20.0
37, 20.0
38, 21.0
39, 22.0
40, 23.0
41, 24.0
42, 25.0
43, 26.0
44, 26.0
45, 26.0
46, 27.0
47, 28.0
48, 29.0
49, 29.0
50, 29.0
51, 29.0
52, 29.0
53, 29.0
54, 29.0
55, 30.0
56, 31.0
57, 31.0
58, 31.0
59, 31.0
60, 31.0
61, 31.0
62, 32.0
63, 32.0
64, 32.0
65, 33.0
66, 33.0
67, 33.0
68, 33.0
69, 34.0
70, 35.0
71, 35.0
72, 35.0
73, 35.0
74, 35.0
75, 35.0
76, 35.0
77, 35.0
78, 35.0
79, 35.0
80, 35.0
81, 35.0
82, 35.0
83, 35.0
84, 35.0
85, 35.0
86, 35.0
87, 35.0
88, 35.0
89, 35.0
90, 35.0
91, 35.0
92, 35.0
93, 35.0
94, 35.0
95, 35.0
96, 35.0
97, 35.0
98, 35.0
99, 35.0
100, 35.0
101, 35.0
102, 35.0
103, 35.0
104, 35.0
105, 35.0
