i, Result
0, 0.0
1, 0.0
2, 0.0
3, 1.0
4, 1.0
5, 1.0
6, 2.0
7, 2.0
8, 2.0
9, 2.0
10, 3.0
11, 4.0
12, 4.0
13, 4.0
14, 4.0
15, 4.0
16, 5.0
17, 5.0
18, 5.0
19, 5.0
20, 6.0
21, 7.0
22, 7.0
23, 7.0
24, 8.0
25, 9.0
26, 9.0
27, 9.0
28, 9.0
29, 10.0
30, 10.0
31, 10.0
32, 10.0
33, 11.0
34, 11.0
35, 11.0
36, 11.0
37, 11.0
38, 12.0
39, 13.0
40, 14.0
41, 14.0
42, 14.0
43, 15.0
44, 15.0
45, 16.0
46, 17.0
47, 17.0
48, 17.0
49, 18.0
50, 18.0
51, 18.0
52, 18.0
53, 18.0
54, 18.0
55, 19.0
56, 19.0
57, 20.0
58, 21.0
59, 22.0
60, 23.0
61, 23.0
62, 24.0
63, 24.0
64, 25.0
65, 25.0
66, 25.0
67, 25.0
68, 26.0
69, 27.0
70, 28.0
71, 28.0
72, 28.0
73, 28.0
74, 28.0
75, 28.0
76, 28.0
77, 28.0
78, 28.0
79, 28.0
80, 28.0
81, 28.0
82, 28.0
83, 28.0
84, 28.0
85, 28.0
86, 28.0
87, 28.0
88, 28.0
89, 28.0
90, 28.0
91, 28.0
92, 28.0
93, 28.0
94, 28.0
95, 28.0
96, 28.0
97, 28.0
98, 28.0
99, 28.0
100, 28.0
101, 28.0
102, 28.0
103, 28.0
104, 28.0
105, 28.0
