i, Result
0, 0.0
1, 0.0
2, 0.0
3, 0.0
4, 1.0
5, 1.0
6, 2.0
7, 3.0
8, 3.0
9, 3.0
10, 3.0
11, 4.0
12, 5.0
13, 5.0
14, 5.0
15, 6.0
16, 6.0
17, 7.0
18, 8.0
19, 8.0
20, 9.0
21, 10.0
22, 10.0
23, 11.0
24, 12.0
25, 13.0
26, 13.0
27, 14.0
28, 15.0
29, 15.0
30, 15.0
31, 16.0
32, 16.0
33, 17.0
34, 18.0
35, 19.0
36, 19.0
37, 19.0
38, 19.0
39, 20.0
40, 21.0
41, 22.0
42, 23.0
43, 23.0
44, 23.0
45, 24.0
46, 24.0
47, 24.0
48, 24.0
49, 24.0
50, 24.0
51, 25.0
52, 26.0
53, 27.0
54, 27.0
55, 27.0
56, 27.0
57, 28.0
58, 28.0
59, 29.0
60, 30.0
61, 31.0
62, 32.0
63, 33.0
64, 34.0
65, 34.0
66, 34.0
67, 35.0
68, 35.0
69, 35.0
70, 35.0
71, 35.0
72, 35.0
73, 35.0
74, 35.0
75, 35.0
76, 35.0
77, 35.0
78, 35.0
79, 35.0
80, 35.0
81, 35.0
82, 35.0
83, 35.0
84, 35.0
85, 35.0
86, 35.0
87, 35.0
88, 35.0
89, 35.0
90, 35.0
91, 35.0
92, 35.0
93, 35.0
94, 35.0
95, 35.0
96, 35.0
97, 35.0
98, 35.0
99, 35.0
100, 35.0
101, 35.0
102, 35.0
103, 35.0
104, 35.0
105, 35.0
