i, Result
0, 0.0
1, 0.0
2, 0.0
3, 0.0
4, 1.0
5, 2.0
6, 3.0
7, 3.0
8, 3.0
9, 3.0
10, 4.0
11, 5.0
12, 6.0
13, 6.0
14, 7.0
15, 8.0
16, 8.0
17, 8.0
18, 8.0
19, 9.0
20, 10.0
21, 11.0
22, 11.0
23, 11.0
24, 11.0
25, 11.0
26, 12.0
27, 13.0
28, 13.0
29, 13.0
30, 13.0
31, 14.0
32, 15.0
33, 16.0
34, 17.0
35, 18.0
36, 18.0
37, 19.0
38, 19.0
39, 20.0
40, 21.0
41, 21.0
42, 21.0
43, 21.0
44, 22.0
45, 23.0
46, 24.0
47, 25.0
48, 26.0
49, 26.0
50, 27.0
51, 27.0
52, 27.0
53, 27.0
54, 28.0
55, 29.0
56, 29.0
57, 29.0
58, 29.0
59, 29.0
60, 30.0
61, 30.0
62, 31.0
63, 31.0
64, 32.0
65, 33.0
66, 34.0
67, 34.0
68, 35.0
69, 36.0
70, 37.0
71, 37.0
72, 37.0
73, 37.0
74, 37.0
75, 37.0
76, 37.0
77, 37.0
78, 37.0
79, 37.0
80, 37.0
81, 37.0
82, 37.0
83, 37.0
84, 37.0
85, 37.0
86, 37.0
87, 37.0
88, 37.0
89, 37.0
90, 37.0
91, 37.0
92, 37.0
93, 37.0
94, 37.0
95, 37.0
96, 37.0
97, 37.0
98, 37.0
99, 37.0
100, 37.0
101, 37.0
102, 37.0
103, 37.0
104, 37.0
105, 37.0
