i, Result
0, 0.0
1, 0.0
2, 0.0
3, 0.0
4, 1.0
5, 1.0
6, 1.0
7, 2.0
8, 3.0
9, 3.0
10, 3.0
11, 3.0
12, 3.0
13, 3.0
14, 3.0
15, 4.0
16, 4.0
17, 5.0
18, 6.0
19, 6.0
20, 6.0
21, 6.0
22, 7.0
23, 7.0
24, 7.0
25, 7.0
26, 7.0
27, 8.0
28, 8.0
29, 8.0
30, 9.0
31, 10.0
32, 11.0
33, 12.0
34, 12.0
35, 13.0
36, 14.0
37, 15.0
38, 16.0
39, 16.0
40, 16.0
41, 16.0
42, 17.0
43, 17.0
44, 18.0
45, 19.0
46, 20.0
47, 20.0
48, 21.0
49, 22.0
50, 22.0
51, 23.0
52, 24.0
53, 24.0
54, 24.0
55, 25.0
56, 25.0
57, 26.0
58, 27.0
59, 27.0
60, 28.0
61, 29.0
62, 30.0
63, 31.0
64, 32.0
65, 33.0
66, 34.0
67, 34.0
68, 35.0
69, 35.0
70, 35.0
71, 35.0
72, 35.0
73, 35.0
74, 35.0
75, 35.0
76, 35.0
77, 35.0
78, 35.0
79, 35.0
80, 35.0
81, 35.0
82, 35.0
83, 35.0
84, 35.0
85, 35.0
86, 35.0
87, 35.0
88, 35.0
89, 35.0
90, 35.0
91, 35.0
92, 35.0
93, 35.0
94, 35.0
95, 35.0
96, 35.0
97, 35.0
98, 35.0
99, 35.0
100, 35.0
101, 35.0
102, 35.0
103, 35.0
104, 35.0
105, 35.0
