i, Result
0, 0.0
1, 0.0
2, 0.0
3, 1.0
4, 2.0
5, 3.0
6, 3.0
7, 3.0
8, 3.0
9, 3.0
10, 4.0
11, 4.0
12, 5.0
13, 5.0
14, 6.0
15, 6.0
16, 6.0
17, 7.0
18, 7.0
19, 8.0
20, 9.0
21, 9.0
22, 10.0
23, 10.0
24, 11.0
25, 11.0
26, 11.0
27, 11.0
28, 12.0
29, 13.0
30, 14.0
31, 15.0
32, 16.0
33, 17.0
34, 17.0
35, 18.0
36, 19.0
37, 19.0
38, 20.0
39, 21.0
40, 22.0
41, 22.0
42, 23.0
43, 24.0
44, 24.0
45, 24.0
46, 25.0
47, 26.0
48, 26.0
49, 26.0
50, 27.0
51, 28.0
52, 29.0
53, 29.0
54, 30.0
55, 30.0
56, 30.0
57, 30.0
58, 31.0
59, 32.0
60, 32.0
61, 33.0
62, 33.0
63, 34.0
64, 35.0
65, 36.0
66, 36.0
67, 37.0
68, 38.0
69, 39.0
70, 39.0
71, 40.0
72, 41.0
73, 41.0
74, 41.0
75, 41.0
76, 41.0
77, 41.0
78, 41.0
79, 41.0
80, 41.0
81, 41.0
82, 41.0
83, 41.0
84, 41.0
85, 41.0
86, 41.0
87, 41.0
88, 41.0
89, 41.0
90, 41.0
91, 41.0
92, 41.0
93, 41.0
94, 41.0
95, 41.0
96, 41.0
97, 41.0
98, 41.0
99, 41.0
100, 41.0
101, 41.0
102, 41.0
103, 41.0
104, 41.0
105, 41.0
