i, Result
0, 0.0
1, 0.0
2, 0.0
3, 0.0
4, 0.0
5, 0.0
6, 0.0
7, 0.0
8, 0.0
9, 0.0
10, 1.0
11, 1.0
12, 2.0
13, 2.0
14, 2.0
15, 3.0
16, 4.0
17, 4.0
18, 4.0
19, 4.0
20, 4.0
21, 5.0
22, 5.0
23, 5.0
24, 6.0
25, 7.0
26, 8.0
27, 8.0
28, 8.0
29, 9.0
30, 10.0
31, 10.0
32, 10.0
33, 10.0
34, 11.0
35, 12.0
36, 12.0
37, 13.0
38, 14.0
39, 14.0
40, 14.0
41, 14.0
42, 14.0
43, 14.0
44, 14.0
45, 14.0
46, 14.0
47, 14.0
48, 14.0
49, 14.0
50, 14.0
51, 14.0
52, 14.0
53, 14.0
54, 14.0
55, 14.0
56, 14.0
57, 14.0
58, 14.0
59, 14.0
60, 14.0
61, 14.0
62, 14.0
63, 14.0
64, 14.0
65, 14.0
66, 14.0
67, 14.0
68, 14.0
69, 14.0
70, 14.0
71, 14.0
72, 14.0
73, 14.0
74, 14.0
75, 14.0
76, 14.0
77, 14.0
78, 14.0
79, 14.0
80, 14.0
81, 14.0
82, 14.0
83, 14.0
84, 14.0
85, 14.0
86, 14.0
87, 14.0
88, 14.0
89, 14.0
90, 14.0
91, 14.0
92, 14.0
93, 14.0
94, 14.0
95, 14.0
96, 14.0
97, 14.0
98, 14.0
99, 14.0
100, 14.0
101, 14.0
102, 14.0
103, 14.0
104, 14.0
105, 14.0
