i, Result
0, 0.0
1, 0.0
2, 0.0
3, 0.0
4, 1.0
5, 1.0
6, 2.0
7, 2.0
8, 2.0
9, 3.0
10, 4.0
11, 4.0
12, 4.0
13, 5.0
14, 6.0
15, 6.0
16, 6.0
17, 6.0
18, 6.0
19, 6.0
20, 7.0
21, 8.0
22, 9.0
23, 9.0
24, 10.0
25, 11.0
26, 12.0
27, 13.0
28, 14.0
29, 15.0
30, 16.0
31, 17.0
32, 17.0
33, 17.0
34, 17.0
35, 18.0
36, 18.0
37, 19.0
38, 20.0
39, 20.0
40, 21.0
41, 21.0
42, 22.0
43, 23.0
44, 23.0
45, 24.0
46, 24.0
47, 24.0
48, 25.0
49, 25.0
50, 25.0
51, 25.0
52, 25.0
53, 26.0
54, 27.0
55, 27.0
56, 27.0
57, 27.0
58, 28.0
59, 28.0
60, 29.0
61, 29.0
62, 29.0
63, 30.0
64, 30.0
65, 30.0
66, 31.0
67, 31.0
68, 32.0
69, 33.0
70, 33.0
71, 33.0
72, 34.0
73, 34.0
74, 34.0
75, 34.0
76, 34.0
77, 34.0
78, 34.0
79, 34.0
80, 34.0
81, 34.0
82, 34.0
83, 34.0
84, 34.0
85, 34.0
86, 34.0
87, 34.0
88, 34.0
89, 34.0
90, 34.0
91, 34.0
92, 34.0
93, 34.0
94, 34.0
95, 34.0
96, 34.0
97, 34.0
98, 34.0
99, 34.0
100, 34.0
101, 34.0
102, 34.0
103, 34.0
104, 34.0
105, 34.0
