i, Result
0, 0.0
1, 0.0
2, 0.0
3, 0.0
4, 0.0
5, 1.0
6, 2.0
7, 2.0
8, 2.0
9, 2.0
10, 3.0
11, 4.0
12, 4.0
13, 5.0
14, 5.0
15, 6.0
16, 6.0
17, 6.0
18, 6.0
19, 6.0
20, 6.0
21, 6.0
22, 7.0
23, 7.0
24, 8.0
25, 9.0
26, 9.0
27, 10.0
28, 10.0
29, 11.0
30, 12.0
31, 13.0
32, 13.0
33, 14.0
34, 15.0
35, 15.0
36, 16.0
37, 17.0
38, 18.0
39, 19.0
40, 20.0
41, 21.0
42, 21.0
43, 22.0
44, 23.0
45, 23.0
46, 24.0
47, 25.0
48, 26.0
49, 26.0
50, 26.0
51, 27.0
52, 27.0
53, 27.0
54, 28.0
55, 28.0
56, 28.0
57, 29.0
58, 30.0
59, 30.0
60, 31.0
61, 31.0
62, 31.0
63, 31.0
64, 31.0
65, 31.0
66, 31.0
67, 31.0
68, 31.0
69, 31.0
70, 31.0
71, 31.0
72, 31.0
73, 31.0
74, 31.0
75, 31.0
76, 31.0
77, 31.0
78, 31.0
79, 31.0
80, 31.0
81, 31.0
82, 31.0
83, 31.0
84, 31.0
85, 31.0
86, 31.0
87, 31.0
88, 31.0
89, 31.0
90, 31.0
91, 31.0
92, 31.0
93, 31.0
94, 31.0
95, 31.0
96, 31.0
97, 31.0
98, 31.0
99, 31.0
100, 31.0
101, 31.0
102, 31.0
103, 31.0
104, 31.0
105, 31.0
