i, Result
0, 0.0
1, 0.0
2, 0.0
3, 1.0
4, 1.0
5, 1.0
6, 2.0
7, 2.0
8, 2.0
9, 2.0
10, 3.0
11, 4.0
12, 5.0
13, 6.0
14, 6.0
15, 7.0
16, 8.0
17, 9.0
18, 10.0
19, 11.0
20, 12.0
21, 13.0
22, 14.0
23, 15.0
24, 16.0
25, 17.0
26, 18.0
27, 18.0
28, 19.0
29, 19.0
30, 20.0
31, 21.0
32, 22.0
33, 22.0
34, 23.0
35, 24.0
36, 25.0
37, 25.0
38, 25.0
39, 26.0
40, 26.0
41, 27.0
42, 28.0
43, 28.0
44, 29.0
45, 29.0
46, 29.0
47, 29.0
48, 30.0
49, 30.0
50, 31.0
51, 32.0
52, 33.0
53, 34.0
54, 34.0
55, 35.0
56, 36.0
57, 36.0
58, 37.0
59, 37.0
60, 37.0
61, 38.0
62, 38.0
63, 38.0
64, 39.0
65, 40.0
66, 41.0
67, 41.0
68, 42.0
69, 43.0
70, 43.0
71, 43.0
72, 44.0
73, 44.0
74, 44.0
75, 44.0
76, 44.0
77, 44.0
78, 44.0
79, 44.0
80, 44.0
81, 44.0
82, 44.0
83, 44.0
84, 44.0
85, 44.0
86, 44.0
87, 44.0
88, 44.0
89, 44.0
90, 44.0
91, 44.0
92, 44.0
93, 44.0
94, 44.0
95, 44.0
96, 44.0
97, 44.0
98, 44.0
99, 44.0
100, 44.0
101, 44.0
102, 44.0
103, 44.0
104, 44.0
105, 44.0
