i, Result
0, 0.0
1, 0.0
2, 0.0
3, 1.0
4, 1.0
5, 2.0
6, 3.0
7, 4.0
8, 4.0
9, 4.0
10, 4.0
11, 5.0
12, 6.0
13, 7.0
14, 8.0
15, 8.0
16, 9.0
17, 9.0
18, 10.0
19, 11.0
20, 11.0
21, 12.0
22, 12.0
23, 13.0
24, 14.0
25, 14.0
26, 15.0
27, 16.0
28, 17.0
29, 18.0
30, 18.0
31, 19.0
32, 19.0
33, 19.0
34, 19.0
35, 19.0
36, 20.0
37, 21.0
38, 21.0
39, 21.0
40, 22.0
41, 23.0
42, 24.0
43, 25.0
44, 25.0
45, 26.0
46, 27.0
47, 27.0
48, 27.0
49, 28.0
50, 28.0
51, 29.0
52, 29.0
53, 30.0
54, 31.0
55, 32.0
56, 33.0
57, 33.0
58, 34.0
59, 34.0
60, 34.0
61, 35.0
62, 35.0
63, 35.0
64, 35.0
65, 35.0
66, 35.0
67, 36.0
68, 37.0
69, 38.0
70, 39.0
71, 39.0
72, 39.0
73, 40.0
74, 40.0
75, 41.0
76, 42.0
77, 43.0
78, 44.0
79, 45.0
80, 45.0
81, 45.0
82, 45.0
83, 45.0
84, 45.0
85, 45.0
86, 45.0
87, 45.0
88, 45.0
89, 45.0
90, 45.0
91, 45.0
92, 45.0
93, 45.0
94, 45.0
95, 45.0
96, 45.0
97, 45.0
98, 45.0
99, 45.0
100, 45.0
101, 45.0
102, 45.0
103, 45.0
104, 45.0
105, 45.0
