i, Result
0, 0.0
1, 0.0
2, 0.0
3, 1.0
4, 1.0
5, 2.0
6, 3.0
7, 3.0
8, 4.0
9, 4.0
10, 5.0
11, 5.0
12, 5.0
13, 6.0
14, 6.0
15, 7.0
16, 7.0
17, 8.0
18, 9.0
19, 9.0
20, 10.0
21, 11.0
22, 11.0
23, 11.0
24, 12.0
25, 12.0
26, 12.0
27, 13.0
28, 13.0
29, 13.0
30, 14.0
31, 14.0
32, 15.0
33, 16.0
34, 16.0
35, 17.0
36, 18.0
37, 18.0
38, 18.0
39, 19.0
40, 19.0
41, 20.0
42, 20.0
43, 21.0
44, 22.0
45, 22.0
46, 23.0
47, 24.0
48, 25.0
49, 26.0
50, 26.0
51, 27.0
52, 28.0
53, 29.0
54, 30.0
55, 31.0
56, 32.0
57, 33.0
58, 33.0
59, 34.0
60, 35.0
61, 36.0
62, 37.0
63, 37.0
64, 37.0
65, 38.0
66, 38.0
67, 39.0
68, 39.0
69, 39.0
70, 39.0
71, 40.0
72, 40.0
73, 41.0
74, 41.0
75, 42.0
76, 42.0
77, 42.0
78, 42.0
79, 42.0
80, 42.0
81, 42.0
82, 42.0
83, 42.0
84, 42.0
85, 42.0
86, 42.0
87, 42.0
88, 42.0
89, 42.0
90, 42.0
91, 42.0
92, 42.0
93, 42.0
94, 42.0
95, 42.0
96, 42.0
97, 42.0
98, 42.0
99, 42.0
100, 42.0
101, 42.0
102, 42.0
103, 42.0
104, 42.0
105, 42.0
