i, Result
0, 0.0
1, 0.0
2, 0.0
3, 0.0
4, 1.0
5, 2.0
6, 2.0
7, 2.0
8, 3.0
9, 3.0
10, 4.0
11, 5.0
12, 6.0
13, 6.0
14, 6.0
15, 6.0
16, 7.0
17, 7.0
18, 7.0
19, 7.0
20, 8.0
21, 8.0
22, 9.0
23, 10.0
24, 10.0
25, 10.0
26, 10.0
27, 10.0
28, 11.0
29, 11.0
30, 12.0
31, 13.0
32, 13.0
33, 14.0
34, 15.0
35, 16.0
36, 17.0
37, 17.0
38, 18.0
39, 19.0
40, 19.0
41, 20.0
42, 21.0
43, 22.0
44, 23.0
45, 23.0
46, 23.0
47, 24.0
48, 24.0
49, 24.0
50, 25.0
51, 25.0
52, 26.0
53, 26.0
54, 27.0
55, 27.0
56, 27.0
57, 28.0
58, 28.0
59, 28.0
60, 28.0
61, 29.0
62, 30.0
63, 31.0
64, 32.0
65, 32.0
66, 33.0
67, 34.0
68, 35.0
69, 36.0
70, 36.0
71, 36.0
72, 36.0
73, 36.0
74, 36.0
75, 36.0
76, 36.0
77, 36.0
78, 36.0
79, 36.0
80, 36.0
81, 36.0
82, 36.0
83, 36.0
84, 36.0
85, 36.0
86, 36.0
87, 36.0
88, 36.0
89, 36.0
90, 36.0
91, 36.0
92, 36.0
93, 36.0
94, 36.0
95, 36.0
96, 36.0
97, 36.0
98, 36.0
99, 36.0
100, 36.0
101, 36.0
102, 36.0
103, 36.0
104, 36.0
105, 36.0
