i, Result
0, 0.0
1, 0.0
2, 0.0
3, 1.0
4, 2.0
5, 3.0
6, 3.0
7, 3.0
8, 4.0
9, 4.0
10, 5.0
11, 5.0
12, 5.0
13, 5.0
14, 6.0
15, 6.0
16, 6.0
17, 6.0
18, 6.0
19, 7.0
20, 7.0
21, 8.0
22, 9.0
23, 10.0
24, 11.0
25, 12.0
26, 13.0
27, 14.0
28, 14.0
29, 14.0
30, 15.0
31, 15.0
32, 16.0
33, 16.0
34, 17.0
35, 17.0
36, 17.0
37, 17.0
38, 18.0
39, 18.0
40, 18.0
41, 19.0
42, 20.0
43, 20.0
44, 20.0
45, 20.0
46, 20.0
47, 21.0
48, 22.0
49, 22.0
50, 22.0
51, 22.0
52, 22.0
53, 23.0
54, 24.0
55, 25.0
56, 26.0
57, 27.0
58, 28.0
59, 29.0
60, 30.0
61, 31.0
62, 31.0
63, 31.0
64, 32.0
65, 33.0
66, 34.0
67, 35.0
68, 35.0
69, 36.0
70, 37.0
71, 37.0
72, 37.0
73, 37.0
74, 37.0
75, 37.0
76, 37.0
77, 37.0
78, 37.0
79, 37.0
80, 37.0
81, 37.0
82, 37.0
83, 37.0
84, 37.0
85, 37.0
86, 37.0
87, 37.0
88, 37.0
89, 37.0
90, 37.0
91, 37.0
92, 37.0
93, 37.0
94, 37.0
95, 37.0
96, 37.0
97, 37.0
98, 37.0
99, 37.0
100, 37.0
101, 37.0
102, 37.0
103, 37.0
104, 37.0
105, 37.0
