i, Result
0, 0.0
1, 0.0
2, 0.0
3, 1.0
4, 2.0
5, 3.0
6, 3.0
7, 4.0
8, 5.0
9, 6.0
10, 7.0
11, 8.0
12, 8.0
13, 9.0
14, 10.0
15, 11.0
16, 12.0
17, 13.0
18, 13.0
19, 13.0
20, 14.0
21, 14.0
22, 15.0
23, 15.0
24, 16.0
25, 16.0
26, 17.0
27, 18.0
28, 19.0
29, 19.0
30, 19.0
31, 20.0
32, 21.0
33, 22.0
34, 23.0
35, 23.0
36, 24.0
37, 25.0
38, 25.0
39, 25.0
40, 25.0
41, 26.0
42, 26.0
43, 26.0
44, 27.0
45, 27.0
46, 28.0
47, 29.0
48, 30.0
49, 30.0
50, 31.0
51, 31.0
52, 32.0
53, 33.0
54, 33.0
55, 33.0
56, 34.0
57, 35.0
58, 35.0
59, 36.0
60, 37.0
61, 37.0
62, 38.0
63, 39.0
64, 39.0
65, 39.0
66, 39.0
67, 40.0
68, 40.0
69, 40.0
70, 40.0
71, 40.0
72, 40.0
73, 40.0
74, 40.0
75, 40.0
76, 40.0
77, 40.0
78, 40.0
79, 40.0
80, 40.0
81, 40.0
82, 40.0
83, 40.0
84, 40.0
85, 40.0
86, 40.0
87, 40.0
88, 40.0
89, 40.0
90, 40.0
91, 40.0
92, 40.0
93, 40.0
94, 40.0
95, 40.0
96, 40.0
97, 40.0
98, 40.0
99, 40.0
100, 40.0
101, 40.0
102, 40.0
103, 40.0
104, 40.0
105, 40.0
