i, Result
0, 0.0
1, 0.0
2, 0.0
3, 1.0
4, 2.0
5, 3.0
6, 3.0
7, 3.0
8, 3.0
9, 4.0
10, 5.0
11, 6.0
12, 7.0
13, 8.0
14, 9.0
15, 10.0
16, 10.0
17, 10.0
18, 11.0
19, 12.0
20, 13.0
21, 13.0
22, 14.0
23, 15.0
24, 16.0
25, 16.0
26, 17.0
27, 18.0
28, 18.0
29, 19.0
30, 19.0
31, 19.0
32, 20.0
33, 21.0
34, 22.0
35, 22.0
36, 23.0
37, 24.0
38, 25.0
39, 25.0
40, 25.0
41, 25.0
42, 25.0
43, 25.0
44, 25.0
45, 25.0
46, 25.0
47, 26.0
48, 26.0
49, 27.0
50, 28.0
51, 29.0
52, 29.0
53, 30.0
54, 31.0
55, 31.0
56, 31.0
57, 32.0
58, 33.0
59, 33.0
60, 33.0
61, 34.0
62, 35.0
63, 36.0
64, 37.0
65, 38.0
66, 39.0
67, 39.0
68, 39.0
69, 40.0
70, 40.0
71, 40.0
72, 40.0
73, 40.0
74, 40.0
75, 40.0
76, 40.0
77, 40.0
78, 40.0
79, 40.0
80, 40.0
81, 40.0
82, 40.0
83, 40.0
84, 40.0
85, 40.0
86, 40.0
87, 40.0
88, 40.0
89, 40.0
90, 40.0
91, 40.0
92, 40.0
93, 40.0
94, 40.0
95, 40.0
96, 40.0
97, 40.0
98, 40.0
99, 40.0
100, 40.0
101, 40.0
102, 40.0
103, 40.0
104, 40.0
105, 40.0
