i, Result
0, 0.0
1, 0.0
2, 0.0
3, 0.0
4, 0.0
5, 1.0
6, 2.0
7, 2.0
8, 3.0
9, 3.0
10, 4.0
11, 4.0
12, 4.0
13, 4.0
14, 4.0
15, 5.0
16, 6.0
17, 7.0
18, 7.0
19, 8.0
20, 9.0
21, 10.0
22, 11.0
23, 11.0
24, 11.0
25, 11.0
26, 12.0
27, 12.0
28, 13.0
29, 14.0
30, 14.0
31, 14.0
32, 15.0
33, 16.0
34, 17.0
35, 17.0
36, 17.0
37, 18.0
38, 18.0
39, 18.0
40, 19.0
41, 19.0
42, 19.0
43, 19.0
44, 19.0
45, 19.0
46, 19.0
47, 19.0
48, 19.0
49, 19.0
50, 19.0
51, 19.0
52, 19.0
53, 19.0
54, 19.0
55, 19.0
56, 19.0
57, 19.0
58, 19.0
59, 19.0
60, 19.0
61, 19.0
62, 19.0
63, 19.0
64, 19.0
65, 19.0
66, 19.0
67, 19.0
68, 19.0
69, 19.0
70, 19.0
71, 19.0
72, 19.0
73, 19.0
74, 19.0
75, 19.0
76, 19.0
77, 19.0
78, 19.0
79, 19.0
80, 19.0
81, 19.0
82, 19.0
83, 19.0
84, 19.0
85, 19.0
86, 19.0
87, 19.0
88, 19.0
89, 19.0
90, 19.0
91, 19.0
92, 19.0
93, 19.0
94, 19.0
95, 19.0
96, 19.0
97, 19.0
98, 19.0
99, 19.0
100, 19.0
101, 19.0
102, 19.0
103, 19.0
104, 19.0
105, 19.0
