i, Result
0, 0.0
1, 0.0
2, 0.0
3, 1.0
4, 2.0
5, 3.0
6, 4.0
7, 5.0
8, 5.0
9, 6.0
10, 6.0
11, 7.0
12, 7.0
13, 7.0
14, 7.0
15, 7.0
16, 8.0
17, 8.0
18, 8.0
19, 8.0
20, 9.0
21, 10.0
22, 11.0
23, 12.0
24, 12.0
25, 12.0
26, 12.0
27, 12.0
28, 12.0
29, 12.0
30, 13.0
31, 14.0
32, 15.0
33, 15.0
34, 16.0
35, 16.0
36, 16.0
37, 17.0
38, 17.0
39, 17.0
40, 18.0
41, 18.0
42, 19.0
43, 19.0
44, 20.0
45, 20.0
46, 20.0
47, 21.0
48, 22.0
49, 22.0
50, 22.0
51, 22.0
52, 22.0
53, 22.0
54, 23.0
55, 24.0
56, 24.0
57, 25.0
58, 26.0
59, 27.0
60, 27.0
61, 27.0
62, 28.0
63, 29.0
64, 30.0
65, 30.0
66, 31.0
67, 32.0
68, 32.0
69, 32.0
70, 32.0
71, 32.0
72, 32.0
73, 32.0
74, 32.0
75, 32.0
76, 32.0
77, 32.0
78, 32.0
79, 32.0
80, 32.0
81, 32.0
82, 32.0
83, 32.0
84, 32.0
85, 32.0
86, 32.0
87, 32.0
88, 32.0
89, 32.0
90, 32.0
91, 32.0
92, 32.0
93, 32.0
94, 32.0
95, 32.0
96, 32.0
97, 32.0
98, 32.0
99, 32.0
100, 32.0
101, 32.0
102, 32.0
103, 32.0
104, 32.0
105, 32.0
