i, Result
0, 0.0
1, 0.0
2, 0.0
3, 1.0
4, 2.0
5, 3.0
6, 4.0
7, 5.0
8, 6.0
9, 6.0
10, 7.0
11, 8.0
12, 9.0
13, 10.0
14, 11.0
15, 11.0
16, 11.0
17, 11.0
18, 11.0
19, 11.0
20, 11.0
21, 11.0
22, 11.0
23, 11.0
24, 11.0
25, 11.0
26, 12.0
27, 13.0
28, 13.0
29, 14.0
30, 14.0
31, 15.0
32, 16.0
33, 17.0
34, 17.0
35, 18.0
36, 18.0
37, 19.0
38, 19.0
39, 19.0
40, 19.0
41, 19.0
42, 19.0
43, 20.0
44, 21.0
45, 21.0
46, 22.0
47, 23.0
48, 23.0
49, 24.0
50, 25.0
51, 26.0
52, 27.0
53, 28.0
54, 28.0
55, 28.0
56, 28.0
57, 29.0
58, 30.0
59, 30.0
60, 30.0
61, 30.0
62, 31.0
63, 31.0
64, 31.0
65, 31.0
66, 31.0
67, 31.0
68, 31.0
69, 31.0
70, 31.0
71, 31.0
72, 31.0
73, 31.0
74, 31.0
75, 31.0
76, 31.0
77, 31.0
78, 31.0
79, 31.0
80, 31.0
81, 31.0
82, 31.0
83, 31.0
84, 31.0
85, 31.0
86, 31.0
87, 31.0
88, 31.0
89, 31.0
90, 31.0
91, 31.0
92, 31.0
93, 31.0
94, 31.0
95, 31.0
96, 31.0
97, 31.0
98, 31.0
99, 31.0
100, 31.0
101, 31.0
102, 31.0
103, 31.0
104, 31.0
105, 31.0
