i, Result
0, 0.0
1, 0.0
2, 0.0
3, 0.0
4, 0.0
5, 0.0
6, 0.0
7, 0.0
8, 1.0
9, 1.0
10, 1.0
11, 1.0
12, 1.0
13, 2.0
14, 2.0
15, 2.0
16, 3.0
17, 4.0
18, 4.0
19, 5.0
20, 6.0
21, 6.0
22, 6.0
23, 7.0
24, 8.0
25, 9.0
26, 10.0
27, 10.0
28, 11.0
29, 12.0
30, 12.0
31, 12.0
32, 13.0
33, 13.0
34, 14.0
35, 15.0
36, 16.0
37, 17.0
38, 17.0
39, 17.0
40, 17.0
41, 17.0
42, 17.0
43, 18.0
44, 18.0
45, 18.0
46, 18.0
47, 19.0
48, 20.0
49, 20.0
50, 20.0
51, 21.0
52, 22.0
53, 23.0
54, 24.0
55, 25.0
56, 25.0
57, 25.0
58, 25.0
59, 26.0
60, 27.0
61, 28.0
62, 28.0
63, 29.0
64, 30.0
65, 30.0
66, 30.0
67, 31.0
68, 32.0
69, 32.0
70, 33.0
71, 33.0
72, 33.0
73, 33.0
74, 33.0
75, 33.0
76, 33.0
77, 33.0
78, 33.0
79, 33.0
80, 33.0
81, 33.0
82, 33.0
83, 33.0
84, 33.0
85, 33.0
86, 33.0
87, 33.0
88, 33.0
89, 33.0
90, 33.0
91, 33.0
92, 33.0
93, 33.0
94, 33.0
95, 33.0
96, 33.0
97, 33.0
98, 33.0
99, 33.0
100, 33.0
101, 33.0
102, 33.0
103, 33.0
104, 33.0
105, 33.0
