i, Result
0, 0.0
1, 0.0
2, 0.0
3, 0.0
4, 0.0
5, 0.0
6, 1.0
7, 1.0
8, 2.0
9, 3.0
10, 3.0
11, 3.0
12, 4.0
13, 4.0
14, 4.0
15, 5.0
16, 6.0
17, 7.0
18, 8.0
19, 8.0
20, 8.0
21, 8.0
22, 8.0
23, 9.0
24, 10.0
25, 11.0
26, 11.0
27, 11.0
28, 11.0
29, 11.0
30, 12.0
31, 13.0
32, 14.0
33, 15.0
34, 16.0
35, 17.0
36, 17.0
37, 18.0
38, 18.0
39, 19.0
40, 20.0
41, 21.0
42, 22.0
43, 22.0
44, 22.0
45, 23.0
46, 24.0
47, 24.0
48, 25.0
49, 25.0
50, 26.0
51, 27.0
52, 28.0
53, 29.0
54, 29.0
55, 30.0
56, 31.0
57, 31.0
58, 32.0
59, 33.0
60, 34.0
61, 35.0
62, 35.0
63, 35.0
64, 35.0
65, 35.0
66, 35.0
67, 35.0
68, 35.0
69, 35.0
70, 35.0
71, 35.0
72, 35.0
73, 35.0
74, 35.0
75, 35.0
76, 35.0
77, 35.0
78, 35.0
79, 35.0
80, 35.0
81, 35.0
82, 35.0
83, 35.0
84, 35.0
85, 35.0
86, 35.0
87, 35.0
88, 35.0
89, 35.0
90, 35.0
91, 35.0
92, 35.0
93, 35.0
94, 35.0
95, 35.0
96, 35.0
97, 35.0
98, 35.0
99, 35.0
100, 35.0
101, 35.0
102, 35.0
103, 35.0
104, 35.0
105, 35.0
