i, Result
0, 0.0
1, 0.0
2, 0.0
3, 1.0
4, 2.0
5, 2.0
6, 2.0
7, 2.0
8, 3.0
9, 3.0
10, 4.0
11, 4.0
12, 5.0
13, 5.0
14, 6.0
15, 6.0
16, 6.0
17, 7.0
18, 7.0
19, 7.0
20, 7.0
21, 7.0
22, 7.0
23, 7.0
24, 8.0
25, 8.0
26, 9.0
27, 9.0
28, 9.0
29, 10.0
30, 10.0
31, 10.0
32, 10.0
33, 11.0
34, 12.0
35, 13.0
36, 13.0
37, 13.0
38, 14.0
39, 15.0
40, 15.0
41, 16.0
42, 16.0
43, 17.0
44, 18.0
45, 18.0
46, 19.0
47, 20.0
48, 21.0
49, 21.0
50, 21.0
51, 21.0
52, 21.0
53, 22.0
54, 22.0
55, 23.0
56, 24.0
57, 25.0
58, 25.0
59, 25.0
60, 26.0
61, 27.0
62, 28.0
63, 28.0
64, 29.0
65, 30.0
66, 30.0
67, 31.0
68, 31.0
69, 31.0
70, 32.0
71, 32.0
72, 32.0
73, 32.0
74, 32.0
75, 32.0
76, 32.0
77, 32.0
78, 32.0
79, 32.0
80, 32.0
81, 32.0
82, 32.0
83, 32.0
84, 32.0
85, 32.0
86, 32.0
87, 32.0
88, 32.0
89, 32.0
90, 32.0
91, 32.0
92, 32.0
93, 32.0
94, 32.0
95, 32.0
96, 32.0
97, 32.0
98, 32.0
99, 32.0
100, 32.0
101, 32.0
102, 32.0
103, 32.0
104, 32.0
105, 32.0
