i, Result
0, 0.0
1, 0.0
2, 0.0
3, 0.0
4, 0.0
5, 0.0
6, 0.0
7, 0.0
8, 1.0
9, 2.0
10, 3.0
11, 4.0
12, 5.0
13, 5.0
14, 5.0
15, 6.0
16, 7.0
17, 8.0
18, 9.0
19, 9.0
20, 9.0
21, 10.0
22, 11.0
23, 12.0
24, 13.0
25, 13.0
26, 14.0
27, 14.0
28, 14.0
29, 14.0
30, 14.0
31, 14.0
32, 14.0
33, 14.0
34, 15.0
35, 16.0
36, 17.0
37, 17.0
38, 17.0
39, 18.0
40, 19.0
41, 20.0
42, 21.0
43, 22.0
44, 23.0
45, 23.0
46, 23.0
47, 24.0
48, 24.0
49, 25.0
50, 25.0
51, 25.0
52, 25.0
53, 26.0
54, 27.0
55, 28.0
56, 29.0
57, 29.0
58, 30.0
59, 30.0
60, 31.0
61, 31.0
62, 31.0
63, 32.0
64, 33.0
65, 33.0
66, 34.0
67, 35.0
68, 36.0
69, 36.0
70, 36.0
71, 36.0
72, 36.0
73, 37.0
74, 38.0
75, 38.0
76, 38.0
77, 38.0
78, 38.0
79, 38.0
80, 38.0
81, 38.0
82, 38.0
83, 38.0
84, 38.0
85, 38.0
86, 38.0
87, 38.0
88, 38.0
89, 38.0
90, 38.0
91, 38.0
92, 38.0
93, 38.0
94, 38.0
95, 38.0
96, 38.0
97, 38.0
98, 38.0
99, 38.0
100, 38.0
101, 38.0
102, 38.0
103, 38.0
104, 38.0
105, 38.0
