i, Result
0, 0.0
1, 0.0
2, 0.0
3, 1.0
4, 1.0
5, 2.0
6, 3.0
7, 4.0
8, 5.0
9, 5.0
10, 6.0
11, 7.0
12, 8.0
13, 9.0
14, 9.0
15, 9.0
16, 10.0
17, 10.0
18, 11.0
19, 12.0
20, 13.0
21, 13.0
22, 13.0
23, 13.0
24, 14.0
25, 15.0
26, 16.0
27, 17.0
28, 18.0
29, 18.0
30, 18.0
31, 18.0
32, 19.0
33, 19.0
34, 20.0
35, 20.0
36, 20.0
37, 20.0
38, 21.0
39, 21.0
40, 22.0
41, 23.0
42, 23.0
43, 24.0
44, 25.0
45, 25.0
46, 25.0
47, 25.0
48, 25.0
49, 25.0
50, 25.0
51, 26.0
52, 26.0
53, 26.0
54, 26.0
55, 26.0
56, 26.0
57, 27.0
58, 28.0
59, 29.0
60, 30.0
61, 31.0
62, 32.0
63, 33.0
64, 33.0
65, 33.0
66, 33.0
67, 33.0
68, 33.0
69, 33.0
70, 33.0
71, 33.0
72, 33.0
73, 33.0
74, 33.0
75, 33.0
76, 33.0
77, 33.0
78, 33.0
79, 33.0
80, 33.0
81, 33.0
82, 33.0
83, 33.0
84, 33.0
85, 33.0
86, 33.0
87, 33.0
88, 33.0
89, 33.0
90, 33.0
91, 33.0
92, 33.0
93, 33.0
94, 33.0
95, 33.0
96, 33.0
97, 33.0
98, 33.0
99, 33.0
100, 33.0
101, 33.0
102, 33.0
103, 33.0
104, 33.0
105, 33.0
