i, Result
0, 0.0
1, 0.0
2, 0.0
3, 1.0
4, 2.0
5, 3.0
6, 4.0
7, 5.0
8, 6.0
9, 7.0
10, 8.0
11, 8.0
12, 9.0
13, 9.0
14, 9.0
15, 9.0
16, 9.0
17, 10.0
18, 10.0
19, 10.0
20, 11.0
21, 11.0
22, 12.0
23, 13.0
24, 14.0
25, 14.0
26, 15.0
27, 16.0
28, 16.0
29, 17.0
30, 18.0
31, 18.0
32, 18.0
33, 19.0
34, 20.0
35, 21.0
36, 21.0
37, 22.0
38, 22.0
39, 23.0
40, 24.0
41, 24.0
42, 25.0
43, 25.0
44, 26.0
45, 26.0
46, 26.0
47, 27.0
48, 28.0
49, 28.0
50, 28.0
51, 28.0
52, 29.0
53, 30.0
54, 31.0
55, 31.0
56, 32.0
57, 32.0
58, 33.0
59, 33.0
60, 34.0
61, 34.0
62, 35.0
63, 35.0
64, 36.0
65, 36.0
66, 37.0
67, 37.0
68, 37.0
69, 37.0
70, 38.0
71, 38.0
72, 39.0
73, 39.0
74, 40.0
75, 40.0
76, 40.0
77, 41.0
78, 41.0
79, 41.0
80, 41.0
81, 41.0
82, 41.0
83, 41.0
84, 41.0
85, 41.0
86, 41.0
87, 41.0
88, 41.0
89, 41.0
90, 41.0
91, 41.0
92, 41.0
93, 41.0
94, 41.0
95, 41.0
96, 41.0
97, 41.0
98, 41.0
99, 41.0
100, 41.0
101, 41.0
102, 41.0
103, 41.0
104, 41.0
105, 41.0
