i, Result
0, 0.0
1, 0.0
2, 0.0
3, 0.0
4, 1.0
5, 1.0
6, 1.0
7, 1.0
8, 1.0
9, 2.0
10, 2.0
11, 2.0
12, 3.0
13, 3.0
14, 3.0
15, 4.0
16, 4.0
17, 4.0
18, 4.0
19, 5.0
20, 6.0
21, 7.0
22, 7.0
23, 7.0
24, 8.0
25, 8.0
26, 9.0
27, 10.0
28, 10.0
29, 10.0
30, 10.0
31, 10.0
32, 11.0
33, 12.0
34, 12.0
35, 13.0
36, 14.0
37, 14.0
38, 15.0
39, 15.0
40, 16.0
41, 16.0
42, 17.0
43, 18.0
44, 19.0
45, 20.0
46, 20.0
47, 20.0
48, 21.0
49, 22.0
50, 23.0
51, 24.0
52, 25.0
53, 25.0
54, 25.0
55, 25.0
56, 25.0
57, 26.0
58, 27.0
59, 27.0
60, 27.0
61, 28.0
62, 29.0
63, 29.0
64, 29.0
65, 29.0
66, 29.0
67, 29.0
68, 29.0
69, 29.0
70, 29.0
71, 29.0
72, 29.0
73, 29.0
74, 29.0
75, 29.0
76, 29.0
77, 29.0
78, 29.0
79, 29.0
80, 29.0
81, 29.0
82, 29.0
83, 29.0
84, 29.0
85, 29.0
86, 29.0
87, 29.0
88, 29.0
89, 29.0
90, 29.0
91, 29.0
92, 29.0
93, 29.0
94, 29.0
95, 29.0
96, 29.0
97, 29.0
98, 29.0
99, 29.0
100, 29.0
101, 29.0
102, 29.0
103, 29.0
104, 29.0
105, 29.0
