i, Result
0, 0.0
1, 0.0
2, 0.0
3, 0.0
4, 1.0
5, 1.0
6, 2.0
7, 3.0
8, 3.0
9, 3.0
10, 4.0
11, 4.0
12, 4.0
13, 4.0
14, 4.0
15, 4.0
16, 4.0
17, 4.0
18, 4.0
19, 5.0
20, 6.0
21, 6.0
22, 6.0
23, 7.0
24, 8.0
25, 8.0
26, 8.0
27, 9.0
28, 10.0
29, 11.0
30, 11.0
31, 11.0
32, 11.0
33, 11.0
34, 11.0
35, 12.0
36, 12.0
37, 12.0
38, 12.0
39, 13.0
40, 13.0
41, 14.0
42, 14.0
43, 14.0
44, 14.0
45, 15.0
46, 15.0
47, 16.0
48, 17.0
49, 18.0
50, 19.0
51, 19.0
52, 19.0
53, 20.0
54, 20.0
55, 20.0
56, 21.0
57, 22.0
58, 23.0
59, 23.0
60, 24.0
61, 25.0
62, 26.0
63, 27.0
64, 27.0
65, 28.0
66, 29.0
67, 30.0
68, 30.0
69, 30.0
70, 30.0
71, 30.0
72, 30.0
73, 30.0
74, 30.0
75, 30.0
76, 30.0
77, 30.0
78, 30.0
79, 30.0
80, 30.0
81, 30.0
82, 30.0
83, 30.0
84, 30.0
85, 30.0
86, 30.0
87, 30.0
88, 30.0
89, 30.0
90, 30.0
91, 30.0
92, 30.0
93, 30.0
94, 30.0
95, 30.0
96, 30.0
97, 30.0
98, 30.0
99, 30.0
100, 30.0
101, 30.0
102, 30.0
103, 30.0
104, 30.0
105, 30.0
