i, Result
0, 0.0
1, 0.0
2, 0.0
3, 0.0
4, 0.0
5, 0.0
6, 0.0
7, 1.0
8, 1.0
9, 1.0
10, 1.0
11, 2.0
12, 2.0
13, 3.0
14, 3.0
15, 3.0
16, 4.0
17, 4.0
18, 5.0
19, 5.0
20, 6.0
21, 7.0
22, 7.0
23, 7.0
24, 7.0
25, 7.0
26, 8.0
27, 8.0
28, 8.0
29, 9.0
30, 9.0
31, 9.0
32, 10.0
33, 11.0
34, 12.0
35, 12.0
36, 12.0
37, 12.0
38, 12.0
39, 12.0
40, 12.0
41, 12.0
42, 12.0
43, 12.0
44, 12.0
45, 12.0
46, 12.0
47, 12.0
48, 12.0
49, 12.0
50, 12.0
51, 12.0
52, 12.0
53, 12.0
54, 12.0
55, 12.0
56, 12.0
57, 12.0
58, 12.0
59, 12.0
60, 12.0
61, 12.0
62, 12.0
63, 12.0
64, 12.0
65, 12.0
66, 12.0
67, 12.0
68, 12.0
69, 12.0
70, 12.0
71, 12.0
72, 12.0
73, 12.0
74, 12.0
75, 12.0
76, 12.0
77, 12.0
78, 12.0
79, 12.0
80, 12.0
81, 12.0
82, 12.0
83, 12.0
84, 12.0
85, 12.0
86, 12.0
87, 12.0
88, 12.0
89, 12.0
90, 12.0
91, 12.0
92, 12.0
93, 12.0
94, 12.0
95, 12.0
96, 12.0
97, 12.0
98, 12.0
99, 12.0
100, 12.0
101, 12.0
102, 12.0
103, 12.0
104, 12.0
105, 12.0
