i, Result
0, 0.0
1, 0.0
2, 0.0
3, 1.0
4, 1.0
5, 1.0
6, 2.0
7, 3.0
8, 3.0
9, 4.0
10, 4.0
11, 5.0
12, 5.0
13, 5.0
14, 5.0
15, 6.0
16, 6.0
17, 7.0
18, 8.0
19, 8.0
20, 9.0
21, 9.0
22, 9.0
23, 9.0
24, 10.0
25, 11.0
26, 12.0
27, 13.0
28, 14.0
29, 15.0
30, 16.0
31, 17.0
32, 17.0
33, 17.0
34, 17.0
35, 18.0
36, 19.0
37, 19.0
38, 20.0
39, 21.0
40, 22.0
41, 23.0
42, 24.0
43, 25.0
44, 26.0
45, 26.0
46, 26.0
47, 27.0
48, 28.0
49, 29.0
50, 30.0
51, 31.0
52, 31.0
53, 32.0
54, 33.0
55, 33.0
56, 33.0
57, 33.0
58, 34.0
59, 34.0
60, 34.0
61, 34.0
62, 34.0
63, 35.0
64, 36.0
65, 36.0
66, 36.0
67, 36.0
68, 36.0
69, 37.0
70, 37.0
71, 37.0
72, 38.0
73, 38.0
74, 38.0
75, 38.0
76, 38.0
77, 38.0
78, 38.0
79, 38.0
80, 38.0
81, 38.0
82, 38.0
83, 38.0
84, 38.0
85, 38.0
86, 38.0
87, 38.0
88, 38.0
89, 38.0
90, 38.0
91, 38.0
92, 38.0
93, 38.0
94, 38.0
95, 38.0
96, 38.0
97, 38.0
98, 38.0
99, 38.0
100, 38.0
101, 38.0
102, 38.0
103, 38.0
104, 38.0
105, 38.0
