i, Result
0, 0.0
1, 0.0
2, 0.0
3, 0.0
4, 0.0
5, 1.0
6, 1.0
7, 1.0
8, 1.0
9, 1.0
10, 1.0
11, 2.0
12, 3.0
13, 3.0
14, 3.0
15, 3.0
16, 3.0
17, 3.0
18, 4.0
19, 4.0
20, 4.0
21, 4.0
22, 4.0
23, 5.0
24, 5.0
25, 6.0
26, 7.0
27, 7.0
28, 7.0
29, 7.0
30, 7.0
31, 8.0
32, 8.0
33, 9.0
34, 10.0
35, 10.0
36, 10.0
37, 10.0
38, 11.0
39, 11.0
40, 11.0
41, 12.0
42, 13.0
43, 13.0
44, 13.0
45, 13.0
46, 14.0
47, 15.0
48, 16.0
49, 16.0
50, 16.0
51, 16.0
52, 16.0
53, 17.0
54, 18.0
55, 18.0
56, 19.0
57, 19.0
58, 19.0
59, 19.0
60, 19.0
61, 19.0
62, 19.0
63, 19.0
64, 19.0
65, 19.0
66, 19.0
67, 19.0
68, 19.0
69, 19.0
70, 19.0
71, 19.0
72, 19.0
73, 19.0
74, 19.0
75, 19.0
76, 19.0
77, 19.0
78, 19.0
79, 19.0
80, 19.0
81, 19.0
82, 19.0
83, 19.0
84, 19.0
85, 19.0
86, 19.0
87, 19.0
88, 19.0
89, 19.0
90, 19.0
91, 19.0
92, 19.0
93, 19.0
94, 19.0
95, 19.0
96, 19.0
97, 19.0
98, 19.0
99, 19.0
100, 19.0
101, 19.0
102, 19.0
103, 19.0
104, 19.0
105, 19.0
