i, Result
0, 0.0
1, 0.0
2, 0.0
3, 0.0
4, 0.0
5, 0.0
6, 0.0
7, 1.0
8, 1.0
9, 1.0
10, 2.0
11, 3.0
12, 4.0
13, 4.0
14, 5.0
15, 5.0
16, 5.0
17, 5.0
18, 6.0
19, 6.0
20, 7.0
21, 7.0
22, 7.0
23, 7.0
24, 8.0
25, 8.0
26, 9.0
27, 9.0
28, 9.0
29, 9.0
30, 10.0
31, 11.0
32, 11.0
33, 11.0
34, 11.0
35, 11.0
36, 11.0
37, 11.0
38, 12.0
39, 12.0
40, 12.0
41, 13.0
42, 14.0
43, 15.0
44, 16.0
45, 17.0
46, 18.0
47, 19.0
48, 20.0
49, 21.0
50, 21.0
51, 22.0
52, 22.0
53, 22.0
54, 22.0
55, 23.0
56, 23.0
57, 23.0
58, 23.0
59, 23.0
60, 24.0
61, 25.0
62, 26.0
63, 26.0
64, 27.0
65, 28.0
66, 29.0
67, 30.0
68, 30.0
69, 30.0
70, 30.0
71, 30.0
72, 31.0
73, 31.0
74, 31.0
75, 31.0
76, 31.0
77, 31.0
78, 31.0
79, 31.0
80, 31.0
81, 31.0
82, 31.0
83, 31.0
84, 31.0
85, 31.0
86, 31.0
87, 31.0
88, 31.0
89, 31.0
90, 31.0
91, 31.0
92, 31.0
93, 31.0
94, 31.0
95, 31.0
96, 31.0
97, 31.0
98, 31.0
99, 31.0
100, 31.0
101, 31.0
102, 31.0
103, 31.0
104, 31.0
105, 31.0
