i, Result
0, 0.0
1, 0.0
2, 0.0
3, 0.0
4, 1.0
5, 1.0
6, 1.0
7, 1.0
8, 2.0
9, 3.0
10, 4.0
11, 5.0
12, 6.0
13, 6.0
14, 6.0
15, 6.0
16, 6.0
17, 7.0
18, 7.0
19, 7.0
20, 8.0
21, 8.0
22, 9.0
23, 9.0
24, 9.0
25, 10.0
26, 10.0
27, 11.0
28, 11.0
29, 11.0
30, 11.0
31, 11.0
32, 11.0
33, 12.0
34, 13.0
35, 13.0
36, 14.0
37, 15.0
38, 16.0
39, 17.0
40, 17.0
41, 17.0
42, 18.0
43, 19.0
44, 20.0
45, 20.0
46, 21.0
47, 22.0
48, 22.0
49, 22.0
50, 22.0
51, 22.0
52, 23.0
53, 23.0
54, 24.0
55, 25.0
56, 26.0
57, 27.0
58, 27.0
59, 27.0
60, 28.0
61, 29.0
62, 29.0
63, 29.0
64, 29.0
65, 29.0
66, 29.0
67, 29.0
68, 29.0
69, 29.0
70, 29.0
71, 29.0
72, 29.0
73, 29.0
74, 29.0
75, 29.0
76, 29.0
77, 29.0
78, 29.0
79, 29.0
80, 29.0
81, 29.0
82, 29.0
83, 29.0
84, 29.0
85, 29.0
86, 29.0
87, 29.0
88, 29.0
89, 29.0
90, 29.0
91, 29.0
92, 29.0
93, 29.0
94, 29.0
95, 29.0
96, 29.0
97, 29.0
98, 29.0
99, 29.0
100, 29.0
101, 29.0
102, 29.0
103, 29.0
104, 29.0
105, 29.0
