i, Result
0, 0.0
1, 0.0
2, 0.0
3, 0.0
4, 0.0
5, 0.0
6, 1.0
7, 2.0
8, 2.0
9, 2.0
10, 2.0
11, 2.0
12, 2.0
13, 2.0
14, 3.0
15, 4.0
16, 5.0
17, 6.0
18, 6.0
19, 6.0
20, 7.0
21, 7.0
22, 8.0
23, 9.0
24, 9.0
25, 9.0
26, 10.0
27, 11.0
28, 12.0
29, 13.0
30, 14.0
31, 14.0
32, 14.0
33, 14.0
34, 14.0
35, 15.0
36, 15.0
37, 16.0
38, 17.0
39, 18.0
40, 18.0
41, 18.0
42, 18.0
43, 19.0
44, 19.0
45, 20.0
46, 20.0
47, 20.0
48, 20.0
49, 21.0
50, 21.0
51, 21.0
52, 21.0
53, 21.0
54, 22.0
55, 23.0
56, 23.0
57, 23.0
58, 23.0
59, 23.0
60, 23.0
61, 23.0
62, 23.0
63, 23.0
64, 23.0
65, 23.0
66, 23.0
67, 23.0
68, 23.0
69, 23.0
70, 23.0
71, 23.0
72, 23.0
73, 23.0
74, 23.0
75, 23.0
76, 23.0
77, 23.0
78, 23.0
79, 23.0
80, 23.0
81, 23.0
82, 23.0
83, 23.0
84, 23.0
85, 23.0
86, 23.0
87, 23.0
88, 23.0
89, 23.0
90, 23.0
91, 23.0
92, 23.0
93, 23.0
94, 23.0
95, 23.0
96, 23.0
97, 23.0
98, 23.0
99, 23.0
100, 23.0
101, 23.0
102, 23.0
103, 23.0
104, 23.0
105, 23.0
