i, Result
0, 0.0
1, 0.0
2, 0.0
3, 0.0
4, 1.0
5, 1.0
6, 2.0
7, 2.0
8, 3.0
9, 3.0
10, 4.0
11, 4.0
12, 4.0
13, 4.0
14, 5.0
15, 6.0
16, 6.0
17, 7.0
18, 8.0
19, 8.0
20, 9.0
21, 9.0
22, 10.0
23, 10.0
24, 11.0
25, 12.0
26, 12.0
27, 12.0
28, 12.0
29, 12.0
30, 12.0
31, 13.0
32, 13.0
33, 14.0
34, 14.0
35, 15.0
36, 15.0
37, 16.0
38, 17.0
39, 18.0
40, 18.0
41, 18.0
42, 19.0
43, 20.0
44, 20.0
45, 20.0
46, 20.0
47, 20.0
48, 21.0
49, 22.0
50, 22.0
51, 22.0
52, 22.0
53, 22.0
54, 23.0
55, 23.0
56, 23.0
57, 23.0
58, 24.0
59, 25.0
60, 26.0
61, 27.0
62, 28.0
63, 28.0
64, 28.0
65, 28.0
66, 28.0
67, 29.0
68, 30.0
69, 30.0
70, 30.0
71, 30.0
72, 30.0
73, 30.0
74, 30.0
75, 30.0
76, 30.0
77, 30.0
78, 30.0
79, 30.0
80, 30.0
81, 30.0
82, 30.0
83, 30.0
84, 30.0
85, 30.0
86, 30.0
87, 30.0
88, 30.0
89, 30.0
90, 30.0
91, 30.0
92, 30.0
93, 30.0
94, 30.0
95, 30.0
96, 30.0
97, 30.0
98, 30.0
99, 30.0
100, 30.0
101, 30.0
102, 30.0
103, 30.0
104, 30.0
105, 30.0
