i, Result
0, 0.0
1, 0.0
2, 0.0
3, 1.0
4, 2.0
5, 2.0
6, 3.0
7, 4.0
8, 5.0
9, 6.0
10, 6.0
11, 7.0
12, 8.0
13, 8.0
14, 9.0
15, 10.0
16, 10.0
17, 10.0
18, 11.0
19, 11.0
20, 11.0
21, 12.0
22, 13.0
23, 14.0
24, 15.0
25, 16.0
26, 16.0
27, 16.0
28, 16.0
29, 17.0
30, 18.0
31, 19.0
32, 20.0
33, 21.0
34, 22.0
35, 22.0
36, 23.0
37, 24.0
38, 24.0
39, 24.0
40, 25.0
41, 25.0
42, 26.0
43, 26.0
44, 27.0
45, 27.0
46, 28.0
47, 28.0
48, 29.0
49, 30.0
50, 31.0
51, 32.0
52, 33.0
53, 33.0
54, 34.0
55, 34.0
56, 35.0
57, 35.0
58, 36.0
59, 37.0
60, 38.0
61, 39.0
62, 39.0
63, 39.0
64, 39.0
65, 39.0
66, 39.0
67, 39.0
68, 39.0
69, 39.0
70, 39.0
71, 39.0
72, 39.0
73, 39.0
74, 39.0
75, 39.0
76, 39.0
77, 39.0
78, 39.0
79, 39.0
80, 39.0
81, 39.0
82, 39.0
83, 39.0
84, 39.0
85, 39.0
86, 39.0
87, 39.0
88, 39.0
89, 39.0
90, 39.0
91, 39.0
92, 39.0
93, 39.0
94, 39.0
95, 39.0
96, 39.0
97, 39.0
98, 39.0
99, 39.0
100, 39.0
101, 39.0
102, 39.0
103, 39.0
104, 39.0
105, 39.0
