i, Result
0, 0.0
1, 0.0
2, 0.0
3, 1.0
4, 2.0
5, 3.0
6, 4.0
7, 5.0
8, 5.0
9, 6.0
10, 7.0
11, 7.0
12, 7.0
13, 8.0
14, 8.0
15, 9.0
16, 10.0
17, 10.0
18, 11.0
19, 12.0
20, 12.0
21, 13.0
22, 14.0
23, 15.0
24, 16.0
25, 17.0
26, 17.0
27, 18.0
28, 19.0
29, 20.0
30, 20.0
31, 20.0
32, 21.0
33, 21.0
34, 21.0
35, 22.0
36, 22.0
37, 23.0
38, 23.0
39, 24.0
40, 25.0
41, 25.0
42, 26.0
43, 27.0
44, 27.0
45, 27.0
46, 27.0
47, 28.0
48, 29.0
49, 30.0
50, 30.0
51, 31.0
52, 32.0
53, 32.0
54, 33.0
55, 33.0
56, 33.0
57, 34.0
58, 34.0
59, 35.0
60, 35.0
61, 35.0
62, 35.0
63, 36.0
64, 37.0
65, 38.0
66, 38.0
67, 38.0
68, 38.0
69, 38.0
70, 38.0
71, 38.0
72, 38.0
73, 38.0
74, 38.0
75, 38.0
76, 38.0
77, 38.0
78, 38.0
79, 38.0
80, 38.0
81, 38.0
82, 38.0
83, 38.0
84, 38.0
85, 38.0
86, 38.0
87, 38.0
88, 38.0
89, 38.0
90, 38.0
91, 38.0
92, 38.0
93, 38.0
94, 38.0
95, 38.0
96, 38.0
97, 38.0
98, 38.0
99, 38.0
100, 38.0
101, 38.0
102, 38.0
103, 38.0
104, 38.0
105, 38.0
