i, Result
0, 0.0
1, 0.0
2, 0.0
3, 1.0
4, 1.0
5, 2.0
6, 3.0
7, 4.0
8, 5.0
9, 6.0
10, 6.0
11, 6.0
12, 6.0
13, 7.0
14, 7.0
15, 7.0
16, 8.0
17, 9.0
18, 10.0
19, 10.0
20, 10.0
21, 10.0
22, 11.0
23, 12.0
24, 12.0
25, 13.0
26, 13.0
27, 13.0
28, 13.0
29, 14.0
30, 14.0
31, 14.0
32, 15.0
33, 16.0
34, 17.0
35, 18.0
36, 18.0
37, 19.0
38, 20.0
39, 21.0
40, 21.0
41, 22.0
42, 23.0
43, 24.0
44, 25.0
45, 25.0
46, 25.0
47, 26.0
48, 27.0
49, 27.0
50, 27.0
51, 27.0
52, 28.0
53, 29.0
54, 29.0
55, 30.0
56, 31.0
57, 32.0
58, 32.0
59, 33.0
60, 33.0
61, 33.0
62, 34.0
63, 35.0
64, 35.0
65, 36.0
66, 36.0
67, 37.0
68, 38.0
69, 39.0
70, 39.0
71, 39.0
72, 39.0
73, 39.0
74, 39.0
75, 39.0
76, 39.0
77, 39.0
78, 39.0
79, 39.0
80, 39.0
81, 39.0
82, 39.0
83, 39.0
84, 39.0
85, 39.0
86, 39.0
87, 39.0
88, 39.0
89, 39.0
90, 39.0
91, 39.0
92, 39.0
93, 39.0
94, 39.0
95, 39.0
96, 39.0
97, 39.0
98, 39.0
99, 39.0
100, 39.0
101, 39.0
102, 39.0
103, 39.0
104, 39.0
105, 39.0
