i, Result
0, 0.0
1, 0.0
2, 0.0
3, 0.0
4, 0.0
5, 1.0
6, 2.0
7, 3.0
8, 4.0
9, 5.0
10, 6.0
11, 7.0
12, 7.0
13, 8.0
14, 8.0
15, 8.0
16, 8.0
17, 9.0
18, 10.0
19, 10.0
20, 11.0
21, 12.0
22, 13.0
23, 14.0
24, 15.0
25, 16.0
26, 17.0
27, 18.0
28, 18.0
29, 19.0
30, 20.0
31, 21.0
32, 22.0
33, 23.0
34, 23.0
35, 23.0
36, 24.0
37, 25.0
38, 26.0
39, 27.0
40, 28.0
41, 29.0
42, 29.0
43, 29.0
44, 29.0
45, 29.0
46, 29.0
47, 30.0
48, 30.0
49, 31.0
50, 31.0
51, 31.0
52, 31.0
53, 32.0
54, 33.0
55, 34.0
56, 34.0
57, 34.0
58, 35.0
59, 35.0
60, 36.0
61, 37.0
62, 37.0
63, 38.0
64, 38.0
65, 38.0
66, 39.0
67, 40.0
68, 40.0
69, 40.0
70, 40.0
71, 40.0
72, 40.0
73, 40.0
74, 40.0
75, 40.0
76, 40.0
77, 40.0
78, 40.0
79, 40.0
80, 40.0
81, 40.0
82, 40.0
83, 40.0
84, 40.0
85, 40.0
86, 40.0
87, 40.0
88, 40.0
89, 40.0
90, 40.0
91, 40.0
92, 40.0
93, 40.0
94, 40.0
95, 40.0
96, 40.0
97, 40.0
98, 40.0
99, 40.0
100, 40.0
101, 40.0
102, 40.0
103, 40.0
104, 40.0
105, 40.0
