i, Result
0, 0.0
1, 0.0
2, 0.0
3, 0.0
4, 0.0
5, 0.0
6, 0.0
7, 0.0
8, 0.0
9, 1.0
10, 1.0
11, 2.0
12, 2.0
13, 2.0
14, 3.0
15, 4.0
16, 5.0
17, 6.0
18, 7.0
19, 7.0
20, 8.0
21, 8.0
22, 9.0
23, 9.0
24, 10.0
25, 11.0
26, 11.0
27, 12.0
28, 12.0
29, 13.0
30, 14.0
31, 15.0
32, 16.0
33, 16.0
34, 16.0
35, 17.0
36, 18.0
37, 18.0
38, 18.0
39, 18.0
40, 19.0
41, 20.0
42, 20.0
43, 20.0
44, 20.0
45, 20.0
46, 20.0
47, 21.0
48, 21.0
49, 21.0
50, 22.0
51, 22.0
52, 22.0
53, 23.0
54, 24.0
55, 24.0
56, 24.0
57, 24.0
58, 25.0
59, 25.0
60, 26.0
61, 26.0
62, 26.0
63, 27.0
64, 28.0
65, 29.0
66, 29.0
67, 30.0
68, 31.0
69, 32.0
70, 32.0
71, 32.0
72, 32.0
73, 32.0
74, 32.0
75, 32.0
76, 32.0
77, 32.0
78, 32.0
79, 32.0
80, 32.0
81, 32.0
82, 32.0
83, 32.0
84, 32.0
85, 32.0
86, 32.0
87, 32.0
88, 32.0
89, 32.0
90, 32.0
91, 32.0
92, 32.0
93, 32.0
94, 32.0
95, 32.0
96, 32.0
97, 32.0
98, 32.0
99, 32.0
100, 32.0
101, 32.0
102, 32.0
103, 32.0
104, 32.0
105, 32.0
