i, Result
0, 0.0
1, 0.0
2, 0.0
3, 0.0
4, 0.0
5, 0.0
6, 0.0
7, 1.0
8, 1.0
9, 2.0
10, 2.0
11, 3.0
12, 3.0
13, 4.0
14, 5.0
15, 6.0
16, 6.0
17, 7.0
18, 7.0
19, 8.0
20, 9.0
21, 10.0
22, 11.0
23, 12.0
24, 12.0
25, 13.0
26, 13.0
27, 14.0
28, 15.0
29, 16.0
30, 16.0
31, 17.0
32, 18.0
33, 18.0
34, 19.0
35, 19.0
36, 20.0
37, 21.0
38, 21.0
39, 22.0
40, 23.0
41, 24.0
42, 25.0
43, 25.0
44, 26.0
45, 27.0
46, 27.0
47, 28.0
48, 29.0
49, 30.0
50, 30.0
51, 30.0
52, 30.0
53, 31.0
54, 32.0
55, 32.0
56, 32.0
57, 33.0
58, 33.0
59, 33.0
60, 34.0
61, 35.0
62, 35.0
63, 36.0
64, 36.0
65, 37.0
66, 38.0
67, 39.0
68, 40.0
69, 41.0
70, 41.0
71, 42.0
72, 42.0
73, 42.0
74, 43.0
75, 44.0
76, 44.0
77, 44.0
78, 44.0
79, 44.0
80, 44.0
81, 44.0
82, 44.0
83, 44.0
84, 44.0
85, 44.0
86, 44.0
87, 44.0
88, 44.0
89, 44.0
90, 44.0
91, 44.0
92, 44.0
93, 44.0
94, 44.0
95, 44.0
96, 44.0
97, 44.0
98, 44.0
99, 44.0
100, 44.0
101, 44.0
102, 44.0
103, 44.0
104, 44.0
105, 44.0
