i, Result
0, 0.0
1, 0.0
2, 0.0
3, 1.0
4, 1.0
5, 2.0
6, 3.0
7, 3.0
8, 3.0
9, 3.0
10, 3.0
11, 4.0
12, 4.0
13, 5.0
14, 6.0
15, 6.0
16, 6.0
17, 6.0
18, 7.0
19, 7.0
20, 8.0
21, 9.0
22, 9.0
23, 10.0
24, 10.0
25, 11.0
26, 12.0
27, 13.0
28, 13.0
29, 14.0
30, 14.0
31, 14.0
32, 14.0
33, 14.0
34, 15.0
35, 15.0
36, 15.0
37, 15.0
38, 15.0
39, 16.0
40, 17.0
41, 18.0
42, 18.0
43, 19.0
44, 19.0
45, 20.0
46, 21.0
47, 21.0
48, 22.0
49, 22.0
50, 22.0
51, 22.0
52, 23.0
53, 24.0
54, 25.0
55, 26.0
56, 27.0
57, 27.0
58, 28.0
59, 28.0
60, 28.0
61, 29.0
62, 29.0
63, 30.0
64, 31.0
65, 32.0
66, 33.0
67, 33.0
68, 33.0
69, 33.0
70, 33.0
71, 33.0
72, 33.0
73, 33.0
74, 33.0
75, 33.0
76, 33.0
77, 33.0
78, 33.0
79, 33.0
80, 33.0
81, 33.0
82, 33.0
83, 33.0
84, 33.0
85, 33.0
86, 33.0
87, 33.0
88, 33.0
89, 33.0
90, 33.0
91, 33.0
92, 33.0
93, 33.0
94, 33.0
95, 33.0
96, 33.0
97, 33.0
98, 33.0
99, 33.0
100, 33.0
101, 33.0
102, 33.0
103, 33.0
104, 33.0
105, 33.0
