i, Result
0, 0.0
1, 0.0
2, 0.0
3, 1.0
4, 1.0
5, 2.0
6, 3.0
7, 3.0
8, 4.0
9, 5.0
10, 5.0
11, 6.0
12, 6.0
13, 7.0
14, 7.0
15, 8.0
16, 8.0
17, 8.0
18, 8.0
19, 8.0
20, 8.0
21, 9.0
22, 9.0
23, 10.0
24, 11.0
25, 12.0
26, 13.0
27, 13.0
28, 14.0
29, 15.0
30, 15.0
31, 16.0
32, 16.0
33, 17.0
34, 18.0
35, 18.0
36, 19.0
37, 19.0
38, 19.0
39, 20.0
40, 21.0
41, 21.0
42, 22.0
43, 22.0
44, 23.0
45, 24.0
46, 25.0
47, 26.0
48, 27.0
49, 28.0
50, 29.0
51, 30.0
52, 31.0
53, 31.0
54, 31.0
55, 31.0
56, 32.0
57, 33.0
58, 34.0
59, 35.0
60, 36.0
61, 37.0
62, 38.0
63, 39.0
64, 39.0
65, 40.0
66, 40.0
67, 41.0
68, 41.0
69, 42.0
70, 42.0
71, 42.0
72, 43.0
73, 44.0
74, 45.0
75, 45.0
76, 45.0
77, 45.0
78, 45.0
79, 45.0
80, 45.0
81, 45.0
82, 45.0
83, 45.0
84, 45.0
85, 45.0
86, 45.0
87, 45.0
88, 45.0
89, 45.0
90, 45.0
91, 45.0
92, 45.0
93, 45.0
94, 45.0
95, 45.0
96, 45.0
97, 45.0
98, 45.0
99, 45.0
100, 45.0
101, 45.0
102, 45.0
103, 45.0
104, 45.0
105, 45.0
