i, Result
0, 0.0
1, 0.0
2, 0.0
3, 0.0
4, 1.0
5, 1.0
6, 2.0
7, 2.0
8, 3.0
9, 4.0
10, 5.0
11, 5.0
12, 6.0
13, 6.0
14, 6.0
15, 6.0
16, 6.0
17, 6.0
18, 7.0
19, 7.0
20, 8.0
21, 9.0
22, 10.0
23, 11.0
24, 12.0
25, 13.0
26, 13.0
27, 13.0
28, 13.0
29, 14.0
30, 14.0
31, 15.0
32, 16.0
33, 16.0
34, 17.0
35, 17.0
36, 18.0
37, 19.0
38, 20.0
39, 21.0
40, 21.0
41, 22.0
42, 22.0
43, 22.0
44, 22.0
45, 23.0
46, 24.0
47, 24.0
48, 25.0
49, 26.0
50, 26.0
51, 26.0
52, 27.0
53, 28.0
54, 29.0
55, 29.0
56, 29.0
57, 30.0
58, 30.0
59, 30.0
60, 30.0
61, 31.0
62, 32.0
63, 33.0
64, 33.0
65, 33.0
66, 34.0
67, 35.0
68, 36.0
69, 36.0
70, 36.0
71, 36.0
72, 37.0
73, 38.0
74, 39.0
75, 39.0
76, 39.0
77, 39.0
78, 39.0
79, 39.0
80, 39.0
81, 39.0
82, 39.0
83, 39.0
84, 39.0
85, 39.0
86, 39.0
87, 39.0
88, 39.0
89, 39.0
90, 39.0
91, 39.0
92, 39.0
93, 39.0
94, 39.0
95, 39.0
96, 39.0
97, 39.0
98, 39.0
99, 39.0
100, 39.0
101, 39.0
102, 39.0
103, 39.0
104, 39.0
105, 39.0
