i, Result
0, 0.0
1, 0.0
2, 0.0
3, 0.0
4, 1.0
5, 2.0
6, 3.0
7, 4.0
8, 5.0
9, 5.0
10, 5.0
11, 5.0
12, 6.0
13, 7.0
14, 7.0
15, 8.0
16, 8.0
17, 8.0
18, 9.0
19, 10.0
20, 11.0
21, 11.0
22, 11.0
23, 11.0
24, 12.0
25, 12.0
26, 12.0
27, 13.0
28, 14.0
29, 14.0
30, 14.0
31, 15.0
32, 16.0
33, 16.0
34, 16.0
35, 17.0
36, 17.0
37, 18.0
38, 19.0
39, 19.0
40, 19.0
41, 19.0
42, 20.0
43, 21.0
44, 22.0
45, 22.0
46, 23.0
47, 24.0
48, 24.0
49, 24.0
50, 24.0
51, 24.0
52, 24.0
53, 25.0
54, 26.0
55, 27.0
56, 27.0
57, 28.0
58, 29.0
59, 30.0
60, 31.0
61, 32.0
62, 33.0
63, 33.0
64, 34.0
65, 34.0
66, 35.0
67, 35.0
68, 36.0
69, 37.0
70, 37.0
71, 37.0
72, 37.0
73, 37.0
74, 37.0
75, 37.0
76, 37.0
77, 37.0
78, 37.0
79, 37.0
80, 37.0
81, 37.0
82, 37.0
83, 37.0
84, 37.0
85, 37.0
86, 37.0
87, 37.0
88, 37.0
89, 37.0
90, 37.0
91, 37.0
92, 37.0
93, 37.0
94, 37.0
95, 37.0
96, 37.0
97, 37.0
98, 37.0
99, 37.0
100, 37.0
101, 37.0
102, 37.0
103, 37.0
104, 37.0
105, 37.0
