i, Result
0, 0.0
1, 0.0
2, 0.0
3, 0.0
4, 1.0
5, 1.0
6, 1.0
7, 1.0
8, 2.0
9, 2.0
10, 2.0
11, 2.0
12, 2.0
13, 2.0
14, 3.0
15, 3.0
16, 3.0
17, 3.0
18, 3.0
19, 4.0
20, 4.0
21, 5.0
22, 5.0
23, 5.0
24, 6.0
25, 7.0
26, 8.0
27, 9.0
28, 10.0
29, 11.0
30, 11.0
31, 12.0
32, 12.0
33, 13.0
34, 14.0
35, 14.0
36, 15.0
37, 16.0
38, 16.0
39, 17.0
40, 17.0
41, 17.0
42, 18.0
43, 18.0
44, 19.0
45, 20.0
46, 21.0
47, 22.0
48, 22.0
49, 23.0
50, 24.0
51, 25.0
52, 26.0
53, 27.0
54, 28.0
55, 29.0
56, 29.0
57, 30.0
58, 30.0
59, 30.0
60, 30.0
61, 30.0
62, 31.0
63, 31.0
64, 32.0
65, 33.0
66, 33.0
67, 34.0
68, 34.0
69, 34.0
70, 34.0
71, 34.0
72, 34.0
73, 34.0
74, 34.0
75, 34.0
76, 34.0
77, 34.0
78, 34.0
79, 34.0
80, 34.0
81, 34.0
82, 34.0
83, 34.0
84, 34.0
85, 34.0
86, 34.0
87, 34.0
88, 34.0
89, 34.0
90, 34.0
91, 34.0
92, 34.0
93, 34.0
94, 34.0
95, 34.0
96, 34.0
97, 34.0
98, 34.0
99, 34.0
100, 34.0
101, 34.0
102, 34.0
103, 34.0
104, 34.0
105, 34.0
