i, Result
0, 0.0
1, 0.0
2, 0.0
3, 1.0
4, 1.0
5, 1.0
6, 2.0
7, 3.0
8, 3.0
9, 3.0
10, 4.0
11, 4.0
12, 5.0
13, 5.0
14, 5.0
15, 6.0
16, 7.0
17, 8.0
18, 8.0
19, 8.0
20, 8.0
21, 8.0
22, 9.0
23, 10.0
24, 11.0
25, 11.0
26, 12.0
27, 13.0
28, 14.0
29, 15.0
30, 16.0
31, 16.0
32, 17.0
33, 17.0
34, 17.0
35, 17.0
36, 17.0
37, 17.0
38, 17.0
39, 17.0
40, 18.0
41, 18.0
42, 19.0
43, 19.0
44, 20.0
45, 20.0
46, 20.0
47, 21.0
48, 21.0
49, 22.0
50, 22.0
51, 23.0
52, 23.0
53, 23.0
54, 23.0
55, 23.0
56, 23.0
57, 24.0
58, 24.0
59, 25.0
60, 26.0
61, 26.0
62, 26.0
63, 26.0
64, 27.0
65, 28.0
66, 28.0
67, 28.0
68, 28.0
69, 28.0
70, 29.0
71, 30.0
72, 31.0
73, 32.0
74, 33.0
75, 33.0
76, 34.0
77, 34.0
78, 34.0
79, 34.0
80, 34.0
81, 34.0
82, 34.0
83, 34.0
84, 34.0
85, 34.0
86, 34.0
87, 34.0
88, 34.0
89, 34.0
90, 34.0
91, 34.0
92, 34.0
93, 34.0
94, 34.0
95, 34.0
96, 34.0
97, 34.0
98, 34.0
99, 34.0
100, 34.0
101, 34.0
102, 34.0
103, 34.0
104, 34.0
105, 34.0
