i, Result
0, 0.0
1, 0.0
2, 0.0
3, 1.0
4, 2.0
5, 2.0
6, 3.0
7, 4.0
8, 5.0
9, 5.0
10, 6.0
11, 6.0
12, 6.0
13, 6.0
14, 7.0
15, 8.0
16, 9.0
17, 9.0
18, 10.0
19, 10.0
20, 11.0
21, 12.0
22, 13.0
23, 14.0
24, 15.0
25, 16.0
26, 16.0
27, 17.0
28, 17.0
29, 17.0
30, 18.0
31, 19.0
32, 20.0
33, 21.0
34, 21.0
35, 21.0
36, 22.0
37, 22.0
38, 23.0
39, 23.0
40, 23.0
41, 23.0
42, 24.0
43, 24.0
44, 24.0
45, 25.0
46, 25.0
47, 26.0
48, 26.0
49, 26.0
50, 26.0
51, 27.0
52, 28.0
53, 28.0
54, 29.0
55, 30.0
56, 31.0
57, 32.0
58, 33.0
59, 33.0
60, 33.0
61, 34.0
62, 35.0
63, 36.0
64, 36.0
65, 36.0
66, 36.0
67, 36.0
68, 36.0
69, 36.0
70, 36.0
71, 36.0
72, 36.0
73, 36.0
74, 36.0
75, 36.0
76, 36.0
77, 36.0
78, 36.0
79, 36.0
80, 36.0
81, 36.0
82, 36.0
83, 36.0
84, 36.0
85, 36.0
86, 36.0
87, 36.0
88, 36.0
89, 36.0
90, 36.0
91, 36.0
92, 36.0
93, 36.0
94, 36.0
95, 36.0
96, 36.0
97, 36.0
98, 36.0
99, 36.0
100, 36.0
101, 36.0
102, 36.0
103, 36.0
104, 36.0
105, 36.0
