i, Result
0, 0.0
1, 0.0
2, 0.0
3, 0.0
4, 1.0
5, 1.0
6, 1.0
7, 2.0
8, 2.0
9, 2.0
10, 2.0
11, 2.0
12, 2.0
13, 3.0
14, 3.0
15, 4.0
16, 5.0
17, 5.0
18, 5.0
19, 5.0
20, 5.0
21, 6.0
22, 7.0
23, 7.0
24, 7.0
25, 7.0
26, 8.0
27, 9.0
28, 10.0
29, 10.0
30, 11.0
31, 11.0
32, 12.0
33, 12.0
34, 13.0
35, 14.0
36, 15.0
37, 15.0
38, 15.0
39, 15.0
40, 16.0
41, 17.0
42, 17.0
43, 17.0
44, 18.0
45, 18.0
46, 18.0
47, 19.0
48, 20.0
49, 20.0
50, 20.0
51, 20.0
52, 20.0
53, 21.0
54, 22.0
55, 22.0
56, 23.0
57, 24.0
58, 24.0
59, 25.0
60, 25.0
61, 25.0
62, 26.0
63, 27.0
64, 27.0
65, 28.0
66, 29.0
67, 29.0
68, 30.0
69, 31.0
70, 31.0
71, 32.0
72, 33.0
73, 34.0
74, 34.0
75, 34.0
76, 35.0
77, 35.0
78, 35.0
79, 35.0
80, 35.0
81, 35.0
82, 35.0
83, 35.0
84, 35.0
85, 35.0
86, 35.0
87, 35.0
88, 35.0
89, 35.0
90, 35.0
91, 35.0
92, 35.0
93, 35.0
94, 35.0
95, 35.0
96, 35.0
97, 35.0
98, 35.0
99, 35.0
100, 35.0
101, 35.0
102, 35.0
103, 35.0
104, 35.0
105, 35.0
