i, Result
0, 0.0
1, 0.0
2, 0.0
3, 1.0
4, 2.0
5, 2.0
6, 3.0
7, 3.0
8, 4.0
9, 5.0
10, 5.0
11, 6.0
12, 6.0
13, 6.0
14, 6.0
15, 6.0
16, 7.0
17, 8.0
18, 9.0
19, 10.0
20, 10.0
21, 11.0
22, 12.0
23, 12.0
24, 13.0
25, 13.0
26, 14.0
27, 14.0
28, 15.0
29, 16.0
30, 17.0
31, 18.0
32, 18.0
33, 18.0
34, 19.0
35, 19.0
36, 19.0
37, 20.0
38, 20.0
39, 20.0
40, 21.0
41, 21.0
42, 22.0
43, 22.0
44, 23.0
45, 24.0
46, 24.0
47, 25.0
48, 26.0
49, 26.0
50, 26.0
51, 27.0
52, 27.0
53, 27.0
54, 27.0
55, 27.0
56, 27.0
57, 27.0
58, 28.0
59, 28.0
60, 29.0
61, 30.0
62, 31.0
63, 32.0
64, 32.0
65, 33.0
66, 34.0
67, 35.0
68, 36.0
69, 37.0
70, 38.0
71, 38.0
72, 39.0
73, 40.0
74, 41.0
75, 41.0
76, 41.0
77, 41.0
78, 41.0
79, 41.0
80, 41.0
81, 41.0
82, 41.0
83, 41.0
84, 41.0
85, 41.0
86, 41.0
87, 41.0
88, 41.0
89, 41.0
90, 41.0
91, 41.0
92, 41.0
93, 41.0
94, 41.0
95, 41.0
96, 41.0
97, 41.0
98, 41.0
99, 41.0
100, 41.0
101, 41.0
102, 41.0
103, 41.0
104, 41.0
105, 41.0
