i, Result
0, 0.0
1, 0.0
2, 0.0
3, 1.0
4, 2.0
5, 3.0
6, 3.0
7, 4.0
8, 4.0
9, 4.0
10, 4.0
11, 5.0
12, 5.0
13, 6.0
14, 7.0
15, 7.0
16, 7.0
17, 7.0
18, 7.0
19, 7.0
20, 7.0
21, 8.0
22, 8.0
23, 9.0
24, 10.0
25, 10.0
26, 11.0
27, 12.0
28, 12.0
29, 12.0
30, 12.0
31, 12.0
32, 13.0
33, 13.0
34, 13.0
35, 14.0
36, 14.0
37, 14.0
38, 15.0
39, 15.0
40, 15.0
41, 16.0
42, 17.0
43, 17.0
44, 17.0
45, 18.0
46, 18.0
47, 18.0
48, 19.0
49, 20.0
50, 21.0
51, 22.0
52, 22.0
53, 23.0
54, 23.0
55, 24.0
56, 24.0
57, 24.0
58, 24.0
59, 25.0
60, 26.0
61, 27.0
62, 28.0
63, 29.0
64, 30.0
65, 31.0
66, 31.0
67, 32.0
68, 32.0
69, 32.0
70, 32.0
71, 32.0
72, 32.0
73, 32.0
74, 32.0
75, 32.0
76, 32.0
77, 32.0
78, 32.0
79, 32.0
80, 32.0
81, 32.0
82, 32.0
83, 32.0
84, 32.0
85, 32.0
86, 32.0
87, 32.0
88, 32.0
89, 32.0
90, 32.0
91, 32.0
92, 32.0
93, 32.0
94, 32.0
95, 32.0
96, 32.0
97, 32.0
98, 32.0
99, 32.0
100, 32.0
101, 32.0
102, 32.0
103, 32.0
104, 32.0
105, 32.0
