index,0
0.0,8
1.0,5
2.0,7
3.0,12
4.0,6
5.0,18
6.0,13
7.0,17
8.0,11
9.0,13
10.0,14
11.0,16
12.0,10
13.0,6
14.0,12
15.0,15
16.0,19
17.0,26
18.0,41
19.0,60
20.0,89
21.0,136
22.0,184
23.0,226
24.0,300
25.0,357
26.0,464
27.0,502
28.0,565
29.0,627
30.0,649
31.0,666
32.0,675
33.0,622
34.0,588
35.0,504
36.0,507
37.0,416
38.0,373
39.0,305
40.0,250
41.0,176
42.0,144
43.0,104
44.0,83
45.0,58
46.0,36
47.0,25
48.0,16
49.0,9
50.0,4
51.0,4
52.0,2
53.0,2
54.0,3
