i, Result
0, 0.0
1, 0.0
2, 0.0
3, 0.0
4, 1.0
5, 1.0
6, 2.0
7, 2.0
8, 3.0
9, 4.0
10, 4.0
11, 5.0
12, 5.0
13, 6.0
14, 7.0
15, 8.0
16, 9.0
17, 10.0
18, 10.0
19, 11.0
20, 11.0
21, 11.0
22, 12.0
23, 13.0
24, 14.0
25, 14.0
26, 14.0
27, 15.0
28, 16.0
29, 17.0
30, 17.0
31, 18.0
32, 18.0
33, 19.0
34, 20.0
35, 21.0
36, 21.0
37, 21.0
38, 21.0
39, 22.0
40, 22.0
41, 23.0
42, 23.0
43, 24.0
44, 24.0
45, 25.0
46, 25.0
47, 26.0
48, 27.0
49, 27.0
50, 27.0
51, 28.0
52, 29.0
53, 30.0
54, 30.0
55, 31.0
56, 31.0
57, 31.0
58, 32.0
59, 32.0
60, 33.0
61, 34.0
62, 34.0
63, 34.0
64, 34.0
65, 34.0
66, 34.0
67, 35.0
68, 36.0
69, 37.0
70, 38.0
71, 38.0
72, 39.0
73, 39.0
74, 39.0
75, 39.0
76, 39.0
77, 39.0
78, 39.0
79, 39.0
80, 39.0
81, 39.0
82, 39.0
83, 39.0
84, 39.0
85, 39.0
86, 39.0
87, 39.0
88, 39.0
89, 39.0
90, 39.0
91, 39.0
92, 39.0
93, 39.0
94, 39.0
95, 39.0
96, 39.0
97, 39.0
98, 39.0
99, 39.0
100, 39.0
101, 39.0
102, 39.0
103, 39.0
104, 39.0
105, 39.0
