i, Result
0, 0.0
1, 0.0
2, 0.0
3, 0.0
4, 1.0
5, 2.0
6, 2.0
7, 2.0
8, 3.0
9, 4.0
10, 4.0
11, 4.0
12, 4.0
13, 4.0
14, 4.0
15, 4.0
16, 4.0
17, 4.0
18, 5.0
19, 6.0
20, 6.0
21, 6.0
22, 6.0
23, 6.0
24, 6.0
25, 6.0
26, 7.0
27, 8.0
28, 9.0
29, 9.0
30, 10.0
31, 10.0
32, 10.0
33, 11.0
34, 11.0
35, 11.0
36, 12.0
37, 12.0
38, 12.0
39, 12.0
40, 13.0
41, 13.0
42, 14.0
43, 14.0
44, 15.0
45, 15.0
46, 15.0
47, 15.0
48, 15.0
49, 15.0
50, 16.0
51, 17.0
52, 17.0
53, 18.0
54, 18.0
55, 18.0
56, 18.0
57, 18.0
58, 19.0
59, 19.0
60, 20.0
61, 21.0
62, 21.0
63, 21.0
64, 22.0
65, 23.0
66, 23.0
67, 23.0
68, 23.0
69, 23.0
70, 23.0
71, 23.0
72, 23.0
73, 23.0
74, 23.0
75, 23.0
76, 23.0
77, 23.0
78, 23.0
79, 23.0
80, 23.0
81, 23.0
82, 23.0
83, 23.0
84, 23.0
85, 23.0
86, 23.0
87, 23.0
88, 23.0
89, 23.0
90, 23.0
91, 23.0
92, 23.0
93, 23.0
94, 23.0
95, 23.0
96, 23.0
97, 23.0
98, 23.0
99, 23.0
100, 23.0
101, 23.0
102, 23.0
103, 23.0
104, 23.0
105, 23.0
