i, Result
0, 0.0
1, 0.0
2, 0.0
3, 1.0
4, 1.0
5, 1.0
6, 1.0
7, 2.0
8, 3.0
9, 3.0
10, 4.0
11, 5.0
12, 6.0
13, 7.0
14, 8.0
15, 9.0
16, 10.0
17, 10.0
18, 10.0
19, 11.0
20, 12.0
21, 12.0
22, 13.0
23, 14.0
24, 14.0
25, 15.0
26, 15.0
27, 16.0
28, 17.0
29, 18.0
30, 18.0
31, 19.0
32, 19.0
33, 20.0
34, 21.0
35, 22.0
36, 22.0
37, 23.0
38, 23.0
39, 24.0
40, 24.0
41, 24.0
42, 24.0
43, 24.0
44, 24.0
45, 24.0
46, 25.0
47, 26.0
48, 26.0
49, 26.0
50, 27.0
51, 27.0
52, 27.0
53, 28.0
54, 28.0
55, 29.0
56, 30.0
57, 30.0
58, 30.0
59, 31.0
60, 32.0
61, 33.0
62, 33.0
63, 34.0
64, 34.0
65, 34.0
66, 35.0
67, 36.0
68, 36.0
69, 36.0
70, 36.0
71, 37.0
72, 38.0
73, 38.0
74, 38.0
75, 38.0
76, 38.0
77, 39.0
78, 39.0
79, 39.0
80, 39.0
81, 39.0
82, 39.0
83, 39.0
84, 39.0
85, 39.0
86, 39.0
87, 39.0
88, 39.0
89, 39.0
90, 39.0
91, 39.0
92, 39.0
93, 39.0
94, 39.0
95, 39.0
96, 39.0
97, 39.0
98, 39.0
99, 39.0
100, 39.0
101, 39.0
102, 39.0
103, 39.0
104, 39.0
105, 39.0
