i, Result
0, 0.0
1, 0.0
2, 0.0
3, 0.0
4, 0.0
5, 1.0
6, 2.0
7, 3.0
8, 3.0
9, 4.0
10, 4.0
11, 5.0
12, 5.0
13, 6.0
14, 6.0
15, 7.0
16, 8.0
17, 8.0
18, 8.0
19, 8.0
20, 9.0
21, 9.0
22, 10.0
23, 10.0
24, 11.0
25, 12.0
26, 12.0
27, 12.0
28, 12.0
29, 12.0
30, 12.0
31, 13.0
32, 14.0
33, 15.0
34, 15.0
35, 15.0
36, 15.0
37, 16.0
38, 17.0
39, 18.0
40, 19.0
41, 20.0
42, 20.0
43, 21.0
44, 22.0
45, 22.0
46, 23.0
47, 24.0
48, 24.0
49, 25.0
50, 26.0
51, 27.0
52, 27.0
53, 27.0
54, 28.0
55, 28.0
56, 29.0
57, 29.0
58, 29.0
59, 30.0
60, 31.0
61, 32.0
62, 32.0
63, 32.0
64, 33.0
65, 33.0
66, 34.0
67, 35.0
68, 36.0
69, 36.0
70, 36.0
71, 36.0
72, 36.0
73, 36.0
74, 36.0
75, 36.0
76, 36.0
77, 36.0
78, 36.0
79, 36.0
80, 36.0
81, 36.0
82, 36.0
83, 36.0
84, 36.0
85, 36.0
86, 36.0
87, 36.0
88, 36.0
89, 36.0
90, 36.0
91, 36.0
92, 36.0
93, 36.0
94, 36.0
95, 36.0
96, 36.0
97, 36.0
98, 36.0
99, 36.0
100, 36.0
101, 36.0
102, 36.0
103, 36.0
104, 36.0
105, 36.0
