i, Result
0, 0.0
1, 0.0
2, 0.0
3, 0.0
4, 0.0
5, 0.0
6, 0.0
7, 0.0
8, 1.0
9, 1.0
10, 2.0
11, 3.0
12, 4.0
13, 4.0
14, 4.0
15, 5.0
16, 6.0
17, 7.0
18, 8.0
19, 9.0
20, 9.0
21, 10.0
22, 10.0
23, 11.0
24, 12.0
25, 12.0
26, 12.0
27, 12.0
28, 13.0
29, 14.0
30, 15.0
31, 16.0
32, 17.0
33, 18.0
34, 19.0
35, 19.0
36, 19.0
37, 20.0
38, 21.0
39, 22.0
40, 22.0
41, 22.0
42, 23.0
43, 23.0
44, 23.0
45, 24.0
46, 25.0
47, 26.0
48, 27.0
49, 28.0
50, 28.0
51, 28.0
52, 29.0
53, 29.0
54, 30.0
55, 30.0
56, 30.0
57, 30.0
58, 30.0
59, 30.0
60, 30.0
61, 30.0
62, 30.0
63, 30.0
64, 31.0
65, 32.0
66, 32.0
67, 32.0
68, 32.0
69, 32.0
70, 32.0
71, 32.0
72, 32.0
73, 32.0
74, 32.0
75, 32.0
76, 32.0
77, 32.0
78, 32.0
79, 32.0
80, 32.0
81, 32.0
82, 32.0
83, 32.0
84, 32.0
85, 32.0
86, 32.0
87, 32.0
88, 32.0
89, 32.0
90, 32.0
91, 32.0
92, 32.0
93, 32.0
94, 32.0
95, 32.0
96, 32.0
97, 32.0
98, 32.0
99, 32.0
100, 32.0
101, 32.0
102, 32.0
103, 32.0
104, 32.0
105, 32.0
