i, Result
0, 0.0
1, 0.0
2, 0.0
3, 0.0
4, 0.0
5, 1.0
6, 2.0
7, 2.0
8, 3.0
9, 4.0
10, 5.0
11, 5.0
12, 5.0
13, 6.0
14, 7.0
15, 7.0
16, 7.0
17, 8.0
18, 8.0
19, 8.0
20, 9.0
21, 9.0
22, 9.0
23, 10.0
24, 11.0
25, 11.0
26, 12.0
27, 13.0
28, 14.0
29, 14.0
30, 14.0
31, 15.0
32, 15.0
33, 15.0
34, 16.0
35, 16.0
36, 16.0
37, 17.0
38, 17.0
39, 17.0
40, 17.0
41, 18.0
42, 18.0
43, 18.0
44, 18.0
45, 18.0
46, 19.0
47, 20.0
48, 21.0
49, 22.0
50, 23.0
51, 24.0
52, 24.0
53, 24.0
54, 24.0
55, 24.0
56, 24.0
57, 24.0
58, 24.0
59, 24.0
60, 24.0
61, 24.0
62, 24.0
63, 24.0
64, 24.0
65, 24.0
66, 24.0
67, 24.0
68, 24.0
69, 24.0
70, 24.0
71, 24.0
72, 24.0
73, 24.0
74, 24.0
75, 24.0
76, 24.0
77, 24.0
78, 24.0
79, 24.0
80, 24.0
81, 24.0
82, 24.0
83, 24.0
84, 24.0
85, 24.0
86, 24.0
87, 24.0
88, 24.0
89, 24.0
90, 24.0
91, 24.0
92, 24.0
93, 24.0
94, 24.0
95, 24.0
96, 24.0
97, 24.0
98, 24.0
99, 24.0
100, 24.0
101, 24.0
102, 24.0
103, 24.0
104, 24.0
105, 24.0
