i, Result
0, 0.0
1, 0.0
2, 0.0
3, 1.0
4, 2.0
5, 2.0
6, 3.0
7, 3.0
8, 3.0
9, 3.0
10, 4.0
11, 5.0
12, 6.0
13, 7.0
14, 8.0
15, 9.0
16, 9.0
17, 10.0
18, 11.0
19, 11.0
20, 11.0
21, 12.0
22, 13.0
23, 13.0
24, 13.0
25, 13.0
26, 14.0
27, 14.0
28, 15.0
29, 16.0
30, 16.0
31, 17.0
32, 17.0
33, 17.0
34, 18.0
35, 19.0
36, 19.0
37, 20.0
38, 21.0
39, 22.0
40, 23.0
41, 23.0
42, 24.0
43, 25.0
44, 26.0
45, 26.0
46, 26.0
47, 27.0
48, 28.0
49, 28.0
50, 29.0
51, 29.0
52, 30.0
53, 31.0
54, 32.0
55, 33.0
56, 34.0
57, 35.0
58, 35.0
59, 35.0
60, 36.0
61, 36.0
62, 36.0
63, 37.0
64, 38.0
65, 39.0
66, 39.0
67, 39.0
68, 40.0
69, 40.0
70, 40.0
71, 41.0
72, 41.0
73, 41.0
74, 41.0
75, 41.0
76, 41.0
77, 41.0
78, 41.0
79, 41.0
80, 41.0
81, 41.0
82, 41.0
83, 41.0
84, 41.0
85, 41.0
86, 41.0
87, 41.0
88, 41.0
89, 41.0
90, 41.0
91, 41.0
92, 41.0
93, 41.0
94, 41.0
95, 41.0
96, 41.0
97, 41.0
98, 41.0
99, 41.0
100, 41.0
101, 41.0
102, 41.0
103, 41.0
104, 41.0
105, 41.0
