i, Result
0, 0.0
1, 0.0
2, 0.0
3, 1.0
4, 1.0
5, 1.0
6, 2.0
7, 2.0
8, 3.0
9, 3.0
10, 3.0
11, 4.0
12, 4.0
13, 4.0
14, 5.0
15, 5.0
16, 5.0
17, 6.0
18, 7.0
19, 7.0
20, 8.0
21, 9.0
22, 9.0
23, 10.0
24, 10.0
25, 10.0
26, 10.0
27, 11.0
28, 12.0
29, 12.0
30, 12.0
31, 13.0
32, 14.0
33, 14.0
34, 15.0
35, 16.0
36, 16.0
37, 16.0
38, 16.0
39, 17.0
40, 18.0
41, 18.0
42, 19.0
43, 20.0
44, 21.0
45, 21.0
46, 21.0
47, 21.0
48, 22.0
49, 22.0
50, 22.0
51, 23.0
52, 24.0
53, 25.0
54, 26.0
55, 27.0
56, 28.0
57, 28.0
58, 28.0
59, 29.0
60, 29.0
61, 30.0
62, 31.0
63, 31.0
64, 31.0
65, 32.0
66, 33.0
67, 34.0
68, 34.0
69, 34.0
70, 35.0
71, 35.0
72, 35.0
73, 35.0
74, 35.0
75, 35.0
76, 35.0
77, 35.0
78, 35.0
79, 35.0
80, 35.0
81, 35.0
82, 35.0
83, 35.0
84, 35.0
85, 35.0
86, 35.0
87, 35.0
88, 35.0
89, 35.0
90, 35.0
91, 35.0
92, 35.0
93, 35.0
94, 35.0
95, 35.0
96, 35.0
97, 35.0
98, 35.0
99, 35.0
100, 35.0
101, 35.0
102, 35.0
103, 35.0
104, 35.0
105, 35.0
