i, Result
0, 0.0
1, 0.0
2, 0.0
3, 0.0
4, 1.0
5, 1.0
6, 1.0
7, 1.0
8, 1.0
9, 1.0
10, 1.0
11, 1.0
12, 2.0
13, 2.0
14, 3.0
15, 3.0
16, 3.0
17, 3.0
18, 3.0
19, 4.0
20, 5.0
21, 6.0
22, 7.0
23, 7.0
24, 8.0
25, 9.0
26, 9.0
27, 9.0
28, 10.0
29, 11.0
30, 11.0
31, 11.0
32, 12.0
33, 13.0
34, 14.0
35, 15.0
36, 16.0
37, 17.0
38, 17.0
39, 17.0
40, 17.0
41, 18.0
42, 18.0
43, 18.0
44, 19.0
45, 19.0
46, 19.0
47, 20.0
48, 20.0
49, 20.0
50, 21.0
51, 22.0
52, 23.0
53, 24.0
54, 25.0
55, 25.0
56, 26.0
57, 26.0
58, 27.0
59, 28.0
60, 29.0
61, 29.0
62, 29.0
63, 30.0
64, 30.0
65, 31.0
66, 31.0
67, 32.0
68, 32.0
69, 32.0
70, 32.0
71, 32.0
72, 32.0
73, 32.0
74, 32.0
75, 32.0
76, 32.0
77, 32.0
78, 32.0
79, 32.0
80, 32.0
81, 32.0
82, 32.0
83, 32.0
84, 32.0
85, 32.0
86, 32.0
87, 32.0
88, 32.0
89, 32.0
90, 32.0
91, 32.0
92, 32.0
93, 32.0
94, 32.0
95, 32.0
96, 32.0
97, 32.0
98, 32.0
99, 32.0
100, 32.0
101, 32.0
102, 32.0
103, 32.0
104, 32.0
105, 32.0
