i, Result
0, 0.0
1, 0.0
2, 0.0
3, 0.0
4, 1.0
5, 2.0
6, 2.0
7, 2.0
8, 2.0
9, 3.0
10, 4.0
11, 4.0
12, 5.0
13, 6.0
14, 7.0
15, 7.0
16, 8.0
17, 8.0
18, 8.0
19, 8.0
20, 8.0
21, 9.0
22, 9.0
23, 10.0
24, 10.0
25, 10.0
26, 10.0
27, 10.0
28, 10.0
29, 10.0
30, 10.0
31, 10.0
32, 10.0
33, 10.0
34, 10.0
35, 10.0
36, 10.0
37, 10.0
38, 10.0
39, 10.0
40, 10.0
41, 10.0
42, 10.0
43, 10.0
44, 10.0
45, 10.0
46, 10.0
47, 10.0
48, 10.0
49, 10.0
50, 10.0
51, 10.0
52, 10.0
53, 10.0
54, 10.0
55, 10.0
56, 10.0
57, 10.0
58, 10.0
59, 10.0
60, 10.0
61, 10.0
62, 10.0
63, 10.0
64, 10.0
65, 10.0
66, 10.0
67, 10.0
68, 10.0
69, 10.0
70, 10.0
71, 10.0
72, 10.0
73, 10.0
74, 10.0
75, 10.0
76, 10.0
77, 10.0
78, 10.0
79, 10.0
80, 10.0
81, 10.0
82, 10.0
83, 10.0
84, 10.0
85, 10.0
86, 10.0
87, 10.0
88, 10.0
89, 10.0
90, 10.0
91, 10.0
92, 10.0
93, 10.0
94, 10.0
95, 10.0
96, 10.0
97, 10.0
98, 10.0
99, 10.0
100, 10.0
101, 10.0
102, 10.0
103, 10.0
104, 10.0
105, 10.0
