i, Result
0, 0.0
1, 0.0
2, 0.0
3, 0.0
4, 0.0
5, 1.0
6, 2.0
7, 2.0
8, 3.0
9, 4.0
10, 4.0
11, 4.0
12, 5.0
13, 5.0
14, 5.0
15, 5.0
16, 6.0
17, 7.0
18, 8.0
19, 9.0
20, 10.0
21, 10.0
22, 10.0
23, 11.0
24, 12.0
25, 12.0
26, 12.0
27, 13.0
28, 14.0
29, 15.0
30, 15.0
31, 16.0
32, 16.0
33, 16.0
34, 17.0
35, 17.0
36, 17.0
37, 17.0
38, 18.0
39, 18.0
40, 18.0
41, 19.0
42, 20.0
43, 21.0
44, 21.0
45, 21.0
46, 21.0
47, 22.0
48, 22.0
49, 22.0
50, 22.0
51, 22.0
52, 22.0
53, 22.0
54, 23.0
55, 23.0
56, 23.0
57, 24.0
58, 24.0
59, 25.0
60, 25.0
61, 26.0
62, 27.0
63, 27.0
64, 27.0
65, 27.0
66, 27.0
67, 27.0
68, 27.0
69, 27.0
70, 27.0
71, 27.0
72, 27.0
73, 27.0
74, 27.0
75, 27.0
76, 27.0
77, 27.0
78, 27.0
79, 27.0
80, 27.0
81, 27.0
82, 27.0
83, 27.0
84, 27.0
85, 27.0
86, 27.0
87, 27.0
88, 27.0
89, 27.0
90, 27.0
91, 27.0
92, 27.0
93, 27.0
94, 27.0
95, 27.0
96, 27.0
97, 27.0
98, 27.0
99, 27.0
100, 27.0
101, 27.0
102, 27.0
103, 27.0
104, 27.0
105, 27.0
