i, Result
0, 0.0
1, 0.0
2, 0.0
3, 1.0
4, 1.0
5, 2.0
6, 3.0
7, 4.0
8, 5.0
9, 6.0
10, 7.0
11, 7.0
12, 8.0
13, 9.0
14, 9.0
15, 10.0
16, 10.0
17, 10.0
18, 10.0
19, 10.0
20, 10.0
21, 10.0
22, 10.0
23, 10.0
24, 10.0
25, 10.0
26, 10.0
27, 10.0
28, 10.0
29, 10.0
30, 10.0
31, 11.0
32, 12.0
33, 12.0
34, 12.0
35, 12.0
36, 12.0
37, 12.0
38, 12.0
39, 12.0
40, 12.0
41, 12.0
42, 13.0
43, 13.0
44, 13.0
45, 14.0
46, 15.0
47, 15.0
48, 15.0
49, 16.0
50, 16.0
51, 16.0
52, 16.0
53, 16.0
54, 16.0
55, 16.0
56, 16.0
57, 16.0
58, 16.0
59, 16.0
60, 16.0
61, 16.0
62, 16.0
63, 16.0
64, 16.0
65, 16.0
66, 16.0
67, 16.0
68, 16.0
69, 16.0
70, 16.0
71, 16.0
72, 16.0
73, 16.0
74, 16.0
75, 16.0
76, 16.0
77, 16.0
78, 16.0
79, 16.0
80, 16.0
81, 16.0
82, 16.0
83, 16.0
84, 16.0
85, 16.0
86, 16.0
87, 16.0
88, 16.0
89, 16.0
90, 16.0
91, 16.0
92, 16.0
93, 16.0
94, 16.0
95, 16.0
96, 16.0
97, 16.0
98, 16.0
99, 16.0
100, 16.0
101, 16.0
102, 16.0
103, 16.0
104, 16.0
105, 16.0
