i, Result
0, 0.0
1, 0.0
2, 0.0
3, 0.0
4, 0.0
5, 0.0
6, 1.0
7, 2.0
8, 2.0
9, 3.0
10, 4.0
11, 4.0
12, 4.0
13, 4.0
14, 4.0
15, 4.0
16, 5.0
17, 6.0
18, 7.0
19, 7.0
20, 7.0
21, 7.0
22, 8.0
23, 8.0
24, 8.0
25, 9.0
26, 9.0
27, 9.0
28, 10.0
29, 11.0
30, 11.0
31, 11.0
32, 11.0
33, 11.0
34, 11.0
35, 12.0
36, 12.0
37, 13.0
38, 14.0
39, 14.0
40, 14.0
41, 14.0
42, 15.0
43, 15.0
44, 15.0
45, 16.0
46, 17.0
47, 17.0
48, 18.0
49, 18.0
50, 18.0
51, 19.0
52, 20.0
53, 21.0
54, 21.0
55, 22.0
56, 23.0
57, 24.0
58, 24.0
59, 25.0
60, 26.0
61, 27.0
62, 28.0
63, 29.0
64, 30.0
65, 30.0
66, 30.0
67, 30.0
68, 31.0
69, 32.0
70, 33.0
71, 33.0
72, 33.0
73, 33.0
74, 33.0
75, 33.0
76, 33.0
77, 33.0
78, 33.0
79, 33.0
80, 33.0
81, 33.0
82, 33.0
83, 33.0
84, 33.0
85, 33.0
86, 33.0
87, 33.0
88, 33.0
89, 33.0
90, 33.0
91, 33.0
92, 33.0
93, 33.0
94, 33.0
95, 33.0
96, 33.0
97, 33.0
98, 33.0
99, 33.0
100, 33.0
101, 33.0
102, 33.0
103, 33.0
104, 33.0
105, 33.0
