i, Result
0, 0.0
1, 0.0
2, 0.0
3, 1.0
4, 2.0
5, 3.0
6, 3.0
7, 3.0
8, 3.0
9, 4.0
10, 5.0
11, 6.0
12, 7.0
13, 7.0
14, 8.0
15, 8.0
16, 9.0
17, 10.0
18, 10.0
19, 11.0
20, 12.0
21, 12.0
22, 13.0
23, 14.0
24, 15.0
25, 16.0
26, 16.0
27, 17.0
28, 17.0
29, 18.0
30, 19.0
31, 20.0
32, 21.0
33, 21.0
34, 22.0
35, 22.0
36, 23.0
37, 23.0
38, 24.0
39, 25.0
40, 25.0
41, 26.0
42, 26.0
43, 26.0
44, 26.0
45, 27.0
46, 27.0
47, 27.0
48, 27.0
49, 28.0
50, 29.0
51, 30.0
52, 30.0
53, 30.0
54, 31.0
55, 32.0
56, 33.0
57, 33.0
58, 33.0
59, 33.0
60, 34.0
61, 34.0
62, 34.0
63, 35.0
64, 35.0
65, 35.0
66, 36.0
67, 37.0
68, 38.0
69, 38.0
70, 38.0
71, 38.0
72, 38.0
73, 38.0
74, 38.0
75, 38.0
76, 38.0
77, 38.0
78, 38.0
79, 38.0
80, 38.0
81, 38.0
82, 38.0
83, 38.0
84, 38.0
85, 38.0
86, 38.0
87, 38.0
88, 38.0
89, 38.0
90, 38.0
91, 38.0
92, 38.0
93, 38.0
94, 38.0
95, 38.0
96, 38.0
97, 38.0
98, 38.0
99, 38.0
100, 38.0
101, 38.0
102, 38.0
103, 38.0
104, 38.0
105, 38.0
