i, Result
0, 0.0
1, 0.0
2, 0.0
3, 1.0
4, 1.0
5, 1.0
6, 1.0
7, 1.0
8, 1.0
9, 1.0
10, 1.0
11, 2.0
12, 2.0
13, 2.0
14, 2.0
15, 3.0
16, 3.0
17, 3.0
18, 3.0
19, 3.0
20, 4.0
21, 5.0
22, 5.0
23, 5.0
24, 6.0
25, 6.0
26, 7.0
27, 8.0
28, 8.0
29, 9.0
30, 10.0
31, 10.0
32, 10.0
33, 10.0
34, 11.0
35, 11.0
36, 12.0
37, 12.0
38, 13.0
39, 14.0
40, 14.0
41, 15.0
42, 16.0
43, 16.0
44, 17.0
45, 17.0
46, 18.0
47, 18.0
48, 18.0
49, 19.0
50, 19.0
51, 19.0
52, 19.0
53, 19.0
54, 20.0
55, 21.0
56, 22.0
57, 23.0
58, 24.0
59, 25.0
60, 26.0
61, 27.0
62, 28.0
63, 29.0
64, 30.0
65, 30.0
66, 30.0
67, 30.0
68, 30.0
69, 30.0
70, 30.0
71, 30.0
72, 30.0
73, 30.0
74, 30.0
75, 30.0
76, 30.0
77, 30.0
78, 30.0
79, 30.0
80, 30.0
81, 30.0
82, 30.0
83, 30.0
84, 30.0
85, 30.0
86, 30.0
87, 30.0
88, 30.0
89, 30.0
90, 30.0
91, 30.0
92, 30.0
93, 30.0
94, 30.0
95, 30.0
96, 30.0
97, 30.0
98, 30.0
99, 30.0
100, 30.0
101, 30.0
102, 30.0
103, 30.0
104, 30.0
105, 30.0
