i, Result
0, 0.0
1, 0.0
2, 0.0
3, 1.0
4, 1.0
5, 1.0
6, 2.0
7, 2.0
8, 2.0
9, 2.0
10, 2.0
11, 2.0
12, 2.0
13, 2.0
14, 2.0
15, 3.0
16, 3.0
17, 3.0
18, 3.0
19, 4.0
20, 4.0
21, 5.0
22, 5.0
23, 6.0
24, 7.0
25, 7.0
26, 7.0
27, 7.0
28, 7.0
29, 7.0
30, 7.0
31, 7.0
32, 7.0
33, 8.0
34, 9.0
35, 9.0
36, 10.0
37, 10.0
38, 11.0
39, 12.0
40, 12.0
41, 12.0
42, 12.0
43, 13.0
44, 13.0
45, 14.0
46, 14.0
47, 15.0
48, 15.0
49, 15.0
50, 16.0
51, 16.0
52, 17.0
53, 17.0
54, 17.0
55, 18.0
56, 19.0
57, 20.0
58, 20.0
59, 20.0
60, 21.0
61, 21.0
62, 21.0
63, 21.0
64, 21.0
65, 21.0
66, 21.0
67, 21.0
68, 21.0
69, 21.0
70, 21.0
71, 21.0
72, 21.0
73, 21.0
74, 21.0
75, 21.0
76, 21.0
77, 21.0
78, 21.0
79, 21.0
80, 21.0
81, 21.0
82, 21.0
83, 21.0
84, 21.0
85, 21.0
86, 21.0
87, 21.0
88, 21.0
89, 21.0
90, 21.0
91, 21.0
92, 21.0
93, 21.0
94, 21.0
95, 21.0
96, 21.0
97, 21.0
98, 21.0
99, 21.0
100, 21.0
101, 21.0
102, 21.0
103, 21.0
104, 21.0
105, 21.0
