i, Result
0, 0.0
1, 0.0
2, 0.0
3, 1.0
4, 1.0
5, 2.0
6, 3.0
7, 4.0
8, 4.0
9, 5.0
10, 5.0
11, 6.0
12, 6.0
13, 7.0
14, 8.0
15, 8.0
16, 9.0
17, 9.0
18, 9.0
19, 10.0
20, 11.0
21, 11.0
22, 12.0
23, 13.0
24, 14.0
25, 14.0
26, 15.0
27, 16.0
28, 17.0
29, 18.0
30, 19.0
31, 20.0
32, 21.0
33, 22.0
34, 23.0
35, 24.0
36, 25.0
37, 25.0
38, 26.0
39, 27.0
40, 28.0
41, 29.0
42, 29.0
43, 29.0
44, 29.0
45, 30.0
46, 30.0
47, 30.0
48, 31.0
49, 31.0
50, 31.0
51, 32.0
52, 32.0
53, 32.0
54, 33.0
55, 34.0
56, 34.0
57, 35.0
58, 36.0
59, 37.0
60, 37.0
61, 38.0
62, 39.0
63, 39.0
64, 40.0
65, 40.0
66, 41.0
67, 42.0
68, 43.0
69, 43.0
70, 44.0
71, 45.0
72, 45.0
73, 45.0
74, 45.0
75, 45.0
76, 45.0
77, 45.0
78, 45.0
79, 45.0
80, 45.0
81, 45.0
82, 45.0
83, 45.0
84, 45.0
85, 45.0
86, 45.0
87, 45.0
88, 45.0
89, 45.0
90, 45.0
91, 45.0
92, 45.0
93, 45.0
94, 45.0
95, 45.0
96, 45.0
97, 45.0
98, 45.0
99, 45.0
100, 45.0
101, 45.0
102, 45.0
103, 45.0
104, 45.0
105, 45.0
