i, Result
0, 0.0
1, 0.0
2, 0.0
3, 1.0
4, 2.0
5, 2.0
6, 2.0
7, 3.0
8, 4.0
9, 4.0
10, 4.0
11, 5.0
12, 6.0
13, 6.0
14, 6.0
15, 6.0
16, 6.0
17, 6.0
18, 7.0
19, 7.0
20, 7.0
21, 7.0
22, 7.0
23, 7.0
24, 8.0
25, 9.0
26, 9.0
27, 9.0
28, 9.0
29, 9.0
30, 9.0
31, 9.0
32, 9.0
33, 10.0
34, 10.0
35, 10.0
36, 11.0
37, 11.0
38, 12.0
39, 12.0
40, 12.0
41, 13.0
42, 13.0
43, 14.0
44, 15.0
45, 15.0
46, 16.0
47, 16.0
48, 17.0
49, 17.0
50, 17.0
51, 17.0
52, 17.0
53, 17.0
54, 18.0
55, 19.0
56, 20.0
57, 20.0
58, 20.0
59, 20.0
60, 20.0
61, 20.0
62, 20.0
63, 20.0
64, 20.0
65, 20.0
66, 20.0
67, 20.0
68, 20.0
69, 20.0
70, 20.0
71, 20.0
72, 20.0
73, 20.0
74, 20.0
75, 20.0
76, 20.0
77, 20.0
78, 20.0
79, 20.0
80, 20.0
81, 20.0
82, 20.0
83, 20.0
84, 20.0
85, 20.0
86, 20.0
87, 20.0
88, 20.0
89, 20.0
90, 20.0
91, 20.0
92, 20.0
93, 20.0
94, 20.0
95, 20.0
96, 20.0
97, 20.0
98, 20.0
99, 20.0
100, 20.0
101, 20.0
102, 20.0
103, 20.0
104, 20.0
105, 20.0
