i, Result
0, 0.0
1, 0.0
2, 0.0
3, 1.0
4, 2.0
5, 3.0
6, 3.0
7, 4.0
8, 5.0
9, 5.0
10, 6.0
11, 6.0
12, 7.0
13, 7.0
14, 8.0
15, 9.0
16, 10.0
17, 11.0
18, 11.0
19, 12.0
20, 12.0
21, 13.0
22, 14.0
23, 14.0
24, 14.0
25, 15.0
26, 15.0
27, 15.0
28, 16.0
29, 17.0
30, 18.0
31, 19.0
32, 20.0
33, 21.0
34, 22.0
35, 22.0
36, 23.0
37, 23.0
38, 24.0
39, 25.0
40, 26.0
41, 27.0
42, 27.0
43, 28.0
44, 28.0
45, 28.0
46, 28.0
47, 28.0
48, 28.0
49, 29.0
50, 29.0
51, 30.0
52, 30.0
53, 31.0
54, 32.0
55, 32.0
56, 33.0
57, 33.0
58, 33.0
59, 34.0
60, 35.0
61, 35.0
62, 35.0
63, 35.0
64, 35.0
65, 36.0
66, 36.0
67, 37.0
68, 38.0
69, 38.0
70, 38.0
71, 39.0
72, 40.0
73, 40.0
74, 40.0
75, 40.0
76, 40.0
77, 40.0
78, 40.0
79, 40.0
80, 40.0
81, 40.0
82, 40.0
83, 40.0
84, 40.0
85, 40.0
86, 40.0
87, 40.0
88, 40.0
89, 40.0
90, 40.0
91, 40.0
92, 40.0
93, 40.0
94, 40.0
95, 40.0
96, 40.0
97, 40.0
98, 40.0
99, 40.0
100, 40.0
101, 40.0
102, 40.0
103, 40.0
104, 40.0
105, 40.0
