i, Result
0, 0.0
1, 0.0
2, 0.0
3, 1.0
4, 2.0
5, 2.0
6, 3.0
7, 3.0
8, 3.0
9, 4.0
10, 5.0
11, 5.0
12, 6.0
13, 7.0
14, 7.0
15, 7.0
16, 7.0
17, 7.0
18, 8.0
19, 8.0
20, 9.0
21, 10.0
22, 11.0
23, 12.0
24, 12.0
25, 12.0
26, 13.0
27, 14.0
28, 14.0
29, 14.0
30, 15.0
31, 15.0
32, 15.0
33, 15.0
34, 16.0
35, 16.0
36, 16.0
37, 16.0
38, 17.0
39, 18.0
40, 18.0
41, 19.0
42, 20.0
43, 21.0
44, 21.0
45, 21.0
46, 22.0
47, 22.0
48, 23.0
49, 24.0
50, 24.0
51, 25.0
52, 26.0
53, 27.0
54, 28.0
55, 29.0
56, 30.0
57, 30.0
58, 31.0
59, 31.0
60, 32.0
61, 33.0
62, 33.0
63, 33.0
64, 33.0
65, 33.0
66, 33.0
67, 33.0
68, 33.0
69, 33.0
70, 33.0
71, 33.0
72, 33.0
73, 33.0
74, 33.0
75, 33.0
76, 33.0
77, 33.0
78, 33.0
79, 33.0
80, 33.0
81, 33.0
82, 33.0
83, 33.0
84, 33.0
85, 33.0
86, 33.0
87, 33.0
88, 33.0
89, 33.0
90, 33.0
91, 33.0
92, 33.0
93, 33.0
94, 33.0
95, 33.0
96, 33.0
97, 33.0
98, 33.0
99, 33.0
100, 33.0
101, 33.0
102, 33.0
103, 33.0
104, 33.0
105, 33.0
