i, Result
0, 0.0
1, 0.0
2, 0.0
3, 1.0
4, 2.0
5, 3.0
6, 3.0
7, 3.0
8, 3.0
9, 4.0
10, 5.0
11, 5.0
12, 5.0
13, 6.0
14, 6.0
15, 6.0
16, 7.0
17, 8.0
18, 9.0
19, 9.0
20, 10.0
21, 11.0
22, 12.0
23, 12.0
24, 13.0
25, 14.0
26, 14.0
27, 14.0
28, 15.0
29, 16.0
30, 16.0
31, 17.0
32, 18.0
33, 19.0
34, 20.0
35, 21.0
36, 22.0
37, 23.0
38, 24.0
39, 25.0
40, 26.0
41, 26.0
42, 26.0
43, 26.0
44, 26.0
45, 26.0
46, 26.0
47, 27.0
48, 27.0
49, 27.0
50, 27.0
51, 27.0
52, 28.0
53, 29.0
54, 29.0
55, 29.0
56, 30.0
57, 30.0
58, 30.0
59, 30.0
60, 31.0
61, 31.0
62, 31.0
63, 31.0
64, 31.0
65, 31.0
66, 31.0
67, 31.0
68, 31.0
69, 31.0
70, 31.0
71, 31.0
72, 31.0
73, 31.0
74, 31.0
75, 31.0
76, 31.0
77, 31.0
78, 31.0
79, 31.0
80, 31.0
81, 31.0
82, 31.0
83, 31.0
84, 31.0
85, 31.0
86, 31.0
87, 31.0
88, 31.0
89, 31.0
90, 31.0
91, 31.0
92, 31.0
93, 31.0
94, 31.0
95, 31.0
96, 31.0
97, 31.0
98, 31.0
99, 31.0
100, 31.0
101, 31.0
102, 31.0
103, 31.0
104, 31.0
105, 31.0
