i, Result
0, 0.0
1, 0.0
2, 0.0
3, 0.0
4, 1.0
5, 1.0
6, 2.0
7, 2.0
8, 3.0
9, 4.0
10, 4.0
11, 5.0
12, 5.0
13, 5.0
14, 5.0
15, 6.0
16, 7.0
17, 8.0
18, 9.0
19, 9.0
20, 10.0
21, 10.0
22, 10.0
23, 11.0
24, 12.0
25, 12.0
26, 13.0
27, 14.0
28, 15.0
29, 15.0
30, 15.0
31, 15.0
32, 16.0
33, 16.0
34, 16.0
35, 16.0
36, 16.0
37, 16.0
38, 17.0
39, 18.0
40, 19.0
41, 19.0
42, 19.0
43, 20.0
44, 21.0
45, 22.0
46, 23.0
47, 23.0
48, 23.0
49, 23.0
50, 24.0
51, 25.0
52, 26.0
53, 26.0
54, 26.0
55, 26.0
56, 27.0
57, 27.0
58, 27.0
59, 27.0
60, 28.0
61, 28.0
62, 28.0
63, 28.0
64, 29.0
65, 30.0
66, 30.0
67, 31.0
68, 31.0
69, 31.0
70, 32.0
71, 32.0
72, 32.0
73, 32.0
74, 32.0
75, 32.0
76, 32.0
77, 32.0
78, 32.0
79, 32.0
80, 32.0
81, 32.0
82, 32.0
83, 32.0
84, 32.0
85, 32.0
86, 32.0
87, 32.0
88, 32.0
89, 32.0
90, 32.0
91, 32.0
92, 32.0
93, 32.0
94, 32.0
95, 32.0
96, 32.0
97, 32.0
98, 32.0
99, 32.0
100, 32.0
101, 32.0
102, 32.0
103, 32.0
104, 32.0
105, 32.0
