i, Result
0, 0.0
1, 0.0
2, 0.0
3, 1.0
4, 1.0
5, 1.0
6, 1.0
7, 2.0
8, 3.0
9, 4.0
10, 5.0
11, 6.0
12, 7.0
13, 8.0
14, 9.0
15, 10.0
16, 11.0
17, 12.0
18, 13.0
19, 13.0
20, 13.0
21, 14.0
22, 14.0
23, 15.0
24, 15.0
25, 16.0
26, 16.0
27, 17.0
28, 17.0
29, 18.0
30, 19.0
31, 19.0
32, 19.0
33, 20.0
34, 21.0
35, 21.0
36, 21.0
37, 22.0
38, 23.0
39, 23.0
40, 24.0
41, 24.0
42, 25.0
43, 25.0
44, 25.0
45, 26.0
46, 27.0
47, 28.0
48, 29.0
49, 29.0
50, 29.0
51, 29.0
52, 30.0
53, 30.0
54, 31.0
55, 31.0
56, 31.0
57, 31.0
58, 32.0
59, 33.0
60, 34.0
61, 34.0
62, 34.0
63, 34.0
64, 34.0
65, 34.0
66, 34.0
67, 34.0
68, 34.0
69, 34.0
70, 34.0
71, 34.0
72, 34.0
73, 34.0
74, 34.0
75, 34.0
76, 34.0
77, 34.0
78, 34.0
79, 34.0
80, 34.0
81, 34.0
82, 34.0
83, 34.0
84, 34.0
85, 34.0
86, 34.0
87, 34.0
88, 34.0
89, 34.0
90, 34.0
91, 34.0
92, 34.0
93, 34.0
94, 34.0
95, 34.0
96, 34.0
97, 34.0
98, 34.0
99, 34.0
100, 34.0
101, 34.0
102, 34.0
103, 34.0
104, 34.0
105, 34.0
