i, Result
0, 0.0
1, 0.0
2, 0.0
3, 1.0
4, 1.0
5, 2.0
6, 2.0
7, 2.0
8, 3.0
9, 3.0
10, 3.0
11, 4.0
12, 4.0
13, 4.0
14, 5.0
15, 6.0
16, 6.0
17, 6.0
18, 7.0
19, 8.0
20, 9.0
21, 10.0
22, 11.0
23, 11.0
24, 11.0
25, 12.0
26, 12.0
27, 13.0
28, 13.0
29, 14.0
30, 14.0
31, 15.0
32, 16.0
33, 16.0
34, 16.0
35, 17.0
36, 18.0
37, 19.0
38, 20.0
39, 21.0
40, 22.0
41, 23.0
42, 24.0
43, 24.0
44, 24.0
45, 24.0
46, 25.0
47, 26.0
48, 27.0
49, 28.0
50, 28.0
51, 28.0
52, 29.0
53, 29.0
54, 29.0
55, 29.0
56, 29.0
57, 29.0
58, 29.0
59, 30.0
60, 31.0
61, 31.0
62, 31.0
63, 32.0
64, 32.0
65, 32.0
66, 33.0
67, 33.0
68, 33.0
69, 33.0
70, 33.0
71, 33.0
72, 33.0
73, 33.0
74, 33.0
75, 33.0
76, 33.0
77, 33.0
78, 33.0
79, 33.0
80, 33.0
81, 33.0
82, 33.0
83, 33.0
84, 33.0
85, 33.0
86, 33.0
87, 33.0
88, 33.0
89, 33.0
90, 33.0
91, 33.0
92, 33.0
93, 33.0
94, 33.0
95, 33.0
96, 33.0
97, 33.0
98, 33.0
99, 33.0
100, 33.0
101, 33.0
102, 33.0
103, 33.0
104, 33.0
105, 33.0
