i, Result
0, 0.0
1, 0.0
2, 0.0
3, 0.0
4, 0.0
5, 0.0
6, 0.0
7, 0.0
8, 0.0
9, 1.0
10, 1.0
11, 2.0
12, 2.0
13, 3.0
14, 3.0
15, 4.0
16, 5.0
17, 5.0
18, 5.0
19, 5.0
20, 5.0
21, 5.0
22, 5.0
23, 5.0
24, 6.0
25, 7.0
26, 8.0
27, 8.0
28, 9.0
29, 9.0
30, 10.0
31, 11.0
32, 11.0
33, 11.0
34, 12.0
35, 13.0
36, 13.0
37, 13.0
38, 14.0
39, 15.0
40, 15.0
41, 16.0
42, 17.0
43, 18.0
44, 19.0
45, 19.0
46, 19.0
47, 19.0
48, 19.0
49, 19.0
50, 19.0
51, 19.0
52, 20.0
53, 21.0
54, 22.0
55, 23.0
56, 24.0
57, 25.0
58, 26.0
59, 26.0
60, 26.0
61, 26.0
62, 27.0
63, 27.0
64, 27.0
65, 27.0
66, 27.0
67, 27.0
68, 27.0
69, 27.0
70, 27.0
71, 27.0
72, 27.0
73, 27.0
74, 27.0
75, 27.0
76, 27.0
77, 27.0
78, 27.0
79, 27.0
80, 27.0
81, 27.0
82, 27.0
83, 27.0
84, 27.0
85, 27.0
86, 27.0
87, 27.0
88, 27.0
89, 27.0
90, 27.0
91, 27.0
92, 27.0
93, 27.0
94, 27.0
95, 27.0
96, 27.0
97, 27.0
98, 27.0
99, 27.0
100, 27.0
101, 27.0
102, 27.0
103, 27.0
104, 27.0
105, 27.0
