i, Result
0, 0.0
1, 0.0
2, 0.0
3, 1.0
4, 1.0
5, 2.0
6, 3.0
7, 3.0
8, 3.0
9, 3.0
10, 3.0
11, 3.0
12, 3.0
13, 3.0
14, 4.0
15, 4.0
16, 5.0
17, 6.0
18, 6.0
19, 6.0
20, 7.0
21, 8.0
22, 8.0
23, 8.0
24, 8.0
25, 9.0
26, 9.0
27, 10.0
28, 11.0
29, 11.0
30, 11.0
31, 12.0
32, 13.0
33, 13.0
34, 14.0
35, 15.0
36, 16.0
37, 17.0
38, 17.0
39, 18.0
40, 18.0
41, 19.0
42, 20.0
43, 21.0
44, 21.0
45, 21.0
46, 22.0
47, 22.0
48, 22.0
49, 23.0
50, 24.0
51, 24.0
52, 25.0
53, 25.0
54, 25.0
55, 26.0
56, 27.0
57, 28.0
58, 29.0
59, 29.0
60, 30.0
61, 31.0
62, 31.0
63, 31.0
64, 31.0
65, 32.0
66, 33.0
67, 33.0
68, 33.0
69, 34.0
70, 35.0
71, 35.0
72, 35.0
73, 35.0
74, 35.0
75, 35.0
76, 35.0
77, 35.0
78, 35.0
79, 35.0
80, 35.0
81, 35.0
82, 35.0
83, 35.0
84, 35.0
85, 35.0
86, 35.0
87, 35.0
88, 35.0
89, 35.0
90, 35.0
91, 35.0
92, 35.0
93, 35.0
94, 35.0
95, 35.0
96, 35.0
97, 35.0
98, 35.0
99, 35.0
100, 35.0
101, 35.0
102, 35.0
103, 35.0
104, 35.0
105, 35.0
