i, Result
0, 0.0
1, 0.0
2, 0.0
3, 0.0
4, 0.0
5, 0.0
6, 1.0
7, 2.0
8, 3.0
9, 3.0
10, 3.0
11, 4.0
12, 5.0
13, 5.0
14, 6.0
15, 6.0
16, 6.0
17, 6.0
18, 6.0
19, 7.0
20, 7.0
21, 7.0
22, 7.0
23, 8.0
24, 8.0
25, 8.0
26, 9.0
27, 10.0
28, 10.0
29, 11.0
30, 11.0
31, 11.0
32, 12.0
33, 12.0
34, 13.0
35, 13.0
36, 14.0
37, 14.0
38, 14.0
39, 14.0
40, 14.0
41, 15.0
42, 15.0
43, 15.0
44, 15.0
45, 16.0
46, 16.0
47, 17.0
48, 17.0
49, 18.0
50, 19.0
51, 19.0
52, 19.0
53, 20.0
54, 21.0
55, 21.0
56, 22.0
57, 22.0
58, 23.0
59, 24.0
60, 25.0
61, 26.0
62, 27.0
63, 28.0
64, 29.0
65, 30.0
66, 31.0
67, 31.0
68, 31.0
69, 31.0
70, 31.0
71, 31.0
72, 31.0
73, 31.0
74, 31.0
75, 31.0
76, 31.0
77, 31.0
78, 31.0
79, 31.0
80, 31.0
81, 31.0
82, 31.0
83, 31.0
84, 31.0
85, 31.0
86, 31.0
87, 31.0
88, 31.0
89, 31.0
90, 31.0
91, 31.0
92, 31.0
93, 31.0
94, 31.0
95, 31.0
96, 31.0
97, 31.0
98, 31.0
99, 31.0
100, 31.0
101, 31.0
102, 31.0
103, 31.0
104, 31.0
105, 31.0
