i, Result
0, 0.0
1, 0.0
2, 0.0
3, 1.0
4, 1.0
5, 1.0
6, 1.0
7, 1.0
8, 2.0
9, 2.0
10, 3.0
11, 4.0
12, 4.0
13, 4.0
14, 4.0
15, 5.0
16, 5.0
17, 6.0
18, 6.0
19, 7.0
20, 7.0
21, 8.0
22, 8.0
23, 9.0
24, 9.0
25, 9.0
26, 9.0
27, 9.0
28, 9.0
29, 10.0
30, 10.0
31, 11.0
32, 12.0
33, 13.0
34, 13.0
35, 13.0
36, 13.0
37, 14.0
38, 14.0
39, 15.0
40, 16.0
41, 17.0
42, 18.0
43, 18.0
44, 18.0
45, 18.0
46, 19.0
47, 20.0
48, 20.0
49, 20.0
50, 20.0
51, 21.0
52, 22.0
53, 22.0
54, 23.0
55, 23.0
56, 23.0
57, 24.0
58, 24.0
59, 25.0
60, 26.0
61, 27.0
62, 27.0
63, 28.0
64, 28.0
65, 29.0
66, 29.0
67, 29.0
68, 29.0
69, 29.0
70, 29.0
71, 29.0
72, 30.0
73, 30.0
74, 30.0
75, 30.0
76, 30.0
77, 30.0
78, 30.0
79, 30.0
80, 30.0
81, 30.0
82, 30.0
83, 30.0
84, 30.0
85, 30.0
86, 30.0
87, 30.0
88, 30.0
89, 30.0
90, 30.0
91, 30.0
92, 30.0
93, 30.0
94, 30.0
95, 30.0
96, 30.0
97, 30.0
98, 30.0
99, 30.0
100, 30.0
101, 30.0
102, 30.0
103, 30.0
104, 30.0
105, 30.0
