i, Result
0, 0.0
1, 0.0
2, 0.0
3, 1.0
4, 2.0
5, 2.0
6, 3.0
7, 3.0
8, 4.0
9, 5.0
10, 5.0
11, 5.0
12, 5.0
13, 6.0
14, 7.0
15, 8.0
16, 8.0
17, 8.0
18, 8.0
19, 9.0
20, 10.0
21, 11.0
22, 11.0
23, 12.0
24, 13.0
25, 14.0
26, 15.0
27, 16.0
28, 16.0
29, 17.0
30, 18.0
31, 18.0
32, 19.0
33, 19.0
34, 19.0
35, 20.0
36, 20.0
37, 21.0
38, 21.0
39, 21.0
40, 22.0
41, 23.0
42, 24.0
43, 25.0
44, 25.0
45, 26.0
46, 27.0
47, 27.0
48, 28.0
49, 29.0
50, 29.0
51, 29.0
52, 29.0
53, 30.0
54, 31.0
55, 32.0
56, 33.0
57, 34.0
58, 34.0
59, 35.0
60, 36.0
61, 37.0
62, 37.0
63, 37.0
64, 37.0
65, 38.0
66, 39.0
67, 40.0
68, 40.0
69, 40.0
70, 40.0
71, 40.0
72, 40.0
73, 40.0
74, 40.0
75, 40.0
76, 40.0
77, 40.0
78, 40.0
79, 40.0
80, 40.0
81, 40.0
82, 40.0
83, 40.0
84, 40.0
85, 40.0
86, 40.0
87, 40.0
88, 40.0
89, 40.0
90, 40.0
91, 40.0
92, 40.0
93, 40.0
94, 40.0
95, 40.0
96, 40.0
97, 40.0
98, 40.0
99, 40.0
100, 40.0
101, 40.0
102, 40.0
103, 40.0
104, 40.0
105, 40.0
