i, Result
0, 0.0
1, 0.0
2, 0.0
3, 0.0
4, 0.0
5, 0.0
6, 0.0
7, 0.0
8, 1.0
9, 1.0
10, 1.0
11, 2.0
12, 3.0
13, 4.0
14, 5.0
15, 5.0
16, 6.0
17, 7.0
18, 8.0
19, 9.0
20, 9.0
21, 9.0
22, 9.0
23, 10.0
24, 11.0
25, 11.0
26, 12.0
27, 12.0
28, 12.0
29, 12.0
30, 13.0
31, 14.0
32, 14.0
33, 14.0
34, 14.0
35, 15.0
36, 16.0
37, 16.0
38, 16.0
39, 17.0
40, 17.0
41, 17.0
42, 17.0
43, 17.0
44, 17.0
45, 17.0
46, 18.0
47, 18.0
48, 19.0
49, 19.0
50, 19.0
51, 20.0
52, 21.0
53, 21.0
54, 22.0
55, 22.0
56, 22.0
57, 23.0
58, 24.0
59, 25.0
60, 25.0
61, 26.0
62, 26.0
63, 26.0
64, 26.0
65, 26.0
66, 26.0
67, 26.0
68, 26.0
69, 26.0
70, 26.0
71, 26.0
72, 26.0
73, 26.0
74, 26.0
75, 26.0
76, 26.0
77, 26.0
78, 26.0
79, 26.0
80, 26.0
81, 26.0
82, 26.0
83, 26.0
84, 26.0
85, 26.0
86, 26.0
87, 26.0
88, 26.0
89, 26.0
90, 26.0
91, 26.0
92, 26.0
93, 26.0
94, 26.0
95, 26.0
96, 26.0
97, 26.0
98, 26.0
99, 26.0
100, 26.0
101, 26.0
102, 26.0
103, 26.0
104, 26.0
105, 26.0
