i, Result
0, 0.0
1, 0.0
2, 0.0
3, 0.0
4, 1.0
5, 1.0
6, 1.0
7, 2.0
8, 3.0
9, 4.0
10, 5.0
11, 5.0
12, 5.0
13, 6.0
14, 6.0
15, 6.0
16, 7.0
17, 8.0
18, 8.0
19, 8.0
20, 8.0
21, 9.0
22, 10.0
23, 11.0
24, 12.0
25, 13.0
26, 14.0
27, 14.0
28, 14.0
29, 14.0
30, 15.0
31, 16.0
32, 17.0
33, 17.0
34, 17.0
35, 17.0
36, 18.0
37, 18.0
38, 19.0
39, 19.0
40, 19.0
41, 19.0
42, 20.0
43, 21.0
44, 22.0
45, 23.0
46, 24.0
47, 24.0
48, 24.0
49, 24.0
50, 24.0
51, 25.0
52, 26.0
53, 27.0
54, 28.0
55, 29.0
56, 30.0
57, 30.0
58, 30.0
59, 30.0
60, 30.0
61, 30.0
62, 30.0
63, 30.0
64, 30.0
65, 30.0
66, 30.0
67, 30.0
68, 30.0
69, 30.0
70, 30.0
71, 30.0
72, 30.0
73, 30.0
74, 30.0
75, 30.0
76, 30.0
77, 30.0
78, 30.0
79, 30.0
80, 30.0
81, 30.0
82, 30.0
83, 30.0
84, 30.0
85, 30.0
86, 30.0
87, 30.0
88, 30.0
89, 30.0
90, 30.0
91, 30.0
92, 30.0
93, 30.0
94, 30.0
95, 30.0
96, 30.0
97, 30.0
98, 30.0
99, 30.0
100, 30.0
101, 30.0
102, 30.0
103, 30.0
104, 30.0
105, 30.0
