i, Result
0, 0.0
1, 0.0
2, 0.0
3, 1.0
4, 1.0
5, 1.0
6, 2.0
7, 3.0
8, 3.0
9, 4.0
10, 5.0
11, 6.0
12, 7.0
13, 8.0
14, 9.0
15, 10.0
16, 10.0
17, 11.0
18, 11.0
19, 11.0
20, 12.0
21, 13.0
22, 14.0
23, 15.0
24, 15.0
25, 16.0
26, 17.0
27, 17.0
28, 18.0
29, 18.0
30, 19.0
31, 20.0
32, 20.0
33, 21.0
34, 21.0
35, 21.0
36, 22.0
37, 23.0
38, 24.0
39, 24.0
40, 24.0
41, 24.0
42, 24.0
43, 24.0
44, 25.0
45, 26.0
46, 27.0
47, 27.0
48, 28.0
49, 29.0
50, 30.0
51, 31.0
52, 31.0
53, 31.0
54, 31.0
55, 32.0
56, 32.0
57, 32.0
58, 32.0
59, 32.0
60, 33.0
61, 33.0
62, 33.0
63, 34.0
64, 34.0
65, 35.0
66, 36.0
67, 37.0
68, 37.0
69, 37.0
70, 37.0
71, 38.0
72, 39.0
73, 40.0
74, 41.0
75, 41.0
76, 41.0
77, 41.0
78, 41.0
79, 41.0
80, 41.0
81, 41.0
82, 41.0
83, 41.0
84, 41.0
85, 41.0
86, 41.0
87, 41.0
88, 41.0
89, 41.0
90, 41.0
91, 41.0
92, 41.0
93, 41.0
94, 41.0
95, 41.0
96, 41.0
97, 41.0
98, 41.0
99, 41.0
100, 41.0
101, 41.0
102, 41.0
103, 41.0
104, 41.0
105, 41.0
