i, Result
0, 0.0
1, 0.0
2, 0.0
3, 0.0
4, 0.0
5, 0.0
6, 0.0
7, 1.0
8, 1.0
9, 2.0
10, 2.0
11, 2.0
12, 2.0
13, 2.0
14, 3.0
15, 4.0
16, 5.0
17, 5.0
18, 6.0
19, 6.0
20, 7.0
21, 7.0
22, 7.0
23, 7.0
24, 8.0
25, 9.0
26, 10.0
27, 11.0
28, 11.0
29, 11.0
30, 11.0
31, 11.0
32, 11.0
33, 12.0
34, 13.0
35, 14.0
36, 15.0
37, 16.0
38, 16.0
39, 16.0
40, 16.0
41, 16.0
42, 16.0
43, 17.0
44, 17.0
45, 18.0
46, 18.0
47, 19.0
48, 19.0
49, 19.0
50, 20.0
51, 20.0
52, 20.0
53, 21.0
54, 22.0
55, 22.0
56, 23.0
57, 24.0
58, 24.0
59, 25.0
60, 25.0
61, 25.0
62, 26.0
63, 26.0
64, 26.0
65, 27.0
66, 27.0
67, 27.0
68, 27.0
69, 27.0
70, 27.0
71, 27.0
72, 27.0
73, 27.0
74, 27.0
75, 27.0
76, 27.0
77, 27.0
78, 27.0
79, 27.0
80, 27.0
81, 27.0
82, 27.0
83, 27.0
84, 27.0
85, 27.0
86, 27.0
87, 27.0
88, 27.0
89, 27.0
90, 27.0
91, 27.0
92, 27.0
93, 27.0
94, 27.0
95, 27.0
96, 27.0
97, 27.0
98, 27.0
99, 27.0
100, 27.0
101, 27.0
102, 27.0
103, 27.0
104, 27.0
105, 27.0
