i, Result
0, 0.0
1, 0.0
2, 0.0
3, 1.0
4, 2.0
5, 2.0
6, 3.0
7, 4.0
8, 5.0
9, 6.0
10, 7.0
11, 7.0
12, 7.0
13, 8.0
14, 8.0
15, 8.0
16, 8.0
17, 9.0
18, 9.0
19, 10.0
20, 10.0
21, 10.0
22, 11.0
23, 11.0
24, 11.0
25, 12.0
26, 13.0
27, 14.0
28, 15.0
29, 16.0
30, 17.0
31, 17.0
32, 18.0
33, 19.0
34, 20.0
35, 21.0
36, 21.0
37, 21.0
38, 22.0
39, 23.0
40, 23.0
41, 24.0
42, 25.0
43, 26.0
44, 27.0
45, 28.0
46, 29.0
47, 30.0
48, 31.0
49, 31.0
50, 31.0
51, 31.0
52, 31.0
53, 32.0
54, 33.0
55, 33.0
56, 34.0
57, 34.0
58, 34.0
59, 35.0
60, 36.0
61, 37.0
62, 37.0
63, 38.0
64, 38.0
65, 38.0
66, 38.0
67, 38.0
68, 38.0
69, 38.0
70, 38.0
71, 38.0
72, 38.0
73, 38.0
74, 38.0
75, 38.0
76, 38.0
77, 38.0
78, 38.0
79, 38.0
80, 38.0
81, 38.0
82, 38.0
83, 38.0
84, 38.0
85, 38.0
86, 38.0
87, 38.0
88, 38.0
89, 38.0
90, 38.0
91, 38.0
92, 38.0
93, 38.0
94, 38.0
95, 38.0
96, 38.0
97, 38.0
98, 38.0
99, 38.0
100, 38.0
101, 38.0
102, 38.0
103, 38.0
104, 38.0
105, 38.0
