i, Result
0, 0.0
1, 0.0
2, 0.0
3, 1.0
4, 2.0
5, 2.0
6, 2.0
7, 2.0
8, 3.0
9, 3.0
10, 4.0
11, 4.0
12, 4.0
13, 4.0
14, 4.0
15, 5.0
16, 5.0
17, 5.0
18, 6.0
19, 6.0
20, 6.0
21, 7.0
22, 8.0
23, 8.0
24, 9.0
25, 10.0
26, 11.0
27, 11.0
28, 12.0
29, 13.0
30, 14.0
31, 15.0
32, 15.0
33, 16.0
34, 17.0
35, 18.0
36, 19.0
37, 20.0
38, 21.0
39, 22.0
40, 23.0
41, 24.0
42, 24.0
43, 25.0
44, 26.0
45, 26.0
46, 26.0
47, 27.0
48, 28.0
49, 29.0
50, 30.0
51, 31.0
52, 32.0
53, 32.0
54, 33.0
55, 33.0
56, 34.0
57, 34.0
58, 34.0
59, 34.0
60, 35.0
61, 35.0
62, 36.0
63, 37.0
64, 38.0
65, 39.0
66, 39.0
67, 40.0
68, 41.0
69, 42.0
70, 43.0
71, 43.0
72, 43.0
73, 44.0
74, 44.0
75, 44.0
76, 44.0
77, 44.0
78, 44.0
79, 44.0
80, 44.0
81, 44.0
82, 44.0
83, 44.0
84, 44.0
85, 44.0
86, 44.0
87, 44.0
88, 44.0
89, 44.0
90, 44.0
91, 44.0
92, 44.0
93, 44.0
94, 44.0
95, 44.0
96, 44.0
97, 44.0
98, 44.0
99, 44.0
100, 44.0
101, 44.0
102, 44.0
103, 44.0
104, 44.0
105, 44.0
