i, Result
0, 0.0
1, 0.0
2, 0.0
3, 1.0
4, 1.0
5, 1.0
6, 1.0
7, 2.0
8, 3.0
9, 3.0
10, 3.0
11, 3.0
12, 4.0
13, 5.0
14, 6.0
15, 7.0
16, 8.0
17, 9.0
18, 9.0
19, 10.0
20, 10.0
21, 11.0
22, 12.0
23, 13.0
24, 14.0
25, 15.0
26, 16.0
27, 16.0
28, 16.0
29, 17.0
30, 17.0
31, 18.0
32, 18.0
33, 18.0
34, 18.0
35, 18.0
36, 19.0
37, 20.0
38, 21.0
39, 22.0
40, 22.0
41, 22.0
42, 23.0
43, 24.0
44, 24.0
45, 25.0
46, 26.0
47, 27.0
48, 27.0
49, 27.0
50, 27.0
51, 27.0
52, 28.0
53, 29.0
54, 29.0
55, 30.0
56, 30.0
57, 31.0
58, 31.0
59, 32.0
60, 32.0
61, 33.0
62, 34.0
63, 35.0
64, 36.0
65, 37.0
66, 38.0
67, 39.0
68, 39.0
69, 40.0
70, 41.0
71, 42.0
72, 43.0
73, 44.0
74, 45.0
75, 45.0
76, 45.0
77, 46.0
78, 46.0
79, 46.0
80, 46.0
81, 46.0
82, 46.0
83, 46.0
84, 46.0
85, 46.0
86, 46.0
87, 46.0
88, 46.0
89, 46.0
90, 46.0
91, 46.0
92, 46.0
93, 46.0
94, 46.0
95, 46.0
96, 46.0
97, 46.0
98, 46.0
99, 46.0
100, 46.0
101, 46.0
102, 46.0
103, 46.0
104, 46.0
105, 46.0
