i, Result
0, 0.0
1, 0.0
2, 0.0
3, 1.0
4, 1.0
5, 2.0
6, 2.0
7, 3.0
8, 3.0
9, 3.0
10, 4.0
11, 4.0
12, 5.0
13, 5.0
14, 5.0
15, 6.0
16, 6.0
17, 7.0
18, 8.0
19, 8.0
20, 9.0
21, 10.0
22, 10.0
23, 10.0
24, 11.0
25, 12.0
26, 12.0
27, 12.0
28, 13.0
29, 14.0
30, 15.0
31, 16.0
32, 17.0
33, 17.0
34, 18.0
35, 18.0
36, 19.0
37, 20.0
38, 20.0
39, 21.0
40, 22.0
41, 23.0
42, 24.0
43, 25.0
44, 26.0
45, 27.0
46, 27.0
47, 28.0
48, 29.0
49, 29.0
50, 29.0
51, 30.0
52, 31.0
53, 31.0
54, 31.0
55, 32.0
56, 33.0
57, 34.0
58, 35.0
59, 36.0
60, 37.0
61, 37.0
62, 38.0
63, 39.0
64, 39.0
65, 40.0
66, 40.0
67, 40.0
68, 40.0
69, 40.0
70, 40.0
71, 40.0
72, 40.0
73, 40.0
74, 40.0
75, 40.0
76, 40.0
77, 40.0
78, 40.0
79, 40.0
80, 40.0
81, 40.0
82, 40.0
83, 40.0
84, 40.0
85, 40.0
86, 40.0
87, 40.0
88, 40.0
89, 40.0
90, 40.0
91, 40.0
92, 40.0
93, 40.0
94, 40.0
95, 40.0
96, 40.0
97, 40.0
98, 40.0
99, 40.0
100, 40.0
101, 40.0
102, 40.0
103, 40.0
104, 40.0
105, 40.0
