i, Result
0, 0.0
1, 0.0
2, 0.0
3, 0.0
4, 0.0
5, 1.0
6, 1.0
7, 1.0
8, 2.0
9, 2.0
10, 3.0
11, 3.0
12, 4.0
13, 5.0
14, 6.0
15, 6.0
16, 7.0
17, 7.0
18, 7.0
19, 7.0
20, 7.0
21, 7.0
22, 8.0
23, 9.0
24, 9.0
25, 9.0
26, 10.0
27, 10.0
28, 10.0
29, 11.0
30, 12.0
31, 13.0
32, 13.0
33, 14.0
34, 15.0
35, 16.0
36, 16.0
37, 17.0
38, 18.0
39, 19.0
40, 20.0
41, 20.0
42, 21.0
43, 21.0
44, 21.0
45, 22.0
46, 23.0
47, 24.0
48, 25.0
49, 26.0
50, 26.0
51, 26.0
52, 26.0
53, 26.0
54, 26.0
55, 26.0
56, 27.0
57, 27.0
58, 28.0
59, 29.0
60, 30.0
61, 31.0
62, 32.0
63, 32.0
64, 32.0
65, 32.0
66, 32.0
67, 32.0
68, 32.0
69, 32.0
70, 32.0
71, 32.0
72, 32.0
73, 32.0
74, 32.0
75, 32.0
76, 32.0
77, 32.0
78, 32.0
79, 32.0
80, 32.0
81, 32.0
82, 32.0
83, 32.0
84, 32.0
85, 32.0
86, 32.0
87, 32.0
88, 32.0
89, 32.0
90, 32.0
91, 32.0
92, 32.0
93, 32.0
94, 32.0
95, 32.0
96, 32.0
97, 32.0
98, 32.0
99, 32.0
100, 32.0
101, 32.0
102, 32.0
103, 32.0
104, 32.0
105, 32.0
