i, Result
0, 0.0
1, 0.0
2, 0.0
3, 0.0
4, 0.0
5, 1.0
6, 1.0
7, 1.0
8, 1.0
9, 2.0
10, 2.0
11, 2.0
12, 2.0
13, 2.0
14, 2.0
15, 3.0
16, 3.0
17, 4.0
18, 4.0
19, 5.0
20, 5.0
21, 5.0
22, 5.0
23, 5.0
24, 5.0
25, 6.0
26, 6.0
27, 7.0
28, 7.0
29, 7.0
30, 8.0
31, 9.0
32, 10.0
33, 10.0
34, 10.0
35, 10.0
36, 11.0
37, 12.0
38, 12.0
39, 13.0
40, 14.0
41, 15.0
42, 15.0
43, 15.0
44, 15.0
45, 16.0
46, 16.0
47, 17.0
48, 17.0
49, 17.0
50, 17.0
51, 18.0
52, 18.0
53, 19.0
54, 20.0
55, 21.0
56, 21.0
57, 21.0
58, 21.0
59, 22.0
60, 23.0
61, 23.0
62, 23.0
63, 23.0
64, 23.0
65, 23.0
66, 23.0
67, 23.0
68, 23.0
69, 23.0
70, 23.0
71, 23.0
72, 23.0
73, 23.0
74, 23.0
75, 23.0
76, 23.0
77, 23.0
78, 23.0
79, 23.0
80, 23.0
81, 23.0
82, 23.0
83, 23.0
84, 23.0
85, 23.0
86, 23.0
87, 23.0
88, 23.0
89, 23.0
90, 23.0
91, 23.0
92, 23.0
93, 23.0
94, 23.0
95, 23.0
96, 23.0
97, 23.0
98, 23.0
99, 23.0
100, 23.0
101, 23.0
102, 23.0
103, 23.0
104, 23.0
105, 23.0
