i, Result
0, 0.0
1, 0.0
2, 0.0
3, 0.0
4, 1.0
5, 1.0
6, 1.0
7, 1.0
8, 2.0
9, 3.0
10, 3.0
11, 3.0
12, 4.0
13, 4.0
14, 5.0
15, 5.0
16, 5.0
17, 5.0
18, 5.0
19, 5.0
20, 6.0
21, 7.0
22, 8.0
23, 8.0
24, 9.0
25, 10.0
26, 11.0
27, 12.0
28, 13.0
29, 14.0
30, 14.0
31, 15.0
32, 16.0
33, 17.0
34, 18.0
35, 18.0
36, 18.0
37, 18.0
38, 18.0
39, 18.0
40, 19.0
41, 20.0
42, 21.0
43, 21.0
44, 22.0
45, 22.0
46, 23.0
47, 23.0
48, 24.0
49, 25.0
50, 26.0
51, 26.0
52, 27.0
53, 27.0
54, 28.0
55, 29.0
56, 29.0
57, 30.0
58, 30.0
59, 31.0
60, 32.0
61, 32.0
62, 33.0
63, 33.0
64, 34.0
65, 35.0
66, 36.0
67, 36.0
68, 36.0
69, 36.0
70, 36.0
71, 36.0
72, 36.0
73, 36.0
74, 36.0
75, 36.0
76, 36.0
77, 36.0
78, 36.0
79, 36.0
80, 36.0
81, 36.0
82, 36.0
83, 36.0
84, 36.0
85, 36.0
86, 36.0
87, 36.0
88, 36.0
89, 36.0
90, 36.0
91, 36.0
92, 36.0
93, 36.0
94, 36.0
95, 36.0
96, 36.0
97, 36.0
98, 36.0
99, 36.0
100, 36.0
101, 36.0
102, 36.0
103, 36.0
104, 36.0
105, 36.0
