i, Result
0, 0.0
1, 0.0
2, 0.0
3, 1.0
4, 1.0
5, 1.0
6, 2.0
7, 2.0
8, 3.0
9, 4.0
10, 4.0
11, 5.0
12, 5.0
13, 6.0
14, 7.0
15, 7.0
16, 7.0
17, 8.0
18, 9.0
19, 9.0
20, 9.0
21, 9.0
22, 10.0
23, 10.0
24, 10.0
25, 10.0
26, 11.0
27, 12.0
28, 13.0
29, 13.0
30, 14.0
31, 15.0
32, 16.0
33, 16.0
34, 17.0
35, 17.0
36, 17.0
37, 18.0
38, 18.0
39, 19.0
40, 19.0
41, 19.0
42, 19.0
43, 19.0
44, 19.0
45, 20.0
46, 20.0
47, 20.0
48, 21.0
49, 21.0
50, 21.0
51, 22.0
52, 22.0
53, 23.0
54, 23.0
55, 23.0
56, 23.0
57, 23.0
58, 23.0
59, 24.0
60, 25.0
61, 25.0
62, 25.0
63, 25.0
64, 25.0
65, 25.0
66, 25.0
67, 25.0
68, 25.0
69, 25.0
70, 25.0
71, 25.0
72, 25.0
73, 25.0
74, 25.0
75, 25.0
76, 25.0
77, 25.0
78, 25.0
79, 25.0
80, 25.0
81, 25.0
82, 25.0
83, 25.0
84, 25.0
85, 25.0
86, 25.0
87, 25.0
88, 25.0
89, 25.0
90, 25.0
91, 25.0
92, 25.0
93, 25.0
94, 25.0
95, 25.0
96, 25.0
97, 25.0
98, 25.0
99, 25.0
100, 25.0
101, 25.0
102, 25.0
103, 25.0
104, 25.0
105, 25.0
