i, Result
0, 0.0
1, 0.0
2, 0.0
3, 0.0
4, 1.0
5, 1.0
6, 2.0
7, 3.0
8, 4.0
9, 4.0
10, 5.0
11, 6.0
12, 7.0
13, 7.0
14, 7.0
15, 8.0
16, 8.0
17, 9.0
18, 9.0
19, 9.0
20, 10.0
21, 10.0
22, 11.0
23, 12.0
24, 13.0
25, 14.0
26, 14.0
27, 14.0
28, 15.0
29, 15.0
30, 16.0
31, 17.0
32, 18.0
33, 18.0
34, 19.0
35, 20.0
36, 21.0
37, 22.0
38, 22.0
39, 22.0
40, 22.0
41, 22.0
42, 23.0
43, 23.0
44, 24.0
45, 25.0
46, 25.0
47, 26.0
48, 26.0
49, 26.0
50, 27.0
51, 28.0
52, 28.0
53, 28.0
54, 29.0
55, 29.0
56, 29.0
57, 29.0
58, 30.0
59, 30.0
60, 30.0
61, 30.0
62, 30.0
63, 30.0
64, 31.0
65, 32.0
66, 32.0
67, 32.0
68, 33.0
69, 34.0
70, 35.0
71, 35.0
72, 35.0
73, 35.0
74, 35.0
75, 35.0
76, 35.0
77, 35.0
78, 35.0
79, 35.0
80, 35.0
81, 35.0
82, 35.0
83, 35.0
84, 35.0
85, 35.0
86, 35.0
87, 35.0
88, 35.0
89, 35.0
90, 35.0
91, 35.0
92, 35.0
93, 35.0
94, 35.0
95, 35.0
96, 35.0
97, 35.0
98, 35.0
99, 35.0
100, 35.0
101, 35.0
102, 35.0
103, 35.0
104, 35.0
105, 35.0
