i, Result
0, 0.0
1, 0.0
2, 0.0
3, 1.0
4, 2.0
5, 3.0
6, 4.0
7, 5.0
8, 6.0
9, 7.0
10, 8.0
11, 8.0
12, 9.0
13, 9.0
14, 10.0
15, 11.0
16, 12.0
17, 13.0
18, 13.0
19, 13.0
20, 13.0
21, 14.0
22, 14.0
23, 15.0
24, 16.0
25, 16.0
26, 17.0
27, 17.0
28, 18.0
29, 19.0
30, 20.0
31, 20.0
32, 21.0
33, 22.0
34, 23.0
35, 24.0
36, 25.0
37, 26.0
38, 27.0
39, 28.0
40, 29.0
41, 29.0
42, 30.0
43, 30.0
44, 31.0
45, 32.0
46, 33.0
47, 33.0
48, 33.0
49, 33.0
50, 34.0
51, 35.0
52, 36.0
53, 36.0
54, 36.0
55, 36.0
56, 37.0
57, 38.0
58, 38.0
59, 39.0
60, 39.0
61, 39.0
62, 39.0
63, 40.0
64, 41.0
65, 41.0
66, 42.0
67, 43.0
68, 43.0
69, 43.0
70, 43.0
71, 44.0
72, 44.0
73, 45.0
74, 46.0
75, 46.0
76, 46.0
77, 47.0
78, 47.0
79, 47.0
80, 47.0
81, 47.0
82, 47.0
83, 47.0
84, 47.0
85, 47.0
86, 47.0
87, 47.0
88, 47.0
89, 47.0
90, 47.0
91, 47.0
92, 47.0
93, 47.0
94, 47.0
95, 47.0
96, 47.0
97, 47.0
98, 47.0
99, 47.0
100, 47.0
101, 47.0
102, 47.0
103, 47.0
104, 47.0
105, 47.0
