i, Result
0, 0.0
1, 0.0
2, 0.0
3, 0.0
4, 1.0
5, 1.0
6, 1.0
7, 2.0
8, 3.0
9, 4.0
10, 4.0
11, 5.0
12, 6.0
13, 7.0
14, 7.0
15, 7.0
16, 8.0
17, 8.0
18, 9.0
19, 10.0
20, 10.0
21, 11.0
22, 12.0
23, 13.0
24, 13.0
25, 14.0
26, 15.0
27, 16.0
28, 17.0
29, 18.0
30, 19.0
31, 19.0
32, 20.0
33, 21.0
34, 21.0
35, 22.0
36, 23.0
37, 24.0
38, 24.0
39, 25.0
40, 26.0
41, 26.0
42, 26.0
43, 27.0
44, 28.0
45, 28.0
46, 28.0
47, 28.0
48, 29.0
49, 30.0
50, 31.0
51, 32.0
52, 32.0
53, 32.0
54, 32.0
55, 32.0
56, 33.0
57, 34.0
58, 34.0
59, 35.0
60, 36.0
61, 36.0
62, 37.0
63, 37.0
64, 38.0
65, 39.0
66, 39.0
67, 39.0
68, 40.0
69, 41.0
70, 41.0
71, 42.0
72, 42.0
73, 42.0
74, 42.0
75, 42.0
76, 42.0
77, 42.0
78, 42.0
79, 42.0
80, 42.0
81, 42.0
82, 42.0
83, 42.0
84, 42.0
85, 42.0
86, 42.0
87, 42.0
88, 42.0
89, 42.0
90, 42.0
91, 42.0
92, 42.0
93, 42.0
94, 42.0
95, 42.0
96, 42.0
97, 42.0
98, 42.0
99, 42.0
100, 42.0
101, 42.0
102, 42.0
103, 42.0
104, 42.0
105, 42.0
