i, Result
0, 0.0
1, 0.0
2, 0.0
3, 1.0
4, 2.0
5, 3.0
6, 4.0
7, 4.0
8, 5.0
9, 6.0
10, 7.0
11, 7.0
12, 7.0
13, 8.0
14, 9.0
15, 10.0
16, 10.0
17, 11.0
18, 12.0
19, 12.0
20, 12.0
21, 13.0
22, 13.0
23, 14.0
24, 14.0
25, 14.0
26, 15.0
27, 15.0
28, 16.0
29, 16.0
30, 16.0
31, 17.0
32, 18.0
33, 19.0
34, 19.0
35, 19.0
36, 19.0
37, 20.0
38, 21.0
39, 22.0
40, 22.0
41, 23.0
42, 23.0
43, 23.0
44, 24.0
45, 24.0
46, 25.0
47, 26.0
48, 27.0
49, 28.0
50, 29.0
51, 29.0
52, 30.0
53, 30.0
54, 30.0
55, 31.0
56, 31.0
57, 31.0
58, 32.0
59, 32.0
60, 32.0
61, 33.0
62, 33.0
63, 34.0
64, 35.0
65, 35.0
66, 36.0
67, 36.0
68, 36.0
69, 36.0
70, 36.0
71, 36.0
72, 36.0
73, 36.0
74, 36.0
75, 36.0
76, 36.0
77, 36.0
78, 36.0
79, 36.0
80, 36.0
81, 36.0
82, 36.0
83, 36.0
84, 36.0
85, 36.0
86, 36.0
87, 36.0
88, 36.0
89, 36.0
90, 36.0
91, 36.0
92, 36.0
93, 36.0
94, 36.0
95, 36.0
96, 36.0
97, 36.0
98, 36.0
99, 36.0
100, 36.0
101, 36.0
102, 36.0
103, 36.0
104, 36.0
105, 36.0
