i, Result
0, 0.0
1, 0.0
2, 0.0
3, 0.0
4, 1.0
5, 1.0
6, 1.0
7, 2.0
8, 2.0
9, 2.0
10, 3.0
11, 4.0
12, 4.0
13, 4.0
14, 4.0
15, 4.0
16, 4.0
17, 4.0
18, 5.0
19, 6.0
20, 6.0
21, 6.0
22, 6.0
23, 6.0
24, 6.0
25, 6.0
26, 6.0
27, 7.0
28, 7.0
29, 7.0
30, 8.0
31, 8.0
32, 8.0
33, 8.0
34, 8.0
35, 9.0
36, 9.0
37, 9.0
38, 10.0
39, 10.0
40, 11.0
41, 12.0
42, 13.0
43, 13.0
44, 14.0
45, 15.0
46, 15.0
47, 15.0
48, 16.0
49, 17.0
50, 17.0
51, 17.0
52, 18.0
53, 19.0
54, 19.0
55, 20.0
56, 21.0
57, 21.0
58, 22.0
59, 23.0
60, 24.0
61, 25.0
62, 25.0
63, 25.0
64, 25.0
65, 26.0
66, 26.0
67, 27.0
68, 28.0
69, 28.0
70, 28.0
71, 28.0
72, 28.0
73, 28.0
74, 28.0
75, 28.0
76, 28.0
77, 28.0
78, 28.0
79, 28.0
80, 28.0
81, 28.0
82, 28.0
83, 28.0
84, 28.0
85, 28.0
86, 28.0
87, 28.0
88, 28.0
89, 28.0
90, 28.0
91, 28.0
92, 28.0
93, 28.0
94, 28.0
95, 28.0
96, 28.0
97, 28.0
98, 28.0
99, 28.0
100, 28.0
101, 28.0
102, 28.0
103, 28.0
104, 28.0
105, 28.0
