i, Result
0, 0.0
1, 0.0
2, 0.0
3, 1.0
4, 1.0
5, 1.0
6, 1.0
7, 2.0
8, 3.0
9, 3.0
10, 4.0
11, 5.0
12, 5.0
13, 5.0
14, 5.0
15, 5.0
16, 5.0
17, 5.0
18, 5.0
19, 5.0
20, 6.0
21, 6.0
22, 6.0
23, 7.0
24, 7.0
25, 8.0
26, 8.0
27, 9.0
28, 10.0
29, 11.0
30, 12.0
31, 12.0
32, 12.0
33, 12.0
34, 12.0
35, 13.0
36, 14.0
37, 14.0
38, 15.0
39, 15.0
40, 16.0
41, 16.0
42, 16.0
43, 17.0
44, 18.0
45, 18.0
46, 18.0
47, 19.0
48, 20.0
49, 21.0
50, 22.0
51, 23.0
52, 24.0
53, 24.0
54, 25.0
55, 26.0
56, 27.0
57, 28.0
58, 28.0
59, 28.0
60, 28.0
61, 28.0
62, 29.0
63, 29.0
64, 30.0
65, 31.0
66, 31.0
67, 31.0
68, 31.0
69, 31.0
70, 31.0
71, 31.0
72, 31.0
73, 31.0
74, 31.0
75, 31.0
76, 31.0
77, 31.0
78, 31.0
79, 31.0
80, 31.0
81, 31.0
82, 31.0
83, 31.0
84, 31.0
85, 31.0
86, 31.0
87, 31.0
88, 31.0
89, 31.0
90, 31.0
91, 31.0
92, 31.0
93, 31.0
94, 31.0
95, 31.0
96, 31.0
97, 31.0
98, 31.0
99, 31.0
100, 31.0
101, 31.0
102, 31.0
103, 31.0
104, 31.0
105, 31.0
