i, Result
0, 0.0
1, 0.0
2, 0.0
3, 1.0
4, 2.0
5, 3.0
6, 4.0
7, 4.0
8, 5.0
9, 5.0
10, 5.0
11, 5.0
12, 6.0
13, 6.0
14, 7.0
15, 8.0
16, 9.0
17, 10.0
18, 11.0
19, 12.0
20, 13.0
21, 14.0
22, 15.0
23, 16.0
24, 16.0
25, 17.0
26, 18.0
27, 18.0
28, 18.0
29, 19.0
30, 19.0
31, 19.0
32, 19.0
33, 19.0
34, 19.0
35, 19.0
36, 19.0
37, 20.0
38, 20.0
39, 20.0
40, 21.0
41, 21.0
42, 22.0
43, 23.0
44, 24.0
45, 24.0
46, 24.0
47, 25.0
48, 25.0
49, 26.0
50, 26.0
51, 26.0
52, 27.0
53, 28.0
54, 29.0
55, 29.0
56, 30.0
57, 31.0
58, 32.0
59, 33.0
60, 33.0
61, 33.0
62, 33.0
63, 34.0
64, 35.0
65, 35.0
66, 36.0
67, 37.0
68, 38.0
69, 39.0
70, 39.0
71, 39.0
72, 40.0
73, 40.0
74, 40.0
75, 40.0
76, 40.0
77, 40.0
78, 40.0
79, 40.0
80, 40.0
81, 40.0
82, 40.0
83, 40.0
84, 40.0
85, 40.0
86, 40.0
87, 40.0
88, 40.0
89, 40.0
90, 40.0
91, 40.0
92, 40.0
93, 40.0
94, 40.0
95, 40.0
96, 40.0
97, 40.0
98, 40.0
99, 40.0
100, 40.0
101, 40.0
102, 40.0
103, 40.0
104, 40.0
105, 40.0
