i, Result
0, 0.0
1, 0.0
2, 0.0
3, 0.0
4, 0.0
5, 1.0
6, 2.0
7, 3.0
8, 3.0
9, 4.0
10, 5.0
11, 5.0
12, 5.0
13, 6.0
14, 6.0
15, 7.0
16, 8.0
17, 9.0
18, 10.0
19, 11.0
20, 12.0
21, 13.0
22, 14.0
23, 14.0
24, 14.0
25, 15.0
26, 16.0
27, 17.0
28, 18.0
29, 18.0
30, 19.0
31, 19.0
32, 20.0
33, 20.0
34, 21.0
35, 21.0
36, 22.0
37, 22.0
38, 22.0
39, 22.0
40, 23.0
41, 24.0
42, 25.0
43, 25.0
44, 25.0
45, 26.0
46, 27.0
47, 28.0
48, 28.0
49, 29.0
50, 29.0
51, 29.0
52, 29.0
53, 29.0
54, 30.0
55, 30.0
56, 31.0
57, 31.0
58, 31.0
59, 32.0
60, 33.0
61, 33.0
62, 33.0
63, 34.0
64, 35.0
65, 36.0
66, 36.0
67, 37.0
68, 38.0
69, 39.0
70, 40.0
71, 40.0
72, 40.0
73, 40.0
74, 40.0
75, 40.0
76, 40.0
77, 40.0
78, 40.0
79, 40.0
80, 40.0
81, 40.0
82, 40.0
83, 40.0
84, 40.0
85, 40.0
86, 40.0
87, 40.0
88, 40.0
89, 40.0
90, 40.0
91, 40.0
92, 40.0
93, 40.0
94, 40.0
95, 40.0
96, 40.0
97, 40.0
98, 40.0
99, 40.0
100, 40.0
101, 40.0
102, 40.0
103, 40.0
104, 40.0
105, 40.0
