i, Result
0, 0.0
1, 0.0
2, 0.0
3, 0.0
4, 1.0
5, 1.0
6, 2.0
7, 2.0
8, 2.0
9, 3.0
10, 4.0
11, 5.0
12, 5.0
13, 5.0
14, 6.0
15, 7.0
16, 8.0
17, 9.0
18, 10.0
19, 10.0
20, 11.0
21, 11.0
22, 12.0
23, 12.0
24, 12.0
25, 12.0
26, 13.0
27, 14.0
28, 15.0
29, 15.0
30, 15.0
31, 16.0
32, 17.0
33, 18.0
34, 19.0
35, 20.0
36, 21.0
37, 21.0
38, 22.0
39, 22.0
40, 23.0
41, 24.0
42, 25.0
43, 25.0
44, 26.0
45, 27.0
46, 28.0
47, 29.0
48, 29.0
49, 29.0
50, 29.0
51, 29.0
52, 29.0
53, 29.0
54, 29.0
55, 29.0
56, 30.0
57, 31.0
58, 31.0
59, 31.0
60, 32.0
61, 32.0
62, 32.0
63, 33.0
64, 33.0
65, 33.0
66, 34.0
67, 34.0
68, 35.0
69, 35.0
70, 35.0
71, 36.0
72, 36.0
73, 37.0
74, 37.0
75, 37.0
76, 37.0
77, 38.0
78, 38.0
79, 38.0
80, 38.0
81, 38.0
82, 38.0
83, 38.0
84, 38.0
85, 38.0
86, 38.0
87, 38.0
88, 38.0
89, 38.0
90, 38.0
91, 38.0
92, 38.0
93, 38.0
94, 38.0
95, 38.0
96, 38.0
97, 38.0
98, 38.0
99, 38.0
100, 38.0
101, 38.0
102, 38.0
103, 38.0
104, 38.0
105, 38.0
