i, Result
0, 0.0
1, 0.0
2, 0.0
3, 1.0
4, 2.0
5, 3.0
6, 3.0
7, 3.0
8, 3.0
9, 4.0
10, 5.0
11, 6.0
12, 7.0
13, 8.0
14, 9.0
15, 10.0
16, 11.0
17, 12.0
18, 13.0
19, 14.0
20, 15.0
21, 16.0
22, 17.0
23, 18.0
24, 18.0
25, 19.0
26, 20.0
27, 21.0
28, 22.0
29, 23.0
30, 23.0
31, 24.0
32, 24.0
33, 25.0
34, 25.0
35, 25.0
36, 26.0
37, 27.0
38, 27.0
39, 28.0
40, 29.0
41, 29.0
42, 30.0
43, 31.0
44, 31.0
45, 32.0
46, 33.0
47, 33.0
48, 34.0
49, 35.0
50, 35.0
51, 36.0
52, 37.0
53, 38.0
54, 39.0
55, 39.0
56, 39.0
57, 39.0
58, 39.0
59, 39.0
60, 40.0
61, 40.0
62, 40.0
63, 40.0
64, 40.0
65, 40.0
66, 41.0
67, 42.0
68, 43.0
69, 44.0
70, 45.0
71, 45.0
72, 45.0
73, 45.0
74, 45.0
75, 45.0
76, 45.0
77, 45.0
78, 45.0
79, 45.0
80, 45.0
81, 45.0
82, 45.0
83, 45.0
84, 45.0
85, 45.0
86, 45.0
87, 45.0
88, 45.0
89, 45.0
90, 45.0
91, 45.0
92, 45.0
93, 45.0
94, 45.0
95, 45.0
96, 45.0
97, 45.0
98, 45.0
99, 45.0
100, 45.0
101, 45.0
102, 45.0
103, 45.0
104, 45.0
105, 45.0
