i, Result
0, 0.0
1, 0.0
2, 0.0
3, 0.0
4, 1.0
5, 1.0
6, 2.0
7, 2.0
8, 2.0
9, 3.0
10, 4.0
11, 5.0
12, 6.0
13, 6.0
14, 6.0
15, 7.0
16, 8.0
17, 8.0
18, 9.0
19, 10.0
20, 11.0
21, 12.0
22, 13.0
23, 13.0
24, 13.0
25, 14.0
26, 15.0
27, 16.0
28, 16.0
29, 17.0
30, 18.0
31, 18.0
32, 18.0
33, 19.0
34, 19.0
35, 19.0
36, 20.0
37, 20.0
38, 21.0
39, 21.0
40, 22.0
41, 23.0
42, 24.0
43, 24.0
44, 25.0
45, 26.0
46, 26.0
47, 26.0
48, 27.0
49, 28.0
50, 28.0
51, 28.0
52, 28.0
53, 28.0
54, 28.0
55, 29.0
56, 30.0
57, 31.0
58, 32.0
59, 32.0
60, 32.0
61, 32.0
62, 33.0
63, 33.0
64, 33.0
65, 33.0
66, 33.0
67, 33.0
68, 33.0
69, 34.0
70, 34.0
71, 34.0
72, 34.0
73, 35.0
74, 35.0
75, 36.0
76, 36.0
77, 37.0
78, 37.0
79, 37.0
80, 37.0
81, 37.0
82, 37.0
83, 37.0
84, 37.0
85, 37.0
86, 37.0
87, 37.0
88, 37.0
89, 37.0
90, 37.0
91, 37.0
92, 37.0
93, 37.0
94, 37.0
95, 37.0
96, 37.0
97, 37.0
98, 37.0
99, 37.0
100, 37.0
101, 37.0
102, 37.0
103, 37.0
104, 37.0
105, 37.0
