i, Result
0, 0.0
1, 0.0
2, 0.0
3, 1.0
4, 1.0
5, 2.0
6, 3.0
7, 3.0
8, 4.0
9, 4.0
10, 4.0
11, 5.0
12, 6.0
13, 6.0
14, 6.0
15, 6.0
16, 7.0
17, 8.0
18, 8.0
19, 8.0
20, 9.0
21, 10.0
22, 10.0
23, 11.0
24, 11.0
25, 11.0
26, 11.0
27, 11.0
28, 12.0
29, 12.0
30, 13.0
31, 13.0
32, 14.0
33, 14.0
34, 14.0
35, 14.0
36, 14.0
37, 14.0
38, 15.0
39, 16.0
40, 16.0
41, 17.0
42, 18.0
43, 19.0
44, 20.0
45, 21.0
46, 21.0
47, 22.0
48, 23.0
49, 23.0
50, 24.0
51, 25.0
52, 25.0
53, 26.0
54, 26.0
55, 26.0
56, 26.0
57, 27.0
58, 27.0
59, 28.0
60, 28.0
61, 29.0
62, 30.0
63, 30.0
64, 31.0
65, 32.0
66, 33.0
67, 34.0
68, 34.0
69, 35.0
70, 36.0
71, 36.0
72, 36.0
73, 37.0
74, 38.0
75, 38.0
76, 38.0
77, 38.0
78, 38.0
79, 38.0
80, 38.0
81, 38.0
82, 38.0
83, 38.0
84, 38.0
85, 38.0
86, 38.0
87, 38.0
88, 38.0
89, 38.0
90, 38.0
91, 38.0
92, 38.0
93, 38.0
94, 38.0
95, 38.0
96, 38.0
97, 38.0
98, 38.0
99, 38.0
100, 38.0
101, 38.0
102, 38.0
103, 38.0
104, 38.0
105, 38.0
