i, Result
0, 0.0
1, 0.0
2, 0.0
3, 0.0
4, 0.0
5, 1.0
6, 1.0
7, 2.0
8, 3.0
9, 3.0
10, 3.0
11, 3.0
12, 3.0
13, 4.0
14, 5.0
15, 6.0
16, 7.0
17, 8.0
18, 8.0
19, 8.0
20, 9.0
21, 10.0
22, 10.0
23, 11.0
24, 12.0
25, 13.0
26, 13.0
27, 14.0
28, 14.0
29, 14.0
30, 14.0
31, 15.0
32, 15.0
33, 15.0
34, 15.0
35, 16.0
36, 16.0
37, 17.0
38, 18.0
39, 18.0
40, 18.0
41, 18.0
42, 18.0
43, 18.0
44, 18.0
45, 18.0
46, 18.0
47, 19.0
48, 19.0
49, 19.0
50, 19.0
51, 19.0
52, 20.0
53, 20.0
54, 20.0
55, 21.0
56, 22.0
57, 23.0
58, 24.0
59, 24.0
60, 24.0
61, 25.0
62, 26.0
63, 27.0
64, 27.0
65, 28.0
66, 28.0
67, 29.0
68, 30.0
69, 31.0
70, 32.0
71, 32.0
72, 32.0
73, 32.0
74, 32.0
75, 32.0
76, 32.0
77, 32.0
78, 32.0
79, 32.0
80, 32.0
81, 32.0
82, 32.0
83, 32.0
84, 32.0
85, 32.0
86, 32.0
87, 32.0
88, 32.0
89, 32.0
90, 32.0
91, 32.0
92, 32.0
93, 32.0
94, 32.0
95, 32.0
96, 32.0
97, 32.0
98, 32.0
99, 32.0
100, 32.0
101, 32.0
102, 32.0
103, 32.0
104, 32.0
105, 32.0
