i, Result
0, 0.0
1, 0.0
2, 0.0
3, 0.0
4, 0.0
5, 0.0
6, 0.0
7, 0.0
8, 0.0
9, 0.0
10, 0.0
11, 1.0
12, 1.0
13, 1.0
14, 2.0
15, 2.0
16, 2.0
17, 2.0
18, 3.0
19, 3.0
20, 4.0
21, 5.0
22, 5.0
23, 5.0
24, 5.0
25, 6.0
26, 6.0
27, 7.0
28, 8.0
29, 8.0
30, 9.0
31, 10.0
32, 10.0
33, 10.0
34, 10.0
35, 10.0
36, 11.0
37, 12.0
38, 13.0
39, 14.0
40, 15.0
41, 16.0
42, 17.0
43, 17.0
44, 17.0
45, 17.0
46, 18.0
47, 19.0
48, 20.0
49, 21.0
50, 21.0
51, 22.0
52, 22.0
53, 22.0
54, 23.0
55, 23.0
56, 23.0
57, 23.0
58, 23.0
59, 23.0
60, 24.0
61, 25.0
62, 26.0
63, 27.0
64, 28.0
65, 28.0
66, 29.0
67, 30.0
68, 30.0
69, 30.0
70, 30.0
71, 30.0
72, 30.0
73, 30.0
74, 30.0
75, 30.0
76, 30.0
77, 30.0
78, 30.0
79, 30.0
80, 30.0
81, 30.0
82, 30.0
83, 30.0
84, 30.0
85, 30.0
86, 30.0
87, 30.0
88, 30.0
89, 30.0
90, 30.0
91, 30.0
92, 30.0
93, 30.0
94, 30.0
95, 30.0
96, 30.0
97, 30.0
98, 30.0
99, 30.0
100, 30.0
101, 30.0
102, 30.0
103, 30.0
104, 30.0
105, 30.0
