i, Result
0, 0.0
1, 0.0
2, 0.0
3, 1.0
4, 2.0
5, 3.0
6, 4.0
7, 4.0
8, 4.0
9, 4.0
10, 4.0
11, 4.0
12, 5.0
13, 6.0
14, 7.0
15, 7.0
16, 8.0
17, 8.0
18, 8.0
19, 8.0
20, 8.0
21, 8.0
22, 9.0
23, 9.0
24, 10.0
25, 11.0
26, 12.0
27, 13.0
28, 13.0
29, 14.0
30, 14.0
31, 14.0
32, 14.0
33, 14.0
34, 14.0
35, 14.0
36, 14.0
37, 14.0
38, 15.0
39, 15.0
40, 15.0
41, 15.0
42, 16.0
43, 16.0
44, 16.0
45, 16.0
46, 17.0
47, 17.0
48, 18.0
49, 18.0
50, 18.0
51, 19.0
52, 20.0
53, 20.0
54, 20.0
55, 21.0
56, 21.0
57, 22.0
58, 22.0
59, 22.0
60, 22.0
61, 22.0
62, 22.0
63, 22.0
64, 22.0
65, 22.0
66, 22.0
67, 22.0
68, 22.0
69, 22.0
70, 22.0
71, 22.0
72, 22.0
73, 22.0
74, 22.0
75, 22.0
76, 22.0
77, 22.0
78, 22.0
79, 22.0
80, 22.0
81, 22.0
82, 22.0
83, 22.0
84, 22.0
85, 22.0
86, 22.0
87, 22.0
88, 22.0
89, 22.0
90, 22.0
91, 22.0
92, 22.0
93, 22.0
94, 22.0
95, 22.0
96, 22.0
97, 22.0
98, 22.0
99, 22.0
100, 22.0
101, 22.0
102, 22.0
103, 22.0
104, 22.0
105, 22.0
