i, Result
0, 0.0
1, 0.0
2, 0.0
3, 1.0
4, 1.0
5, 1.0
6, 2.0
7, 2.0
8, 2.0
9, 2.0
10, 3.0
11, 3.0
12, 3.0
13, 3.0
14, 4.0
15, 5.0
16, 6.0
17, 7.0
18, 8.0
19, 9.0
20, 9.0
21, 10.0
22, 10.0
23, 10.0
24, 10.0
25, 11.0
26, 12.0
27, 13.0
28, 14.0
29, 15.0
30, 16.0
31, 16.0
32, 17.0
33, 17.0
34, 18.0
35, 18.0
36, 18.0
37, 19.0
38, 19.0
39, 20.0
40, 21.0
41, 22.0
42, 23.0
43, 23.0
44, 24.0
45, 25.0
46, 25.0
47, 26.0
48, 27.0
49, 28.0
50, 29.0
51, 30.0
52, 30.0
53, 30.0
54, 30.0
55, 30.0
56, 30.0
57, 30.0
58, 30.0
59, 31.0
60, 32.0
61, 32.0
62, 32.0
63, 33.0
64, 34.0
65, 35.0
66, 35.0
67, 35.0
68, 35.0
69, 35.0
70, 35.0
71, 35.0
72, 35.0
73, 35.0
74, 35.0
75, 35.0
76, 35.0
77, 35.0
78, 35.0
79, 35.0
80, 35.0
81, 35.0
82, 35.0
83, 35.0
84, 35.0
85, 35.0
86, 35.0
87, 35.0
88, 35.0
89, 35.0
90, 35.0
91, 35.0
92, 35.0
93, 35.0
94, 35.0
95, 35.0
96, 35.0
97, 35.0
98, 35.0
99, 35.0
100, 35.0
101, 35.0
102, 35.0
103, 35.0
104, 35.0
105, 35.0
