i, Result
0, 0.0
1, 0.0
2, 0.0
3, 1.0
4, 2.0
5, 3.0
6, 4.0
7, 4.0
8, 4.0
9, 4.0
10, 4.0
11, 5.0
12, 5.0
13, 5.0
14, 5.0
15, 6.0
16, 6.0
17, 6.0
18, 6.0
19, 7.0
20, 8.0
21, 8.0
22, 9.0
23, 10.0
24, 10.0
25, 11.0
26, 11.0
27, 11.0
28, 11.0
29, 11.0
30, 12.0
31, 13.0
32, 13.0
33, 13.0
34, 14.0
35, 14.0
36, 15.0
37, 15.0
38, 15.0
39, 16.0
40, 17.0
41, 17.0
42, 17.0
43, 17.0
44, 18.0
45, 18.0
46, 18.0
47, 18.0
48, 19.0
49, 19.0
50, 20.0
51, 21.0
52, 22.0
53, 23.0
54, 24.0
55, 24.0
56, 25.0
57, 25.0
58, 26.0
59, 26.0
60, 26.0
61, 27.0
62, 28.0
63, 29.0
64, 29.0
65, 30.0
66, 30.0
67, 31.0
68, 32.0
69, 33.0
70, 34.0
71, 34.0
72, 34.0
73, 34.0
74, 34.0
75, 34.0
76, 34.0
77, 34.0
78, 34.0
79, 34.0
80, 34.0
81, 34.0
82, 34.0
83, 34.0
84, 34.0
85, 34.0
86, 34.0
87, 34.0
88, 34.0
89, 34.0
90, 34.0
91, 34.0
92, 34.0
93, 34.0
94, 34.0
95, 34.0
96, 34.0
97, 34.0
98, 34.0
99, 34.0
100, 34.0
101, 34.0
102, 34.0
103, 34.0
104, 34.0
105, 34.0
