i, Result
0, 0.0
1, 0.0
2, 0.0
3, 1.0
4, 1.0
5, 2.0
6, 2.0
7, 2.0
8, 3.0
9, 3.0
10, 4.0
11, 5.0
12, 6.0
13, 6.0
14, 7.0
15, 8.0
16, 9.0
17, 10.0
18, 11.0
19, 11.0
20, 12.0
21, 13.0
22, 14.0
23, 14.0
24, 14.0
25, 15.0
26, 16.0
27, 17.0
28, 17.0
29, 18.0
30, 18.0
31, 19.0
32, 20.0
33, 21.0
34, 21.0
35, 22.0
36, 22.0
37, 22.0
38, 23.0
39, 23.0
40, 23.0
41, 23.0
42, 24.0
43, 25.0
44, 25.0
45, 26.0
46, 27.0
47, 28.0
48, 29.0
49, 29.0
50, 29.0
51, 29.0
52, 30.0
53, 31.0
54, 31.0
55, 31.0
56, 31.0
57, 31.0
58, 32.0
59, 32.0
60, 33.0
61, 33.0
62, 33.0
63, 33.0
64, 34.0
65, 35.0
66, 36.0
67, 36.0
68, 36.0
69, 37.0
70, 37.0
71, 37.0
72, 37.0
73, 37.0
74, 37.0
75, 37.0
76, 37.0
77, 37.0
78, 37.0
79, 37.0
80, 37.0
81, 37.0
82, 37.0
83, 37.0
84, 37.0
85, 37.0
86, 37.0
87, 37.0
88, 37.0
89, 37.0
90, 37.0
91, 37.0
92, 37.0
93, 37.0
94, 37.0
95, 37.0
96, 37.0
97, 37.0
98, 37.0
99, 37.0
100, 37.0
101, 37.0
102, 37.0
103, 37.0
104, 37.0
105, 37.0
