i, Result
0, 0.0
1, 0.0
2, 0.0
3, 1.0
4, 1.0
5, 1.0
6, 2.0
7, 2.0
8, 3.0
9, 4.0
10, 5.0
11, 6.0
12, 7.0
13, 7.0
14, 7.0
15, 7.0
16, 7.0
17, 8.0
18, 9.0
19, 10.0
20, 11.0
21, 12.0
22, 13.0
23, 14.0
24, 15.0
25, 15.0
26, 16.0
27, 17.0
28, 18.0
29, 18.0
30, 18.0
31, 19.0
32, 20.0
33, 20.0
34, 20.0
35, 21.0
36, 22.0
37, 23.0
38, 24.0
39, 24.0
40, 24.0
41, 25.0
42, 25.0
43, 26.0
44, 27.0
45, 28.0
46, 28.0
47, 28.0
48, 28.0
49, 28.0
50, 29.0
51, 29.0
52, 30.0
53, 31.0
54, 32.0
55, 33.0
56, 33.0
57, 34.0
58, 34.0
59, 34.0
60, 35.0
61, 36.0
62, 36.0
63, 36.0
64, 36.0
65, 36.0
66, 36.0
67, 37.0
68, 38.0
69, 39.0
70, 40.0
71, 41.0
72, 42.0
73, 42.0
74, 42.0
75, 42.0
76, 43.0
77, 43.0
78, 43.0
79, 43.0
80, 43.0
81, 43.0
82, 43.0
83, 43.0
84, 43.0
85, 43.0
86, 43.0
87, 43.0
88, 43.0
89, 43.0
90, 43.0
91, 43.0
92, 43.0
93, 43.0
94, 43.0
95, 43.0
96, 43.0
97, 43.0
98, 43.0
99, 43.0
100, 43.0
101, 43.0
102, 43.0
103, 43.0
104, 43.0
105, 43.0
