i, Result
0, 0.0
1, 0.0
2, 0.0
3, 1.0
4, 2.0
5, 3.0
6, 4.0
7, 5.0
8, 5.0
9, 6.0
10, 6.0
11, 7.0
12, 7.0
13, 8.0
14, 9.0
15, 9.0
16, 9.0
17, 10.0
18, 10.0
19, 10.0
20, 11.0
21, 12.0
22, 13.0
23, 13.0
24, 13.0
25, 13.0
26, 13.0
27, 13.0
28, 14.0
29, 15.0
30, 15.0
31, 15.0
32, 16.0
33, 17.0
34, 17.0
35, 18.0
36, 18.0
37, 19.0
38, 20.0
39, 21.0
40, 21.0
41, 21.0
42, 22.0
43, 23.0
44, 23.0
45, 24.0
46, 25.0
47, 26.0
48, 26.0
49, 27.0
50, 27.0
51, 28.0
52, 28.0
53, 29.0
54, 30.0
55, 31.0
56, 32.0
57, 32.0
58, 33.0
59, 33.0
60, 34.0
61, 34.0
62, 34.0
63, 35.0
64, 36.0
65, 37.0
66, 38.0
67, 38.0
68, 38.0
69, 38.0
70, 38.0
71, 38.0
72, 38.0
73, 38.0
74, 38.0
75, 38.0
76, 38.0
77, 38.0
78, 38.0
79, 38.0
80, 38.0
81, 38.0
82, 38.0
83, 38.0
84, 38.0
85, 38.0
86, 38.0
87, 38.0
88, 38.0
89, 38.0
90, 38.0
91, 38.0
92, 38.0
93, 38.0
94, 38.0
95, 38.0
96, 38.0
97, 38.0
98, 38.0
99, 38.0
100, 38.0
101, 38.0
102, 38.0
103, 38.0
104, 38.0
105, 38.0
