i, Result
0, 0.0
1, 0.0
2, 0.0
3, 0.0
4, 1.0
5, 1.0
6, 2.0
7, 2.0
8, 3.0
9, 4.0
10, 5.0
11, 5.0
12, 6.0
13, 6.0
14, 6.0
15, 7.0
16, 8.0
17, 9.0
18, 9.0
19, 9.0
20, 10.0
21, 11.0
22, 12.0
23, 13.0
24, 13.0
25, 13.0
26, 13.0
27, 14.0
28, 14.0
29, 14.0
30, 14.0
31, 15.0
32, 16.0
33, 17.0
34, 17.0
35, 17.0
36, 17.0
37, 17.0
38, 17.0
39, 18.0
40, 18.0
41, 19.0
42, 19.0
43, 20.0
44, 20.0
45, 21.0
46, 22.0
47, 23.0
48, 23.0
49, 23.0
50, 23.0
51, 23.0
52, 23.0
53, 23.0
54, 23.0
55, 24.0
56, 24.0
57, 25.0
58, 25.0
59, 25.0
60, 26.0
61, 26.0
62, 27.0
63, 27.0
64, 28.0
65, 29.0
66, 29.0
67, 29.0
68, 29.0
69, 29.0
70, 29.0
71, 29.0
72, 29.0
73, 29.0
74, 29.0
75, 29.0
76, 29.0
77, 29.0
78, 29.0
79, 29.0
80, 29.0
81, 29.0
82, 29.0
83, 29.0
84, 29.0
85, 29.0
86, 29.0
87, 29.0
88, 29.0
89, 29.0
90, 29.0
91, 29.0
92, 29.0
93, 29.0
94, 29.0
95, 29.0
96, 29.0
97, 29.0
98, 29.0
99, 29.0
100, 29.0
101, 29.0
102, 29.0
103, 29.0
104, 29.0
105, 29.0
