i, Result
0, 0.0
1, 0.0
2, 0.0
3, 0.0
4, 1.0
5, 1.0
6, 2.0
7, 3.0
8, 4.0
9, 5.0
10, 6.0
11, 7.0
12, 7.0
13, 8.0
14, 8.0
15, 8.0
16, 9.0
17, 9.0
18, 10.0
19, 10.0
20, 11.0
21, 11.0
22, 12.0
23, 12.0
24, 12.0
25, 12.0
26, 12.0
27, 12.0
28, 13.0
29, 13.0
30, 14.0
31, 15.0
32, 16.0
33, 16.0
34, 17.0
35, 17.0
36, 17.0
37, 18.0
38, 19.0
39, 20.0
40, 21.0
41, 21.0
42, 22.0
43, 23.0
44, 24.0
45, 25.0
46, 25.0
47, 26.0
48, 26.0
49, 26.0
50, 27.0
51, 28.0
52, 29.0
53, 30.0
54, 30.0
55, 31.0
56, 32.0
57, 33.0
58, 34.0
59, 34.0
60, 34.0
61, 35.0
62, 36.0
63, 36.0
64, 36.0
65, 37.0
66, 37.0
67, 37.0
68, 37.0
69, 37.0
70, 37.0
71, 37.0
72, 37.0
73, 37.0
74, 37.0
75, 37.0
76, 37.0
77, 37.0
78, 37.0
79, 37.0
80, 37.0
81, 37.0
82, 37.0
83, 37.0
84, 37.0
85, 37.0
86, 37.0
87, 37.0
88, 37.0
89, 37.0
90, 37.0
91, 37.0
92, 37.0
93, 37.0
94, 37.0
95, 37.0
96, 37.0
97, 37.0
98, 37.0
99, 37.0
100, 37.0
101, 37.0
102, 37.0
103, 37.0
104, 37.0
105, 37.0
