i, Result
0, 0.0
1, 0.0
2, 0.0
3, 0.0
4, 0.0
5, 1.0
6, 1.0
7, 1.0
8, 1.0
9, 1.0
10, 2.0
11, 2.0
12, 2.0
13, 3.0
14, 4.0
15, 5.0
16, 6.0
17, 7.0
18, 7.0
19, 7.0
20, 8.0
21, 8.0
22, 8.0
23, 9.0
24, 9.0
25, 9.0
26, 9.0
27, 10.0
28, 11.0
29, 11.0
30, 12.0
31, 12.0
32, 13.0
33, 13.0
34, 13.0
35, 13.0
36, 13.0
37, 13.0
38, 13.0
39, 14.0
40, 14.0
41, 14.0
42, 15.0
43, 16.0
44, 16.0
45, 16.0
46, 17.0
47, 18.0
48, 18.0
49, 19.0
50, 19.0
51, 19.0
52, 20.0
53, 21.0
54, 21.0
55, 21.0
56, 21.0
57, 22.0
58, 23.0
59, 23.0
60, 23.0
61, 23.0
62, 24.0
63, 25.0
64, 25.0
65, 25.0
66, 25.0
67, 25.0
68, 25.0
69, 25.0
70, 25.0
71, 25.0
72, 25.0
73, 25.0
74, 25.0
75, 25.0
76, 25.0
77, 25.0
78, 25.0
79, 25.0
80, 25.0
81, 25.0
82, 25.0
83, 25.0
84, 25.0
85, 25.0
86, 25.0
87, 25.0
88, 25.0
89, 25.0
90, 25.0
91, 25.0
92, 25.0
93, 25.0
94, 25.0
95, 25.0
96, 25.0
97, 25.0
98, 25.0
99, 25.0
100, 25.0
101, 25.0
102, 25.0
103, 25.0
104, 25.0
105, 25.0
