i, Result
0, 0.0
1, 0.0
2, 0.0
3, 0.0
4, 1.0
5, 1.0
6, 1.0
7, 2.0
8, 3.0
9, 4.0
10, 4.0
11, 4.0
12, 5.0
13, 5.0
14, 6.0
15, 6.0
16, 7.0
17, 8.0
18, 9.0
19, 10.0
20, 10.0
21, 10.0
22, 11.0
23, 12.0
24, 12.0
25, 12.0
26, 12.0
27, 13.0
28, 13.0
29, 13.0
30, 13.0
31, 13.0
32, 14.0
33, 14.0
34, 14.0
35, 15.0
36, 16.0
37, 17.0
38, 18.0
39, 19.0
40, 19.0
41, 20.0
42, 20.0
43, 21.0
44, 21.0
45, 21.0
46, 22.0
47, 22.0
48, 23.0
49, 24.0
50, 25.0
51, 25.0
52, 26.0
53, 26.0
54, 27.0
55, 27.0
56, 28.0
57, 28.0
58, 29.0
59, 29.0
60, 30.0
61, 30.0
62, 31.0
63, 32.0
64, 33.0
65, 34.0
66, 34.0
67, 35.0
68, 35.0
69, 36.0
70, 37.0
71, 38.0
72, 39.0
73, 39.0
74, 39.0
75, 39.0
76, 39.0
77, 39.0
78, 39.0
79, 39.0
80, 39.0
81, 39.0
82, 39.0
83, 39.0
84, 39.0
85, 39.0
86, 39.0
87, 39.0
88, 39.0
89, 39.0
90, 39.0
91, 39.0
92, 39.0
93, 39.0
94, 39.0
95, 39.0
96, 39.0
97, 39.0
98, 39.0
99, 39.0
100, 39.0
101, 39.0
102, 39.0
103, 39.0
104, 39.0
105, 39.0
