i, Result
0, 0.0
1, 0.0
2, 0.0
3, 0.0
4, 0.0
5, 1.0
6, 2.0
7, 2.0
8, 2.0
9, 2.0
10, 2.0
11, 2.0
12, 3.0
13, 3.0
14, 3.0
15, 3.0
16, 3.0
17, 4.0
18, 4.0
19, 5.0
20, 5.0
21, 6.0
22, 6.0
23, 6.0
24, 6.0
25, 6.0
26, 6.0
27, 6.0
28, 6.0
29, 7.0
30, 7.0
31, 8.0
32, 8.0
33, 8.0
34, 8.0
35, 8.0
36, 9.0
37, 9.0
38, 10.0
39, 10.0
40, 10.0
41, 10.0
42, 11.0
43, 12.0
44, 13.0
45, 13.0
46, 14.0
47, 14.0
48, 14.0
49, 15.0
50, 15.0
51, 15.0
52, 16.0
53, 17.0
54, 17.0
55, 17.0
56, 18.0
57, 19.0
58, 20.0
59, 20.0
60, 20.0
61, 20.0
62, 20.0
63, 20.0
64, 20.0
65, 20.0
66, 20.0
67, 20.0
68, 20.0
69, 20.0
70, 20.0
71, 20.0
72, 20.0
73, 20.0
74, 20.0
75, 20.0
76, 20.0
77, 20.0
78, 20.0
79, 20.0
80, 20.0
81, 20.0
82, 20.0
83, 20.0
84, 20.0
85, 20.0
86, 20.0
87, 20.0
88, 20.0
89, 20.0
90, 20.0
91, 20.0
92, 20.0
93, 20.0
94, 20.0
95, 20.0
96, 20.0
97, 20.0
98, 20.0
99, 20.0
100, 20.0
101, 20.0
102, 20.0
103, 20.0
104, 20.0
105, 20.0
