i, Result
0, 0.0
1, 0.0
2, 0.0
3, 0.0
4, 1.0
5, 1.0
6, 2.0
7, 3.0
8, 3.0
9, 3.0
10, 4.0
11, 5.0
12, 6.0
13, 6.0
14, 6.0
15, 6.0
16, 7.0
17, 8.0
18, 9.0
19, 9.0
20, 9.0
21, 9.0
22, 9.0
23, 10.0
24, 11.0
25, 11.0
26, 12.0
27, 12.0
28, 12.0
29, 12.0
30, 12.0
31, 13.0
32, 14.0
33, 15.0
34, 15.0
35, 15.0
36, 16.0
37, 16.0
38, 16.0
39, 16.0
40, 16.0
41, 16.0
42, 16.0
43, 16.0
44, 17.0
45, 17.0
46, 17.0
47, 17.0
48, 18.0
49, 19.0
50, 19.0
51, 19.0
52, 19.0
53, 19.0
54, 20.0
55, 20.0
56, 20.0
57, 21.0
58, 22.0
59, 22.0
60, 23.0
61, 23.0
62, 23.0
63, 23.0
64, 23.0
65, 24.0
66, 24.0
67, 24.0
68, 24.0
69, 24.0
70, 24.0
71, 24.0
72, 24.0
73, 24.0
74, 24.0
75, 24.0
76, 24.0
77, 24.0
78, 24.0
79, 24.0
80, 24.0
81, 24.0
82, 24.0
83, 24.0
84, 24.0
85, 24.0
86, 24.0
87, 24.0
88, 24.0
89, 24.0
90, 24.0
91, 24.0
92, 24.0
93, 24.0
94, 24.0
95, 24.0
96, 24.0
97, 24.0
98, 24.0
99, 24.0
100, 24.0
101, 24.0
102, 24.0
103, 24.0
104, 24.0
105, 24.0
