i, Result
0, 0.0
1, 0.0
2, 0.0
3, 1.0
4, 2.0
5, 3.0
6, 4.0
7, 4.0
8, 5.0
9, 6.0
10, 6.0
11, 7.0
12, 7.0
13, 8.0
14, 9.0
15, 9.0
16, 10.0
17, 11.0
18, 12.0
19, 13.0
20, 13.0
21, 14.0
22, 15.0
23, 15.0
24, 15.0
25, 15.0
26, 16.0
27, 16.0
28, 17.0
29, 17.0
30, 17.0
31, 18.0
32, 18.0
33, 18.0
34, 18.0
35, 19.0
36, 20.0
37, 20.0
38, 21.0
39, 22.0
40, 22.0
41, 23.0
42, 23.0
43, 24.0
44, 25.0
45, 25.0
46, 26.0
47, 27.0
48, 27.0
49, 27.0
50, 28.0
51, 29.0
52, 29.0
53, 30.0
54, 30.0
55, 30.0
56, 31.0
57, 31.0
58, 31.0
59, 31.0
60, 32.0
61, 33.0
62, 34.0
63, 35.0
64, 36.0
65, 37.0
66, 37.0
67, 37.0
68, 38.0
69, 38.0
70, 38.0
71, 38.0
72, 38.0
73, 38.0
74, 38.0
75, 38.0
76, 38.0
77, 38.0
78, 38.0
79, 38.0
80, 38.0
81, 38.0
82, 38.0
83, 38.0
84, 38.0
85, 38.0
86, 38.0
87, 38.0
88, 38.0
89, 38.0
90, 38.0
91, 38.0
92, 38.0
93, 38.0
94, 38.0
95, 38.0
96, 38.0
97, 38.0
98, 38.0
99, 38.0
100, 38.0
101, 38.0
102, 38.0
103, 38.0
104, 38.0
105, 38.0
