i, Result
0, 0.0
1, 0.0
2, 0.0
3, 0.0
4, 0.0
5, 1.0
6, 2.0
7, 2.0
8, 2.0
9, 2.0
10, 3.0
11, 4.0
12, 4.0
13, 4.0
14, 4.0
15, 4.0
16, 4.0
17, 4.0
18, 4.0
19, 4.0
20, 4.0
21, 5.0
22, 6.0
23, 6.0
24, 6.0
25, 6.0
26, 7.0
27, 7.0
28, 8.0
29, 9.0
30, 10.0
31, 10.0
32, 11.0
33, 12.0
34, 12.0
35, 13.0
36, 14.0
37, 15.0
38, 15.0
39, 15.0
40, 15.0
41, 16.0
42, 16.0
43, 16.0
44, 17.0
45, 17.0
46, 17.0
47, 17.0
48, 17.0
49, 18.0
50, 19.0
51, 20.0
52, 20.0
53, 20.0
54, 21.0
55, 22.0
56, 22.0
57, 23.0
58, 24.0
59, 24.0
60, 25.0
61, 26.0
62, 27.0
63, 27.0
64, 27.0
65, 27.0
66, 27.0
67, 27.0
68, 27.0
69, 27.0
70, 27.0
71, 27.0
72, 27.0
73, 27.0
74, 27.0
75, 27.0
76, 27.0
77, 27.0
78, 27.0
79, 27.0
80, 27.0
81, 27.0
82, 27.0
83, 27.0
84, 27.0
85, 27.0
86, 27.0
87, 27.0
88, 27.0
89, 27.0
90, 27.0
91, 27.0
92, 27.0
93, 27.0
94, 27.0
95, 27.0
96, 27.0
97, 27.0
98, 27.0
99, 27.0
100, 27.0
101, 27.0
102, 27.0
103, 27.0
104, 27.0
105, 27.0
