i, Result
0, 0.0
1, 0.0
2, 0.0
3, 0.0
4, 1.0
5, 2.0
6, 2.0
7, 2.0
8, 2.0
9, 3.0
10, 4.0
11, 4.0
12, 4.0
13, 5.0
14, 5.0
15, 5.0
16, 5.0
17, 6.0
18, 7.0
19, 7.0
20, 8.0
21, 8.0
22, 9.0
23, 10.0
24, 10.0
25, 11.0
26, 11.0
27, 12.0
28, 12.0
29, 12.0
30, 12.0
31, 12.0
32, 13.0
33, 13.0
34, 14.0
35, 14.0
36, 14.0
37, 15.0
38, 16.0
39, 16.0
40, 17.0
41, 18.0
42, 19.0
43, 20.0
44, 20.0
45, 21.0
46, 21.0
47, 21.0
48, 22.0
49, 23.0
50, 24.0
51, 24.0
52, 25.0
53, 25.0
54, 26.0
55, 27.0
56, 27.0
57, 28.0
58, 28.0
59, 29.0
60, 29.0
61, 29.0
62, 29.0
63, 29.0
64, 30.0
65, 31.0
66, 31.0
67, 31.0
68, 32.0
69, 33.0
70, 33.0
71, 34.0
72, 35.0
73, 36.0
74, 36.0
75, 36.0
76, 36.0
77, 36.0
78, 36.0
79, 36.0
80, 36.0
81, 36.0
82, 36.0
83, 36.0
84, 36.0
85, 36.0
86, 36.0
87, 36.0
88, 36.0
89, 36.0
90, 36.0
91, 36.0
92, 36.0
93, 36.0
94, 36.0
95, 36.0
96, 36.0
97, 36.0
98, 36.0
99, 36.0
100, 36.0
101, 36.0
102, 36.0
103, 36.0
104, 36.0
105, 36.0
