i, Result
0, 0.0
1, 0.0
2, 0.0
3, 1.0
4, 1.0
5, 2.0
6, 2.0
7, 3.0
8, 3.0
9, 4.0
10, 5.0
11, 6.0
12, 6.0
13, 7.0
14, 8.0
15, 9.0
16, 10.0
17, 11.0
18, 12.0
19, 12.0
20, 12.0
21, 12.0
22, 13.0
23, 13.0
24, 14.0
25, 15.0
26, 16.0
27, 17.0
28, 17.0
29, 18.0
30, 19.0
31, 20.0
32, 20.0
33, 21.0
34, 22.0
35, 22.0
36, 22.0
37, 22.0
38, 23.0
39, 23.0
40, 24.0
41, 25.0
42, 26.0
43, 27.0
44, 27.0
45, 27.0
46, 28.0
47, 28.0
48, 29.0
49, 30.0
50, 31.0
51, 31.0
52, 31.0
53, 31.0
54, 31.0
55, 31.0
56, 32.0
57, 33.0
58, 33.0
59, 34.0
60, 35.0
61, 36.0
62, 37.0
63, 37.0
64, 38.0
65, 38.0
66, 39.0
67, 39.0
68, 39.0
69, 40.0
70, 41.0
71, 41.0
72, 41.0
73, 41.0
74, 41.0
75, 41.0
76, 41.0
77, 41.0
78, 41.0
79, 41.0
80, 41.0
81, 41.0
82, 41.0
83, 41.0
84, 41.0
85, 41.0
86, 41.0
87, 41.0
88, 41.0
89, 41.0
90, 41.0
91, 41.0
92, 41.0
93, 41.0
94, 41.0
95, 41.0
96, 41.0
97, 41.0
98, 41.0
99, 41.0
100, 41.0
101, 41.0
102, 41.0
103, 41.0
104, 41.0
105, 41.0
