i, Result
0, 0.0
1, 0.0
2, 0.0
3, 1.0
4, 2.0
5, 3.0
6, 4.0
7, 5.0
8, 5.0
9, 5.0
10, 6.0
11, 7.0
12, 8.0
13, 9.0
14, 10.0
15, 11.0
16, 12.0
17, 12.0
18, 13.0
19, 13.0
20, 14.0
21, 15.0
22, 15.0
23, 16.0
24, 16.0
25, 16.0
26, 16.0
27, 16.0
28, 16.0
29, 17.0
30, 18.0
31, 19.0
32, 19.0
33, 19.0
34, 20.0
35, 20.0
36, 20.0
37, 21.0
38, 21.0
39, 22.0
40, 22.0
41, 22.0
42, 22.0
43, 23.0
44, 23.0
45, 24.0
46, 24.0
47, 24.0
48, 24.0
49, 24.0
50, 25.0
51, 25.0
52, 26.0
53, 26.0
54, 26.0
55, 26.0
56, 27.0
57, 27.0
58, 28.0
59, 29.0
60, 29.0
61, 30.0
62, 30.0
63, 30.0
64, 30.0
65, 30.0
66, 30.0
67, 30.0
68, 30.0
69, 30.0
70, 30.0
71, 30.0
72, 30.0
73, 30.0
74, 30.0
75, 30.0
76, 30.0
77, 30.0
78, 30.0
79, 30.0
80, 30.0
81, 30.0
82, 30.0
83, 30.0
84, 30.0
85, 30.0
86, 30.0
87, 30.0
88, 30.0
89, 30.0
90, 30.0
91, 30.0
92, 30.0
93, 30.0
94, 30.0
95, 30.0
96, 30.0
97, 30.0
98, 30.0
99, 30.0
100, 30.0
101, 30.0
102, 30.0
103, 30.0
104, 30.0
105, 30.0
