i, Result
0, 0.0
1, 0.0
2, 0.0
3, 0.0
4, 1.0
5, 2.0
6, 2.0
7, 3.0
8, 3.0
9, 4.0
10, 4.0
11, 4.0
12, 4.0
13, 4.0
14, 5.0
15, 5.0
16, 5.0
17, 6.0
18, 6.0
19, 7.0
20, 8.0
21, 8.0
22, 8.0
23, 9.0
24, 10.0
25, 10.0
26, 11.0
27, 11.0
28, 12.0
29, 12.0
30, 12.0
31, 12.0
32, 13.0
33, 14.0
34, 14.0
35, 14.0
36, 15.0
37, 15.0
38, 15.0
39, 15.0
40, 15.0
41, 15.0
42, 15.0
43, 15.0
44, 15.0
45, 15.0
46, 15.0
47, 15.0
48, 16.0
49, 17.0
50, 17.0
51, 17.0
52, 17.0
53, 17.0
54, 17.0
55, 17.0
56, 17.0
57, 17.0
58, 18.0
59, 18.0
60, 19.0
61, 19.0
62, 19.0
63, 19.0
64, 19.0
65, 19.0
66, 19.0
67, 19.0
68, 19.0
69, 19.0
70, 19.0
71, 19.0
72, 19.0
73, 19.0
74, 19.0
75, 19.0
76, 19.0
77, 19.0
78, 19.0
79, 19.0
80, 19.0
81, 19.0
82, 19.0
83, 19.0
84, 19.0
85, 19.0
86, 19.0
87, 19.0
88, 19.0
89, 19.0
90, 19.0
91, 19.0
92, 19.0
93, 19.0
94, 19.0
95, 19.0
96, 19.0
97, 19.0
98, 19.0
99, 19.0
100, 19.0
101, 19.0
102, 19.0
103, 19.0
104, 19.0
105, 19.0
