i, Result
0, 0.0
1, 0.0
2, 0.0
3, 1.0
4, 2.0
5, 2.0
6, 2.0
7, 3.0
8, 3.0
9, 4.0
10, 5.0
11, 5.0
12, 5.0
13, 5.0
14, 5.0
15, 5.0
16, 5.0
17, 6.0
18, 7.0
19, 7.0
20, 7.0
21, 8.0
22, 8.0
23, 9.0
24, 10.0
25, 10.0
26, 10.0
27, 11.0
28, 11.0
29, 11.0
30, 11.0
31, 11.0
32, 11.0
33, 11.0
34, 11.0
35, 11.0
36, 11.0
37, 11.0
38, 11.0
39, 11.0
40, 11.0
41, 11.0
42, 11.0
43, 11.0
44, 11.0
45, 11.0
46, 11.0
47, 11.0
48, 11.0
49, 11.0
50, 11.0
51, 11.0
52, 11.0
53, 11.0
54, 11.0
55, 11.0
56, 11.0
57, 11.0
58, 11.0
59, 11.0
60, 11.0
61, 11.0
62, 11.0
63, 11.0
64, 11.0
65, 11.0
66, 11.0
67, 11.0
68, 11.0
69, 11.0
70, 11.0
71, 11.0
72, 11.0
73, 11.0
74, 11.0
75, 11.0
76, 11.0
77, 11.0
78, 11.0
79, 11.0
80, 11.0
81, 11.0
82, 11.0
83, 11.0
84, 11.0
85, 11.0
86, 11.0
87, 11.0
88, 11.0
89, 11.0
90, 11.0
91, 11.0
92, 11.0
93, 11.0
94, 11.0
95, 11.0
96, 11.0
97, 11.0
98, 11.0
99, 11.0
100, 11.0
101, 11.0
102, 11.0
103, 11.0
104, 11.0
105, 11.0
