i, Result
0, 0.0
1, 0.0
2, 0.0
3, 0.0
4, 0.0
5, 0.0
6, 1.0
7, 1.0
8, 2.0
9, 3.0
10, 4.0
11, 4.0
12, 4.0
13, 5.0
14, 6.0
15, 7.0
16, 7.0
17, 8.0
18, 9.0
19, 10.0
20, 11.0
21, 12.0
22, 13.0
23, 14.0
24, 15.0
25, 16.0
26, 17.0
27, 18.0
28, 18.0
29, 18.0
30, 19.0
31, 20.0
32, 21.0
33, 21.0
34, 21.0
35, 21.0
36, 22.0
37, 23.0
38, 24.0
39, 24.0
40, 24.0
41, 25.0
42, 25.0
43, 26.0
44, 26.0
45, 26.0
46, 26.0
47, 26.0
48, 26.0
49, 27.0
50, 27.0
51, 27.0
52, 27.0
53, 27.0
54, 28.0
55, 28.0
56, 29.0
57, 29.0
58, 29.0
59, 29.0
60, 29.0
61, 29.0
62, 29.0
63, 29.0
64, 29.0
65, 29.0
66, 29.0
67, 29.0
68, 29.0
69, 29.0
70, 29.0
71, 29.0
72, 29.0
73, 29.0
74, 29.0
75, 29.0
76, 29.0
77, 29.0
78, 29.0
79, 29.0
80, 29.0
81, 29.0
82, 29.0
83, 29.0
84, 29.0
85, 29.0
86, 29.0
87, 29.0
88, 29.0
89, 29.0
90, 29.0
91, 29.0
92, 29.0
93, 29.0
94, 29.0
95, 29.0
96, 29.0
97, 29.0
98, 29.0
99, 29.0
100, 29.0
101, 29.0
102, 29.0
103, 29.0
104, 29.0
105, 29.0
