i, Result
0, 0.0
1, 0.0
2, 0.0
3, 0.0
4, 0.0
5, 0.0
6, 1.0
7, 1.0
8, 2.0
9, 2.0
10, 2.0
11, 2.0
12, 3.0
13, 3.0
14, 4.0
15, 4.0
16, 5.0
17, 5.0
18, 6.0
19, 7.0
20, 8.0
21, 8.0
22, 8.0
23, 8.0
24, 9.0
25, 9.0
26, 9.0
27, 10.0
28, 10.0
29, 10.0
30, 10.0
31, 11.0
32, 12.0
33, 12.0
34, 13.0
35, 14.0
36, 14.0
37, 15.0
38, 15.0
39, 15.0
40, 15.0
41, 15.0
42, 15.0
43, 16.0
44, 17.0
45, 18.0
46, 18.0
47, 18.0
48, 19.0
49, 20.0
50, 20.0
51, 21.0
52, 22.0
53, 23.0
54, 24.0
55, 24.0
56, 24.0
57, 24.0
58, 25.0
59, 25.0
60, 26.0
61, 26.0
62, 27.0
63, 28.0
64, 28.0
65, 29.0
66, 30.0
67, 31.0
68, 31.0
69, 31.0
70, 31.0
71, 31.0
72, 31.0
73, 31.0
74, 31.0
75, 31.0
76, 31.0
77, 31.0
78, 31.0
79, 31.0
80, 31.0
81, 31.0
82, 31.0
83, 31.0
84, 31.0
85, 31.0
86, 31.0
87, 31.0
88, 31.0
89, 31.0
90, 31.0
91, 31.0
92, 31.0
93, 31.0
94, 31.0
95, 31.0
96, 31.0
97, 31.0
98, 31.0
99, 31.0
100, 31.0
101, 31.0
102, 31.0
103, 31.0
104, 31.0
105, 31.0
