i, Result
0, 0.0
1, 0.0
2, 0.0
3, 1.0
4, 2.0
5, 2.0
6, 2.0
7, 2.0
8, 3.0
9, 3.0
10, 4.0
11, 4.0
12, 4.0
13, 4.0
14, 5.0
15, 5.0
16, 5.0
17, 5.0
18, 5.0
19, 6.0
20, 6.0
21, 7.0
22, 8.0
23, 9.0
24, 10.0
25, 10.0
26, 10.0
27, 10.0
28, 11.0
29, 12.0
30, 12.0
31, 13.0
32, 14.0
33, 14.0
34, 15.0
35, 16.0
36, 17.0
37, 17.0
38, 18.0
39, 19.0
40, 20.0
41, 20.0
42, 21.0
43, 21.0
44, 22.0
45, 22.0
46, 22.0
47, 22.0
48, 23.0
49, 24.0
50, 25.0
51, 25.0
52, 26.0
53, 27.0
54, 28.0
55, 29.0
56, 29.0
57, 30.0
58, 31.0
59, 32.0
60, 33.0
61, 34.0
62, 35.0
63, 35.0
64, 36.0
65, 37.0
66, 37.0
67, 37.0
68, 37.0
69, 37.0
70, 37.0
71, 37.0
72, 37.0
73, 37.0
74, 37.0
75, 37.0
76, 37.0
77, 37.0
78, 37.0
79, 37.0
80, 37.0
81, 37.0
82, 37.0
83, 37.0
84, 37.0
85, 37.0
86, 37.0
87, 37.0
88, 37.0
89, 37.0
90, 37.0
91, 37.0
92, 37.0
93, 37.0
94, 37.0
95, 37.0
96, 37.0
97, 37.0
98, 37.0
99, 37.0
100, 37.0
101, 37.0
102, 37.0
103, 37.0
104, 37.0
105, 37.0
