i, Result
0, 0.0
1, 0.0
2, 0.0
3, 0.0
4, 0.0
5, 0.0
6, 1.0
7, 1.0
8, 2.0
9, 2.0
10, 2.0
11, 2.0
12, 2.0
13, 2.0
14, 3.0
15, 4.0
16, 5.0
17, 5.0
18, 6.0
19, 6.0
20, 7.0
21, 8.0
22, 8.0
23, 8.0
24, 9.0
25, 9.0
26, 10.0
27, 11.0
28, 12.0
29, 12.0
30, 13.0
31, 14.0
32, 14.0
33, 14.0
34, 15.0
35, 15.0
36, 16.0
37, 17.0
38, 17.0
39, 17.0
40, 18.0
41, 18.0
42, 19.0
43, 19.0
44, 20.0
45, 21.0
46, 21.0
47, 22.0
48, 22.0
49, 23.0
50, 23.0
51, 23.0
52, 23.0
53, 23.0
54, 24.0
55, 25.0
56, 25.0
57, 26.0
58, 27.0
59, 27.0
60, 28.0
61, 28.0
62, 29.0
63, 29.0
64, 29.0
65, 29.0
66, 29.0
67, 29.0
68, 30.0
69, 31.0
70, 32.0
71, 32.0
72, 32.0
73, 32.0
74, 32.0
75, 32.0
76, 32.0
77, 32.0
78, 32.0
79, 32.0
80, 32.0
81, 32.0
82, 32.0
83, 32.0
84, 32.0
85, 32.0
86, 32.0
87, 32.0
88, 32.0
89, 32.0
90, 32.0
91, 32.0
92, 32.0
93, 32.0
94, 32.0
95, 32.0
96, 32.0
97, 32.0
98, 32.0
99, 32.0
100, 32.0
101, 32.0
102, 32.0
103, 32.0
104, 32.0
105, 32.0
