i, Result
0, 0.0
1, 0.0
2, 0.0
3, 1.0
4, 1.0
5, 1.0
6, 2.0
7, 2.0
8, 2.0
9, 3.0
10, 3.0
11, 3.0
12, 3.0
13, 4.0
14, 4.0
15, 5.0
16, 6.0
17, 6.0
18, 6.0
19, 7.0
20, 7.0
21, 7.0
22, 7.0
23, 7.0
24, 7.0
25, 7.0
26, 7.0
27, 7.0
28, 7.0
29, 8.0
30, 9.0
31, 10.0
32, 11.0
33, 12.0
34, 13.0
35, 14.0
36, 15.0
37, 16.0
38, 17.0
39, 18.0
40, 18.0
41, 19.0
42, 19.0
43, 20.0
44, 20.0
45, 20.0
46, 20.0
47, 21.0
48, 21.0
49, 22.0
50, 22.0
51, 22.0
52, 23.0
53, 23.0
54, 24.0
55, 25.0
56, 26.0
57, 27.0
58, 27.0
59, 28.0
60, 28.0
61, 29.0
62, 30.0
63, 31.0
64, 32.0
65, 33.0
66, 33.0
67, 33.0
68, 33.0
69, 33.0
70, 33.0
71, 33.0
72, 33.0
73, 33.0
74, 33.0
75, 33.0
76, 33.0
77, 33.0
78, 33.0
79, 33.0
80, 33.0
81, 33.0
82, 33.0
83, 33.0
84, 33.0
85, 33.0
86, 33.0
87, 33.0
88, 33.0
89, 33.0
90, 33.0
91, 33.0
92, 33.0
93, 33.0
94, 33.0
95, 33.0
96, 33.0
97, 33.0
98, 33.0
99, 33.0
100, 33.0
101, 33.0
102, 33.0
103, 33.0
104, 33.0
105, 33.0
