i, Result
0, 0.0
1, 0.0
2, 0.0
3, 0.0
4, 1.0
5, 1.0
6, 2.0
7, 2.0
8, 3.0
9, 4.0
10, 5.0
11, 6.0
12, 7.0
13, 7.0
14, 7.0
15, 8.0
16, 8.0
17, 9.0
18, 9.0
19, 9.0
20, 10.0
21, 10.0
22, 11.0
23, 12.0
24, 12.0
25, 12.0
26, 13.0
27, 13.0
28, 14.0
29, 14.0
30, 14.0
31, 15.0
32, 15.0
33, 16.0
34, 17.0
35, 18.0
36, 19.0
37, 19.0
38, 19.0
39, 20.0
40, 21.0
41, 21.0
42, 21.0
43, 21.0
44, 21.0
45, 21.0
46, 22.0
47, 22.0
48, 23.0
49, 24.0
50, 24.0
51, 25.0
52, 26.0
53, 27.0
54, 28.0
55, 29.0
56, 29.0
57, 30.0
58, 30.0
59, 30.0
60, 30.0
61, 30.0
62, 30.0
63, 30.0
64, 30.0
65, 31.0
66, 31.0
67, 32.0
68, 32.0
69, 32.0
70, 32.0
71, 32.0
72, 32.0
73, 32.0
74, 32.0
75, 32.0
76, 32.0
77, 32.0
78, 32.0
79, 32.0
80, 32.0
81, 32.0
82, 32.0
83, 32.0
84, 32.0
85, 32.0
86, 32.0
87, 32.0
88, 32.0
89, 32.0
90, 32.0
91, 32.0
92, 32.0
93, 32.0
94, 32.0
95, 32.0
96, 32.0
97, 32.0
98, 32.0
99, 32.0
100, 32.0
101, 32.0
102, 32.0
103, 32.0
104, 32.0
105, 32.0
