i, Result
0, 0.0
1, 0.0
2, 0.0
3, 1.0
4, 1.0
5, 1.0
6, 2.0
7, 2.0
8, 3.0
9, 4.0
10, 5.0
11, 6.0
12, 6.0
13, 6.0
14, 6.0
15, 6.0
16, 7.0
17, 7.0
18, 8.0
19, 9.0
20, 10.0
21, 11.0
22, 11.0
23, 11.0
24, 11.0
25, 11.0
26, 12.0
27, 13.0
28, 14.0
29, 15.0
30, 16.0
31, 17.0
32, 18.0
33, 19.0
34, 19.0
35, 20.0
36, 21.0
37, 22.0
38, 22.0
39, 22.0
40, 22.0
41, 22.0
42, 23.0
43, 24.0
44, 25.0
45, 26.0
46, 27.0
47, 28.0
48, 28.0
49, 28.0
50, 28.0
51, 28.0
52, 29.0
53, 30.0
54, 31.0
55, 31.0
56, 32.0
57, 33.0
58, 34.0
59, 34.0
60, 35.0
61, 35.0
62, 36.0
63, 36.0
64, 37.0
65, 38.0
66, 39.0
67, 39.0
68, 40.0
69, 40.0
70, 40.0
71, 40.0
72, 40.0
73, 40.0
74, 40.0
75, 40.0
76, 41.0
77, 41.0
78, 41.0
79, 41.0
80, 41.0
81, 41.0
82, 41.0
83, 41.0
84, 41.0
85, 41.0
86, 41.0
87, 41.0
88, 41.0
89, 41.0
90, 41.0
91, 41.0
92, 41.0
93, 41.0
94, 41.0
95, 41.0
96, 41.0
97, 41.0
98, 41.0
99, 41.0
100, 41.0
101, 41.0
102, 41.0
103, 41.0
104, 41.0
105, 41.0
