i, Result
0, 0.0
1, 0.0
2, 0.0
3, 1.0
4, 1.0
5, 1.0
6, 1.0
7, 1.0
8, 1.0
9, 1.0
10, 1.0
11, 1.0
12, 2.0
13, 3.0
14, 4.0
15, 4.0
16, 4.0
17, 5.0
18, 6.0
19, 7.0
20, 8.0
21, 9.0
22, 9.0
23, 10.0
24, 10.0
25, 11.0
26, 11.0
27, 11.0
28, 11.0
29, 11.0
30, 12.0
31, 13.0
32, 13.0
33, 14.0
34, 15.0
35, 16.0
36, 16.0
37, 16.0
38, 16.0
39, 16.0
40, 17.0
41, 18.0
42, 19.0
43, 20.0
44, 20.0
45, 20.0
46, 20.0
47, 21.0
48, 21.0
49, 22.0
50, 22.0
51, 22.0
52, 23.0
53, 24.0
54, 25.0
55, 26.0
56, 27.0
57, 27.0
58, 28.0
59, 29.0
60, 30.0
61, 30.0
62, 31.0
63, 32.0
64, 33.0
65, 33.0
66, 33.0
67, 33.0
68, 33.0
69, 33.0
70, 33.0
71, 33.0
72, 33.0
73, 33.0
74, 33.0
75, 33.0
76, 33.0
77, 33.0
78, 33.0
79, 33.0
80, 33.0
81, 33.0
82, 33.0
83, 33.0
84, 33.0
85, 33.0
86, 33.0
87, 33.0
88, 33.0
89, 33.0
90, 33.0
91, 33.0
92, 33.0
93, 33.0
94, 33.0
95, 33.0
96, 33.0
97, 33.0
98, 33.0
99, 33.0
100, 33.0
101, 33.0
102, 33.0
103, 33.0
104, 33.0
105, 33.0
