i, Result
0, 0.0
1, 0.0
2, 0.0
3, 0.0
4, 1.0
5, 1.0
6, 1.0
7, 1.0
8, 1.0
9, 1.0
10, 1.0
11, 1.0
12, 1.0
13, 2.0
14, 3.0
15, 3.0
16, 3.0
17, 3.0
18, 3.0
19, 3.0
20, 3.0
21, 3.0
22, 4.0
23, 4.0
24, 4.0
25, 4.0
26, 5.0
27, 6.0
28, 7.0
29, 7.0
30, 8.0
31, 8.0
32, 8.0
33, 9.0
34, 9.0
35, 10.0
36, 10.0
37, 11.0
38, 12.0
39, 12.0
40, 12.0
41, 12.0
42, 13.0
43, 13.0
44, 14.0
45, 15.0
46, 15.0
47, 15.0
48, 16.0
49, 17.0
50, 18.0
51, 18.0
52, 19.0
53, 20.0
54, 21.0
55, 21.0
56, 21.0
57, 22.0
58, 22.0
59, 22.0
60, 22.0
61, 22.0
62, 22.0
63, 22.0
64, 22.0
65, 22.0
66, 22.0
67, 22.0
68, 22.0
69, 22.0
70, 22.0
71, 22.0
72, 22.0
73, 22.0
74, 22.0
75, 22.0
76, 22.0
77, 22.0
78, 22.0
79, 22.0
80, 22.0
81, 22.0
82, 22.0
83, 22.0
84, 22.0
85, 22.0
86, 22.0
87, 22.0
88, 22.0
89, 22.0
90, 22.0
91, 22.0
92, 22.0
93, 22.0
94, 22.0
95, 22.0
96, 22.0
97, 22.0
98, 22.0
99, 22.0
100, 22.0
101, 22.0
102, 22.0
103, 22.0
104, 22.0
105, 22.0
