i, Result
0, 0.0
1, 0.0
2, 0.0
3, 1.0
4, 1.0
5, 1.0
6, 2.0
7, 3.0
8, 3.0
9, 3.0
10, 3.0
11, 3.0
12, 3.0
13, 4.0
14, 4.0
15, 4.0
16, 4.0
17, 5.0
18, 6.0
19, 6.0
20, 6.0
21, 6.0
22, 7.0
23, 7.0
24, 7.0
25, 7.0
26, 8.0
27, 9.0
28, 9.0
29, 9.0
30, 10.0
31, 10.0
32, 10.0
33, 11.0
34, 11.0
35, 11.0
36, 11.0
37, 12.0
38, 13.0
39, 14.0
40, 14.0
41, 14.0
42, 15.0
43, 15.0
44, 16.0
45, 17.0
46, 18.0
47, 18.0
48, 19.0
49, 19.0
50, 20.0
51, 20.0
52, 20.0
53, 20.0
54, 21.0
55, 22.0
56, 22.0
57, 22.0
58, 23.0
59, 23.0
60, 24.0
61, 24.0
62, 25.0
63, 26.0
64, 26.0
65, 26.0
66, 26.0
67, 26.0
68, 26.0
69, 26.0
70, 26.0
71, 26.0
72, 26.0
73, 26.0
74, 26.0
75, 26.0
76, 26.0
77, 26.0
78, 26.0
79, 26.0
80, 26.0
81, 26.0
82, 26.0
83, 26.0
84, 26.0
85, 26.0
86, 26.0
87, 26.0
88, 26.0
89, 26.0
90, 26.0
91, 26.0
92, 26.0
93, 26.0
94, 26.0
95, 26.0
96, 26.0
97, 26.0
98, 26.0
99, 26.0
100, 26.0
101, 26.0
102, 26.0
103, 26.0
104, 26.0
105, 26.0
