i, Result
0, 0.0
1, 0.0
2, 0.0
3, 0.0
4, 0.0
5, 0.0
6, 1.0
7, 1.0
8, 2.0
9, 3.0
10, 3.0
11, 4.0
12, 5.0
13, 5.0
14, 6.0
15, 7.0
16, 7.0
17, 7.0
18, 8.0
19, 8.0
20, 9.0
21, 9.0
22, 10.0
23, 11.0
24, 12.0
25, 13.0
26, 13.0
27, 14.0
28, 14.0
29, 14.0
30, 14.0
31, 14.0
32, 14.0
33, 14.0
34, 15.0
35, 15.0
36, 15.0
37, 15.0
38, 16.0
39, 17.0
40, 17.0
41, 17.0
42, 17.0
43, 17.0
44, 17.0
45, 17.0
46, 17.0
47, 17.0
48, 18.0
49, 19.0
50, 19.0
51, 19.0
52, 20.0
53, 20.0
54, 20.0
55, 21.0
56, 21.0
57, 21.0
58, 22.0
59, 22.0
60, 22.0
61, 22.0
62, 23.0
63, 23.0
64, 24.0
65, 25.0
66, 25.0
67, 25.0
68, 25.0
69, 25.0
70, 25.0
71, 25.0
72, 25.0
73, 25.0
74, 25.0
75, 25.0
76, 25.0
77, 25.0
78, 25.0
79, 25.0
80, 25.0
81, 25.0
82, 25.0
83, 25.0
84, 25.0
85, 25.0
86, 25.0
87, 25.0
88, 25.0
89, 25.0
90, 25.0
91, 25.0
92, 25.0
93, 25.0
94, 25.0
95, 25.0
96, 25.0
97, 25.0
98, 25.0
99, 25.0
100, 25.0
101, 25.0
102, 25.0
103, 25.0
104, 25.0
105, 25.0
