i, Result
0, 0.0
1, 0.0
2, 0.0
3, 0.0
4, 1.0
5, 2.0
6, 2.0
7, 3.0
8, 3.0
9, 4.0
10, 5.0
11, 6.0
12, 6.0
13, 6.0
14, 7.0
15, 8.0
16, 9.0
17, 10.0
18, 11.0
19, 12.0
20, 12.0
21, 13.0
22, 14.0
23, 15.0
24, 16.0
25, 16.0
26, 17.0
27, 18.0
28, 19.0
29, 20.0
30, 21.0
31, 21.0
32, 22.0
33, 23.0
34, 23.0
35, 24.0
36, 25.0
37, 25.0
38, 25.0
39, 25.0
40, 25.0
41, 25.0
42, 26.0
43, 27.0
44, 28.0
45, 28.0
46, 28.0
47, 28.0
48, 28.0
49, 29.0
50, 30.0
51, 30.0
52, 31.0
53, 31.0
54, 32.0
55, 32.0
56, 32.0
57, 33.0
58, 34.0
59, 34.0
60, 35.0
61, 35.0
62, 36.0
63, 36.0
64, 36.0
65, 37.0
66, 37.0
67, 37.0
68, 37.0
69, 37.0
70, 37.0
71, 37.0
72, 37.0
73, 37.0
74, 37.0
75, 37.0
76, 37.0
77, 37.0
78, 37.0
79, 37.0
80, 37.0
81, 37.0
82, 37.0
83, 37.0
84, 37.0
85, 37.0
86, 37.0
87, 37.0
88, 37.0
89, 37.0
90, 37.0
91, 37.0
92, 37.0
93, 37.0
94, 37.0
95, 37.0
96, 37.0
97, 37.0
98, 37.0
99, 37.0
100, 37.0
101, 37.0
102, 37.0
103, 37.0
104, 37.0
105, 37.0
