i, Result
0, 0.0
1, 0.0
2, 0.0
3, 0.0
4, 0.0
5, 1.0
6, 1.0
7, 2.0
8, 2.0
9, 2.0
10, 2.0
11, 3.0
12, 3.0
13, 3.0
14, 3.0
15, 3.0
16, 3.0
17, 3.0
18, 3.0
19, 3.0
20, 3.0
21, 3.0
22, 3.0
23, 3.0
24, 3.0
25, 3.0
26, 4.0
27, 5.0
28, 5.0
29, 5.0
30, 6.0
31, 6.0
32, 6.0
33, 6.0
34, 6.0
35, 7.0
36, 7.0
37, 8.0
38, 8.0
39, 8.0
40, 8.0
41, 8.0
42, 8.0
43, 8.0
44, 9.0
45, 10.0
46, 10.0
47, 10.0
48, 11.0
49, 11.0
50, 11.0
51, 11.0
52, 11.0
53, 11.0
54, 11.0
55, 11.0
56, 11.0
57, 11.0
58, 11.0
59, 11.0
60, 11.0
61, 11.0
62, 11.0
63, 11.0
64, 11.0
65, 11.0
66, 11.0
67, 11.0
68, 11.0
69, 11.0
70, 11.0
71, 11.0
72, 11.0
73, 11.0
74, 11.0
75, 11.0
76, 11.0
77, 11.0
78, 11.0
79, 11.0
80, 11.0
81, 11.0
82, 11.0
83, 11.0
84, 11.0
85, 11.0
86, 11.0
87, 11.0
88, 11.0
89, 11.0
90, 11.0
91, 11.0
92, 11.0
93, 11.0
94, 11.0
95, 11.0
96, 11.0
97, 11.0
98, 11.0
99, 11.0
100, 11.0
101, 11.0
102, 11.0
103, 11.0
104, 11.0
105, 11.0
