i, Result
0, 0.0
1, 0.0
2, 0.0
3, 1.0
4, 2.0
5, 3.0
6, 4.0
7, 5.0
8, 5.0
9, 6.0
10, 7.0
11, 8.0
12, 9.0
13, 10.0
14, 11.0
15, 12.0
16, 12.0
17, 12.0
18, 12.0
19, 12.0
20, 13.0
21, 13.0
22, 14.0
23, 15.0
24, 15.0
25, 15.0
26, 15.0
27, 15.0
28, 16.0
29, 17.0
30, 17.0
31, 18.0
32, 18.0
33, 19.0
34, 19.0
35, 20.0
36, 21.0
37, 21.0
38, 22.0
39, 22.0
40, 23.0
41, 24.0
42, 25.0
43, 25.0
44, 26.0
45, 26.0
46, 27.0
47, 28.0
48, 29.0
49, 30.0
50, 31.0
51, 31.0
52, 32.0
53, 32.0
54, 33.0
55, 34.0
56, 35.0
57, 36.0
58, 36.0
59, 37.0
60, 38.0
61, 39.0
62, 39.0
63, 40.0
64, 40.0
65, 41.0
66, 41.0
67, 42.0
68, 42.0
69, 43.0
70, 44.0
71, 45.0
72, 46.0
73, 47.0
74, 47.0
75, 47.0
76, 47.0
77, 47.0
78, 47.0
79, 47.0
80, 47.0
81, 47.0
82, 47.0
83, 47.0
84, 47.0
85, 47.0
86, 47.0
87, 47.0
88, 47.0
89, 47.0
90, 47.0
91, 47.0
92, 47.0
93, 47.0
94, 47.0
95, 47.0
96, 47.0
97, 47.0
98, 47.0
99, 47.0
100, 47.0
101, 47.0
102, 47.0
103, 47.0
104, 47.0
105, 47.0
