i, Result
0, 0.0
1, 0.0
2, 0.0
3, 1.0
4, 2.0
5, 2.0
6, 2.0
7, 3.0
8, 3.0
9, 3.0
10, 3.0
11, 4.0
12, 5.0
13, 5.0
14, 6.0
15, 7.0
16, 8.0
17, 8.0
18, 9.0
19, 9.0
20, 10.0
21, 10.0
22, 11.0
23, 12.0
24, 12.0
25, 13.0
26, 14.0
27, 14.0
28, 14.0
29, 15.0
30, 15.0
31, 16.0
32, 17.0
33, 17.0
34, 18.0
35, 18.0
36, 19.0
37, 20.0
38, 20.0
39, 20.0
40, 21.0
41, 22.0
42, 23.0
43, 23.0
44, 24.0
45, 24.0
46, 25.0
47, 25.0
48, 26.0
49, 26.0
50, 27.0
51, 28.0
52, 29.0
53, 30.0
54, 31.0
55, 32.0
56, 33.0
57, 33.0
58, 34.0
59, 35.0
60, 35.0
61, 36.0
62, 37.0
63, 38.0
64, 39.0
65, 39.0
66, 39.0
67, 40.0
68, 41.0
69, 42.0
70, 43.0
71, 43.0
72, 43.0
73, 43.0
74, 43.0
75, 43.0
76, 43.0
77, 43.0
78, 43.0
79, 43.0
80, 43.0
81, 43.0
82, 43.0
83, 43.0
84, 43.0
85, 43.0
86, 43.0
87, 43.0
88, 43.0
89, 43.0
90, 43.0
91, 43.0
92, 43.0
93, 43.0
94, 43.0
95, 43.0
96, 43.0
97, 43.0
98, 43.0
99, 43.0
100, 43.0
101, 43.0
102, 43.0
103, 43.0
104, 43.0
105, 43.0
