i, Result
0, 0.0
1, 0.0
2, 0.0
3, 0.0
4, 0.0
5, 1.0
6, 1.0
7, 2.0
8, 2.0
9, 2.0
10, 3.0
11, 4.0
12, 5.0
13, 5.0
14, 6.0
15, 6.0
16, 7.0
17, 8.0
18, 9.0
19, 9.0
20, 10.0
21, 11.0
22, 11.0
23, 12.0
24, 12.0
25, 12.0
26, 13.0
27, 14.0
28, 15.0
29, 15.0
30, 16.0
31, 17.0
32, 18.0
33, 19.0
34, 20.0
35, 21.0
36, 21.0
37, 22.0
38, 23.0
39, 23.0
40, 24.0
41, 24.0
42, 25.0
43, 25.0
44, 25.0
45, 25.0
46, 25.0
47, 25.0
48, 25.0
49, 25.0
50, 26.0
51, 27.0
52, 27.0
53, 28.0
54, 29.0
55, 30.0
56, 31.0
57, 32.0
58, 33.0
59, 34.0
60, 34.0
61, 34.0
62, 34.0
63, 35.0
64, 36.0
65, 37.0
66, 37.0
67, 38.0
68, 39.0
69, 39.0
70, 39.0
71, 39.0
72, 39.0
73, 39.0
74, 39.0
75, 39.0
76, 39.0
77, 39.0
78, 39.0
79, 39.0
80, 39.0
81, 39.0
82, 39.0
83, 39.0
84, 39.0
85, 39.0
86, 39.0
87, 39.0
88, 39.0
89, 39.0
90, 39.0
91, 39.0
92, 39.0
93, 39.0
94, 39.0
95, 39.0
96, 39.0
97, 39.0
98, 39.0
99, 39.0
100, 39.0
101, 39.0
102, 39.0
103, 39.0
104, 39.0
105, 39.0
