i, Result
0, 0.0
1, 0.0
2, 0.0
3, 1.0
4, 2.0
5, 3.0
6, 3.0
7, 4.0
8, 4.0
9, 4.0
10, 4.0
11, 4.0
12, 5.0
13, 5.0
14, 5.0
15, 6.0
16, 7.0
17, 8.0
18, 9.0
19, 10.0
20, 11.0
21, 12.0
22, 12.0
23, 12.0
24, 12.0
25, 12.0
26, 13.0
27, 13.0
28, 13.0
29, 13.0
30, 13.0
31, 13.0
32, 14.0
33, 14.0
34, 14.0
35, 15.0
36, 15.0
37, 15.0
38, 15.0
39, 15.0
40, 16.0
41, 16.0
42, 17.0
43, 18.0
44, 18.0
45, 18.0
46, 18.0
47, 18.0
48, 18.0
49, 18.0
50, 18.0
51, 19.0
52, 20.0
53, 20.0
54, 21.0
55, 21.0
56, 22.0
57, 23.0
58, 24.0
59, 25.0
60, 25.0
61, 26.0
62, 26.0
63, 27.0
64, 27.0
65, 27.0
66, 27.0
67, 27.0
68, 27.0
69, 27.0
70, 27.0
71, 27.0
72, 27.0
73, 27.0
74, 27.0
75, 27.0
76, 27.0
77, 27.0
78, 27.0
79, 27.0
80, 27.0
81, 27.0
82, 27.0
83, 27.0
84, 27.0
85, 27.0
86, 27.0
87, 27.0
88, 27.0
89, 27.0
90, 27.0
91, 27.0
92, 27.0
93, 27.0
94, 27.0
95, 27.0
96, 27.0
97, 27.0
98, 27.0
99, 27.0
100, 27.0
101, 27.0
102, 27.0
103, 27.0
104, 27.0
105, 27.0
