i, Result
0, 0.0
1, 0.0
2, 0.0
3, 1.0
4, 2.0
5, 2.0
6, 3.0
7, 3.0
8, 3.0
9, 3.0
10, 4.0
11, 4.0
12, 5.0
13, 6.0
14, 6.0
15, 6.0
16, 6.0
17, 6.0
18, 7.0
19, 8.0
20, 9.0
21, 10.0
22, 10.0
23, 11.0
24, 12.0
25, 12.0
26, 13.0
27, 14.0
28, 15.0
29, 15.0
30, 15.0
31, 16.0
32, 17.0
33, 18.0
34, 19.0
35, 20.0
36, 21.0
37, 22.0
38, 23.0
39, 23.0
40, 24.0
41, 25.0
42, 25.0
43, 26.0
44, 27.0
45, 27.0
46, 28.0
47, 28.0
48, 28.0
49, 28.0
50, 29.0
51, 29.0
52, 29.0
53, 29.0
54, 29.0
55, 29.0
56, 30.0
57, 30.0
58, 31.0
59, 31.0
60, 32.0
61, 33.0
62, 34.0
63, 34.0
64, 34.0
65, 34.0
66, 35.0
67, 36.0
68, 36.0
69, 36.0
70, 37.0
71, 38.0
72, 38.0
73, 38.0
74, 38.0
75, 38.0
76, 38.0
77, 38.0
78, 38.0
79, 38.0
80, 38.0
81, 38.0
82, 38.0
83, 38.0
84, 38.0
85, 38.0
86, 38.0
87, 38.0
88, 38.0
89, 38.0
90, 38.0
91, 38.0
92, 38.0
93, 38.0
94, 38.0
95, 38.0
96, 38.0
97, 38.0
98, 38.0
99, 38.0
100, 38.0
101, 38.0
102, 38.0
103, 38.0
104, 38.0
105, 38.0
