i, Result
0, 0.0
1, 0.0
2, 0.0
3, 0.0
4, 1.0
5, 2.0
6, 3.0
7, 3.0
8, 4.0
9, 4.0
10, 4.0
11, 5.0
12, 6.0
13, 6.0
14, 6.0
15, 6.0
16, 7.0
17, 8.0
18, 9.0
19, 10.0
20, 11.0
21, 12.0
22, 13.0
23, 13.0
24, 14.0
25, 14.0
26, 14.0
27, 15.0
28, 16.0
29, 17.0
30, 18.0
31, 18.0
32, 18.0
33, 18.0
34, 19.0
35, 19.0
36, 20.0
37, 20.0
38, 20.0
39, 21.0
40, 21.0
41, 22.0
42, 23.0
43, 23.0
44, 23.0
45, 23.0
46, 23.0
47, 23.0
48, 24.0
49, 25.0
50, 25.0
51, 26.0
52, 27.0
53, 28.0
54, 28.0
55, 29.0
56, 29.0
57, 29.0
58, 30.0
59, 31.0
60, 31.0
61, 32.0
62, 33.0
63, 33.0
64, 34.0
65, 35.0
66, 35.0
67, 36.0
68, 36.0
69, 37.0
70, 37.0
71, 38.0
72, 39.0
73, 40.0
74, 40.0
75, 40.0
76, 40.0
77, 40.0
78, 40.0
79, 40.0
80, 40.0
81, 40.0
82, 40.0
83, 40.0
84, 40.0
85, 40.0
86, 40.0
87, 40.0
88, 40.0
89, 40.0
90, 40.0
91, 40.0
92, 40.0
93, 40.0
94, 40.0
95, 40.0
96, 40.0
97, 40.0
98, 40.0
99, 40.0
100, 40.0
101, 40.0
102, 40.0
103, 40.0
104, 40.0
105, 40.0
