i, Result
0, 0.0
1, 0.0
2, 0.0
3, 1.0
4, 1.0
5, 1.0
6, 1.0
7, 2.0
8, 2.0
9, 3.0
10, 4.0
11, 4.0
12, 5.0
13, 6.0
14, 6.0
15, 7.0
16, 8.0
17, 9.0
18, 10.0
19, 11.0
20, 11.0
21, 12.0
22, 12.0
23, 13.0
24, 14.0
25, 15.0
26, 15.0
27, 16.0
28, 17.0
29, 17.0
30, 18.0
31, 18.0
32, 18.0
33, 18.0
34, 19.0
35, 20.0
36, 21.0
37, 21.0
38, 21.0
39, 21.0
40, 22.0
41, 22.0
42, 23.0
43, 24.0
44, 25.0
45, 26.0
46, 26.0
47, 26.0
48, 26.0
49, 27.0
50, 28.0
51, 28.0
52, 28.0
53, 29.0
54, 30.0
55, 31.0
56, 31.0
57, 32.0
58, 33.0
59, 33.0
60, 34.0
61, 35.0
62, 36.0
63, 36.0
64, 37.0
65, 38.0
66, 38.0
67, 38.0
68, 39.0
69, 39.0
70, 39.0
71, 39.0
72, 39.0
73, 40.0
74, 40.0
75, 40.0
76, 40.0
77, 40.0
78, 40.0
79, 40.0
80, 40.0
81, 40.0
82, 40.0
83, 40.0
84, 40.0
85, 40.0
86, 40.0
87, 40.0
88, 40.0
89, 40.0
90, 40.0
91, 40.0
92, 40.0
93, 40.0
94, 40.0
95, 40.0
96, 40.0
97, 40.0
98, 40.0
99, 40.0
100, 40.0
101, 40.0
102, 40.0
103, 40.0
104, 40.0
105, 40.0
