i, Result
0, 0.0
1, 0.0
2, 0.0
3, 1.0
4, 2.0
5, 3.0
6, 4.0
7, 5.0
8, 5.0
9, 5.0
10, 6.0
11, 6.0
12, 7.0
13, 8.0
14, 9.0
15, 10.0
16, 11.0
17, 12.0
18, 13.0
19, 14.0
20, 15.0
21, 16.0
22, 17.0
23, 17.0
24, 17.0
25, 17.0
26, 17.0
27, 17.0
28, 18.0
29, 19.0
30, 19.0
31, 20.0
32, 21.0
33, 22.0
34, 22.0
35, 23.0
36, 23.0
37, 23.0
38, 24.0
39, 24.0
40, 24.0
41, 24.0
42, 25.0
43, 26.0
44, 27.0
45, 28.0
46, 28.0
47, 28.0
48, 28.0
49, 29.0
50, 30.0
51, 31.0
52, 31.0
53, 32.0
54, 32.0
55, 32.0
56, 33.0
57, 34.0
58, 35.0
59, 35.0
60, 36.0
61, 37.0
62, 37.0
63, 37.0
64, 37.0
65, 37.0
66, 37.0
67, 37.0
68, 37.0
69, 37.0
70, 37.0
71, 37.0
72, 37.0
73, 37.0
74, 37.0
75, 37.0
76, 37.0
77, 37.0
78, 37.0
79, 37.0
80, 37.0
81, 37.0
82, 37.0
83, 37.0
84, 37.0
85, 37.0
86, 37.0
87, 37.0
88, 37.0
89, 37.0
90, 37.0
91, 37.0
92, 37.0
93, 37.0
94, 37.0
95, 37.0
96, 37.0
97, 37.0
98, 37.0
99, 37.0
100, 37.0
101, 37.0
102, 37.0
103, 37.0
104, 37.0
105, 37.0
