i, Result
0, 0.0
1, 0.0
2, 0.0
3, 1.0
4, 2.0
5, 2.0
6, 3.0
7, 3.0
8, 3.0
9, 3.0
10, 3.0
11, 4.0
12, 5.0
13, 6.0
14, 7.0
15, 7.0
16, 7.0
17, 8.0
18, 9.0
19, 10.0
20, 10.0
21, 10.0
22, 10.0
23, 10.0
24, 11.0
25, 11.0
26, 11.0
27, 11.0
28, 12.0
29, 12.0
30, 13.0
31, 14.0
32, 15.0
33, 15.0
34, 16.0
35, 17.0
36, 18.0
37, 19.0
38, 20.0
39, 21.0
40, 22.0
41, 23.0
42, 24.0
43, 25.0
44, 26.0
45, 27.0
46, 28.0
47, 29.0
48, 30.0
49, 30.0
50, 31.0
51, 32.0
52, 32.0
53, 32.0
54, 33.0
55, 34.0
56, 35.0
57, 36.0
58, 36.0
59, 37.0
60, 37.0
61, 37.0
62, 37.0
63, 37.0
64, 37.0
65, 37.0
66, 37.0
67, 37.0
68, 37.0
69, 37.0
70, 37.0
71, 37.0
72, 37.0
73, 37.0
74, 37.0
75, 37.0
76, 37.0
77, 37.0
78, 37.0
79, 37.0
80, 37.0
81, 37.0
82, 37.0
83, 37.0
84, 37.0
85, 37.0
86, 37.0
87, 37.0
88, 37.0
89, 37.0
90, 37.0
91, 37.0
92, 37.0
93, 37.0
94, 37.0
95, 37.0
96, 37.0
97, 37.0
98, 37.0
99, 37.0
100, 37.0
101, 37.0
102, 37.0
103, 37.0
104, 37.0
105, 37.0
