i, Result
0, 0.0
1, 0.0
2, 0.0
3, 1.0
4, 2.0
5, 3.0
6, 4.0
7, 4.0
8, 5.0
9, 6.0
10, 7.0
11, 8.0
12, 8.0
13, 8.0
14, 9.0
15, 10.0
16, 10.0
17, 11.0
18, 12.0
19, 13.0
20, 13.0
21, 14.0
22, 15.0
23, 16.0
24, 16.0
25, 17.0
26, 18.0
27, 19.0
28, 20.0
29, 21.0
30, 22.0
31, 22.0
32, 22.0
33, 23.0
34, 24.0
35, 24.0
36, 25.0
37, 26.0
38, 27.0
39, 27.0
40, 27.0
41, 27.0
42, 27.0
43, 27.0
44, 27.0
45, 27.0
46, 28.0
47, 28.0
48, 28.0
49, 29.0
50, 30.0
51, 30.0
52, 30.0
53, 30.0
54, 31.0
55, 31.0
56, 31.0
57, 32.0
58, 32.0
59, 33.0
60, 34.0
61, 35.0
62, 35.0
63, 36.0
64, 36.0
65, 37.0
66, 37.0
67, 38.0
68, 38.0
69, 38.0
70, 39.0
71, 39.0
72, 39.0
73, 39.0
74, 39.0
75, 39.0
76, 39.0
77, 39.0
78, 39.0
79, 39.0
80, 39.0
81, 39.0
82, 39.0
83, 39.0
84, 39.0
85, 39.0
86, 39.0
87, 39.0
88, 39.0
89, 39.0
90, 39.0
91, 39.0
92, 39.0
93, 39.0
94, 39.0
95, 39.0
96, 39.0
97, 39.0
98, 39.0
99, 39.0
100, 39.0
101, 39.0
102, 39.0
103, 39.0
104, 39.0
105, 39.0
