i, Result
0, 0.0
1, 0.0
2, 0.0
3, 0.0
4, 0.0
5, 0.0
6, 1.0
7, 1.0
8, 2.0
9, 3.0
10, 4.0
11, 4.0
12, 5.0
13, 5.0
14, 6.0
15, 6.0
16, 6.0
17, 7.0
18, 8.0
19, 9.0
20, 10.0
21, 10.0
22, 11.0
23, 12.0
24, 13.0
25, 13.0
26, 14.0
27, 15.0
28, 15.0
29, 16.0
30, 16.0
31, 16.0
32, 17.0
33, 18.0
34, 19.0
35, 20.0
36, 20.0
37, 21.0
38, 22.0
39, 23.0
40, 23.0
41, 24.0
42, 24.0
43, 24.0
44, 24.0
45, 24.0
46, 24.0
47, 25.0
48, 25.0
49, 25.0
50, 25.0
51, 25.0
52, 26.0
53, 26.0
54, 27.0
55, 28.0
56, 28.0
57, 28.0
58, 28.0
59, 29.0
60, 30.0
61, 31.0
62, 32.0
63, 33.0
64, 33.0
65, 33.0
66, 34.0
67, 35.0
68, 35.0
69, 36.0
70, 37.0
71, 38.0
72, 39.0
73, 39.0
74, 40.0
75, 40.0
76, 41.0
77, 41.0
78, 41.0
79, 41.0
80, 41.0
81, 41.0
82, 41.0
83, 41.0
84, 41.0
85, 41.0
86, 41.0
87, 41.0
88, 41.0
89, 41.0
90, 41.0
91, 41.0
92, 41.0
93, 41.0
94, 41.0
95, 41.0
96, 41.0
97, 41.0
98, 41.0
99, 41.0
100, 41.0
101, 41.0
102, 41.0
103, 41.0
104, 41.0
105, 41.0
