i, Result
0, 0.0
1, 0.0
2, 0.0
3, 0.0
4, 1.0
5, 1.0
6, 1.0
7, 1.0
8, 1.0
9, 2.0
10, 2.0
11, 3.0
12, 3.0
13, 4.0
14, 5.0
15, 6.0
16, 7.0
17, 8.0
18, 8.0
19, 8.0
20, 8.0
21, 9.0
22, 10.0
23, 11.0
24, 11.0
25, 11.0
26, 12.0
27, 13.0
28, 13.0
29, 14.0
30, 15.0
31, 15.0
32, 16.0
33, 16.0
34, 17.0
35, 18.0
36, 19.0
37, 20.0
38, 21.0
39, 21.0
40, 21.0
41, 21.0
42, 22.0
43, 23.0
44, 24.0
45, 25.0
46, 26.0
47, 27.0
48, 28.0
49, 29.0
50, 30.0
51, 30.0
52, 30.0
53, 30.0
54, 30.0
55, 31.0
56, 32.0
57, 32.0
58, 33.0
59, 34.0
60, 34.0
61, 35.0
62, 35.0
63, 36.0
64, 36.0
65, 37.0
66, 37.0
67, 37.0
68, 38.0
69, 39.0
70, 40.0
71, 41.0
72, 42.0
73, 42.0
74, 42.0
75, 42.0
76, 42.0
77, 42.0
78, 42.0
79, 42.0
80, 42.0
81, 42.0
82, 42.0
83, 42.0
84, 42.0
85, 42.0
86, 42.0
87, 42.0
88, 42.0
89, 42.0
90, 42.0
91, 42.0
92, 42.0
93, 42.0
94, 42.0
95, 42.0
96, 42.0
97, 42.0
98, 42.0
99, 42.0
100, 42.0
101, 42.0
102, 42.0
103, 42.0
104, 42.0
105, 42.0
