i, Result
0, 0.0
1, 0.0
2, 0.0
3, 1.0
4, 1.0
5, 1.0
6, 2.0
7, 2.0
8, 3.0
9, 4.0
10, 4.0
11, 5.0
12, 5.0
13, 5.0
14, 5.0
15, 6.0
16, 6.0
17, 7.0
18, 7.0
19, 7.0
20, 8.0
21, 8.0
22, 8.0
23, 9.0
24, 10.0
25, 10.0
26, 11.0
27, 11.0
28, 11.0
29, 12.0
30, 12.0
31, 12.0
32, 13.0
33, 14.0
34, 14.0
35, 14.0
36, 15.0
37, 15.0
38, 16.0
39, 16.0
40, 16.0
41, 17.0
42, 18.0
43, 19.0
44, 20.0
45, 21.0
46, 21.0
47, 21.0
48, 22.0
49, 22.0
50, 23.0
51, 23.0
52, 24.0
53, 25.0
54, 26.0
55, 26.0
56, 27.0
57, 28.0
58, 28.0
59, 29.0
60, 30.0
61, 31.0
62, 31.0
63, 32.0
64, 33.0
65, 34.0
66, 35.0
67, 36.0
68, 36.0
69, 36.0
70, 36.0
71, 36.0
72, 36.0
73, 36.0
74, 36.0
75, 36.0
76, 36.0
77, 36.0
78, 36.0
79, 36.0
80, 36.0
81, 36.0
82, 36.0
83, 36.0
84, 36.0
85, 36.0
86, 36.0
87, 36.0
88, 36.0
89, 36.0
90, 36.0
91, 36.0
92, 36.0
93, 36.0
94, 36.0
95, 36.0
96, 36.0
97, 36.0
98, 36.0
99, 36.0
100, 36.0
101, 36.0
102, 36.0
103, 36.0
104, 36.0
105, 36.0
