i, Result
0, 0.0
1, 0.0
2, 0.0
3, 1.0
4, 1.0
5, 1.0
6, 1.0
7, 1.0
8, 1.0
9, 2.0
10, 3.0
11, 3.0
12, 3.0
13, 3.0
14, 4.0
15, 5.0
16, 6.0
17, 7.0
18, 8.0
19, 9.0
20, 10.0
21, 11.0
22, 11.0
23, 11.0
24, 12.0
25, 13.0
26, 13.0
27, 13.0
28, 13.0
29, 13.0
30, 14.0
31, 15.0
32, 15.0
33, 16.0
34, 16.0
35, 17.0
36, 18.0
37, 19.0
38, 19.0
39, 20.0
40, 20.0
41, 20.0
42, 21.0
43, 22.0
44, 23.0
45, 24.0
46, 24.0
47, 24.0
48, 24.0
49, 24.0
50, 24.0
51, 24.0
52, 24.0
53, 24.0
54, 24.0
55, 25.0
56, 25.0
57, 26.0
58, 27.0
59, 28.0
60, 29.0
61, 30.0
62, 30.0
63, 30.0
64, 31.0
65, 31.0
66, 31.0
67, 31.0
68, 31.0
69, 31.0
70, 31.0
71, 31.0
72, 31.0
73, 31.0
74, 31.0
75, 31.0
76, 31.0
77, 31.0
78, 31.0
79, 31.0
80, 31.0
81, 31.0
82, 31.0
83, 31.0
84, 31.0
85, 31.0
86, 31.0
87, 31.0
88, 31.0
89, 31.0
90, 31.0
91, 31.0
92, 31.0
93, 31.0
94, 31.0
95, 31.0
96, 31.0
97, 31.0
98, 31.0
99, 31.0
100, 31.0
101, 31.0
102, 31.0
103, 31.0
104, 31.0
105, 31.0
