i, Result
0, 0.0
1, 0.0
2, 0.0
3, 1.0
4, 1.0
5, 1.0
6, 2.0
7, 3.0
8, 4.0
9, 4.0
10, 5.0
11, 6.0
12, 6.0
13, 6.0
14, 6.0
15, 7.0
16, 8.0
17, 9.0
18, 10.0
19, 10.0
20, 11.0
21, 12.0
22, 12.0
23, 12.0
24, 13.0
25, 14.0
26, 15.0
27, 16.0
28, 17.0
29, 17.0
30, 17.0
31, 18.0
32, 18.0
33, 19.0
34, 19.0
35, 19.0
36, 19.0
37, 19.0
38, 20.0
39, 20.0
40, 21.0
41, 21.0
42, 21.0
43, 22.0
44, 23.0
45, 23.0
46, 23.0
47, 23.0
48, 23.0
49, 24.0
50, 24.0
51, 24.0
52, 25.0
53, 25.0
54, 25.0
55, 25.0
56, 25.0
57, 25.0
58, 26.0
59, 26.0
60, 27.0
61, 28.0
62, 29.0
63, 30.0
64, 30.0
65, 31.0
66, 31.0
67, 31.0
68, 31.0
69, 31.0
70, 31.0
71, 31.0
72, 31.0
73, 31.0
74, 31.0
75, 31.0
76, 31.0
77, 31.0
78, 31.0
79, 31.0
80, 31.0
81, 31.0
82, 31.0
83, 31.0
84, 31.0
85, 31.0
86, 31.0
87, 31.0
88, 31.0
89, 31.0
90, 31.0
91, 31.0
92, 31.0
93, 31.0
94, 31.0
95, 31.0
96, 31.0
97, 31.0
98, 31.0
99, 31.0
100, 31.0
101, 31.0
102, 31.0
103, 31.0
104, 31.0
105, 31.0
