i, Result
0, 0.0
1, 0.0
2, 0.0
3, 0.0
4, 1.0
5, 2.0
6, 3.0
7, 3.0
8, 4.0
9, 5.0
10, 6.0
11, 6.0
12, 7.0
13, 8.0
14, 9.0
15, 10.0
16, 11.0
17, 11.0
18, 12.0
19, 12.0
20, 12.0
21, 12.0
22, 13.0
23, 13.0
24, 14.0
25, 15.0
26, 16.0
27, 16.0
28, 17.0
29, 17.0
30, 18.0
31, 18.0
32, 19.0
33, 20.0
34, 20.0
35, 20.0
36, 21.0
37, 22.0
38, 23.0
39, 24.0
40, 25.0
41, 26.0
42, 26.0
43, 26.0
44, 27.0
45, 28.0
46, 29.0
47, 30.0
48, 31.0
49, 31.0
50, 32.0
51, 32.0
52, 32.0
53, 33.0
54, 34.0
55, 35.0
56, 35.0
57, 36.0
58, 36.0
59, 37.0
60, 37.0
61, 38.0
62, 38.0
63, 39.0
64, 40.0
65, 41.0
66, 42.0
67, 42.0
68, 43.0
69, 44.0
70, 44.0
71, 45.0
72, 46.0
73, 47.0
74, 48.0
75, 49.0
76, 49.0
77, 49.0
78, 49.0
79, 49.0
80, 49.0
81, 49.0
82, 49.0
83, 49.0
84, 49.0
85, 49.0
86, 49.0
87, 49.0
88, 49.0
89, 49.0
90, 49.0
91, 49.0
92, 49.0
93, 49.0
94, 49.0
95, 49.0
96, 49.0
97, 49.0
98, 49.0
99, 49.0
100, 49.0
101, 49.0
102, 49.0
103, 49.0
104, 49.0
105, 49.0
