i, Result
0, 0.0
1, 0.0
2, 0.0
3, 1.0
4, 2.0
5, 2.0
6, 3.0
7, 3.0
8, 3.0
9, 4.0
10, 5.0
11, 5.0
12, 5.0
13, 6.0
14, 6.0
15, 7.0
16, 8.0
17, 9.0
18, 10.0
19, 10.0
20, 11.0
21, 11.0
22, 12.0
23, 12.0
24, 13.0
25, 14.0
26, 14.0
27, 15.0
28, 16.0
29, 16.0
30, 16.0
31, 16.0
32, 17.0
33, 17.0
34, 17.0
35, 17.0
36, 18.0
37, 18.0
38, 19.0
39, 20.0
40, 21.0
41, 22.0
42, 22.0
43, 23.0
44, 23.0
45, 24.0
46, 25.0
47, 26.0
48, 26.0
49, 27.0
50, 27.0
51, 28.0
52, 28.0
53, 29.0
54, 30.0
55, 31.0
56, 31.0
57, 32.0
58, 32.0
59, 32.0
60, 33.0
61, 33.0
62, 34.0
63, 34.0
64, 35.0
65, 36.0
66, 36.0
67, 36.0
68, 37.0
69, 38.0
70, 39.0
71, 39.0
72, 40.0
73, 40.0
74, 40.0
75, 40.0
76, 40.0
77, 40.0
78, 40.0
79, 40.0
80, 40.0
81, 40.0
82, 40.0
83, 40.0
84, 40.0
85, 40.0
86, 40.0
87, 40.0
88, 40.0
89, 40.0
90, 40.0
91, 40.0
92, 40.0
93, 40.0
94, 40.0
95, 40.0
96, 40.0
97, 40.0
98, 40.0
99, 40.0
100, 40.0
101, 40.0
102, 40.0
103, 40.0
104, 40.0
105, 40.0
