i, Result
0, 0.0
1, 0.0
2, 0.0
3, 1.0
4, 2.0
5, 3.0
6, 4.0
7, 5.0
8, 5.0
9, 6.0
10, 7.0
11, 8.0
12, 8.0
13, 9.0
14, 10.0
15, 10.0
16, 10.0
17, 11.0
18, 12.0
19, 13.0
20, 14.0
21, 14.0
22, 14.0
23, 14.0
24, 15.0
25, 15.0
26, 16.0
27, 16.0
28, 17.0
29, 18.0
30, 18.0
31, 18.0
32, 18.0
33, 18.0
34, 18.0
35, 19.0
36, 20.0
37, 21.0
38, 21.0
39, 22.0
40, 22.0
41, 22.0
42, 23.0
43, 23.0
44, 24.0
45, 25.0
46, 25.0
47, 26.0
48, 26.0
49, 27.0
50, 28.0
51, 28.0
52, 28.0
53, 29.0
54, 30.0
55, 31.0
56, 31.0
57, 32.0
58, 32.0
59, 33.0
60, 33.0
61, 33.0
62, 34.0
63, 34.0
64, 35.0
65, 35.0
66, 36.0
67, 37.0
68, 37.0
69, 38.0
70, 38.0
71, 38.0
72, 39.0
73, 39.0
74, 39.0
75, 39.0
76, 39.0
77, 39.0
78, 39.0
79, 39.0
80, 39.0
81, 39.0
82, 39.0
83, 39.0
84, 39.0
85, 39.0
86, 39.0
87, 39.0
88, 39.0
89, 39.0
90, 39.0
91, 39.0
92, 39.0
93, 39.0
94, 39.0
95, 39.0
96, 39.0
97, 39.0
98, 39.0
99, 39.0
100, 39.0
101, 39.0
102, 39.0
103, 39.0
104, 39.0
105, 39.0
