i, Result
0, 0.0
1, 0.0
2, 0.0
3, 1.0
4, 2.0
5, 3.0
6, 4.0
7, 5.0
8, 6.0
9, 6.0
10, 7.0
11, 7.0
12, 8.0
13, 8.0
14, 8.0
15, 9.0
16, 9.0
17, 9.0
18, 9.0
19, 9.0
20, 9.0
21, 9.0
22, 10.0
23, 11.0
24, 12.0
25, 13.0
26, 13.0
27, 13.0
28, 13.0
29, 13.0
30, 13.0
31, 13.0
32, 13.0
33, 14.0
34, 14.0
35, 14.0
36, 14.0
37, 14.0
38, 15.0
39, 16.0
40, 16.0
41, 17.0
42, 18.0
43, 18.0
44, 19.0
45, 19.0
46, 20.0
47, 20.0
48, 20.0
49, 20.0
50, 21.0
51, 22.0
52, 23.0
53, 24.0
54, 25.0
55, 25.0
56, 25.0
57, 26.0
58, 26.0
59, 27.0
60, 28.0
61, 29.0
62, 30.0
63, 30.0
64, 30.0
65, 30.0
66, 30.0
67, 31.0
68, 32.0
69, 32.0
70, 32.0
71, 32.0
72, 32.0
73, 32.0
74, 32.0
75, 32.0
76, 32.0
77, 32.0
78, 32.0
79, 32.0
80, 32.0
81, 32.0
82, 32.0
83, 32.0
84, 32.0
85, 32.0
86, 32.0
87, 32.0
88, 32.0
89, 32.0
90, 32.0
91, 32.0
92, 32.0
93, 32.0
94, 32.0
95, 32.0
96, 32.0
97, 32.0
98, 32.0
99, 32.0
100, 32.0
101, 32.0
102, 32.0
103, 32.0
104, 32.0
105, 32.0
