i, Result
0, 0.0
1, 0.0
2, 0.0
3, 1.0
4, 1.0
5, 1.0
6, 2.0
7, 3.0
8, 3.0
9, 3.0
10, 3.0
11, 4.0
12, 4.0
13, 4.0
14, 4.0
15, 5.0
16, 6.0
17, 6.0
18, 6.0
19, 7.0
20, 8.0
21, 9.0
22, 10.0
23, 11.0
24, 12.0
25, 13.0
26, 14.0
27, 15.0
28, 15.0
29, 16.0
30, 17.0
31, 17.0
32, 18.0
33, 18.0
34, 19.0
35, 19.0
36, 20.0
37, 21.0
38, 22.0
39, 23.0
40, 23.0
41, 24.0
42, 24.0
43, 24.0
44, 24.0
45, 25.0
46, 26.0
47, 27.0
48, 28.0
49, 29.0
50, 29.0
51, 29.0
52, 30.0
53, 30.0
54, 31.0
55, 31.0
56, 32.0
57, 33.0
58, 33.0
59, 33.0
60, 33.0
61, 33.0
62, 34.0
63, 35.0
64, 35.0
65, 35.0
66, 35.0
67, 36.0
68, 36.0
69, 36.0
70, 36.0
71, 36.0
72, 36.0
73, 36.0
74, 36.0
75, 36.0
76, 36.0
77, 36.0
78, 36.0
79, 36.0
80, 36.0
81, 36.0
82, 36.0
83, 36.0
84, 36.0
85, 36.0
86, 36.0
87, 36.0
88, 36.0
89, 36.0
90, 36.0
91, 36.0
92, 36.0
93, 36.0
94, 36.0
95, 36.0
96, 36.0
97, 36.0
98, 36.0
99, 36.0
100, 36.0
101, 36.0
102, 36.0
103, 36.0
104, 36.0
105, 36.0
