i, Result
0, 0.0
1, 0.0
2, 0.0
3, 1.0
4, 1.0
5, 2.0
6, 2.0
7, 3.0
8, 3.0
9, 3.0
10, 3.0
11, 3.0
12, 3.0
13, 4.0
14, 4.0
15, 5.0
16, 6.0
17, 6.0
18, 7.0
19, 7.0
20, 8.0
21, 8.0
22, 8.0
23, 8.0
24, 9.0
25, 9.0
26, 9.0
27, 9.0
28, 10.0
29, 11.0
30, 11.0
31, 12.0
32, 12.0
33, 12.0
34, 13.0
35, 13.0
36, 14.0
37, 14.0
38, 15.0
39, 16.0
40, 17.0
41, 17.0
42, 17.0
43, 17.0
44, 17.0
45, 18.0
46, 19.0
47, 20.0
48, 21.0
49, 22.0
50, 23.0
51, 24.0
52, 24.0
53, 24.0
54, 25.0
55, 26.0
56, 27.0
57, 28.0
58, 29.0
59, 29.0
60, 30.0
61, 30.0
62, 31.0
63, 32.0
64, 33.0
65, 33.0
66, 33.0
67, 33.0
68, 33.0
69, 33.0
70, 33.0
71, 33.0
72, 33.0
73, 33.0
74, 33.0
75, 33.0
76, 33.0
77, 33.0
78, 33.0
79, 33.0
80, 33.0
81, 33.0
82, 33.0
83, 33.0
84, 33.0
85, 33.0
86, 33.0
87, 33.0
88, 33.0
89, 33.0
90, 33.0
91, 33.0
92, 33.0
93, 33.0
94, 33.0
95, 33.0
96, 33.0
97, 33.0
98, 33.0
99, 33.0
100, 33.0
101, 33.0
102, 33.0
103, 33.0
104, 33.0
105, 33.0
