i, Result
0, 0.0
1, 0.0
2, 0.0
3, 0.0
4, 1.0
5, 1.0
6, 1.0
7, 2.0
8, 3.0
9, 3.0
10, 4.0
11, 4.0
12, 5.0
13, 5.0
14, 5.0
15, 5.0
16, 6.0
17, 7.0
18, 8.0
19, 9.0
20, 9.0
21, 10.0
22, 11.0
23, 12.0
24, 12.0
25, 13.0
26, 14.0
27, 14.0
28, 15.0
29, 15.0
30, 16.0
31, 16.0
32, 17.0
33, 18.0
34, 19.0
35, 20.0
36, 21.0
37, 22.0
38, 22.0
39, 22.0
40, 23.0
41, 23.0
42, 23.0
43, 24.0
44, 25.0
45, 26.0
46, 27.0
47, 28.0
48, 28.0
49, 29.0
50, 29.0
51, 29.0
52, 29.0
53, 30.0
54, 30.0
55, 30.0
56, 30.0
57, 31.0
58, 31.0
59, 32.0
60, 33.0
61, 33.0
62, 33.0
63, 33.0
64, 34.0
65, 34.0
66, 34.0
67, 34.0
68, 35.0
69, 35.0
70, 35.0
71, 36.0
72, 36.0
73, 36.0
74, 37.0
75, 37.0
76, 37.0
77, 37.0
78, 37.0
79, 37.0
80, 37.0
81, 37.0
82, 37.0
83, 37.0
84, 37.0
85, 37.0
86, 37.0
87, 37.0
88, 37.0
89, 37.0
90, 37.0
91, 37.0
92, 37.0
93, 37.0
94, 37.0
95, 37.0
96, 37.0
97, 37.0
98, 37.0
99, 37.0
100, 37.0
101, 37.0
102, 37.0
103, 37.0
104, 37.0
105, 37.0
