i, Result
0, 0.0
1, 0.0
2, 0.0
3, 1.0
4, 2.0
5, 2.0
6, 2.0
7, 3.0
8, 3.0
9, 3.0
10, 4.0
11, 5.0
12, 6.0
13, 6.0
14, 6.0
15, 6.0
16, 6.0
17, 6.0
18, 6.0
19, 7.0
20, 7.0
21, 8.0
22, 9.0
23, 10.0
24, 10.0
25, 11.0
26, 11.0
27, 11.0
28, 11.0
29, 12.0
30, 12.0
31, 12.0
32, 12.0
33, 13.0
34, 13.0
35, 14.0
36, 14.0
37, 14.0
38, 14.0
39, 14.0
40, 15.0
41, 15.0
42, 15.0
43, 16.0
44, 16.0
45, 17.0
46, 18.0
47, 18.0
48, 18.0
49, 19.0
50, 19.0
51, 20.0
52, 21.0
53, 21.0
54, 22.0
55, 23.0
56, 23.0
57, 23.0
58, 23.0
59, 23.0
60, 23.0
61, 23.0
62, 23.0
63, 23.0
64, 23.0
65, 23.0
66, 23.0
67, 23.0
68, 23.0
69, 23.0
70, 23.0
71, 23.0
72, 23.0
73, 23.0
74, 23.0
75, 23.0
76, 23.0
77, 23.0
78, 23.0
79, 23.0
80, 23.0
81, 23.0
82, 23.0
83, 23.0
84, 23.0
85, 23.0
86, 23.0
87, 23.0
88, 23.0
89, 23.0
90, 23.0
91, 23.0
92, 23.0
93, 23.0
94, 23.0
95, 23.0
96, 23.0
97, 23.0
98, 23.0
99, 23.0
100, 23.0
101, 23.0
102, 23.0
103, 23.0
104, 23.0
105, 23.0
