i, Result
0, 0.0
1, 0.0
2, 0.0
3, 1.0
4, 1.0
5, 1.0
6, 1.0
7, 2.0
8, 2.0
9, 2.0
10, 3.0
11, 4.0
12, 5.0
13, 6.0
14, 6.0
15, 7.0
16, 8.0
17, 9.0
18, 10.0
19, 10.0
20, 11.0
21, 12.0
22, 12.0
23, 13.0
24, 13.0
25, 13.0
26, 13.0
27, 14.0
28, 15.0
29, 16.0
30, 16.0
31, 17.0
32, 18.0
33, 19.0
34, 20.0
35, 20.0
36, 21.0
37, 21.0
38, 21.0
39, 22.0
40, 22.0
41, 23.0
42, 24.0
43, 24.0
44, 24.0
45, 25.0
46, 25.0
47, 26.0
48, 26.0
49, 27.0
50, 27.0
51, 28.0
52, 29.0
53, 30.0
54, 30.0
55, 30.0
56, 30.0
57, 31.0
58, 32.0
59, 33.0
60, 33.0
61, 33.0
62, 33.0
63, 34.0
64, 34.0
65, 34.0
66, 35.0
67, 36.0
68, 36.0
69, 36.0
70, 36.0
71, 36.0
72, 36.0
73, 36.0
74, 36.0
75, 36.0
76, 36.0
77, 36.0
78, 36.0
79, 36.0
80, 36.0
81, 36.0
82, 36.0
83, 36.0
84, 36.0
85, 36.0
86, 36.0
87, 36.0
88, 36.0
89, 36.0
90, 36.0
91, 36.0
92, 36.0
93, 36.0
94, 36.0
95, 36.0
96, 36.0
97, 36.0
98, 36.0
99, 36.0
100, 36.0
101, 36.0
102, 36.0
103, 36.0
104, 36.0
105, 36.0
