i, Result
0, 0.0
1, 0.0
2, 0.0
3, 1.0
4, 2.0
5, 2.0
6, 3.0
7, 3.0
8, 3.0
9, 4.0
10, 5.0
11, 6.0
12, 7.0
13, 8.0
14, 9.0
15, 9.0
16, 9.0
17, 10.0
18, 11.0
19, 11.0
20, 12.0
21, 12.0
22, 12.0
23, 13.0
24, 13.0
25, 13.0
26, 14.0
27, 14.0
28, 15.0
29, 16.0
30, 17.0
31, 18.0
32, 18.0
33, 18.0
34, 19.0
35, 19.0
36, 20.0
37, 21.0
38, 22.0
39, 23.0
40, 24.0
41, 25.0
42, 26.0
43, 26.0
44, 26.0
45, 27.0
46, 28.0
47, 29.0
48, 29.0
49, 29.0
50, 30.0
51, 31.0
52, 32.0
53, 32.0
54, 33.0
55, 34.0
56, 34.0
57, 35.0
58, 35.0
59, 35.0
60, 36.0
61, 36.0
62, 36.0
63, 37.0
64, 37.0
65, 38.0
66, 39.0
67, 39.0
68, 39.0
69, 39.0
70, 39.0
71, 40.0
72, 41.0
73, 42.0
74, 42.0
75, 42.0
76, 42.0
77, 42.0
78, 42.0
79, 42.0
80, 42.0
81, 42.0
82, 42.0
83, 42.0
84, 42.0
85, 42.0
86, 42.0
87, 42.0
88, 42.0
89, 42.0
90, 42.0
91, 42.0
92, 42.0
93, 42.0
94, 42.0
95, 42.0
96, 42.0
97, 42.0
98, 42.0
99, 42.0
100, 42.0
101, 42.0
102, 42.0
103, 42.0
104, 42.0
105, 42.0
