i, Result
0, 0.0
1, 0.0
2, 0.0
3, 0.0
4, 0.0
5, 0.0
6, 1.0
7, 1.0
8, 2.0
9, 2.0
10, 3.0
11, 3.0
12, 4.0
13, 5.0
14, 6.0
15, 6.0
16, 7.0
17, 8.0
18, 8.0
19, 9.0
20, 10.0
21, 10.0
22, 10.0
23, 10.0
24, 10.0
25, 10.0
26, 11.0
27, 11.0
28, 11.0
29, 11.0
30, 11.0
31, 11.0
32, 12.0
33, 12.0
34, 13.0
35, 14.0
36, 15.0
37, 15.0
38, 15.0
39, 16.0
40, 17.0
41, 18.0
42, 18.0
43, 19.0
44, 20.0
45, 21.0
46, 21.0
47, 21.0
48, 22.0
49, 23.0
50, 24.0
51, 24.0
52, 25.0
53, 26.0
54, 27.0
55, 27.0
56, 28.0
57, 29.0
58, 30.0
59, 30.0
60, 31.0
61, 32.0
62, 33.0
63, 34.0
64, 35.0
65, 35.0
66, 36.0
67, 37.0
68, 37.0
69, 37.0
70, 37.0
71, 37.0
72, 37.0
73, 37.0
74, 37.0
75, 37.0
76, 37.0
77, 37.0
78, 37.0
79, 37.0
80, 37.0
81, 37.0
82, 37.0
83, 37.0
84, 37.0
85, 37.0
86, 37.0
87, 37.0
88, 37.0
89, 37.0
90, 37.0
91, 37.0
92, 37.0
93, 37.0
94, 37.0
95, 37.0
96, 37.0
97, 37.0
98, 37.0
99, 37.0
100, 37.0
101, 37.0
102, 37.0
103, 37.0
104, 37.0
105, 37.0
