i, Result
0, 0.0
1, 0.0
2, 0.0
3, 1.0
4, 2.0
5, 2.0
6, 2.0
7, 3.0
8, 3.0
9, 4.0
10, 5.0
11, 6.0
12, 7.0
13, 8.0
14, 8.0
15, 8.0
16, 8.0
17, 8.0
18, 8.0
19, 8.0
20, 9.0
21, 10.0
22, 11.0
23, 12.0
24, 13.0
25, 13.0
26, 14.0
27, 15.0
28, 16.0
29, 16.0
30, 17.0
31, 17.0
32, 18.0
33, 19.0
34, 20.0
35, 21.0
36, 22.0
37, 22.0
38, 23.0
39, 24.0
40, 25.0
41, 25.0
42, 26.0
43, 26.0
44, 26.0
45, 27.0
46, 28.0
47, 29.0
48, 29.0
49, 29.0
50, 29.0
51, 30.0
52, 30.0
53, 31.0
54, 32.0
55, 33.0
56, 34.0
57, 34.0
58, 35.0
59, 35.0
60, 36.0
61, 37.0
62, 38.0
63, 39.0
64, 39.0
65, 40.0
66, 41.0
67, 41.0
68, 42.0
69, 43.0
70, 44.0
71, 45.0
72, 46.0
73, 46.0
74, 46.0
75, 46.0
76, 46.0
77, 46.0
78, 46.0
79, 46.0
80, 46.0
81, 46.0
82, 46.0
83, 46.0
84, 46.0
85, 46.0
86, 46.0
87, 46.0
88, 46.0
89, 46.0
90, 46.0
91, 46.0
92, 46.0
93, 46.0
94, 46.0
95, 46.0
96, 46.0
97, 46.0
98, 46.0
99, 46.0
100, 46.0
101, 46.0
102, 46.0
103, 46.0
104, 46.0
105, 46.0
