i, Result
0, 0.0
1, 0.0
2, 0.0
3, 0.0
4, 0.0
5, 1.0
6, 1.0
7, 2.0
8, 2.0
9, 2.0
10, 3.0
11, 3.0
12, 4.0
13, 5.0
14, 5.0
15, 5.0
16, 6.0
17, 7.0
18, 7.0
19, 8.0
20, 9.0
21, 9.0
22, 10.0
23, 10.0
24, 10.0
25, 11.0
26, 12.0
27, 12.0
28, 12.0
29, 12.0
30, 12.0
31, 13.0
32, 13.0
33, 13.0
34, 13.0
35, 13.0
36, 14.0
37, 14.0
38, 14.0
39, 14.0
40, 14.0
41, 14.0
42, 15.0
43, 16.0
44, 16.0
45, 17.0
46, 17.0
47, 17.0
48, 17.0
49, 18.0
50, 18.0
51, 19.0
52, 20.0
53, 21.0
54, 22.0
55, 23.0
56, 24.0
57, 24.0
58, 25.0
59, 25.0
60, 26.0
61, 27.0
62, 28.0
63, 29.0
64, 30.0
65, 30.0
66, 31.0
67, 31.0
68, 32.0
69, 33.0
70, 33.0
71, 33.0
72, 33.0
73, 33.0
74, 33.0
75, 33.0
76, 33.0
77, 33.0
78, 33.0
79, 33.0
80, 33.0
81, 33.0
82, 33.0
83, 33.0
84, 33.0
85, 33.0
86, 33.0
87, 33.0
88, 33.0
89, 33.0
90, 33.0
91, 33.0
92, 33.0
93, 33.0
94, 33.0
95, 33.0
96, 33.0
97, 33.0
98, 33.0
99, 33.0
100, 33.0
101, 33.0
102, 33.0
103, 33.0
104, 33.0
105, 33.0
