i, Result
0, 0.0
1, 0.0
2, 0.0
3, 1.0
4, 2.0
5, 3.0
6, 3.0
7, 3.0
8, 4.0
9, 4.0
10, 5.0
11, 6.0
12, 7.0
13, 8.0
14, 9.0
15, 10.0
16, 10.0
17, 11.0
18, 12.0
19, 13.0
20, 14.0
21, 15.0
22, 15.0
23, 16.0
24, 17.0
25, 18.0
26, 18.0
27, 19.0
28, 19.0
29, 19.0
30, 20.0
31, 21.0
32, 22.0
33, 22.0
34, 23.0
35, 24.0
36, 25.0
37, 25.0
38, 26.0
39, 26.0
40, 26.0
41, 27.0
42, 28.0
43, 28.0
44, 29.0
45, 30.0
46, 31.0
47, 32.0
48, 33.0
49, 33.0
50, 34.0
51, 35.0
52, 36.0
53, 37.0
54, 38.0
55, 39.0
56, 39.0
57, 39.0
58, 40.0
59, 41.0
60, 41.0
61, 41.0
62, 41.0
63, 42.0
64, 42.0
65, 43.0
66, 43.0
67, 44.0
68, 45.0
69, 45.0
70, 45.0
71, 45.0
72, 45.0
73, 45.0
74, 46.0
75, 46.0
76, 46.0
77, 46.0
78, 46.0
79, 46.0
80, 46.0
81, 46.0
82, 46.0
83, 46.0
84, 46.0
85, 46.0
86, 46.0
87, 46.0
88, 46.0
89, 46.0
90, 46.0
91, 46.0
92, 46.0
93, 46.0
94, 46.0
95, 46.0
96, 46.0
97, 46.0
98, 46.0
99, 46.0
100, 46.0
101, 46.0
102, 46.0
103, 46.0
104, 46.0
105, 46.0
