i, Result
0, 0.0
1, 0.0
2, 0.0
3, 1.0
4, 2.0
5, 2.0
6, 3.0
7, 4.0
8, 5.0
9, 6.0
10, 6.0
11, 7.0
12, 8.0
13, 9.0
14, 10.0
15, 10.0
16, 11.0
17, 12.0
18, 13.0
19, 14.0
20, 14.0
21, 15.0
22, 15.0
23, 16.0
24, 17.0
25, 17.0
26, 17.0
27, 18.0
28, 19.0
29, 19.0
30, 20.0
31, 21.0
32, 22.0
33, 22.0
34, 22.0
35, 23.0
36, 24.0
37, 24.0
38, 25.0
39, 25.0
40, 25.0
41, 25.0
42, 25.0
43, 26.0
44, 26.0
45, 26.0
46, 27.0
47, 27.0
48, 28.0
49, 29.0
50, 29.0
51, 30.0
52, 31.0
53, 32.0
54, 33.0
55, 34.0
56, 35.0
57, 36.0
58, 36.0
59, 37.0
60, 37.0
61, 37.0
62, 38.0
63, 38.0
64, 38.0
65, 39.0
66, 40.0
67, 40.0
68, 41.0
69, 41.0
70, 42.0
71, 43.0
72, 43.0
73, 43.0
74, 43.0
75, 43.0
76, 43.0
77, 43.0
78, 43.0
79, 43.0
80, 43.0
81, 43.0
82, 43.0
83, 43.0
84, 43.0
85, 43.0
86, 43.0
87, 43.0
88, 43.0
89, 43.0
90, 43.0
91, 43.0
92, 43.0
93, 43.0
94, 43.0
95, 43.0
96, 43.0
97, 43.0
98, 43.0
99, 43.0
100, 43.0
101, 43.0
102, 43.0
103, 43.0
104, 43.0
105, 43.0
