i, Result
0, 0.0
1, 0.0
2, 0.0
3, 0.0
4, 0.0
5, 0.0
6, 1.0
7, 2.0
8, 3.0
9, 4.0
10, 5.0
11, 6.0
12, 7.0
13, 7.0
14, 7.0
15, 7.0
16, 8.0
17, 9.0
18, 10.0
19, 11.0
20, 12.0
21, 13.0
22, 14.0
23, 14.0
24, 15.0
25, 16.0
26, 17.0
27, 18.0
28, 19.0
29, 20.0
30, 20.0
31, 20.0
32, 20.0
33, 20.0
34, 21.0
35, 21.0
36, 22.0
37, 22.0
38, 23.0
39, 23.0
40, 23.0
41, 24.0
42, 25.0
43, 26.0
44, 26.0
45, 26.0
46, 27.0
47, 27.0
48, 27.0
49, 28.0
50, 28.0
51, 28.0
52, 29.0
53, 30.0
54, 31.0
55, 32.0
56, 33.0
57, 33.0
58, 33.0
59, 33.0
60, 33.0
61, 34.0
62, 35.0
63, 36.0
64, 37.0
65, 38.0
66, 38.0
67, 38.0
68, 39.0
69, 40.0
70, 40.0
71, 40.0
72, 40.0
73, 40.0
74, 40.0
75, 40.0
76, 40.0
77, 40.0
78, 40.0
79, 40.0
80, 40.0
81, 40.0
82, 40.0
83, 40.0
84, 40.0
85, 40.0
86, 40.0
87, 40.0
88, 40.0
89, 40.0
90, 40.0
91, 40.0
92, 40.0
93, 40.0
94, 40.0
95, 40.0
96, 40.0
97, 40.0
98, 40.0
99, 40.0
100, 40.0
101, 40.0
102, 40.0
103, 40.0
104, 40.0
105, 40.0
