i, Result
0, 0.0
1, 0.0
2, 0.0
3, 1.0
4, 1.0
5, 2.0
6, 3.0
7, 4.0
8, 4.0
9, 5.0
10, 6.0
11, 7.0
12, 8.0
13, 8.0
14, 8.0
15, 8.0
16, 8.0
17, 9.0
18, 10.0
19, 11.0
20, 12.0
21, 12.0
22, 13.0
23, 13.0
24, 14.0
25, 15.0
26, 15.0
27, 15.0
28, 16.0
29, 16.0
30, 16.0
31, 16.0
32, 17.0
33, 17.0
34, 18.0
35, 18.0
36, 19.0
37, 19.0
38, 19.0
39, 20.0
40, 20.0
41, 20.0
42, 21.0
43, 21.0
44, 21.0
45, 22.0
46, 22.0
47, 23.0
48, 24.0
49, 25.0
50, 25.0
51, 25.0
52, 25.0
53, 25.0
54, 26.0
55, 26.0
56, 26.0
57, 27.0
58, 27.0
59, 28.0
60, 28.0
61, 28.0
62, 29.0
63, 29.0
64, 29.0
65, 30.0
66, 31.0
67, 31.0
68, 31.0
69, 32.0
70, 33.0
71, 34.0
72, 35.0
73, 35.0
74, 35.0
75, 35.0
76, 35.0
77, 35.0
78, 35.0
79, 35.0
80, 35.0
81, 35.0
82, 35.0
83, 35.0
84, 35.0
85, 35.0
86, 35.0
87, 35.0
88, 35.0
89, 35.0
90, 35.0
91, 35.0
92, 35.0
93, 35.0
94, 35.0
95, 35.0
96, 35.0
97, 35.0
98, 35.0
99, 35.0
100, 35.0
101, 35.0
102, 35.0
103, 35.0
104, 35.0
105, 35.0
