i, Result
0, 0.0
1, 0.0
2, 0.0
3, 1.0
4, 1.0
5, 1.0
6, 1.0
7, 1.0
8, 2.0
9, 2.0
10, 3.0
11, 4.0
12, 4.0
13, 4.0
14, 5.0
15, 6.0
16, 7.0
17, 8.0
18, 8.0
19, 9.0
20, 10.0
21, 11.0
22, 12.0
23, 12.0
24, 12.0
25, 12.0
26, 12.0
27, 13.0
28, 13.0
29, 14.0
30, 14.0
31, 14.0
32, 15.0
33, 15.0
34, 16.0
35, 17.0
36, 17.0
37, 17.0
38, 17.0
39, 17.0
40, 18.0
41, 19.0
42, 19.0
43, 20.0
44, 20.0
45, 21.0
46, 22.0
47, 22.0
48, 23.0
49, 23.0
50, 23.0
51, 23.0
52, 23.0
53, 23.0
54, 24.0
55, 24.0
56, 25.0
57, 25.0
58, 26.0
59, 27.0
60, 27.0
61, 27.0
62, 28.0
63, 29.0
64, 29.0
65, 29.0
66, 29.0
67, 29.0
68, 29.0
69, 29.0
70, 29.0
71, 29.0
72, 29.0
73, 29.0
74, 29.0
75, 29.0
76, 29.0
77, 29.0
78, 29.0
79, 29.0
80, 29.0
81, 29.0
82, 29.0
83, 29.0
84, 29.0
85, 29.0
86, 29.0
87, 29.0
88, 29.0
89, 29.0
90, 29.0
91, 29.0
92, 29.0
93, 29.0
94, 29.0
95, 29.0
96, 29.0
97, 29.0
98, 29.0
99, 29.0
100, 29.0
101, 29.0
102, 29.0
103, 29.0
104, 29.0
105, 29.0
