i, Result
0, 0.0
1, 0.0
2, 0.0
3, 1.0
4, 2.0
5, 2.0
6, 2.0
7, 2.0
8, 2.0
9, 3.0
10, 3.0
11, 3.0
12, 4.0
13, 5.0
14, 6.0
15, 6.0
16, 6.0
17, 6.0
18, 7.0
19, 8.0
20, 8.0
21, 8.0
22, 9.0
23, 9.0
24, 10.0
25, 11.0
26, 11.0
27, 12.0
28, 13.0
29, 13.0
30, 14.0
31, 14.0
32, 15.0
33, 16.0
34, 17.0
35, 18.0
36, 19.0
37, 20.0
38, 21.0
39, 21.0
40, 22.0
41, 23.0
42, 23.0
43, 24.0
44, 25.0
45, 26.0
46, 26.0
47, 27.0
48, 28.0
49, 29.0
50, 30.0
51, 31.0
52, 32.0
53, 32.0
54, 32.0
55, 32.0
56, 33.0
57, 33.0
58, 34.0
59, 35.0
60, 36.0
61, 36.0
62, 37.0
63, 37.0
64, 37.0
65, 38.0
66, 38.0
67, 38.0
68, 39.0
69, 39.0
70, 39.0
71, 39.0
72, 39.0
73, 39.0
74, 39.0
75, 39.0
76, 39.0
77, 39.0
78, 39.0
79, 39.0
80, 39.0
81, 39.0
82, 39.0
83, 39.0
84, 39.0
85, 39.0
86, 39.0
87, 39.0
88, 39.0
89, 39.0
90, 39.0
91, 39.0
92, 39.0
93, 39.0
94, 39.0
95, 39.0
96, 39.0
97, 39.0
98, 39.0
99, 39.0
100, 39.0
101, 39.0
102, 39.0
103, 39.0
104, 39.0
105, 39.0
