i, Result
0, 0.0
1, 0.0
2, 0.0
3, 1.0
4, 2.0
5, 2.0
6, 2.0
7, 3.0
8, 3.0
9, 3.0
10, 4.0
11, 5.0
12, 6.0
13, 6.0
14, 7.0
15, 7.0
16, 7.0
17, 8.0
18, 8.0
19, 9.0
20, 10.0
21, 10.0
22, 10.0
23, 10.0
24, 10.0
25, 10.0
26, 10.0
27, 10.0
28, 10.0
29, 11.0
30, 11.0
31, 11.0
32, 11.0
33, 11.0
34, 11.0
35, 11.0
36, 11.0
37, 11.0
38, 12.0
39, 13.0
40, 14.0
41, 14.0
42, 15.0
43, 16.0
44, 16.0
45, 17.0
46, 17.0
47, 18.0
48, 18.0
49, 18.0
50, 19.0
51, 19.0
52, 20.0
53, 20.0
54, 20.0
55, 20.0
56, 20.0
57, 21.0
58, 22.0
59, 23.0
60, 23.0
61, 23.0
62, 23.0
63, 23.0
64, 23.0
65, 23.0
66, 23.0
67, 23.0
68, 23.0
69, 23.0
70, 23.0
71, 23.0
72, 23.0
73, 23.0
74, 23.0
75, 23.0
76, 23.0
77, 23.0
78, 23.0
79, 23.0
80, 23.0
81, 23.0
82, 23.0
83, 23.0
84, 23.0
85, 23.0
86, 23.0
87, 23.0
88, 23.0
89, 23.0
90, 23.0
91, 23.0
92, 23.0
93, 23.0
94, 23.0
95, 23.0
96, 23.0
97, 23.0
98, 23.0
99, 23.0
100, 23.0
101, 23.0
102, 23.0
103, 23.0
104, 23.0
105, 23.0
