i, Result
0, 0.0
1, 0.0
2, 0.0
3, 1.0
4, 1.0
5, 2.0
6, 3.0
7, 4.0
8, 5.0
9, 5.0
10, 5.0
11, 5.0
12, 5.0
13, 5.0
14, 5.0
15, 5.0
16, 6.0
17, 6.0
18, 7.0
19, 7.0
20, 7.0
21, 7.0
22, 8.0
23, 8.0
24, 9.0
25, 9.0
26, 9.0
27, 9.0
28, 9.0
29, 10.0
30, 11.0
31, 12.0
32, 13.0
33, 14.0
34, 14.0
35, 15.0
36, 16.0
37, 17.0
38, 18.0
39, 19.0
40, 20.0
41, 21.0
42, 22.0
43, 22.0
44, 23.0
45, 23.0
46, 23.0
47, 24.0
48, 24.0
49, 24.0
50, 25.0
51, 26.0
52, 27.0
53, 28.0
54, 29.0
55, 29.0
56, 30.0
57, 31.0
58, 32.0
59, 32.0
60, 33.0
61, 34.0
62, 34.0
63, 34.0
64, 35.0
65, 35.0
66, 36.0
67, 37.0
68, 37.0
69, 37.0
70, 38.0
71, 39.0
72, 39.0
73, 39.0
74, 39.0
75, 39.0
76, 39.0
77, 39.0
78, 39.0
79, 39.0
80, 39.0
81, 39.0
82, 39.0
83, 39.0
84, 39.0
85, 39.0
86, 39.0
87, 39.0
88, 39.0
89, 39.0
90, 39.0
91, 39.0
92, 39.0
93, 39.0
94, 39.0
95, 39.0
96, 39.0
97, 39.0
98, 39.0
99, 39.0
100, 39.0
101, 39.0
102, 39.0
103, 39.0
104, 39.0
105, 39.0
