i, Result
0, 0.0
1, 0.0
2, 0.0
3, 0.0
4, 0.0
5, 0.0
6, 1.0
7, 2.0
8, 3.0
9, 3.0
10, 4.0
11, 5.0
12, 5.0
13, 5.0
14, 5.0
15, 5.0
16, 6.0
17, 7.0
18, 7.0
19, 7.0
20, 7.0
21, 7.0
22, 7.0
23, 8.0
24, 8.0
25, 9.0
26, 10.0
27, 10.0
28, 10.0
29, 10.0
30, 10.0
31, 11.0
32, 11.0
33, 11.0
34, 11.0
35, 12.0
36, 12.0
37, 12.0
38, 13.0
39, 14.0
40, 15.0
41, 15.0
42, 16.0
43, 17.0
44, 18.0
45, 18.0
46, 18.0
47, 19.0
48, 19.0
49, 19.0
50, 19.0
51, 20.0
52, 20.0
53, 20.0
54, 20.0
55, 20.0
56, 20.0
57, 20.0
58, 20.0
59, 20.0
60, 20.0
61, 20.0
62, 20.0
63, 20.0
64, 20.0
65, 20.0
66, 20.0
67, 20.0
68, 20.0
69, 20.0
70, 20.0
71, 20.0
72, 20.0
73, 20.0
74, 20.0
75, 20.0
76, 20.0
77, 20.0
78, 20.0
79, 20.0
80, 20.0
81, 20.0
82, 20.0
83, 20.0
84, 20.0
85, 20.0
86, 20.0
87, 20.0
88, 20.0
89, 20.0
90, 20.0
91, 20.0
92, 20.0
93, 20.0
94, 20.0
95, 20.0
96, 20.0
97, 20.0
98, 20.0
99, 20.0
100, 20.0
101, 20.0
102, 20.0
103, 20.0
104, 20.0
105, 20.0
