i, Result
0, 0.0
1, 0.0
2, 0.0
3, 0.0
4, 0.0
5, 1.0
6, 1.0
7, 1.0
8, 1.0
9, 2.0
10, 2.0
11, 2.0
12, 3.0
13, 4.0
14, 5.0
15, 6.0
16, 7.0
17, 8.0
18, 8.0
19, 9.0
20, 10.0
21, 11.0
22, 12.0
23, 13.0
24, 14.0
25, 14.0
26, 15.0
27, 15.0
28, 16.0
29, 17.0
30, 17.0
31, 18.0
32, 19.0
33, 20.0
34, 20.0
35, 21.0
36, 22.0
37, 23.0
38, 23.0
39, 24.0
40, 25.0
41, 25.0
42, 25.0
43, 26.0
44, 26.0
45, 26.0
46, 26.0
47, 27.0
48, 27.0
49, 28.0
50, 29.0
51, 29.0
52, 29.0
53, 30.0
54, 31.0
55, 32.0
56, 32.0
57, 32.0
58, 32.0
59, 32.0
60, 33.0
61, 34.0
62, 35.0
63, 36.0
64, 37.0
65, 37.0
66, 37.0
67, 38.0
68, 39.0
69, 39.0
70, 40.0
71, 41.0
72, 41.0
73, 41.0
74, 41.0
75, 41.0
76, 41.0
77, 41.0
78, 41.0
79, 41.0
80, 41.0
81, 41.0
82, 41.0
83, 41.0
84, 41.0
85, 41.0
86, 41.0
87, 41.0
88, 41.0
89, 41.0
90, 41.0
91, 41.0
92, 41.0
93, 41.0
94, 41.0
95, 41.0
96, 41.0
97, 41.0
98, 41.0
99, 41.0
100, 41.0
101, 41.0
102, 41.0
103, 41.0
104, 41.0
105, 41.0
