i, Result
0, 0.0
1, 0.0
2, 0.0
3, 1.0
4, 1.0
5, 2.0
6, 2.0
7, 3.0
8, 4.0
9, 5.0
10, 5.0
11, 6.0
12, 6.0
13, 7.0
14, 8.0
15, 8.0
16, 9.0
17, 9.0
18, 9.0
19, 9.0
20, 9.0
21, 10.0
22, 11.0
23, 11.0
24, 12.0
25, 13.0
26, 13.0
27, 13.0
28, 14.0
29, 14.0
30, 14.0
31, 15.0
32, 15.0
33, 16.0
34, 16.0
35, 16.0
36, 16.0
37, 17.0
38, 18.0
39, 19.0
40, 19.0
41, 20.0
42, 21.0
43, 21.0
44, 21.0
45, 21.0
46, 21.0
47, 22.0
48, 23.0
49, 24.0
50, 25.0
51, 26.0
52, 27.0
53, 28.0
54, 28.0
55, 28.0
56, 28.0
57, 29.0
58, 29.0
59, 30.0
60, 31.0
61, 32.0
62, 33.0
63, 34.0
64, 35.0
65, 36.0
66, 37.0
67, 38.0
68, 39.0
69, 40.0
70, 40.0
71, 41.0
72, 41.0
73, 42.0
74, 43.0
75, 44.0
76, 45.0
77, 45.0
78, 45.0
79, 45.0
80, 45.0
81, 45.0
82, 45.0
83, 45.0
84, 45.0
85, 45.0
86, 45.0
87, 45.0
88, 45.0
89, 45.0
90, 45.0
91, 45.0
92, 45.0
93, 45.0
94, 45.0
95, 45.0
96, 45.0
97, 45.0
98, 45.0
99, 45.0
100, 45.0
101, 45.0
102, 45.0
103, 45.0
104, 45.0
105, 45.0
