i, Result
0, 0.0
1, 0.0
2, 0.0
3, 0.0
4, 1.0
5, 1.0
6, 2.0
7, 2.0
8, 3.0
9, 4.0
10, 5.0
11, 5.0
12, 5.0
13, 5.0
14, 5.0
15, 6.0
16, 7.0
17, 7.0
18, 8.0
19, 8.0
20, 9.0
21, 9.0
22, 10.0
23, 11.0
24, 11.0
25, 12.0
26, 12.0
27, 12.0
28, 12.0
29, 13.0
30, 14.0
31, 15.0
32, 16.0
33, 17.0
34, 18.0
35, 19.0
36, 19.0
37, 19.0
38, 19.0
39, 19.0
40, 20.0
41, 21.0
42, 22.0
43, 23.0
44, 23.0
45, 24.0
46, 25.0
47, 26.0
48, 26.0
49, 27.0
50, 28.0
51, 28.0
52, 29.0
53, 29.0
54, 30.0
55, 31.0
56, 31.0
57, 31.0
58, 32.0
59, 32.0
60, 33.0
61, 33.0
62, 33.0
63, 34.0
64, 34.0
65, 35.0
66, 35.0
67, 35.0
68, 36.0
69, 36.0
70, 37.0
71, 38.0
72, 38.0
73, 38.0
74, 38.0
75, 38.0
76, 38.0
77, 38.0
78, 38.0
79, 38.0
80, 38.0
81, 38.0
82, 38.0
83, 38.0
84, 38.0
85, 38.0
86, 38.0
87, 38.0
88, 38.0
89, 38.0
90, 38.0
91, 38.0
92, 38.0
93, 38.0
94, 38.0
95, 38.0
96, 38.0
97, 38.0
98, 38.0
99, 38.0
100, 38.0
101, 38.0
102, 38.0
103, 38.0
104, 38.0
105, 38.0
