i, Result
0, 0.0
1, 0.0
2, 0.0
3, 0.0
4, 1.0
5, 1.0
6, 1.0
7, 1.0
8, 1.0
9, 1.0
10, 2.0
11, 2.0
12, 2.0
13, 3.0
14, 3.0
15, 3.0
16, 3.0
17, 4.0
18, 4.0
19, 4.0
20, 5.0
21, 6.0
22, 6.0
23, 7.0
24, 7.0
25, 8.0
26, 8.0
27, 8.0
28, 9.0
29, 10.0
30, 10.0
31, 11.0
32, 11.0
33, 11.0
34, 11.0
35, 12.0
36, 12.0
37, 13.0
38, 13.0
39, 14.0
40, 15.0
41, 15.0
42, 16.0
43, 17.0
44, 17.0
45, 18.0
46, 19.0
47, 19.0
48, 19.0
49, 19.0
50, 20.0
51, 20.0
52, 20.0
53, 20.0
54, 20.0
55, 20.0
56, 20.0
57, 21.0
58, 22.0
59, 22.0
60, 23.0
61, 23.0
62, 23.0
63, 23.0
64, 23.0
65, 23.0
66, 23.0
67, 23.0
68, 23.0
69, 23.0
70, 23.0
71, 23.0
72, 23.0
73, 23.0
74, 23.0
75, 23.0
76, 23.0
77, 23.0
78, 23.0
79, 23.0
80, 23.0
81, 23.0
82, 23.0
83, 23.0
84, 23.0
85, 23.0
86, 23.0
87, 23.0
88, 23.0
89, 23.0
90, 23.0
91, 23.0
92, 23.0
93, 23.0
94, 23.0
95, 23.0
96, 23.0
97, 23.0
98, 23.0
99, 23.0
100, 23.0
101, 23.0
102, 23.0
103, 23.0
104, 23.0
105, 23.0
