i, Result
0, 0.0
1, 0.0
2, 0.0
3, 0.0
4, 0.0
5, 0.0
6, 0.0
7, 0.0
8, 1.0
9, 2.0
10, 3.0
11, 4.0
12, 5.0
13, 6.0
14, 7.0
15, 8.0
16, 9.0
17, 10.0
18, 10.0
19, 10.0
20, 11.0
21, 11.0
22, 11.0
23, 12.0
24, 13.0
25, 14.0
26, 15.0
27, 16.0
28, 17.0
29, 18.0
30, 18.0
31, 19.0
32, 20.0
33, 20.0
34, 21.0
35, 22.0
36, 23.0
37, 24.0
38, 25.0
39, 26.0
40, 27.0
41, 27.0
42, 27.0
43, 27.0
44, 27.0
45, 27.0
46, 27.0
47, 27.0
48, 27.0
49, 27.0
50, 28.0
51, 29.0
52, 30.0
53, 30.0
54, 30.0
55, 31.0
56, 31.0
57, 31.0
58, 31.0
59, 32.0
60, 33.0
61, 34.0
62, 35.0
63, 35.0
64, 36.0
65, 36.0
66, 37.0
67, 38.0
68, 39.0
69, 40.0
70, 41.0
71, 41.0
72, 41.0
73, 41.0
74, 41.0
75, 41.0
76, 41.0
77, 41.0
78, 41.0
79, 41.0
80, 41.0
81, 41.0
82, 41.0
83, 41.0
84, 41.0
85, 41.0
86, 41.0
87, 41.0
88, 41.0
89, 41.0
90, 41.0
91, 41.0
92, 41.0
93, 41.0
94, 41.0
95, 41.0
96, 41.0
97, 41.0
98, 41.0
99, 41.0
100, 41.0
101, 41.0
102, 41.0
103, 41.0
104, 41.0
105, 41.0
