i, Result
0, 0.0
1, 0.0
2, 0.0
3, 0.0
4, 0.0
5, 1.0
6, 2.0
7, 2.0
8, 2.0
9, 3.0
10, 3.0
11, 4.0
12, 4.0
13, 4.0
14, 4.0
15, 5.0
16, 6.0
17, 6.0
18, 7.0
19, 8.0
20, 9.0
21, 9.0
22, 10.0
23, 11.0
24, 12.0
25, 12.0
26, 12.0
27, 13.0
28, 14.0
29, 15.0
30, 15.0
31, 16.0
32, 17.0
33, 18.0
34, 18.0
35, 18.0
36, 18.0
37, 18.0
38, 19.0
39, 19.0
40, 20.0
41, 21.0
42, 21.0
43, 22.0
44, 22.0
45, 23.0
46, 23.0
47, 23.0
48, 23.0
49, 24.0
50, 24.0
51, 24.0
52, 24.0
53, 25.0
54, 26.0
55, 27.0
56, 28.0
57, 29.0
58, 30.0
59, 30.0
60, 30.0
61, 31.0
62, 31.0
63, 31.0
64, 32.0
65, 33.0
66, 34.0
67, 35.0
68, 36.0
69, 37.0
70, 37.0
71, 37.0
72, 38.0
73, 38.0
74, 38.0
75, 38.0
76, 38.0
77, 38.0
78, 38.0
79, 38.0
80, 38.0
81, 38.0
82, 38.0
83, 38.0
84, 38.0
85, 38.0
86, 38.0
87, 38.0
88, 38.0
89, 38.0
90, 38.0
91, 38.0
92, 38.0
93, 38.0
94, 38.0
95, 38.0
96, 38.0
97, 38.0
98, 38.0
99, 38.0
100, 38.0
101, 38.0
102, 38.0
103, 38.0
104, 38.0
105, 38.0
