i, Result
0, 0.0
1, 0.0
2, 0.0
3, 1.0
4, 2.0
5, 3.0
6, 4.0
7, 4.0
8, 5.0
9, 6.0
10, 7.0
11, 8.0
12, 9.0
13, 10.0
14, 11.0
15, 11.0
16, 12.0
17, 12.0
18, 12.0
19, 13.0
20, 14.0
21, 15.0
22, 15.0
23, 16.0
24, 17.0
25, 18.0
26, 19.0
27, 19.0
28, 20.0
29, 20.0
30, 21.0
31, 22.0
32, 23.0
33, 24.0
34, 25.0
35, 26.0
36, 26.0
37, 26.0
38, 27.0
39, 27.0
40, 27.0
41, 28.0
42, 29.0
43, 30.0
44, 30.0
45, 31.0
46, 32.0
47, 32.0
48, 33.0
49, 34.0
50, 34.0
51, 34.0
52, 35.0
53, 36.0
54, 37.0
55, 38.0
56, 39.0
57, 40.0
58, 41.0
59, 42.0
60, 43.0
61, 43.0
62, 44.0
63, 44.0
64, 44.0
65, 45.0
66, 46.0
67, 46.0
68, 47.0
69, 48.0
70, 49.0
71, 49.0
72, 49.0
73, 49.0
74, 49.0
75, 49.0
76, 49.0
77, 49.0
78, 49.0
79, 49.0
80, 49.0
81, 49.0
82, 49.0
83, 49.0
84, 49.0
85, 49.0
86, 49.0
87, 49.0
88, 49.0
89, 49.0
90, 49.0
91, 49.0
92, 49.0
93, 49.0
94, 49.0
95, 49.0
96, 49.0
97, 49.0
98, 49.0
99, 49.0
100, 49.0
101, 49.0
102, 49.0
103, 49.0
104, 49.0
105, 49.0
