i, Result
0, 0.0
1, 0.0
2, 0.0
3, 0.0
4, 1.0
5, 1.0
6, 2.0
7, 2.0
8, 2.0
9, 2.0
10, 2.0
11, 2.0
12, 2.0
13, 2.0
14, 3.0
15, 3.0
16, 3.0
17, 4.0
18, 4.0
19, 4.0
20, 4.0
21, 5.0
22, 5.0
23, 6.0
24, 6.0
25, 6.0
26, 6.0
27, 7.0
28, 8.0
29, 8.0
30, 8.0
31, 8.0
32, 9.0
33, 10.0
34, 10.0
35, 11.0
36, 11.0
37, 12.0
38, 13.0
39, 14.0
40, 14.0
41, 15.0
42, 16.0
43, 16.0
44, 16.0
45, 16.0
46, 16.0
47, 17.0
48, 17.0
49, 17.0
50, 17.0
51, 18.0
52, 19.0
53, 20.0
54, 20.0
55, 20.0
56, 20.0
57, 20.0
58, 20.0
59, 20.0
60, 20.0
61, 20.0
62, 20.0
63, 20.0
64, 20.0
65, 20.0
66, 20.0
67, 20.0
68, 20.0
69, 20.0
70, 20.0
71, 20.0
72, 20.0
73, 20.0
74, 20.0
75, 20.0
76, 20.0
77, 20.0
78, 20.0
79, 20.0
80, 20.0
81, 20.0
82, 20.0
83, 20.0
84, 20.0
85, 20.0
86, 20.0
87, 20.0
88, 20.0
89, 20.0
90, 20.0
91, 20.0
92, 20.0
93, 20.0
94, 20.0
95, 20.0
96, 20.0
97, 20.0
98, 20.0
99, 20.0
100, 20.0
101, 20.0
102, 20.0
103, 20.0
104, 20.0
105, 20.0
