i, Result
0, 0.0
1, 0.0
2, 0.0
3, 0.0
4, 1.0
5, 2.0
6, 3.0
7, 3.0
8, 4.0
9, 5.0
10, 6.0
11, 7.0
12, 8.0
13, 9.0
14, 10.0
15, 11.0
16, 12.0
17, 13.0
18, 14.0
19, 14.0
20, 14.0
21, 15.0
22, 15.0
23, 16.0
24, 16.0
25, 16.0
26, 17.0
27, 17.0
28, 18.0
29, 19.0
30, 19.0
31, 20.0
32, 20.0
33, 20.0
34, 21.0
35, 22.0
36, 22.0
37, 22.0
38, 23.0
39, 23.0
40, 24.0
41, 24.0
42, 25.0
43, 25.0
44, 26.0
45, 26.0
46, 26.0
47, 26.0
48, 27.0
49, 27.0
50, 27.0
51, 27.0
52, 28.0
53, 29.0
54, 30.0
55, 31.0
56, 32.0
57, 33.0
58, 34.0
59, 35.0
60, 36.0
61, 36.0
62, 37.0
63, 37.0
64, 38.0
65, 39.0
66, 39.0
67, 40.0
68, 41.0
69, 42.0
70, 42.0
71, 42.0
72, 42.0
73, 42.0
74, 42.0
75, 42.0
76, 42.0
77, 42.0
78, 42.0
79, 42.0
80, 42.0
81, 42.0
82, 42.0
83, 42.0
84, 42.0
85, 42.0
86, 42.0
87, 42.0
88, 42.0
89, 42.0
90, 42.0
91, 42.0
92, 42.0
93, 42.0
94, 42.0
95, 42.0
96, 42.0
97, 42.0
98, 42.0
99, 42.0
100, 42.0
101, 42.0
102, 42.0
103, 42.0
104, 42.0
105, 42.0
