i, Result
0, 0.0
1, 0.0
2, 0.0
3, 1.0
4, 1.0
5, 2.0
6, 2.0
7, 2.0
8, 3.0
9, 4.0
10, 4.0
11, 5.0
12, 6.0
13, 7.0
14, 7.0
15, 7.0
16, 7.0
17, 8.0
18, 8.0
19, 8.0
20, 9.0
21, 10.0
22, 10.0
23, 11.0
24, 12.0
25, 12.0
26, 13.0
27, 13.0
28, 14.0
29, 15.0
30, 15.0
31, 16.0
32, 17.0
33, 17.0
34, 18.0
35, 18.0
36, 19.0
37, 19.0
38, 20.0
39, 21.0
40, 21.0
41, 21.0
42, 22.0
43, 23.0
44, 24.0
45, 24.0
46, 25.0
47, 25.0
48, 26.0
49, 26.0
50, 27.0
51, 27.0
52, 28.0
53, 28.0
54, 28.0
55, 29.0
56, 29.0
57, 29.0
58, 29.0
59, 30.0
60, 31.0
61, 32.0
62, 33.0
63, 33.0
64, 33.0
65, 34.0
66, 34.0
67, 35.0
68, 35.0
69, 36.0
70, 36.0
71, 37.0
72, 38.0
73, 39.0
74, 40.0
75, 41.0
76, 41.0
77, 42.0
78, 42.0
79, 42.0
80, 42.0
81, 42.0
82, 42.0
83, 42.0
84, 42.0
85, 42.0
86, 42.0
87, 42.0
88, 42.0
89, 42.0
90, 42.0
91, 42.0
92, 42.0
93, 42.0
94, 42.0
95, 42.0
96, 42.0
97, 42.0
98, 42.0
99, 42.0
100, 42.0
101, 42.0
102, 42.0
103, 42.0
104, 42.0
105, 42.0
