i, Result
0, 0.0
1, 0.0
2, 0.0
3, 0.0
4, 0.0
5, 0.0
6, 0.0
7, 0.0
8, 0.0
9, 0.0
10, 1.0
11, 2.0
12, 3.0
13, 4.0
14, 4.0
15, 5.0
16, 5.0
17, 5.0
18, 6.0
19, 7.0
20, 8.0
21, 8.0
22, 8.0
23, 8.0
24, 9.0
25, 10.0
26, 10.0
27, 11.0
28, 11.0
29, 12.0
30, 13.0
31, 13.0
32, 13.0
33, 13.0
34, 13.0
35, 13.0
36, 14.0
37, 15.0
38, 15.0
39, 15.0
40, 15.0
41, 16.0
42, 16.0
43, 16.0
44, 17.0
45, 18.0
46, 19.0
47, 19.0
48, 20.0
49, 20.0
50, 20.0
51, 21.0
52, 22.0
53, 22.0
54, 22.0
55, 22.0
56, 23.0
57, 23.0
58, 24.0
59, 24.0
60, 25.0
61, 25.0
62, 25.0
63, 25.0
64, 25.0
65, 25.0
66, 25.0
67, 25.0
68, 25.0
69, 25.0
70, 25.0
71, 25.0
72, 25.0
73, 25.0
74, 25.0
75, 25.0
76, 25.0
77, 25.0
78, 25.0
79, 25.0
80, 25.0
81, 25.0
82, 25.0
83, 25.0
84, 25.0
85, 25.0
86, 25.0
87, 25.0
88, 25.0
89, 25.0
90, 25.0
91, 25.0
92, 25.0
93, 25.0
94, 25.0
95, 25.0
96, 25.0
97, 25.0
98, 25.0
99, 25.0
100, 25.0
101, 25.0
102, 25.0
103, 25.0
104, 25.0
105, 25.0
