i, Result
0, 0.0
1, 0.0
2, 0.0
3, 0.0
4, 0.0
5, 1.0
6, 1.0
7, 1.0
8, 1.0
9, 2.0
10, 2.0
11, 3.0
12, 4.0
13, 5.0
14, 6.0
15, 6.0
16, 6.0
17, 7.0
18, 7.0
19, 8.0
20, 8.0
21, 8.0
22, 9.0
23, 9.0
24, 10.0
25, 10.0
26, 10.0
27, 10.0
28, 11.0
29, 11.0
30, 11.0
31, 12.0
32, 12.0
33, 13.0
34, 14.0
35, 14.0
36, 15.0
37, 15.0
38, 16.0
39, 16.0
40, 16.0
41, 16.0
42, 17.0
43, 18.0
44, 18.0
45, 18.0
46, 19.0
47, 19.0
48, 20.0
49, 21.0
50, 21.0
51, 21.0
52, 21.0
53, 21.0
54, 22.0
55, 22.0
56, 23.0
57, 24.0
58, 25.0
59, 25.0
60, 26.0
61, 26.0
62, 27.0
63, 28.0
64, 28.0
65, 29.0
66, 29.0
67, 29.0
68, 30.0
69, 30.0
70, 31.0
71, 32.0
72, 33.0
73, 33.0
74, 33.0
75, 33.0
76, 33.0
77, 33.0
78, 33.0
79, 33.0
80, 33.0
81, 33.0
82, 33.0
83, 33.0
84, 33.0
85, 33.0
86, 33.0
87, 33.0
88, 33.0
89, 33.0
90, 33.0
91, 33.0
92, 33.0
93, 33.0
94, 33.0
95, 33.0
96, 33.0
97, 33.0
98, 33.0
99, 33.0
100, 33.0
101, 33.0
102, 33.0
103, 33.0
104, 33.0
105, 33.0
