i, Result
0, 0.0
1, 0.0
2, 0.0
3, 0.0
4, 0.0
5, 1.0
6, 1.0
7, 1.0
8, 2.0
9, 2.0
10, 2.0
11, 2.0
12, 2.0
13, 3.0
14, 3.0
15, 4.0
16, 5.0
17, 5.0
18, 6.0
19, 7.0
20, 8.0
21, 9.0
22, 9.0
23, 10.0
24, 11.0
25, 12.0
26, 13.0
27, 14.0
28, 15.0
29, 15.0
30, 15.0
31, 15.0
32, 16.0
33, 17.0
34, 17.0
35, 18.0
36, 18.0
37, 18.0
38, 18.0
39, 19.0
40, 19.0
41, 20.0
42, 21.0
43, 22.0
44, 22.0
45, 23.0
46, 24.0
47, 25.0
48, 26.0
49, 27.0
50, 27.0
51, 27.0
52, 28.0
53, 28.0
54, 28.0
55, 28.0
56, 29.0
57, 30.0
58, 30.0
59, 31.0
60, 31.0
61, 31.0
62, 32.0
63, 32.0
64, 32.0
65, 32.0
66, 32.0
67, 32.0
68, 32.0
69, 32.0
70, 32.0
71, 32.0
72, 32.0
73, 32.0
74, 32.0
75, 32.0
76, 32.0
77, 32.0
78, 32.0
79, 32.0
80, 32.0
81, 32.0
82, 32.0
83, 32.0
84, 32.0
85, 32.0
86, 32.0
87, 32.0
88, 32.0
89, 32.0
90, 32.0
91, 32.0
92, 32.0
93, 32.0
94, 32.0
95, 32.0
96, 32.0
97, 32.0
98, 32.0
99, 32.0
100, 32.0
101, 32.0
102, 32.0
103, 32.0
104, 32.0
105, 32.0
