i, Result
0, 0.0
1, 0.0
2, 0.0
3, 0.0
4, 0.0
5, 0.0
6, 0.0
7, 0.0
8, 0.0
9, 0.0
10, 1.0
11, 1.0
12, 1.0
13, 1.0
14, 2.0
15, 2.0
16, 2.0
17, 2.0
18, 3.0
19, 3.0
20, 3.0
21, 3.0
22, 3.0
23, 4.0
24, 4.0
25, 4.0
26, 4.0
27, 4.0
28, 4.0
29, 5.0
30, 5.0
31, 6.0
32, 6.0
33, 7.0
34, 8.0
35, 9.0
36, 10.0
37, 10.0
38, 10.0
39, 11.0
40, 11.0
41, 11.0
42, 12.0
43, 13.0
44, 13.0
45, 13.0
46, 13.0
47, 13.0
48, 13.0
49, 14.0
50, 15.0
51, 16.0
52, 16.0
53, 17.0
54, 18.0
55, 18.0
56, 18.0
57, 18.0
58, 18.0
59, 18.0
60, 18.0
61, 19.0
62, 20.0
63, 21.0
64, 21.0
65, 21.0
66, 21.0
67, 21.0
68, 21.0
69, 21.0
70, 21.0
71, 21.0
72, 21.0
73, 21.0
74, 21.0
75, 21.0
76, 21.0
77, 21.0
78, 21.0
79, 21.0
80, 21.0
81, 21.0
82, 21.0
83, 21.0
84, 21.0
85, 21.0
86, 21.0
87, 21.0
88, 21.0
89, 21.0
90, 21.0
91, 21.0
92, 21.0
93, 21.0
94, 21.0
95, 21.0
96, 21.0
97, 21.0
98, 21.0
99, 21.0
100, 21.0
101, 21.0
102, 21.0
103, 21.0
104, 21.0
105, 21.0
