i, Result
0, 0.0
1, 0.0
2, 0.0
3, 1.0
4, 1.0
5, 2.0
6, 3.0
7, 3.0
8, 3.0
9, 4.0
10, 5.0
11, 6.0
12, 7.0
13, 8.0
14, 8.0
15, 9.0
16, 9.0
17, 10.0
18, 10.0
19, 10.0
20, 11.0
21, 11.0
22, 12.0
23, 12.0
24, 12.0
25, 12.0
26, 12.0
27, 12.0
28, 13.0
29, 14.0
30, 15.0
31, 16.0
32, 17.0
33, 18.0
34, 18.0
35, 18.0
36, 19.0
37, 19.0
38, 19.0
39, 20.0
40, 20.0
41, 21.0
42, 21.0
43, 22.0
44, 22.0
45, 22.0
46, 22.0
47, 22.0
48, 23.0
49, 24.0
50, 25.0
51, 26.0
52, 27.0
53, 27.0
54, 27.0
55, 27.0
56, 27.0
57, 28.0
58, 28.0
59, 29.0
60, 29.0
61, 30.0
62, 30.0
63, 31.0
64, 31.0
65, 31.0
66, 32.0
67, 33.0
68, 33.0
69, 33.0
70, 33.0
71, 33.0
72, 33.0
73, 33.0
74, 33.0
75, 33.0
76, 33.0
77, 33.0
78, 33.0
79, 33.0
80, 33.0
81, 33.0
82, 33.0
83, 33.0
84, 33.0
85, 33.0
86, 33.0
87, 33.0
88, 33.0
89, 33.0
90, 33.0
91, 33.0
92, 33.0
93, 33.0
94, 33.0
95, 33.0
96, 33.0
97, 33.0
98, 33.0
99, 33.0
100, 33.0
101, 33.0
102, 33.0
103, 33.0
104, 33.0
105, 33.0
