i, Result
0, 0.0
1, 0.0
2, 0.0
3, 0.0
4, 0.0
5, 0.0
6, 1.0
7, 1.0
8, 2.0
9, 3.0
10, 3.0
11, 3.0
12, 4.0
13, 4.0
14, 4.0
15, 5.0
16, 6.0
17, 7.0
18, 7.0
19, 8.0
20, 8.0
21, 9.0
22, 9.0
23, 9.0
24, 9.0
25, 10.0
26, 11.0
27, 12.0
28, 13.0
29, 13.0
30, 13.0
31, 14.0
32, 15.0
33, 16.0
34, 17.0
35, 18.0
36, 18.0
37, 18.0
38, 18.0
39, 18.0
40, 19.0
41, 19.0
42, 19.0
43, 19.0
44, 19.0
45, 19.0
46, 19.0
47, 19.0
48, 20.0
49, 21.0
50, 21.0
51, 22.0
52, 22.0
53, 22.0
54, 22.0
55, 22.0
56, 22.0
57, 22.0
58, 23.0
59, 23.0
60, 24.0
61, 25.0
62, 26.0
63, 26.0
64, 27.0
65, 28.0
66, 29.0
67, 30.0
68, 31.0
69, 31.0
70, 32.0
71, 32.0
72, 32.0
73, 32.0
74, 32.0
75, 32.0
76, 32.0
77, 32.0
78, 32.0
79, 32.0
80, 32.0
81, 32.0
82, 32.0
83, 32.0
84, 32.0
85, 32.0
86, 32.0
87, 32.0
88, 32.0
89, 32.0
90, 32.0
91, 32.0
92, 32.0
93, 32.0
94, 32.0
95, 32.0
96, 32.0
97, 32.0
98, 32.0
99, 32.0
100, 32.0
101, 32.0
102, 32.0
103, 32.0
104, 32.0
105, 32.0
