i, Result
0, 0.0
1, 0.0
2, 0.0
3, 1.0
4, 1.0
5, 1.0
6, 1.0
7, 2.0
8, 2.0
9, 3.0
10, 4.0
11, 4.0
12, 4.0
13, 5.0
14, 6.0
15, 7.0
16, 7.0
17, 7.0
18, 7.0
19, 7.0
20, 7.0
21, 8.0
22, 9.0
23, 9.0
24, 9.0
25, 10.0
26, 11.0
27, 12.0
28, 12.0
29, 13.0
30, 14.0
31, 14.0
32, 14.0
33, 14.0
34, 15.0
35, 15.0
36, 16.0
37, 16.0
38, 16.0
39, 17.0
40, 17.0
41, 17.0
42, 18.0
43, 19.0
44, 20.0
45, 20.0
46, 21.0
47, 21.0
48, 22.0
49, 23.0
50, 23.0
51, 23.0
52, 23.0
53, 24.0
54, 24.0
55, 24.0
56, 25.0
57, 26.0
58, 27.0
59, 27.0
60, 27.0
61, 28.0
62, 29.0
63, 30.0
64, 30.0
65, 31.0
66, 31.0
67, 32.0
68, 33.0
69, 33.0
70, 34.0
71, 35.0
72, 35.0
73, 35.0
74, 35.0
75, 35.0
76, 35.0
77, 35.0
78, 35.0
79, 35.0
80, 35.0
81, 35.0
82, 35.0
83, 35.0
84, 35.0
85, 35.0
86, 35.0
87, 35.0
88, 35.0
89, 35.0
90, 35.0
91, 35.0
92, 35.0
93, 35.0
94, 35.0
95, 35.0
96, 35.0
97, 35.0
98, 35.0
99, 35.0
100, 35.0
101, 35.0
102, 35.0
103, 35.0
104, 35.0
105, 35.0
