i, Result
0, 0.0
1, 0.0
2, 0.0
3, 1.0
4, 2.0
5, 3.0
6, 4.0
7, 5.0
8, 6.0
9, 6.0
10, 7.0
11, 7.0
12, 7.0
13, 8.0
14, 9.0
15, 10.0
16, 11.0
17, 11.0
18, 11.0
19, 12.0
20, 13.0
21, 14.0
22, 15.0
23, 16.0
24, 17.0
25, 17.0
26, 18.0
27, 19.0
28, 19.0
29, 20.0
30, 21.0
31, 21.0
32, 22.0
33, 22.0
34, 22.0
35, 23.0
36, 23.0
37, 23.0
38, 23.0
39, 23.0
40, 24.0
41, 24.0
42, 25.0
43, 26.0
44, 27.0
45, 28.0
46, 28.0
47, 28.0
48, 28.0
49, 29.0
50, 29.0
51, 30.0
52, 31.0
53, 31.0
54, 32.0
55, 33.0
56, 33.0
57, 34.0
58, 34.0
59, 34.0
60, 34.0
61, 35.0
62, 35.0
63, 35.0
64, 35.0
65, 35.0
66, 35.0
67, 35.0
68, 35.0
69, 35.0
70, 35.0
71, 35.0
72, 35.0
73, 35.0
74, 35.0
75, 35.0
76, 35.0
77, 35.0
78, 35.0
79, 35.0
80, 35.0
81, 35.0
82, 35.0
83, 35.0
84, 35.0
85, 35.0
86, 35.0
87, 35.0
88, 35.0
89, 35.0
90, 35.0
91, 35.0
92, 35.0
93, 35.0
94, 35.0
95, 35.0
96, 35.0
97, 35.0
98, 35.0
99, 35.0
100, 35.0
101, 35.0
102, 35.0
103, 35.0
104, 35.0
105, 35.0
