i, Result
0, 0.0
1, 0.0
2, 0.0
3, 1.0
4, 2.0
5, 2.0
6, 2.0
7, 2.0
8, 2.0
9, 2.0
10, 2.0
11, 2.0
12, 3.0
13, 3.0
14, 4.0
15, 5.0
16, 5.0
17, 6.0
18, 6.0
19, 7.0
20, 8.0
21, 9.0
22, 9.0
23, 10.0
24, 10.0
25, 10.0
26, 10.0
27, 10.0
28, 10.0
29, 10.0
30, 11.0
31, 12.0
32, 13.0
33, 14.0
34, 15.0
35, 15.0
36, 15.0
37, 15.0
38, 15.0
39, 16.0
40, 17.0
41, 17.0
42, 17.0
43, 18.0
44, 19.0
45, 20.0
46, 20.0
47, 20.0
48, 21.0
49, 22.0
50, 23.0
51, 24.0
52, 24.0
53, 24.0
54, 24.0
55, 24.0
56, 24.0
57, 25.0
58, 25.0
59, 25.0
60, 25.0
61, 26.0
62, 27.0
63, 28.0
64, 28.0
65, 28.0
66, 28.0
67, 28.0
68, 28.0
69, 28.0
70, 28.0
71, 28.0
72, 28.0
73, 28.0
74, 28.0
75, 28.0
76, 28.0
77, 28.0
78, 28.0
79, 28.0
80, 28.0
81, 28.0
82, 28.0
83, 28.0
84, 28.0
85, 28.0
86, 28.0
87, 28.0
88, 28.0
89, 28.0
90, 28.0
91, 28.0
92, 28.0
93, 28.0
94, 28.0
95, 28.0
96, 28.0
97, 28.0
98, 28.0
99, 28.0
100, 28.0
101, 28.0
102, 28.0
103, 28.0
104, 28.0
105, 28.0
