i, Result
0, 0.0
1, 0.0
2, 0.0
3, 0.0
4, 0.0
5, 0.0
6, 1.0
7, 2.0
8, 2.0
9, 3.0
10, 3.0
11, 4.0
12, 5.0
13, 6.0
14, 7.0
15, 7.0
16, 8.0
17, 8.0
18, 9.0
19, 10.0
20, 11.0
21, 11.0
22, 11.0
23, 12.0
24, 12.0
25, 13.0
26, 14.0
27, 15.0
28, 16.0
29, 17.0
30, 18.0
31, 19.0
32, 20.0
33, 21.0
34, 21.0
35, 21.0
36, 22.0
37, 22.0
38, 22.0
39, 23.0
40, 23.0
41, 23.0
42, 23.0
43, 23.0
44, 24.0
45, 24.0
46, 25.0
47, 25.0
48, 26.0
49, 27.0
50, 28.0
51, 29.0
52, 29.0
53, 29.0
54, 29.0
55, 29.0
56, 30.0
57, 31.0
58, 31.0
59, 31.0
60, 32.0
61, 32.0
62, 32.0
63, 32.0
64, 32.0
65, 32.0
66, 32.0
67, 32.0
68, 32.0
69, 32.0
70, 32.0
71, 32.0
72, 32.0
73, 32.0
74, 32.0
75, 32.0
76, 32.0
77, 32.0
78, 32.0
79, 32.0
80, 32.0
81, 32.0
82, 32.0
83, 32.0
84, 32.0
85, 32.0
86, 32.0
87, 32.0
88, 32.0
89, 32.0
90, 32.0
91, 32.0
92, 32.0
93, 32.0
94, 32.0
95, 32.0
96, 32.0
97, 32.0
98, 32.0
99, 32.0
100, 32.0
101, 32.0
102, 32.0
103, 32.0
104, 32.0
105, 32.0
