i, Result
0, 0.0
1, 0.0
2, 0.0
3, 0.0
4, 1.0
5, 2.0
6, 2.0
7, 3.0
8, 4.0
9, 5.0
10, 6.0
11, 7.0
12, 8.0
13, 8.0
14, 8.0
15, 9.0
16, 9.0
17, 10.0
18, 11.0
19, 12.0
20, 12.0
21, 13.0
22, 13.0
23, 13.0
24, 13.0
25, 14.0
26, 15.0
27, 15.0
28, 15.0
29, 15.0
30, 16.0
31, 16.0
32, 17.0
33, 17.0
34, 18.0
35, 19.0
36, 19.0
37, 19.0
38, 20.0
39, 21.0
40, 22.0
41, 22.0
42, 22.0
43, 22.0
44, 23.0
45, 24.0
46, 24.0
47, 25.0
48, 25.0
49, 25.0
50, 25.0
51, 26.0
52, 27.0
53, 27.0
54, 27.0
55, 27.0
56, 27.0
57, 27.0
58, 27.0
59, 28.0
60, 29.0
61, 29.0
62, 30.0
63, 30.0
64, 30.0
65, 30.0
66, 30.0
67, 30.0
68, 30.0
69, 30.0
70, 30.0
71, 30.0
72, 30.0
73, 30.0
74, 30.0
75, 30.0
76, 30.0
77, 30.0
78, 30.0
79, 30.0
80, 30.0
81, 30.0
82, 30.0
83, 30.0
84, 30.0
85, 30.0
86, 30.0
87, 30.0
88, 30.0
89, 30.0
90, 30.0
91, 30.0
92, 30.0
93, 30.0
94, 30.0
95, 30.0
96, 30.0
97, 30.0
98, 30.0
99, 30.0
100, 30.0
101, 30.0
102, 30.0
103, 30.0
104, 30.0
105, 30.0
