i, Result
0, 0.0
1, 0.0
2, 0.0
3, 0.0
4, 0.0
5, 1.0
6, 1.0
7, 2.0
8, 3.0
9, 3.0
10, 3.0
11, 3.0
12, 3.0
13, 3.0
14, 4.0
15, 4.0
16, 5.0
17, 6.0
18, 7.0
19, 7.0
20, 8.0
21, 8.0
22, 8.0
23, 9.0
24, 10.0
25, 11.0
26, 12.0
27, 12.0
28, 12.0
29, 13.0
30, 14.0
31, 15.0
32, 15.0
33, 16.0
34, 17.0
35, 18.0
36, 18.0
37, 18.0
38, 19.0
39, 20.0
40, 21.0
41, 21.0
42, 21.0
43, 22.0
44, 22.0
45, 23.0
46, 23.0
47, 24.0
48, 24.0
49, 24.0
50, 25.0
51, 26.0
52, 27.0
53, 28.0
54, 28.0
55, 28.0
56, 29.0
57, 29.0
58, 29.0
59, 29.0
60, 29.0
61, 29.0
62, 29.0
63, 29.0
64, 29.0
65, 29.0
66, 29.0
67, 29.0
68, 29.0
69, 29.0
70, 29.0
71, 29.0
72, 29.0
73, 29.0
74, 29.0
75, 29.0
76, 29.0
77, 29.0
78, 29.0
79, 29.0
80, 29.0
81, 29.0
82, 29.0
83, 29.0
84, 29.0
85, 29.0
86, 29.0
87, 29.0
88, 29.0
89, 29.0
90, 29.0
91, 29.0
92, 29.0
93, 29.0
94, 29.0
95, 29.0
96, 29.0
97, 29.0
98, 29.0
99, 29.0
100, 29.0
101, 29.0
102, 29.0
103, 29.0
104, 29.0
105, 29.0
