i, Result
0, 0.0
1, 0.0
2, 0.0
3, 1.0
4, 2.0
5, 2.0
6, 3.0
7, 4.0
8, 5.0
9, 5.0
10, 6.0
11, 6.0
12, 7.0
13, 7.0
14, 8.0
15, 8.0
16, 8.0
17, 9.0
18, 9.0
19, 10.0
20, 10.0
21, 10.0
22, 10.0
23, 11.0
24, 12.0
25, 13.0
26, 14.0
27, 15.0
28, 16.0
29, 17.0
30, 17.0
31, 17.0
32, 18.0
33, 18.0
34, 18.0
35, 18.0
36, 18.0
37, 18.0
38, 19.0
39, 19.0
40, 20.0
41, 20.0
42, 20.0
43, 20.0
44, 20.0
45, 21.0
46, 21.0
47, 22.0
48, 22.0
49, 22.0
50, 22.0
51, 23.0
52, 24.0
53, 25.0
54, 26.0
55, 26.0
56, 27.0
57, 28.0
58, 29.0
59, 30.0
60, 30.0
61, 31.0
62, 32.0
63, 32.0
64, 32.0
65, 33.0
66, 34.0
67, 35.0
68, 36.0
69, 37.0
70, 37.0
71, 38.0
72, 38.0
73, 38.0
74, 38.0
75, 38.0
76, 38.0
77, 38.0
78, 38.0
79, 38.0
80, 38.0
81, 38.0
82, 38.0
83, 38.0
84, 38.0
85, 38.0
86, 38.0
87, 38.0
88, 38.0
89, 38.0
90, 38.0
91, 38.0
92, 38.0
93, 38.0
94, 38.0
95, 38.0
96, 38.0
97, 38.0
98, 38.0
99, 38.0
100, 38.0
101, 38.0
102, 38.0
103, 38.0
104, 38.0
105, 38.0
