i, Result
0, 0.0
1, 0.0
2, 0.0
3, 0.0
4, 0.0
5, 0.0
6, 0.0
7, 1.0
8, 2.0
9, 2.0
10, 2.0
11, 2.0
12, 2.0
13, 2.0
14, 3.0
15, 3.0
16, 4.0
17, 5.0
18, 6.0
19, 7.0
20, 7.0
21, 8.0
22, 8.0
23, 8.0
24, 8.0
25, 8.0
26, 9.0
27, 10.0
28, 10.0
29, 11.0
30, 12.0
31, 13.0
32, 13.0
33, 14.0
34, 15.0
35, 15.0
36, 15.0
37, 15.0
38, 15.0
39, 16.0
40, 17.0
41, 18.0
42, 19.0
43, 20.0
44, 20.0
45, 20.0
46, 21.0
47, 21.0
48, 21.0
49, 21.0
50, 22.0
51, 22.0
52, 22.0
53, 22.0
54, 22.0
55, 22.0
56, 22.0
57, 22.0
58, 22.0
59, 22.0
60, 22.0
61, 22.0
62, 22.0
63, 22.0
64, 22.0
65, 22.0
66, 22.0
67, 22.0
68, 22.0
69, 22.0
70, 22.0
71, 22.0
72, 22.0
73, 22.0
74, 22.0
75, 22.0
76, 22.0
77, 22.0
78, 22.0
79, 22.0
80, 22.0
81, 22.0
82, 22.0
83, 22.0
84, 22.0
85, 22.0
86, 22.0
87, 22.0
88, 22.0
89, 22.0
90, 22.0
91, 22.0
92, 22.0
93, 22.0
94, 22.0
95, 22.0
96, 22.0
97, 22.0
98, 22.0
99, 22.0
100, 22.0
101, 22.0
102, 22.0
103, 22.0
104, 22.0
105, 22.0
