i, Result
0, 0.0
1, 0.0
2, 0.0
3, 1.0
4, 1.0
5, 2.0
6, 2.0
7, 3.0
8, 3.0
9, 3.0
10, 3.0
11, 4.0
12, 4.0
13, 4.0
14, 5.0
15, 5.0
16, 5.0
17, 5.0
18, 5.0
19, 5.0
20, 5.0
21, 6.0
22, 7.0
23, 7.0
24, 8.0
25, 8.0
26, 9.0
27, 10.0
28, 11.0
29, 11.0
30, 12.0
31, 13.0
32, 13.0
33, 14.0
34, 15.0
35, 15.0
36, 16.0
37, 16.0
38, 17.0
39, 18.0
40, 18.0
41, 19.0
42, 20.0
43, 20.0
44, 21.0
45, 21.0
46, 21.0
47, 21.0
48, 21.0
49, 21.0
50, 22.0
51, 22.0
52, 22.0
53, 23.0
54, 23.0
55, 23.0
56, 24.0
57, 24.0
58, 24.0
59, 25.0
60, 25.0
61, 25.0
62, 25.0
63, 25.0
64, 25.0
65, 25.0
66, 25.0
67, 25.0
68, 25.0
69, 25.0
70, 25.0
71, 25.0
72, 25.0
73, 25.0
74, 25.0
75, 25.0
76, 25.0
77, 25.0
78, 25.0
79, 25.0
80, 25.0
81, 25.0
82, 25.0
83, 25.0
84, 25.0
85, 25.0
86, 25.0
87, 25.0
88, 25.0
89, 25.0
90, 25.0
91, 25.0
92, 25.0
93, 25.0
94, 25.0
95, 25.0
96, 25.0
97, 25.0
98, 25.0
99, 25.0
100, 25.0
101, 25.0
102, 25.0
103, 25.0
104, 25.0
105, 25.0
