i, Result
0, 0.0
1, 0.0
2, 0.0
3, 1.0
4, 1.0
5, 2.0
6, 2.0
7, 2.0
8, 2.0
9, 2.0
10, 3.0
11, 3.0
12, 4.0
13, 5.0
14, 6.0
15, 7.0
16, 8.0
17, 9.0
18, 9.0
19, 10.0
20, 11.0
21, 11.0
22, 11.0
23, 11.0
24, 12.0
25, 13.0
26, 13.0
27, 14.0
28, 15.0
29, 15.0
30, 16.0
31, 16.0
32, 16.0
33, 16.0
34, 17.0
35, 17.0
36, 17.0
37, 17.0
38, 17.0
39, 18.0
40, 19.0
41, 19.0
42, 19.0
43, 20.0
44, 20.0
45, 21.0
46, 21.0
47, 21.0
48, 22.0
49, 23.0
50, 23.0
51, 23.0
52, 23.0
53, 24.0
54, 25.0
55, 26.0
56, 27.0
57, 27.0
58, 28.0
59, 28.0
60, 29.0
61, 30.0
62, 31.0
63, 31.0
64, 32.0
65, 33.0
66, 33.0
67, 33.0
68, 34.0
69, 35.0
70, 35.0
71, 36.0
72, 37.0
73, 37.0
74, 37.0
75, 37.0
76, 37.0
77, 37.0
78, 37.0
79, 37.0
80, 37.0
81, 37.0
82, 37.0
83, 37.0
84, 37.0
85, 37.0
86, 37.0
87, 37.0
88, 37.0
89, 37.0
90, 37.0
91, 37.0
92, 37.0
93, 37.0
94, 37.0
95, 37.0
96, 37.0
97, 37.0
98, 37.0
99, 37.0
100, 37.0
101, 37.0
102, 37.0
103, 37.0
104, 37.0
105, 37.0
