i, Result
0, 0.0
1, 0.0
2, 0.0
3, 1.0
4, 1.0
5, 2.0
6, 2.0
7, 2.0
8, 2.0
9, 2.0
10, 2.0
11, 3.0
12, 3.0
13, 4.0
14, 4.0
15, 5.0
16, 6.0
17, 7.0
18, 8.0
19, 8.0
20, 9.0
21, 9.0
22, 10.0
23, 10.0
24, 10.0
25, 10.0
26, 10.0
27, 11.0
28, 12.0
29, 13.0
30, 14.0
31, 15.0
32, 15.0
33, 15.0
34, 16.0
35, 17.0
36, 18.0
37, 18.0
38, 19.0
39, 19.0
40, 19.0
41, 19.0
42, 19.0
43, 20.0
44, 20.0
45, 21.0
46, 22.0
47, 23.0
48, 23.0
49, 24.0
50, 24.0
51, 24.0
52, 24.0
53, 25.0
54, 25.0
55, 25.0
56, 25.0
57, 26.0
58, 26.0
59, 27.0
60, 27.0
61, 27.0
62, 28.0
63, 28.0
64, 29.0
65, 29.0
66, 30.0
67, 31.0
68, 31.0
69, 31.0
70, 31.0
71, 32.0
72, 33.0
73, 34.0
74, 34.0
75, 34.0
76, 34.0
77, 34.0
78, 34.0
79, 34.0
80, 34.0
81, 34.0
82, 34.0
83, 34.0
84, 34.0
85, 34.0
86, 34.0
87, 34.0
88, 34.0
89, 34.0
90, 34.0
91, 34.0
92, 34.0
93, 34.0
94, 34.0
95, 34.0
96, 34.0
97, 34.0
98, 34.0
99, 34.0
100, 34.0
101, 34.0
102, 34.0
103, 34.0
104, 34.0
105, 34.0
