i, Result
0, 0.0
1, 0.0
2, 0.0
3, 0.0
4, 0.0
5, 0.0
6, 0.0
7, 1.0
8, 2.0
9, 3.0
10, 4.0
11, 5.0
12, 5.0
13, 5.0
14, 6.0
15, 7.0
16, 8.0
17, 8.0
18, 9.0
19, 10.0
20, 10.0
21, 11.0
22, 12.0
23, 13.0
24, 13.0
25, 14.0
26, 15.0
27, 16.0
28, 17.0
29, 18.0
30, 19.0
31, 19.0
32, 20.0
33, 21.0
34, 22.0
35, 22.0
36, 23.0
37, 24.0
38, 24.0
39, 24.0
40, 25.0
41, 26.0
42, 26.0
43, 27.0
44, 28.0
45, 28.0
46, 28.0
47, 28.0
48, 28.0
49, 29.0
50, 30.0
51, 30.0
52, 30.0
53, 30.0
54, 31.0
55, 32.0
56, 32.0
57, 32.0
58, 32.0
59, 33.0
60, 34.0
61, 35.0
62, 35.0
63, 36.0
64, 37.0
65, 37.0
66, 37.0
67, 37.0
68, 37.0
69, 37.0
70, 37.0
71, 37.0
72, 37.0
73, 37.0
74, 37.0
75, 37.0
76, 37.0
77, 37.0
78, 37.0
79, 37.0
80, 37.0
81, 37.0
82, 37.0
83, 37.0
84, 37.0
85, 37.0
86, 37.0
87, 37.0
88, 37.0
89, 37.0
90, 37.0
91, 37.0
92, 37.0
93, 37.0
94, 37.0
95, 37.0
96, 37.0
97, 37.0
98, 37.0
99, 37.0
100, 37.0
101, 37.0
102, 37.0
103, 37.0
104, 37.0
105, 37.0
