i, Result
0, 0.0
1, 0.0
2, 0.0
3, 0.0
4, 0.0
5, 0.0
6, 1.0
7, 1.0
8, 2.0
9, 3.0
10, 3.0
11, 4.0
12, 4.0
13, 5.0
14, 6.0
15, 6.0
16, 6.0
17, 7.0
18, 8.0
19, 9.0
20, 10.0
21, 10.0
22, 11.0
23, 11.0
24, 11.0
25, 12.0
26, 12.0
27, 13.0
28, 14.0
29, 15.0
30, 15.0
31, 15.0
32, 15.0
33, 16.0
34, 17.0
35, 17.0
36, 18.0
37, 18.0
38, 19.0
39, 20.0
40, 21.0
41, 22.0
42, 23.0
43, 24.0
44, 24.0
45, 24.0
46, 25.0
47, 25.0
48, 25.0
49, 25.0
50, 26.0
51, 27.0
52, 27.0
53, 28.0
54, 29.0
55, 30.0
56, 31.0
57, 32.0
58, 32.0
59, 33.0
60, 34.0
61, 34.0
62, 34.0
63, 34.0
64, 35.0
65, 35.0
66, 36.0
67, 36.0
68, 36.0
69, 36.0
70, 37.0
71, 37.0
72, 37.0
73, 37.0
74, 37.0
75, 37.0
76, 37.0
77, 37.0
78, 37.0
79, 37.0
80, 37.0
81, 37.0
82, 37.0
83, 37.0
84, 37.0
85, 37.0
86, 37.0
87, 37.0
88, 37.0
89, 37.0
90, 37.0
91, 37.0
92, 37.0
93, 37.0
94, 37.0
95, 37.0
96, 37.0
97, 37.0
98, 37.0
99, 37.0
100, 37.0
101, 37.0
102, 37.0
103, 37.0
104, 37.0
105, 37.0
