i, Result
0, 0.0
1, 0.0
2, 0.0
3, 1.0
4, 1.0
5, 1.0
6, 1.0
7, 2.0
8, 3.0
9, 3.0
10, 4.0
11, 5.0
12, 6.0
13, 6.0
14, 6.0
15, 7.0
16, 7.0
17, 8.0
18, 9.0
19, 10.0
20, 11.0
21, 12.0
22, 13.0
23, 14.0
24, 15.0
25, 16.0
26, 17.0
27, 18.0
28, 19.0
29, 19.0
30, 19.0
31, 20.0
32, 20.0
33, 21.0
34, 22.0
35, 22.0
36, 22.0
37, 22.0
38, 22.0
39, 22.0
40, 22.0
41, 22.0
42, 23.0
43, 24.0
44, 24.0
45, 24.0
46, 24.0
47, 24.0
48, 25.0
49, 25.0
50, 26.0
51, 26.0
52, 27.0
53, 28.0
54, 28.0
55, 29.0
56, 29.0
57, 29.0
58, 29.0
59, 29.0
60, 30.0
61, 30.0
62, 30.0
63, 31.0
64, 31.0
65, 31.0
66, 31.0
67, 31.0
68, 31.0
69, 31.0
70, 31.0
71, 31.0
72, 31.0
73, 31.0
74, 31.0
75, 31.0
76, 31.0
77, 31.0
78, 31.0
79, 31.0
80, 31.0
81, 31.0
82, 31.0
83, 31.0
84, 31.0
85, 31.0
86, 31.0
87, 31.0
88, 31.0
89, 31.0
90, 31.0
91, 31.0
92, 31.0
93, 31.0
94, 31.0
95, 31.0
96, 31.0
97, 31.0
98, 31.0
99, 31.0
100, 31.0
101, 31.0
102, 31.0
103, 31.0
104, 31.0
105, 31.0
