i, Result
0, 0.0
1, 0.0
2, 0.0
3, 0.0
4, 0.0
5, 1.0
6, 2.0
7, 2.0
8, 2.0
9, 3.0
10, 4.0
11, 5.0
12, 6.0
13, 7.0
14, 8.0
15, 8.0
16, 9.0
17, 10.0
18, 10.0
19, 10.0
20, 11.0
21, 12.0
22, 13.0
23, 13.0
24, 14.0
25, 14.0
26, 15.0
27, 15.0
28, 15.0
29, 16.0
30, 16.0
31, 17.0
32, 17.0
33, 17.0
34, 18.0
35, 18.0
36, 18.0
37, 19.0
38, 19.0
39, 19.0
40, 19.0
41, 19.0
42, 20.0
43, 20.0
44, 20.0
45, 21.0
46, 22.0
47, 22.0
48, 22.0
49, 22.0
50, 23.0
51, 23.0
52, 23.0
53, 23.0
54, 23.0
55, 24.0
56, 25.0
57, 25.0
58, 26.0
59, 27.0
60, 28.0
61, 29.0
62, 29.0
63, 30.0
64, 31.0
65, 31.0
66, 32.0
67, 32.0
68, 32.0
69, 32.0
70, 32.0
71, 32.0
72, 32.0
73, 32.0
74, 32.0
75, 32.0
76, 32.0
77, 32.0
78, 32.0
79, 32.0
80, 32.0
81, 32.0
82, 32.0
83, 32.0
84, 32.0
85, 32.0
86, 32.0
87, 32.0
88, 32.0
89, 32.0
90, 32.0
91, 32.0
92, 32.0
93, 32.0
94, 32.0
95, 32.0
96, 32.0
97, 32.0
98, 32.0
99, 32.0
100, 32.0
101, 32.0
102, 32.0
103, 32.0
104, 32.0
105, 32.0
