i, Result
0, 0.0
1, 0.0
2, 0.0
3, 1.0
4, 1.0
5, 2.0
6, 3.0
7, 4.0
8, 5.0
9, 5.0
10, 6.0
11, 7.0
12, 8.0
13, 8.0
14, 9.0
15, 9.0
16, 10.0
17, 10.0
18, 10.0
19, 10.0
20, 10.0
21, 11.0
22, 12.0
23, 12.0
24, 13.0
25, 14.0
26, 15.0
27, 16.0
28, 17.0
29, 18.0
30, 19.0
31, 20.0
32, 20.0
33, 21.0
34, 22.0
35, 22.0
36, 23.0
37, 23.0
38, 24.0
39, 24.0
40, 24.0
41, 25.0
42, 26.0
43, 27.0
44, 28.0
45, 29.0
46, 30.0
47, 30.0
48, 31.0
49, 32.0
50, 33.0
51, 34.0
52, 35.0
53, 35.0
54, 35.0
55, 36.0
56, 37.0
57, 37.0
58, 37.0
59, 38.0
60, 39.0
61, 39.0
62, 40.0
63, 41.0
64, 41.0
65, 42.0
66, 43.0
67, 44.0
68, 44.0
69, 45.0
70, 46.0
71, 47.0
72, 47.0
73, 47.0
74, 47.0
75, 47.0
76, 47.0
77, 47.0
78, 47.0
79, 47.0
80, 47.0
81, 47.0
82, 47.0
83, 47.0
84, 47.0
85, 47.0
86, 47.0
87, 47.0
88, 47.0
89, 47.0
90, 47.0
91, 47.0
92, 47.0
93, 47.0
94, 47.0
95, 47.0
96, 47.0
97, 47.0
98, 47.0
99, 47.0
100, 47.0
101, 47.0
102, 47.0
103, 47.0
104, 47.0
105, 47.0
