i, Result
0, 0.0
1, 0.0
2, 0.0
3, 1.0
4, 1.0
5, 2.0
6, 2.0
7, 2.0
8, 3.0
9, 3.0
10, 4.0
11, 4.0
12, 4.0
13, 4.0
14, 4.0
15, 4.0
16, 4.0
17, 5.0
18, 5.0
19, 5.0
20, 5.0
21, 6.0
22, 7.0
23, 7.0
24, 7.0
25, 7.0
26, 7.0
27, 8.0
28, 8.0
29, 8.0
30, 8.0
31, 9.0
32, 9.0
33, 9.0
34, 10.0
35, 10.0
36, 10.0
37, 11.0
38, 11.0
39, 12.0
40, 12.0
41, 13.0
42, 13.0
43, 13.0
44, 13.0
45, 13.0
46, 14.0
47, 15.0
48, 16.0
49, 16.0
50, 16.0
51, 17.0
52, 18.0
53, 19.0
54, 19.0
55, 19.0
56, 19.0
57, 20.0
58, 20.0
59, 20.0
60, 20.0
61, 21.0
62, 22.0
63, 23.0
64, 23.0
65, 23.0
66, 23.0
67, 23.0
68, 23.0
69, 23.0
70, 23.0
71, 23.0
72, 23.0
73, 23.0
74, 23.0
75, 23.0
76, 23.0
77, 23.0
78, 23.0
79, 23.0
80, 23.0
81, 23.0
82, 23.0
83, 23.0
84, 23.0
85, 23.0
86, 23.0
87, 23.0
88, 23.0
89, 23.0
90, 23.0
91, 23.0
92, 23.0
93, 23.0
94, 23.0
95, 23.0
96, 23.0
97, 23.0
98, 23.0
99, 23.0
100, 23.0
101, 23.0
102, 23.0
103, 23.0
104, 23.0
105, 23.0
