i, Result
0, 0.0
1, 0.0
2, 0.0
3, 1.0
4, 2.0
5, 3.0
6, 4.0
7, 5.0
8, 5.0
9, 5.0
10, 6.0
11, 7.0
12, 8.0
13, 9.0
14, 9.0
15, 9.0
16, 10.0
17, 10.0
18, 11.0
19, 12.0
20, 13.0
21, 14.0
22, 15.0
23, 16.0
24, 17.0
25, 17.0
26, 18.0
27, 19.0
28, 20.0
29, 20.0
30, 21.0
31, 21.0
32, 21.0
33, 21.0
34, 21.0
35, 21.0
36, 21.0
37, 21.0
38, 21.0
39, 22.0
40, 22.0
41, 23.0
42, 23.0
43, 23.0
44, 24.0
45, 25.0
46, 25.0
47, 26.0
48, 27.0
49, 27.0
50, 27.0
51, 27.0
52, 27.0
53, 28.0
54, 28.0
55, 28.0
56, 29.0
57, 29.0
58, 29.0
59, 30.0
60, 31.0
61, 32.0
62, 32.0
63, 32.0
64, 33.0
65, 34.0
66, 34.0
67, 34.0
68, 34.0
69, 34.0
70, 34.0
71, 34.0
72, 34.0
73, 34.0
74, 34.0
75, 34.0
76, 34.0
77, 34.0
78, 34.0
79, 34.0
80, 34.0
81, 34.0
82, 34.0
83, 34.0
84, 34.0
85, 34.0
86, 34.0
87, 34.0
88, 34.0
89, 34.0
90, 34.0
91, 34.0
92, 34.0
93, 34.0
94, 34.0
95, 34.0
96, 34.0
97, 34.0
98, 34.0
99, 34.0
100, 34.0
101, 34.0
102, 34.0
103, 34.0
104, 34.0
105, 34.0
