i, Result
0, 0.0
1, 0.0
2, 0.0
3, 0.0
4, 0.0
5, 1.0
6, 2.0
7, 2.0
8, 3.0
9, 4.0
10, 5.0
11, 5.0
12, 6.0
13, 6.0
14, 6.0
15, 6.0
16, 7.0
17, 7.0
18, 8.0
19, 9.0
20, 9.0
21, 9.0
22, 10.0
23, 10.0
24, 10.0
25, 10.0
26, 11.0
27, 12.0
28, 13.0
29, 14.0
30, 14.0
31, 14.0
32, 15.0
33, 16.0
34, 16.0
35, 17.0
36, 18.0
37, 19.0
38, 20.0
39, 21.0
40, 22.0
41, 23.0
42, 24.0
43, 24.0
44, 24.0
45, 24.0
46, 24.0
47, 24.0
48, 24.0
49, 25.0
50, 26.0
51, 27.0
52, 27.0
53, 28.0
54, 29.0
55, 30.0
56, 31.0
57, 32.0
58, 33.0
59, 33.0
60, 34.0
61, 35.0
62, 35.0
63, 35.0
64, 36.0
65, 37.0
66, 37.0
67, 38.0
68, 39.0
69, 40.0
70, 41.0
71, 42.0
72, 43.0
73, 43.0
74, 44.0
75, 44.0
76, 44.0
77, 44.0
78, 44.0
79, 44.0
80, 44.0
81, 44.0
82, 44.0
83, 44.0
84, 44.0
85, 44.0
86, 44.0
87, 44.0
88, 44.0
89, 44.0
90, 44.0
91, 44.0
92, 44.0
93, 44.0
94, 44.0
95, 44.0
96, 44.0
97, 44.0
98, 44.0
99, 44.0
100, 44.0
101, 44.0
102, 44.0
103, 44.0
104, 44.0
105, 44.0
