i, Result
0, 0.0
1, 0.0
2, 0.0
3, 0.0
4, 0.0
5, 1.0
6, 1.0
7, 2.0
8, 2.0
9, 2.0
10, 3.0
11, 4.0
12, 5.0
13, 5.0
14, 5.0
15, 5.0
16, 5.0
17, 6.0
18, 6.0
19, 6.0
20, 6.0
21, 6.0
22, 6.0
23, 7.0
24, 7.0
25, 7.0
26, 7.0
27, 7.0
28, 8.0
29, 9.0
30, 9.0
31, 10.0
32, 10.0
33, 10.0
34, 10.0
35, 10.0
36, 11.0
37, 11.0
38, 12.0
39, 12.0
40, 13.0
41, 13.0
42, 14.0
43, 14.0
44, 14.0
45, 14.0
46, 14.0
47, 15.0
48, 15.0
49, 16.0
50, 16.0
51, 16.0
52, 17.0
53, 17.0
54, 18.0
55, 18.0
56, 19.0
57, 20.0
58, 21.0
59, 21.0
60, 21.0
61, 21.0
62, 21.0
63, 21.0
64, 21.0
65, 21.0
66, 21.0
67, 21.0
68, 21.0
69, 21.0
70, 21.0
71, 21.0
72, 21.0
73, 21.0
74, 21.0
75, 21.0
76, 21.0
77, 21.0
78, 21.0
79, 21.0
80, 21.0
81, 21.0
82, 21.0
83, 21.0
84, 21.0
85, 21.0
86, 21.0
87, 21.0
88, 21.0
89, 21.0
90, 21.0
91, 21.0
92, 21.0
93, 21.0
94, 21.0
95, 21.0
96, 21.0
97, 21.0
98, 21.0
99, 21.0
100, 21.0
101, 21.0
102, 21.0
103, 21.0
104, 21.0
105, 21.0
