i, Result
0, 0.0
1, 0.0
2, 0.0
3, 0.0
4, 0.0
5, 0.0
6, 0.0
7, 1.0
8, 1.0
9, 1.0
10, 2.0
11, 2.0
12, 2.0
13, 3.0
14, 4.0
15, 5.0
16, 6.0
17, 7.0
18, 8.0
19, 8.0
20, 9.0
21, 9.0
22, 9.0
23, 9.0
24, 10.0
25, 11.0
26, 12.0
27, 12.0
28, 12.0
29, 13.0
30, 13.0
31, 13.0
32, 13.0
33, 13.0
34, 14.0
35, 15.0
36, 16.0
37, 17.0
38, 18.0
39, 19.0
40, 20.0
41, 20.0
42, 21.0
43, 22.0
44, 23.0
45, 24.0
46, 25.0
47, 26.0
48, 26.0
49, 27.0
50, 28.0
51, 29.0
52, 29.0
53, 30.0
54, 31.0
55, 32.0
56, 33.0
57, 34.0
58, 35.0
59, 35.0
60, 36.0
61, 36.0
62, 36.0
63, 36.0
64, 36.0
65, 36.0
66, 36.0
67, 36.0
68, 36.0
69, 36.0
70, 36.0
71, 36.0
72, 36.0
73, 36.0
74, 36.0
75, 36.0
76, 36.0
77, 36.0
78, 36.0
79, 36.0
80, 36.0
81, 36.0
82, 36.0
83, 36.0
84, 36.0
85, 36.0
86, 36.0
87, 36.0
88, 36.0
89, 36.0
90, 36.0
91, 36.0
92, 36.0
93, 36.0
94, 36.0
95, 36.0
96, 36.0
97, 36.0
98, 36.0
99, 36.0
100, 36.0
101, 36.0
102, 36.0
103, 36.0
104, 36.0
105, 36.0
