i, Result
0, 0.0
1, 0.0
2, 0.0
3, 1.0
4, 2.0
5, 2.0
6, 2.0
7, 2.0
8, 3.0
9, 3.0
10, 3.0
11, 3.0
12, 4.0
13, 5.0
14, 6.0
15, 7.0
16, 7.0
17, 7.0
18, 7.0
19, 7.0
20, 7.0
21, 7.0
22, 7.0
23, 7.0
24, 7.0
25, 7.0
26, 7.0
27, 7.0
28, 8.0
29, 9.0
30, 10.0
31, 11.0
32, 11.0
33, 12.0
34, 12.0
35, 13.0
36, 14.0
37, 14.0
38, 15.0
39, 16.0
40, 17.0
41, 18.0
42, 18.0
43, 18.0
44, 18.0
45, 19.0
46, 19.0
47, 19.0
48, 19.0
49, 19.0
50, 20.0
51, 20.0
52, 21.0
53, 22.0
54, 22.0
55, 23.0
56, 24.0
57, 25.0
58, 26.0
59, 26.0
60, 26.0
61, 27.0
62, 28.0
63, 28.0
64, 28.0
65, 29.0
66, 30.0
67, 31.0
68, 31.0
69, 31.0
70, 31.0
71, 31.0
72, 31.0
73, 31.0
74, 31.0
75, 31.0
76, 31.0
77, 31.0
78, 31.0
79, 31.0
80, 31.0
81, 31.0
82, 31.0
83, 31.0
84, 31.0
85, 31.0
86, 31.0
87, 31.0
88, 31.0
89, 31.0
90, 31.0
91, 31.0
92, 31.0
93, 31.0
94, 31.0
95, 31.0
96, 31.0
97, 31.0
98, 31.0
99, 31.0
100, 31.0
101, 31.0
102, 31.0
103, 31.0
104, 31.0
105, 31.0
