i, Result
0, 0.0
1, 0.0
2, 0.0
3, 0.0
4, 0.0
5, 0.0
6, 0.0
7, 0.0
8, 0.0
9, 0.0
10, 0.0
11, 1.0
12, 1.0
13, 1.0
14, 1.0
15, 2.0
16, 3.0
17, 4.0
18, 5.0
19, 5.0
20, 6.0
21, 7.0
22, 8.0
23, 9.0
24, 10.0
25, 11.0
26, 11.0
27, 12.0
28, 13.0
29, 13.0
30, 13.0
31, 13.0
32, 14.0
33, 15.0
34, 15.0
35, 15.0
36, 15.0
37, 15.0
38, 15.0
39, 15.0
40, 15.0
41, 16.0
42, 17.0
43, 18.0
44, 18.0
45, 18.0
46, 19.0
47, 20.0
48, 20.0
49, 20.0
50, 21.0
51, 22.0
52, 22.0
53, 22.0
54, 23.0
55, 24.0
56, 25.0
57, 26.0
58, 27.0
59, 27.0
60, 27.0
61, 27.0
62, 27.0
63, 28.0
64, 29.0
65, 29.0
66, 30.0
67, 30.0
68, 30.0
69, 30.0
70, 30.0
71, 30.0
72, 30.0
73, 30.0
74, 30.0
75, 30.0
76, 30.0
77, 30.0
78, 30.0
79, 30.0
80, 30.0
81, 30.0
82, 30.0
83, 30.0
84, 30.0
85, 30.0
86, 30.0
87, 30.0
88, 30.0
89, 30.0
90, 30.0
91, 30.0
92, 30.0
93, 30.0
94, 30.0
95, 30.0
96, 30.0
97, 30.0
98, 30.0
99, 30.0
100, 30.0
101, 30.0
102, 30.0
103, 30.0
104, 30.0
105, 30.0
