i, Result
0, 0.0
1, 0.0
2, 0.0
3, 1.0
4, 1.0
5, 2.0
6, 3.0
7, 3.0
8, 4.0
9, 5.0
10, 6.0
11, 7.0
12, 7.0
13, 8.0
14, 9.0
15, 10.0
16, 10.0
17, 11.0
18, 12.0
19, 12.0
20, 13.0
21, 14.0
22, 14.0
23, 14.0
24, 15.0
25, 16.0
26, 17.0
27, 17.0
28, 17.0
29, 17.0
30, 18.0
31, 19.0
32, 20.0
33, 21.0
34, 22.0
35, 23.0
36, 23.0
37, 23.0
38, 24.0
39, 24.0
40, 25.0
41, 26.0
42, 27.0
43, 28.0
44, 29.0
45, 30.0
46, 31.0
47, 32.0
48, 33.0
49, 33.0
50, 33.0
51, 33.0
52, 33.0
53, 34.0
54, 35.0
55, 36.0
56, 36.0
57, 36.0
58, 37.0
59, 37.0
60, 37.0
61, 38.0
62, 39.0
63, 39.0
64, 39.0
65, 39.0
66, 40.0
67, 40.0
68, 40.0
69, 41.0
70, 42.0
71, 42.0
72, 42.0
73, 42.0
74, 42.0
75, 42.0
76, 42.0
77, 42.0
78, 42.0
79, 42.0
80, 42.0
81, 42.0
82, 42.0
83, 42.0
84, 42.0
85, 42.0
86, 42.0
87, 42.0
88, 42.0
89, 42.0
90, 42.0
91, 42.0
92, 42.0
93, 42.0
94, 42.0
95, 42.0
96, 42.0
97, 42.0
98, 42.0
99, 42.0
100, 42.0
101, 42.0
102, 42.0
103, 42.0
104, 42.0
105, 42.0
