i, Result
0, 0.0
1, 0.0
2, 0.0
3, 0.0
4, 1.0
5, 1.0
6, 1.0
7, 1.0
8, 1.0
9, 1.0
10, 2.0
11, 2.0
12, 2.0
13, 2.0
14, 2.0
15, 3.0
16, 3.0
17, 4.0
18, 4.0
19, 5.0
20, 5.0
21, 6.0
22, 6.0
23, 6.0
24, 6.0
25, 6.0
26, 6.0
27, 7.0
28, 7.0
29, 7.0
30, 7.0
31, 8.0
32, 9.0
33, 10.0
34, 10.0
35, 11.0
36, 12.0
37, 13.0
38, 13.0
39, 14.0
40, 14.0
41, 15.0
42, 16.0
43, 16.0
44, 17.0
45, 18.0
46, 18.0
47, 18.0
48, 18.0
49, 18.0
50, 19.0
51, 19.0
52, 20.0
53, 20.0
54, 20.0
55, 20.0
56, 20.0
57, 21.0
58, 21.0
59, 21.0
60, 21.0
61, 22.0
62, 22.0
63, 22.0
64, 23.0
65, 24.0
66, 24.0
67, 24.0
68, 24.0
69, 24.0
70, 24.0
71, 24.0
72, 24.0
73, 24.0
74, 24.0
75, 24.0
76, 24.0
77, 24.0
78, 24.0
79, 24.0
80, 24.0
81, 24.0
82, 24.0
83, 24.0
84, 24.0
85, 24.0
86, 24.0
87, 24.0
88, 24.0
89, 24.0
90, 24.0
91, 24.0
92, 24.0
93, 24.0
94, 24.0
95, 24.0
96, 24.0
97, 24.0
98, 24.0
99, 24.0
100, 24.0
101, 24.0
102, 24.0
103, 24.0
104, 24.0
105, 24.0
