i, Result
0, 0.0
1, 0.0
2, 0.0
3, 1.0
4, 2.0
5, 2.0
6, 3.0
7, 4.0
8, 5.0
9, 6.0
10, 6.0
11, 7.0
12, 8.0
13, 8.0
14, 9.0
15, 10.0
16, 11.0
17, 12.0
18, 12.0
19, 12.0
20, 13.0
21, 13.0
22, 14.0
23, 15.0
24, 15.0
25, 15.0
26, 15.0
27, 16.0
28, 17.0
29, 18.0
30, 18.0
31, 18.0
32, 19.0
33, 20.0
34, 20.0
35, 21.0
36, 21.0
37, 22.0
38, 22.0
39, 22.0
40, 23.0
41, 23.0
42, 23.0
43, 23.0
44, 23.0
45, 23.0
46, 23.0
47, 24.0
48, 24.0
49, 24.0
50, 24.0
51, 24.0
52, 24.0
53, 24.0
54, 25.0
55, 25.0
56, 25.0
57, 26.0
58, 26.0
59, 26.0
60, 26.0
61, 26.0
62, 26.0
63, 26.0
64, 26.0
65, 26.0
66, 26.0
67, 26.0
68, 26.0
69, 26.0
70, 26.0
71, 26.0
72, 26.0
73, 26.0
74, 26.0
75, 26.0
76, 26.0
77, 26.0
78, 26.0
79, 26.0
80, 26.0
81, 26.0
82, 26.0
83, 26.0
84, 26.0
85, 26.0
86, 26.0
87, 26.0
88, 26.0
89, 26.0
90, 26.0
91, 26.0
92, 26.0
93, 26.0
94, 26.0
95, 26.0
96, 26.0
97, 26.0
98, 26.0
99, 26.0
100, 26.0
101, 26.0
102, 26.0
103, 26.0
104, 26.0
105, 26.0
