i, Result
0, 0.0
1, 0.0
2, 0.0
3, 1.0
4, 2.0
5, 3.0
6, 4.0
7, 5.0
8, 6.0
9, 7.0
10, 8.0
11, 9.0
12, 10.0
13, 11.0
14, 11.0
15, 11.0
16, 12.0
17, 13.0
18, 14.0
19, 14.0
20, 14.0
21, 14.0
22, 15.0
23, 15.0
24, 15.0
25, 15.0
26, 16.0
27, 16.0
28, 17.0
29, 18.0
30, 19.0
31, 19.0
32, 20.0
33, 20.0
34, 21.0
35, 21.0
36, 21.0
37, 22.0
38, 23.0
39, 24.0
40, 25.0
41, 26.0
42, 27.0
43, 27.0
44, 27.0
45, 28.0
46, 29.0
47, 30.0
48, 31.0
49, 31.0
50, 31.0
51, 31.0
52, 31.0
53, 32.0
54, 32.0
55, 32.0
56, 32.0
57, 32.0
58, 32.0
59, 32.0
60, 32.0
61, 33.0
62, 33.0
63, 33.0
64, 33.0
65, 33.0
66, 34.0
67, 35.0
68, 35.0
69, 36.0
70, 37.0
71, 37.0
72, 37.0
73, 37.0
74, 37.0
75, 37.0
76, 37.0
77, 37.0
78, 37.0
79, 37.0
80, 37.0
81, 37.0
82, 37.0
83, 37.0
84, 37.0
85, 37.0
86, 37.0
87, 37.0
88, 37.0
89, 37.0
90, 37.0
91, 37.0
92, 37.0
93, 37.0
94, 37.0
95, 37.0
96, 37.0
97, 37.0
98, 37.0
99, 37.0
100, 37.0
101, 37.0
102, 37.0
103, 37.0
104, 37.0
105, 37.0
