i, Result
0, 0.0
1, 0.0
2, 0.0
3, 0.0
4, 0.0
5, 0.0
6, 0.0
7, 1.0
8, 1.0
9, 2.0
10, 2.0
11, 2.0
12, 3.0
13, 4.0
14, 4.0
15, 4.0
16, 4.0
17, 5.0
18, 6.0
19, 6.0
20, 7.0
21, 7.0
22, 7.0
23, 8.0
24, 8.0
25, 8.0
26, 9.0
27, 10.0
28, 10.0
29, 11.0
30, 11.0
31, 11.0
32, 12.0
33, 13.0
34, 14.0
35, 15.0
36, 16.0
37, 17.0
38, 18.0
39, 18.0
40, 18.0
41, 18.0
42, 18.0
43, 19.0
44, 19.0
45, 20.0
46, 20.0
47, 20.0
48, 20.0
49, 21.0
50, 22.0
51, 23.0
52, 24.0
53, 25.0
54, 25.0
55, 25.0
56, 25.0
57, 25.0
58, 25.0
59, 25.0
60, 25.0
61, 26.0
62, 26.0
63, 26.0
64, 27.0
65, 27.0
66, 27.0
67, 28.0
68, 28.0
69, 28.0
70, 28.0
71, 28.0
72, 28.0
73, 28.0
74, 28.0
75, 28.0
76, 28.0
77, 28.0
78, 28.0
79, 28.0
80, 28.0
81, 28.0
82, 28.0
83, 28.0
84, 28.0
85, 28.0
86, 28.0
87, 28.0
88, 28.0
89, 28.0
90, 28.0
91, 28.0
92, 28.0
93, 28.0
94, 28.0
95, 28.0
96, 28.0
97, 28.0
98, 28.0
99, 28.0
100, 28.0
101, 28.0
102, 28.0
103, 28.0
104, 28.0
105, 28.0
