i, Result
0, 0.0
1, 0.0
2, 0.0
3, 1.0
4, 2.0
5, 2.0
6, 3.0
7, 4.0
8, 4.0
9, 4.0
10, 4.0
11, 4.0
12, 5.0
13, 5.0
14, 5.0
15, 6.0
16, 6.0
17, 6.0
18, 6.0
19, 6.0
20, 6.0
21, 6.0
22, 6.0
23, 6.0
24, 6.0
25, 6.0
26, 7.0
27, 7.0
28, 7.0
29, 7.0
30, 7.0
31, 7.0
32, 7.0
33, 7.0
34, 7.0
35, 7.0
36, 7.0
37, 7.0
38, 7.0
39, 7.0
40, 7.0
41, 7.0
42, 7.0
43, 7.0
44, 7.0
45, 7.0
46, 7.0
47, 7.0
48, 7.0
49, 7.0
50, 7.0
51, 7.0
52, 7.0
53, 7.0
54, 7.0
55, 7.0
56, 7.0
57, 7.0
58, 7.0
59, 7.0
60, 7.0
61, 7.0
62, 7.0
63, 7.0
64, 7.0
65, 7.0
66, 7.0
67, 7.0
68, 7.0
69, 7.0
70, 7.0
71, 7.0
72, 7.0
73, 7.0
74, 7.0
75, 7.0
76, 7.0
77, 7.0
78, 7.0
79, 7.0
80, 7.0
81, 7.0
82, 7.0
83, 7.0
84, 7.0
85, 7.0
86, 7.0
87, 7.0
88, 7.0
89, 7.0
90, 7.0
91, 7.0
92, 7.0
93, 7.0
94, 7.0
95, 7.0
96, 7.0
97, 7.0
98, 7.0
99, 7.0
100, 7.0
101, 7.0
102, 7.0
103, 7.0
104, 7.0
105, 7.0
