i, Result
0, 0.0
1, 0.0
2, 0.0
3, 0.0
4, 0.0
5, 1.0
6, 2.0
7, 3.0
8, 4.0
9, 5.0
10, 6.0
11, 6.0
12, 7.0
13, 7.0
14, 8.0
15, 9.0
16, 10.0
17, 11.0
18, 11.0
19, 11.0
20, 11.0
21, 11.0
22, 12.0
23, 13.0
24, 13.0
25, 13.0
26, 13.0
27, 14.0
28, 14.0
29, 15.0
30, 16.0
31, 16.0
32, 16.0
33, 17.0
34, 17.0
35, 17.0
36, 17.0
37, 18.0
38, 19.0
39, 19.0
40, 20.0
41, 21.0
42, 22.0
43, 23.0
44, 24.0
45, 24.0
46, 25.0
47, 26.0
48, 27.0
49, 27.0
50, 28.0
51, 28.0
52, 29.0
53, 29.0
54, 30.0
55, 31.0
56, 32.0
57, 33.0
58, 33.0
59, 33.0
60, 34.0
61, 34.0
62, 34.0
63, 34.0
64, 35.0
65, 35.0
66, 36.0
67, 36.0
68, 36.0
69, 36.0
70, 36.0
71, 36.0
72, 36.0
73, 36.0
74, 36.0
75, 36.0
76, 36.0
77, 36.0
78, 36.0
79, 36.0
80, 36.0
81, 36.0
82, 36.0
83, 36.0
84, 36.0
85, 36.0
86, 36.0
87, 36.0
88, 36.0
89, 36.0
90, 36.0
91, 36.0
92, 36.0
93, 36.0
94, 36.0
95, 36.0
96, 36.0
97, 36.0
98, 36.0
99, 36.0
100, 36.0
101, 36.0
102, 36.0
103, 36.0
104, 36.0
105, 36.0
