i, Result
0, 0.0
1, 0.0
2, 0.0
3, 1.0
4, 2.0
5, 2.0
6, 3.0
7, 4.0
8, 5.0
9, 5.0
10, 6.0
11, 7.0
12, 8.0
13, 9.0
14, 9.0
15, 10.0
16, 11.0
17, 12.0
18, 12.0
19, 12.0
20, 13.0
21, 13.0
22, 14.0
23, 15.0
24, 15.0
25, 16.0
26, 17.0
27, 18.0
28, 19.0
29, 20.0
30, 21.0
31, 21.0
32, 22.0
33, 22.0
34, 23.0
35, 23.0
36, 24.0
37, 25.0
38, 25.0
39, 25.0
40, 25.0
41, 26.0
42, 26.0
43, 27.0
44, 28.0
45, 28.0
46, 29.0
47, 30.0
48, 31.0
49, 31.0
50, 32.0
51, 33.0
52, 34.0
53, 34.0
54, 34.0
55, 35.0
56, 35.0
57, 35.0
58, 36.0
59, 36.0
60, 37.0
61, 37.0
62, 37.0
63, 37.0
64, 38.0
65, 39.0
66, 39.0
67, 39.0
68, 39.0
69, 39.0
70, 39.0
71, 40.0
72, 41.0
73, 42.0
74, 43.0
75, 43.0
76, 43.0
77, 44.0
78, 44.0
79, 45.0
80, 45.0
81, 45.0
82, 45.0
83, 45.0
84, 45.0
85, 45.0
86, 45.0
87, 45.0
88, 45.0
89, 45.0
90, 45.0
91, 45.0
92, 45.0
93, 45.0
94, 45.0
95, 45.0
96, 45.0
97, 45.0
98, 45.0
99, 45.0
100, 45.0
101, 45.0
102, 45.0
103, 45.0
104, 45.0
105, 45.0
