i, Result
0, 0.0
1, 0.0
2, 0.0
3, 0.0
4, 1.0
5, 2.0
6, 2.0
7, 3.0
8, 4.0
9, 4.0
10, 5.0
11, 6.0
12, 7.0
13, 7.0
14, 7.0
15, 8.0
16, 9.0
17, 10.0
18, 10.0
19, 10.0
20, 10.0
21, 10.0
22, 11.0
23, 12.0
24, 13.0
25, 14.0
26, 15.0
27, 15.0
28, 15.0
29, 15.0
30, 15.0
31, 16.0
32, 17.0
33, 18.0
34, 19.0
35, 20.0
36, 21.0
37, 22.0
38, 22.0
39, 22.0
40, 23.0
41, 23.0
42, 23.0
43, 24.0
44, 25.0
45, 26.0
46, 26.0
47, 26.0
48, 27.0
49, 28.0
50, 29.0
51, 30.0
52, 31.0
53, 32.0
54, 33.0
55, 33.0
56, 33.0
57, 33.0
58, 34.0
59, 35.0
60, 36.0
61, 37.0
62, 38.0
63, 38.0
64, 38.0
65, 38.0
66, 38.0
67, 39.0
68, 39.0
69, 39.0
70, 40.0
71, 40.0
72, 40.0
73, 41.0
74, 42.0
75, 42.0
76, 43.0
77, 43.0
78, 43.0
79, 43.0
80, 43.0
81, 43.0
82, 43.0
83, 43.0
84, 43.0
85, 43.0
86, 43.0
87, 43.0
88, 43.0
89, 43.0
90, 43.0
91, 43.0
92, 43.0
93, 43.0
94, 43.0
95, 43.0
96, 43.0
97, 43.0
98, 43.0
99, 43.0
100, 43.0
101, 43.0
102, 43.0
103, 43.0
104, 43.0
105, 43.0
