i, Result
0, 0.0
1, 0.0
2, 0.0
3, 0.0
4, 0.0
5, 1.0
6, 1.0
7, 1.0
8, 2.0
9, 3.0
10, 3.0
11, 4.0
12, 5.0
13, 6.0
14, 7.0
15, 8.0
16, 9.0
17, 10.0
18, 11.0
19, 12.0
20, 12.0
21, 13.0
22, 14.0
23, 14.0
24, 14.0
25, 14.0
26, 15.0
27, 16.0
28, 17.0
29, 17.0
30, 18.0
31, 18.0
32, 19.0
33, 19.0
34, 20.0
35, 20.0
36, 20.0
37, 20.0
38, 20.0
39, 20.0
40, 21.0
41, 21.0
42, 22.0
43, 23.0
44, 23.0
45, 23.0
46, 23.0
47, 23.0
48, 24.0
49, 24.0
50, 25.0
51, 25.0
52, 25.0
53, 25.0
54, 25.0
55, 25.0
56, 26.0
57, 27.0
58, 27.0
59, 27.0
60, 28.0
61, 28.0
62, 28.0
63, 29.0
64, 29.0
65, 29.0
66, 29.0
67, 29.0
68, 29.0
69, 29.0
70, 29.0
71, 29.0
72, 29.0
73, 29.0
74, 29.0
75, 29.0
76, 29.0
77, 29.0
78, 29.0
79, 29.0
80, 29.0
81, 29.0
82, 29.0
83, 29.0
84, 29.0
85, 29.0
86, 29.0
87, 29.0
88, 29.0
89, 29.0
90, 29.0
91, 29.0
92, 29.0
93, 29.0
94, 29.0
95, 29.0
96, 29.0
97, 29.0
98, 29.0
99, 29.0
100, 29.0
101, 29.0
102, 29.0
103, 29.0
104, 29.0
105, 29.0
