i, Result
0, 0.0
1, 0.0
2, 0.0
3, 0.0
4, 1.0
5, 1.0
6, 1.0
7, 2.0
8, 3.0
9, 4.0
10, 5.0
11, 5.0
12, 5.0
13, 6.0
14, 6.0
15, 7.0
16, 7.0
17, 8.0
18, 9.0
19, 10.0
20, 11.0
21, 12.0
22, 13.0
23, 13.0
24, 14.0
25, 15.0
26, 16.0
27, 16.0
28, 17.0
29, 18.0
30, 19.0
31, 20.0
32, 21.0
33, 22.0
34, 23.0
35, 24.0
36, 24.0
37, 25.0
38, 26.0
39, 26.0
40, 26.0
41, 27.0
42, 28.0
43, 29.0
44, 29.0
45, 29.0
46, 29.0
47, 29.0
48, 29.0
49, 29.0
50, 29.0
51, 29.0
52, 30.0
53, 31.0
54, 31.0
55, 32.0
56, 33.0
57, 33.0
58, 33.0
59, 33.0
60, 33.0
61, 34.0
62, 35.0
63, 36.0
64, 37.0
65, 37.0
66, 38.0
67, 39.0
68, 40.0
69, 41.0
70, 42.0
71, 42.0
72, 42.0
73, 42.0
74, 42.0
75, 42.0
76, 42.0
77, 42.0
78, 42.0
79, 42.0
80, 42.0
81, 42.0
82, 42.0
83, 42.0
84, 42.0
85, 42.0
86, 42.0
87, 42.0
88, 42.0
89, 42.0
90, 42.0
91, 42.0
92, 42.0
93, 42.0
94, 42.0
95, 42.0
96, 42.0
97, 42.0
98, 42.0
99, 42.0
100, 42.0
101, 42.0
102, 42.0
103, 42.0
104, 42.0
105, 42.0
