i, Result
0, 0.0
1, 0.0
2, 0.0
3, 0.0
4, 1.0
5, 2.0
6, 3.0
7, 4.0
8, 5.0
9, 5.0
10, 6.0
11, 7.0
12, 7.0
13, 8.0
14, 8.0
15, 9.0
16, 9.0
17, 9.0
18, 10.0
19, 11.0
20, 12.0
21, 12.0
22, 12.0
23, 13.0
24, 13.0
25, 13.0
26, 14.0
27, 15.0
28, 15.0
29, 16.0
30, 16.0
31, 17.0
32, 18.0
33, 18.0
34, 19.0
35, 20.0
36, 20.0
37, 20.0
38, 20.0
39, 21.0
40, 21.0
41, 22.0
42, 22.0
43, 23.0
44, 24.0
45, 24.0
46, 24.0
47, 25.0
48, 25.0
49, 26.0
50, 27.0
51, 28.0
52, 28.0
53, 28.0
54, 29.0
55, 30.0
56, 31.0
57, 32.0
58, 32.0
59, 32.0
60, 32.0
61, 32.0
62, 33.0
63, 34.0
64, 35.0
65, 36.0
66, 37.0
67, 37.0
68, 37.0
69, 37.0
70, 37.0
71, 37.0
72, 37.0
73, 37.0
74, 37.0
75, 37.0
76, 37.0
77, 37.0
78, 37.0
79, 37.0
80, 37.0
81, 37.0
82, 37.0
83, 37.0
84, 37.0
85, 37.0
86, 37.0
87, 37.0
88, 37.0
89, 37.0
90, 37.0
91, 37.0
92, 37.0
93, 37.0
94, 37.0
95, 37.0
96, 37.0
97, 37.0
98, 37.0
99, 37.0
100, 37.0
101, 37.0
102, 37.0
103, 37.0
104, 37.0
105, 37.0
