i, Result
0, 0.0
1, 0.0
2, 0.0
3, 0.0
4, 1.0
5, 2.0
6, 3.0
7, 3.0
8, 4.0
9, 4.0
10, 4.0
11, 4.0
12, 5.0
13, 6.0
14, 7.0
15, 7.0
16, 8.0
17, 9.0
18, 9.0
19, 9.0
20, 9.0
21, 9.0
22, 10.0
23, 11.0
24, 12.0
25, 13.0
26, 14.0
27, 15.0
28, 16.0
29, 17.0
30, 18.0
31, 18.0
32, 19.0
33, 19.0
34, 20.0
35, 21.0
36, 22.0
37, 23.0
38, 23.0
39, 23.0
40, 23.0
41, 23.0
42, 23.0
43, 23.0
44, 23.0
45, 23.0
46, 23.0
47, 23.0
48, 23.0
49, 23.0
50, 23.0
51, 23.0
52, 23.0
53, 23.0
54, 23.0
55, 23.0
56, 23.0
57, 23.0
58, 23.0
59, 23.0
60, 23.0
61, 23.0
62, 23.0
63, 23.0
64, 23.0
65, 23.0
66, 23.0
67, 23.0
68, 23.0
69, 23.0
70, 23.0
71, 23.0
72, 23.0
73, 23.0
74, 23.0
75, 23.0
76, 23.0
77, 23.0
78, 23.0
79, 23.0
80, 23.0
81, 23.0
82, 23.0
83, 23.0
84, 23.0
85, 23.0
86, 23.0
87, 23.0
88, 23.0
89, 23.0
90, 23.0
91, 23.0
92, 23.0
93, 23.0
94, 23.0
95, 23.0
96, 23.0
97, 23.0
98, 23.0
99, 23.0
100, 23.0
101, 23.0
102, 23.0
103, 23.0
104, 23.0
105, 23.0
