i, Result
0, 0.0
1, 0.0
2, 0.0
3, 1.0
4, 2.0
5, 3.0
6, 4.0
7, 5.0
8, 5.0
9, 5.0
10, 6.0
11, 7.0
12, 7.0
13, 8.0
14, 9.0
15, 9.0
16, 9.0
17, 10.0
18, 11.0
19, 12.0
20, 13.0
21, 13.0
22, 13.0
23, 14.0
24, 15.0
25, 16.0
26, 16.0
27, 17.0
28, 17.0
29, 17.0
30, 18.0
31, 19.0
32, 19.0
33, 20.0
34, 20.0
35, 20.0
36, 21.0
37, 21.0
38, 22.0
39, 22.0
40, 23.0
41, 23.0
42, 23.0
43, 24.0
44, 24.0
45, 24.0
46, 25.0
47, 25.0
48, 25.0
49, 26.0
50, 26.0
51, 27.0
52, 27.0
53, 27.0
54, 28.0
55, 28.0
56, 28.0
57, 29.0
58, 29.0
59, 30.0
60, 30.0
61, 30.0
62, 30.0
63, 31.0
64, 32.0
65, 33.0
66, 33.0
67, 33.0
68, 34.0
69, 35.0
70, 35.0
71, 36.0
72, 37.0
73, 37.0
74, 38.0
75, 38.0
76, 38.0
77, 38.0
78, 38.0
79, 38.0
80, 38.0
81, 38.0
82, 38.0
83, 38.0
84, 38.0
85, 38.0
86, 38.0
87, 38.0
88, 38.0
89, 38.0
90, 38.0
91, 38.0
92, 38.0
93, 38.0
94, 38.0
95, 38.0
96, 38.0
97, 38.0
98, 38.0
99, 38.0
100, 38.0
101, 38.0
102, 38.0
103, 38.0
104, 38.0
105, 38.0
