i, Result
0, 0.0
1, 0.0
2, 0.0
3, 1.0
4, 2.0
5, 2.0
6, 2.0
7, 3.0
8, 4.0
9, 5.0
10, 5.0
11, 6.0
12, 7.0
13, 8.0
14, 9.0
15, 9.0
16, 10.0
17, 11.0
18, 12.0
19, 13.0
20, 13.0
21, 14.0
22, 14.0
23, 15.0
24, 16.0
25, 17.0
26, 18.0
27, 18.0
28, 19.0
29, 20.0
30, 20.0
31, 21.0
32, 22.0
33, 23.0
34, 23.0
35, 24.0
36, 24.0
37, 24.0
38, 25.0
39, 26.0
40, 26.0
41, 27.0
42, 28.0
43, 29.0
44, 30.0
45, 30.0
46, 31.0
47, 31.0
48, 31.0
49, 31.0
50, 31.0
51, 32.0
52, 33.0
53, 33.0
54, 33.0
55, 34.0
56, 34.0
57, 34.0
58, 35.0
59, 35.0
60, 36.0
61, 36.0
62, 37.0
63, 38.0
64, 39.0
65, 39.0
66, 39.0
67, 39.0
68, 39.0
69, 39.0
70, 39.0
71, 39.0
72, 39.0
73, 39.0
74, 39.0
75, 39.0
76, 39.0
77, 39.0
78, 39.0
79, 39.0
80, 39.0
81, 39.0
82, 39.0
83, 39.0
84, 39.0
85, 39.0
86, 39.0
87, 39.0
88, 39.0
89, 39.0
90, 39.0
91, 39.0
92, 39.0
93, 39.0
94, 39.0
95, 39.0
96, 39.0
97, 39.0
98, 39.0
99, 39.0
100, 39.0
101, 39.0
102, 39.0
103, 39.0
104, 39.0
105, 39.0
