i, Result
0, 0.0
1, 0.0
2, 0.0
3, 1.0
4, 1.0
5, 2.0
6, 3.0
7, 3.0
8, 3.0
9, 3.0
10, 4.0
11, 4.0
12, 5.0
13, 6.0
14, 7.0
15, 7.0
16, 8.0
17, 9.0
18, 9.0
19, 10.0
20, 10.0
21, 11.0
22, 11.0
23, 11.0
24, 11.0
25, 12.0
26, 13.0
27, 14.0
28, 15.0
29, 16.0
30, 16.0
31, 17.0
32, 18.0
33, 18.0
34, 18.0
35, 18.0
36, 18.0
37, 18.0
38, 18.0
39, 18.0
40, 18.0
41, 18.0
42, 18.0
43, 18.0
44, 18.0
45, 18.0
46, 18.0
47, 18.0
48, 18.0
49, 18.0
50, 18.0
51, 18.0
52, 18.0
53, 18.0
54, 18.0
55, 18.0
56, 18.0
57, 18.0
58, 18.0
59, 18.0
60, 18.0
61, 18.0
62, 18.0
63, 18.0
64, 18.0
65, 18.0
66, 18.0
67, 18.0
68, 18.0
69, 18.0
70, 18.0
71, 18.0
72, 18.0
73, 18.0
74, 18.0
75, 18.0
76, 18.0
77, 18.0
78, 18.0
79, 18.0
80, 18.0
81, 18.0
82, 18.0
83, 18.0
84, 18.0
85, 18.0
86, 18.0
87, 18.0
88, 18.0
89, 18.0
90, 18.0
91, 18.0
92, 18.0
93, 18.0
94, 18.0
95, 18.0
96, 18.0
97, 18.0
98, 18.0
99, 18.0
100, 18.0
101, 18.0
102, 18.0
103, 18.0
104, 18.0
105, 18.0
