i, Result
0, 0.0
1, 0.0
2, 0.0
3, 0.0
4, 0.0
5, 0.0
6, 1.0
7, 1.0
8, 1.0
9, 1.0
10, 1.0
11, 1.0
12, 1.0
13, 1.0
14, 2.0
15, 2.0
16, 2.0
17, 2.0
18, 3.0
19, 4.0
20, 4.0
21, 5.0
22, 6.0
23, 7.0
24, 8.0
25, 9.0
26, 10.0
27, 10.0
28, 11.0
29, 12.0
30, 13.0
31, 14.0
32, 14.0
33, 14.0
34, 15.0
35, 16.0
36, 16.0
37, 16.0
38, 17.0
39, 17.0
40, 18.0
41, 19.0
42, 19.0
43, 20.0
44, 21.0
45, 21.0
46, 22.0
47, 22.0
48, 23.0
49, 23.0
50, 24.0
51, 24.0
52, 24.0
53, 25.0
54, 26.0
55, 26.0
56, 27.0
57, 28.0
58, 28.0
59, 28.0
60, 28.0
61, 28.0
62, 28.0
63, 28.0
64, 28.0
65, 28.0
66, 28.0
67, 28.0
68, 28.0
69, 28.0
70, 28.0
71, 28.0
72, 28.0
73, 28.0
74, 28.0
75, 28.0
76, 28.0
77, 28.0
78, 28.0
79, 28.0
80, 28.0
81, 28.0
82, 28.0
83, 28.0
84, 28.0
85, 28.0
86, 28.0
87, 28.0
88, 28.0
89, 28.0
90, 28.0
91, 28.0
92, 28.0
93, 28.0
94, 28.0
95, 28.0
96, 28.0
97, 28.0
98, 28.0
99, 28.0
100, 28.0
101, 28.0
102, 28.0
103, 28.0
104, 28.0
105, 28.0
