i, Result
0, 0.0
1, 0.0
2, 0.0
3, 0.0
4, 1.0
5, 1.0
6, 2.0
7, 2.0
8, 3.0
9, 4.0
10, 4.0
11, 5.0
12, 6.0
13, 7.0
14, 8.0
15, 8.0
16, 8.0
17, 8.0
18, 8.0
19, 8.0
20, 8.0
21, 8.0
22, 8.0
23, 9.0
24, 10.0
25, 11.0
26, 11.0
27, 12.0
28, 12.0
29, 13.0
30, 13.0
31, 14.0
32, 14.0
33, 14.0
34, 14.0
35, 15.0
36, 16.0
37, 17.0
38, 17.0
39, 18.0
40, 19.0
41, 20.0
42, 21.0
43, 22.0
44, 23.0
45, 24.0
46, 25.0
47, 25.0
48, 25.0
49, 26.0
50, 27.0
51, 28.0
52, 28.0
53, 29.0
54, 29.0
55, 29.0
56, 30.0
57, 31.0
58, 31.0
59, 32.0
60, 32.0
61, 32.0
62, 32.0
63, 32.0
64, 33.0
65, 34.0
66, 35.0
67, 36.0
68, 36.0
69, 37.0
70, 38.0
71, 38.0
72, 38.0
73, 38.0
74, 38.0
75, 38.0
76, 38.0
77, 38.0
78, 38.0
79, 38.0
80, 38.0
81, 38.0
82, 38.0
83, 38.0
84, 38.0
85, 38.0
86, 38.0
87, 38.0
88, 38.0
89, 38.0
90, 38.0
91, 38.0
92, 38.0
93, 38.0
94, 38.0
95, 38.0
96, 38.0
97, 38.0
98, 38.0
99, 38.0
100, 38.0
101, 38.0
102, 38.0
103, 38.0
104, 38.0
105, 38.0
