i, Result
0, 0.0
1, 0.0
2, 0.0
3, 1.0
4, 1.0
5, 1.0
6, 2.0
7, 3.0
8, 4.0
9, 4.0
10, 4.0
11, 5.0
12, 6.0
13, 6.0
14, 6.0
15, 7.0
16, 8.0
17, 8.0
18, 8.0
19, 8.0
20, 8.0
21, 8.0
22, 9.0
23, 9.0
24, 9.0
25, 9.0
26, 10.0
27, 11.0
28, 11.0
29, 11.0
30, 12.0
31, 12.0
32, 13.0
33, 14.0
34, 14.0
35, 15.0
36, 15.0
37, 16.0
38, 16.0
39, 16.0
40, 16.0
41, 17.0
42, 18.0
43, 18.0
44, 18.0
45, 19.0
46, 20.0
47, 20.0
48, 21.0
49, 21.0
50, 21.0
51, 21.0
52, 21.0
53, 22.0
54, 23.0
55, 23.0
56, 24.0
57, 24.0
58, 24.0
59, 24.0
60, 24.0
61, 25.0
62, 26.0
63, 26.0
64, 27.0
65, 28.0
66, 29.0
67, 30.0
68, 30.0
69, 30.0
70, 30.0
71, 30.0
72, 30.0
73, 30.0
74, 30.0
75, 30.0
76, 30.0
77, 30.0
78, 30.0
79, 30.0
80, 30.0
81, 30.0
82, 30.0
83, 30.0
84, 30.0
85, 30.0
86, 30.0
87, 30.0
88, 30.0
89, 30.0
90, 30.0
91, 30.0
92, 30.0
93, 30.0
94, 30.0
95, 30.0
96, 30.0
97, 30.0
98, 30.0
99, 30.0
100, 30.0
101, 30.0
102, 30.0
103, 30.0
104, 30.0
105, 30.0
