i, Result
0, 0.0
1, 0.0
2, 0.0
3, 0.0
4, 0.0
5, 1.0
6, 1.0
7, 1.0
8, 2.0
9, 3.0
10, 4.0
11, 5.0
12, 6.0
13, 6.0
14, 6.0
15, 7.0
16, 7.0
17, 7.0
18, 7.0
19, 8.0
20, 9.0
21, 10.0
22, 11.0
23, 12.0
24, 12.0
25, 12.0
26, 13.0
27, 14.0
28, 14.0
29, 15.0
30, 16.0
31, 17.0
32, 18.0
33, 19.0
34, 19.0
35, 20.0
36, 21.0
37, 22.0
38, 23.0
39, 23.0
40, 24.0
41, 24.0
42, 25.0
43, 26.0
44, 26.0
45, 26.0
46, 27.0
47, 28.0
48, 29.0
49, 30.0
50, 30.0
51, 31.0
52, 31.0
53, 32.0
54, 33.0
55, 34.0
56, 34.0
57, 34.0
58, 35.0
59, 36.0
60, 36.0
61, 36.0
62, 36.0
63, 37.0
64, 38.0
65, 39.0
66, 39.0
67, 40.0
68, 40.0
69, 41.0
70, 41.0
71, 42.0
72, 42.0
73, 42.0
74, 42.0
75, 42.0
76, 42.0
77, 42.0
78, 42.0
79, 42.0
80, 42.0
81, 42.0
82, 42.0
83, 42.0
84, 42.0
85, 42.0
86, 42.0
87, 42.0
88, 42.0
89, 42.0
90, 42.0
91, 42.0
92, 42.0
93, 42.0
94, 42.0
95, 42.0
96, 42.0
97, 42.0
98, 42.0
99, 42.0
100, 42.0
101, 42.0
102, 42.0
103, 42.0
104, 42.0
105, 42.0
