i, Result
0, 0.0
1, 0.0
2, 0.0
3, 1.0
4, 1.0
5, 2.0
6, 2.0
7, 3.0
8, 4.0
9, 5.0
10, 5.0
11, 5.0
12, 5.0
13, 6.0
14, 7.0
15, 8.0
16, 9.0
17, 9.0
18, 10.0
19, 10.0
20, 10.0
21, 10.0
22, 11.0
23, 11.0
24, 11.0
25, 12.0
26, 12.0
27, 13.0
28, 14.0
29, 14.0
30, 14.0
31, 14.0
32, 14.0
33, 14.0
34, 15.0
35, 16.0
36, 16.0
37, 16.0
38, 16.0
39, 17.0
40, 18.0
41, 18.0
42, 18.0
43, 19.0
44, 19.0
45, 19.0
46, 19.0
47, 20.0
48, 21.0
49, 21.0
50, 22.0
51, 22.0
52, 23.0
53, 23.0
54, 24.0
55, 24.0
56, 25.0
57, 25.0
58, 25.0
59, 25.0
60, 25.0
61, 25.0
62, 25.0
63, 25.0
64, 25.0
65, 25.0
66, 25.0
67, 25.0
68, 25.0
69, 25.0
70, 25.0
71, 25.0
72, 25.0
73, 25.0
74, 25.0
75, 25.0
76, 25.0
77, 25.0
78, 25.0
79, 25.0
80, 25.0
81, 25.0
82, 25.0
83, 25.0
84, 25.0
85, 25.0
86, 25.0
87, 25.0
88, 25.0
89, 25.0
90, 25.0
91, 25.0
92, 25.0
93, 25.0
94, 25.0
95, 25.0
96, 25.0
97, 25.0
98, 25.0
99, 25.0
100, 25.0
101, 25.0
102, 25.0
103, 25.0
104, 25.0
105, 25.0
