i, Result
0, 0.0
1, 0.0
2, 0.0
3, 0.0
4, 0.0
5, 1.0
6, 2.0
7, 2.0
8, 3.0
9, 3.0
10, 4.0
11, 5.0
12, 6.0
13, 6.0
14, 6.0
15, 7.0
16, 7.0
17, 7.0
18, 8.0
19, 8.0
20, 9.0
21, 10.0
22, 10.0
23, 10.0
24, 11.0
25, 12.0
26, 12.0
27, 13.0
28, 14.0
29, 15.0
30, 15.0
31, 15.0
32, 15.0
33, 15.0
34, 16.0
35, 17.0
36, 18.0
37, 19.0
38, 19.0
39, 20.0
40, 20.0
41, 20.0
42, 21.0
43, 22.0
44, 23.0
45, 23.0
46, 24.0
47, 25.0
48, 25.0
49, 25.0
50, 26.0
51, 26.0
52, 27.0
53, 28.0
54, 28.0
55, 29.0
56, 30.0
57, 30.0
58, 31.0
59, 31.0
60, 32.0
61, 32.0
62, 32.0
63, 32.0
64, 33.0
65, 34.0
66, 35.0
67, 36.0
68, 36.0
69, 37.0
70, 37.0
71, 38.0
72, 39.0
73, 40.0
74, 40.0
75, 40.0
76, 40.0
77, 40.0
78, 40.0
79, 40.0
80, 40.0
81, 40.0
82, 40.0
83, 40.0
84, 40.0
85, 40.0
86, 40.0
87, 40.0
88, 40.0
89, 40.0
90, 40.0
91, 40.0
92, 40.0
93, 40.0
94, 40.0
95, 40.0
96, 40.0
97, 40.0
98, 40.0
99, 40.0
100, 40.0
101, 40.0
102, 40.0
103, 40.0
104, 40.0
105, 40.0
