i, Result
0, 0.0
1, 0.0
2, 0.0
3, 0.0
4, 1.0
5, 2.0
6, 3.0
7, 3.0
8, 3.0
9, 3.0
10, 4.0
11, 5.0
12, 6.0
13, 6.0
14, 6.0
15, 6.0
16, 6.0
17, 6.0
18, 6.0
19, 6.0
20, 7.0
21, 7.0
22, 8.0
23, 8.0
24, 9.0
25, 9.0
26, 10.0
27, 11.0
28, 11.0
29, 11.0
30, 12.0
31, 13.0
32, 14.0
33, 15.0
34, 16.0
35, 17.0
36, 18.0
37, 19.0
38, 20.0
39, 20.0
40, 20.0
41, 21.0
42, 21.0
43, 21.0
44, 21.0
45, 21.0
46, 22.0
47, 22.0
48, 23.0
49, 23.0
50, 24.0
51, 24.0
52, 24.0
53, 24.0
54, 24.0
55, 24.0
56, 24.0
57, 24.0
58, 25.0
59, 26.0
60, 26.0
61, 26.0
62, 26.0
63, 27.0
64, 27.0
65, 27.0
66, 27.0
67, 27.0
68, 27.0
69, 27.0
70, 27.0
71, 27.0
72, 27.0
73, 27.0
74, 27.0
75, 27.0
76, 27.0
77, 27.0
78, 27.0
79, 27.0
80, 27.0
81, 27.0
82, 27.0
83, 27.0
84, 27.0
85, 27.0
86, 27.0
87, 27.0
88, 27.0
89, 27.0
90, 27.0
91, 27.0
92, 27.0
93, 27.0
94, 27.0
95, 27.0
96, 27.0
97, 27.0
98, 27.0
99, 27.0
100, 27.0
101, 27.0
102, 27.0
103, 27.0
104, 27.0
105, 27.0
