i, Result
0, 0.0
1, 0.0
2, 0.0
3, 1.0
4, 2.0
5, 2.0
6, 3.0
7, 4.0
8, 4.0
9, 5.0
10, 6.0
11, 7.0
12, 7.0
13, 7.0
14, 8.0
15, 9.0
16, 9.0
17, 9.0
18, 9.0
19, 10.0
20, 10.0
21, 10.0
22, 10.0
23, 10.0
24, 11.0
25, 11.0
26, 12.0
27, 12.0
28, 12.0
29, 13.0
30, 13.0
31, 14.0
32, 15.0
33, 16.0
34, 16.0
35, 16.0
36, 16.0
37, 16.0
38, 16.0
39, 16.0
40, 17.0
41, 17.0
42, 17.0
43, 18.0
44, 18.0
45, 18.0
46, 18.0
47, 19.0
48, 19.0
49, 19.0
50, 19.0
51, 19.0
52, 19.0
53, 20.0
54, 21.0
55, 21.0
56, 22.0
57, 22.0
58, 23.0
59, 24.0
60, 24.0
61, 25.0
62, 26.0
63, 26.0
64, 27.0
65, 27.0
66, 28.0
67, 29.0
68, 30.0
69, 30.0
70, 30.0
71, 30.0
72, 30.0
73, 30.0
74, 30.0
75, 30.0
76, 30.0
77, 30.0
78, 30.0
79, 30.0
80, 30.0
81, 30.0
82, 30.0
83, 30.0
84, 30.0
85, 30.0
86, 30.0
87, 30.0
88, 30.0
89, 30.0
90, 30.0
91, 30.0
92, 30.0
93, 30.0
94, 30.0
95, 30.0
96, 30.0
97, 30.0
98, 30.0
99, 30.0
100, 30.0
101, 30.0
102, 30.0
103, 30.0
104, 30.0
105, 30.0
