i, Result
0, 0.0
1, 0.0
2, 0.0
3, 0.0
4, 0.0
5, 0.0
6, 0.0
7, 0.0
8, 1.0
9, 1.0
10, 1.0
11, 2.0
12, 2.0
13, 3.0
14, 4.0
15, 4.0
16, 5.0
17, 5.0
18, 6.0
19, 6.0
20, 6.0
21, 7.0
22, 7.0
23, 8.0
24, 9.0
25, 9.0
26, 10.0
27, 11.0
28, 11.0
29, 12.0
30, 13.0
31, 13.0
32, 13.0
33, 13.0
34, 13.0
35, 13.0
36, 13.0
37, 13.0
38, 14.0
39, 14.0
40, 14.0
41, 14.0
42, 14.0
43, 15.0
44, 16.0
45, 16.0
46, 16.0
47, 17.0
48, 17.0
49, 17.0
50, 17.0
51, 17.0
52, 17.0
53, 18.0
54, 18.0
55, 18.0
56, 18.0
57, 18.0
58, 19.0
59, 19.0
60, 20.0
61, 20.0
62, 20.0
63, 20.0
64, 20.0
65, 20.0
66, 20.0
67, 20.0
68, 20.0
69, 20.0
70, 20.0
71, 20.0
72, 20.0
73, 20.0
74, 20.0
75, 20.0
76, 20.0
77, 20.0
78, 20.0
79, 20.0
80, 20.0
81, 20.0
82, 20.0
83, 20.0
84, 20.0
85, 20.0
86, 20.0
87, 20.0
88, 20.0
89, 20.0
90, 20.0
91, 20.0
92, 20.0
93, 20.0
94, 20.0
95, 20.0
96, 20.0
97, 20.0
98, 20.0
99, 20.0
100, 20.0
101, 20.0
102, 20.0
103, 20.0
104, 20.0
105, 20.0
