i, Result
0, 0.0
1, 0.0
2, 0.0
3, 1.0
4, 2.0
5, 3.0
6, 4.0
7, 4.0
8, 5.0
9, 6.0
10, 6.0
11, 7.0
12, 7.0
13, 8.0
14, 9.0
15, 9.0
16, 9.0
17, 10.0
18, 10.0
19, 11.0
20, 11.0
21, 11.0
22, 11.0
23, 12.0
24, 12.0
25, 13.0
26, 13.0
27, 13.0
28, 13.0
29, 14.0
30, 14.0
31, 15.0
32, 16.0
33, 17.0
34, 18.0
35, 18.0
36, 18.0
37, 18.0
38, 18.0
39, 18.0
40, 18.0
41, 18.0
42, 18.0
43, 18.0
44, 19.0
45, 19.0
46, 20.0
47, 21.0
48, 22.0
49, 22.0
50, 22.0
51, 22.0
52, 22.0
53, 22.0
54, 22.0
55, 22.0
56, 23.0
57, 23.0
58, 24.0
59, 25.0
60, 25.0
61, 26.0
62, 27.0
63, 28.0
64, 29.0
65, 29.0
66, 30.0
67, 30.0
68, 30.0
69, 30.0
70, 30.0
71, 31.0
72, 31.0
73, 31.0
74, 31.0
75, 31.0
76, 31.0
77, 31.0
78, 31.0
79, 31.0
80, 31.0
81, 31.0
82, 31.0
83, 31.0
84, 31.0
85, 31.0
86, 31.0
87, 31.0
88, 31.0
89, 31.0
90, 31.0
91, 31.0
92, 31.0
93, 31.0
94, 31.0
95, 31.0
96, 31.0
97, 31.0
98, 31.0
99, 31.0
100, 31.0
101, 31.0
102, 31.0
103, 31.0
104, 31.0
105, 31.0
