i, Result
0, 0.0
1, 0.0
2, 0.0
3, 1.0
4, 1.0
5, 1.0
6, 1.0
7, 2.0
8, 2.0
9, 3.0
10, 4.0
11, 5.0
12, 6.0
13, 7.0
14, 8.0
15, 8.0
16, 8.0
17, 9.0
18, 10.0
19, 11.0
20, 12.0
21, 13.0
22, 13.0
23, 13.0
24, 13.0
25, 13.0
26, 14.0
27, 15.0
28, 15.0
29, 16.0
30, 16.0
31, 16.0
32, 17.0
33, 18.0
34, 18.0
35, 18.0
36, 19.0
37, 20.0
38, 21.0
39, 22.0
40, 22.0
41, 22.0
42, 23.0
43, 24.0
44, 24.0
45, 25.0
46, 25.0
47, 25.0
48, 25.0
49, 26.0
50, 27.0
51, 28.0
52, 28.0
53, 28.0
54, 28.0
55, 28.0
56, 29.0
57, 30.0
58, 31.0
59, 32.0
60, 33.0
61, 33.0
62, 34.0
63, 35.0
64, 35.0
65, 35.0
66, 35.0
67, 35.0
68, 35.0
69, 35.0
70, 36.0
71, 36.0
72, 36.0
73, 37.0
74, 38.0
75, 39.0
76, 39.0
77, 40.0
78, 41.0
79, 42.0
80, 42.0
81, 42.0
82, 42.0
83, 42.0
84, 42.0
85, 42.0
86, 42.0
87, 42.0
88, 42.0
89, 42.0
90, 42.0
91, 42.0
92, 42.0
93, 42.0
94, 42.0
95, 42.0
96, 42.0
97, 42.0
98, 42.0
99, 42.0
100, 42.0
101, 42.0
102, 42.0
103, 42.0
104, 42.0
105, 42.0
