i, Result
0, 0.0
1, 0.0
2, 0.0
3, 0.0
4, 0.0
5, 0.0
6, 1.0
7, 1.0
8, 2.0
9, 2.0
10, 2.0
11, 3.0
12, 3.0
13, 3.0
14, 4.0
15, 4.0
16, 5.0
17, 6.0
18, 7.0
19, 8.0
20, 8.0
21, 8.0
22, 8.0
23, 9.0
24, 9.0
25, 9.0
26, 10.0
27, 11.0
28, 11.0
29, 12.0
30, 13.0
31, 14.0
32, 14.0
33, 14.0
34, 15.0
35, 16.0
36, 17.0
37, 18.0
38, 19.0
39, 20.0
40, 20.0
41, 21.0
42, 22.0
43, 23.0
44, 24.0
45, 24.0
46, 24.0
47, 25.0
48, 26.0
49, 27.0
50, 28.0
51, 29.0
52, 30.0
53, 30.0
54, 30.0
55, 31.0
56, 31.0
57, 32.0
58, 33.0
59, 34.0
60, 35.0
61, 36.0
62, 36.0
63, 37.0
64, 37.0
65, 37.0
66, 37.0
67, 38.0
68, 39.0
69, 39.0
70, 39.0
71, 40.0
72, 40.0
73, 41.0
74, 42.0
75, 42.0
76, 42.0
77, 42.0
78, 42.0
79, 42.0
80, 42.0
81, 42.0
82, 42.0
83, 42.0
84, 42.0
85, 42.0
86, 42.0
87, 42.0
88, 42.0
89, 42.0
90, 42.0
91, 42.0
92, 42.0
93, 42.0
94, 42.0
95, 42.0
96, 42.0
97, 42.0
98, 42.0
99, 42.0
100, 42.0
101, 42.0
102, 42.0
103, 42.0
104, 42.0
105, 42.0
