i, Result
0, 0.0
1, 0.0
2, 0.0
3, 1.0
4, 1.0
5, 1.0
6, 1.0
7, 1.0
8, 1.0
9, 2.0
10, 2.0
11, 3.0
12, 4.0
13, 4.0
14, 4.0
15, 4.0
16, 4.0
17, 5.0
18, 6.0
19, 7.0
20, 7.0
21, 8.0
22, 8.0
23, 9.0
24, 9.0
25, 9.0
26, 10.0
27, 10.0
28, 11.0
29, 11.0
30, 11.0
31, 12.0
32, 13.0
33, 13.0
34, 14.0
35, 14.0
36, 14.0
37, 14.0
38, 15.0
39, 15.0
40, 16.0
41, 17.0
42, 17.0
43, 17.0
44, 18.0
45, 19.0
46, 19.0
47, 19.0
48, 19.0
49, 20.0
50, 20.0
51, 20.0
52, 20.0
53, 20.0
54, 20.0
55, 21.0
56, 22.0
57, 23.0
58, 23.0
59, 23.0
60, 23.0
61, 23.0
62, 23.0
63, 23.0
64, 23.0
65, 23.0
66, 23.0
67, 23.0
68, 23.0
69, 23.0
70, 23.0
71, 23.0
72, 23.0
73, 23.0
74, 23.0
75, 23.0
76, 23.0
77, 23.0
78, 23.0
79, 23.0
80, 23.0
81, 23.0
82, 23.0
83, 23.0
84, 23.0
85, 23.0
86, 23.0
87, 23.0
88, 23.0
89, 23.0
90, 23.0
91, 23.0
92, 23.0
93, 23.0
94, 23.0
95, 23.0
96, 23.0
97, 23.0
98, 23.0
99, 23.0
100, 23.0
101, 23.0
102, 23.0
103, 23.0
104, 23.0
105, 23.0
