i, Result
0, 0.0
1, 0.0
2, 0.0
3, 0.0
4, 1.0
5, 1.0
6, 1.0
7, 2.0
8, 3.0
9, 3.0
10, 3.0
11, 4.0
12, 4.0
13, 5.0
14, 6.0
15, 7.0
16, 8.0
17, 9.0
18, 9.0
19, 10.0
20, 11.0
21, 12.0
22, 12.0
23, 13.0
24, 13.0
25, 14.0
26, 15.0
27, 15.0
28, 16.0
29, 16.0
30, 16.0
31, 17.0
32, 17.0
33, 18.0
34, 19.0
35, 19.0
36, 20.0
37, 21.0
38, 21.0
39, 21.0
40, 22.0
41, 23.0
42, 23.0
43, 24.0
44, 24.0
45, 25.0
46, 25.0
47, 25.0
48, 25.0
49, 26.0
50, 26.0
51, 27.0
52, 28.0
53, 29.0
54, 29.0
55, 30.0
56, 31.0
57, 32.0
58, 32.0
59, 32.0
60, 32.0
61, 32.0
62, 32.0
63, 33.0
64, 33.0
65, 34.0
66, 34.0
67, 34.0
68, 34.0
69, 34.0
70, 34.0
71, 34.0
72, 34.0
73, 34.0
74, 34.0
75, 34.0
76, 34.0
77, 34.0
78, 34.0
79, 34.0
80, 34.0
81, 34.0
82, 34.0
83, 34.0
84, 34.0
85, 34.0
86, 34.0
87, 34.0
88, 34.0
89, 34.0
90, 34.0
91, 34.0
92, 34.0
93, 34.0
94, 34.0
95, 34.0
96, 34.0
97, 34.0
98, 34.0
99, 34.0
100, 34.0
101, 34.0
102, 34.0
103, 34.0
104, 34.0
105, 34.0
