i, Result
0, 0.0
1, 0.0
2, 0.0
3, 0.0
4, 1.0
5, 2.0
6, 3.0
7, 4.0
8, 5.0
9, 6.0
10, 6.0
11, 6.0
12, 7.0
13, 8.0
14, 8.0
15, 8.0
16, 9.0
17, 9.0
18, 9.0
19, 10.0
20, 11.0
21, 12.0
22, 13.0
23, 14.0
24, 14.0
25, 14.0
26, 14.0
27, 14.0
28, 15.0
29, 16.0
30, 17.0
31, 17.0
32, 17.0
33, 17.0
34, 17.0
35, 18.0
36, 18.0
37, 19.0
38, 19.0
39, 20.0
40, 21.0
41, 21.0
42, 22.0
43, 22.0
44, 23.0
45, 23.0
46, 24.0
47, 25.0
48, 26.0
49, 27.0
50, 28.0
51, 28.0
52, 28.0
53, 28.0
54, 28.0
55, 29.0
56, 29.0
57, 29.0
58, 29.0
59, 30.0
60, 30.0
61, 31.0
62, 32.0
63, 33.0
64, 33.0
65, 34.0
66, 35.0
67, 36.0
68, 37.0
69, 37.0
70, 38.0
71, 38.0
72, 39.0
73, 39.0
74, 39.0
75, 39.0
76, 39.0
77, 39.0
78, 39.0
79, 39.0
80, 39.0
81, 39.0
82, 39.0
83, 39.0
84, 39.0
85, 39.0
86, 39.0
87, 39.0
88, 39.0
89, 39.0
90, 39.0
91, 39.0
92, 39.0
93, 39.0
94, 39.0
95, 39.0
96, 39.0
97, 39.0
98, 39.0
99, 39.0
100, 39.0
101, 39.0
102, 39.0
103, 39.0
104, 39.0
105, 39.0
