i, Result
0, 0.0
1, 0.0
2, 0.0
3, 1.0
4, 2.0
5, 3.0
6, 3.0
7, 3.0
8, 3.0
9, 4.0
10, 4.0
11, 4.0
12, 5.0
13, 6.0
14, 7.0
15, 7.0
16, 7.0
17, 8.0
18, 8.0
19, 8.0
20, 8.0
21, 8.0
22, 8.0
23, 9.0
24, 9.0
25, 9.0
26, 9.0
27, 10.0
28, 10.0
29, 11.0
30, 12.0
31, 13.0
32, 14.0
33, 15.0
34, 16.0
35, 17.0
36, 18.0
37, 19.0
38, 20.0
39, 20.0
40, 21.0
41, 21.0
42, 22.0
43, 22.0
44, 22.0
45, 23.0
46, 24.0
47, 24.0
48, 24.0
49, 25.0
50, 26.0
51, 26.0
52, 26.0
53, 26.0
54, 26.0
55, 26.0
56, 26.0
57, 26.0
58, 27.0
59, 28.0
60, 28.0
61, 28.0
62, 29.0
63, 30.0
64, 31.0
65, 31.0
66, 31.0
67, 32.0
68, 33.0
69, 34.0
70, 35.0
71, 35.0
72, 36.0
73, 36.0
74, 36.0
75, 36.0
76, 36.0
77, 36.0
78, 36.0
79, 36.0
80, 36.0
81, 36.0
82, 36.0
83, 36.0
84, 36.0
85, 36.0
86, 36.0
87, 36.0
88, 36.0
89, 36.0
90, 36.0
91, 36.0
92, 36.0
93, 36.0
94, 36.0
95, 36.0
96, 36.0
97, 36.0
98, 36.0
99, 36.0
100, 36.0
101, 36.0
102, 36.0
103, 36.0
104, 36.0
105, 36.0
