i, Result
0, 0.0
1, 0.0
2, 0.0
3, 0.0
4, 1.0
5, 1.0
6, 2.0
7, 2.0
8, 3.0
9, 3.0
10, 3.0
11, 3.0
12, 4.0
13, 4.0
14, 4.0
15, 5.0
16, 6.0
17, 7.0
18, 8.0
19, 9.0
20, 9.0
21, 10.0
22, 11.0
23, 11.0
24, 11.0
25, 12.0
26, 13.0
27, 13.0
28, 14.0
29, 15.0
30, 16.0
31, 17.0
32, 18.0
33, 18.0
34, 18.0
35, 18.0
36, 19.0
37, 19.0
38, 19.0
39, 20.0
40, 21.0
41, 21.0
42, 22.0
43, 22.0
44, 23.0
45, 23.0
46, 24.0
47, 24.0
48, 25.0
49, 26.0
50, 27.0
51, 27.0
52, 27.0
53, 27.0
54, 28.0
55, 28.0
56, 28.0
57, 29.0
58, 29.0
59, 29.0
60, 29.0
61, 29.0
62, 29.0
63, 29.0
64, 29.0
65, 29.0
66, 29.0
67, 29.0
68, 29.0
69, 29.0
70, 29.0
71, 29.0
72, 29.0
73, 29.0
74, 29.0
75, 29.0
76, 29.0
77, 29.0
78, 29.0
79, 29.0
80, 29.0
81, 29.0
82, 29.0
83, 29.0
84, 29.0
85, 29.0
86, 29.0
87, 29.0
88, 29.0
89, 29.0
90, 29.0
91, 29.0
92, 29.0
93, 29.0
94, 29.0
95, 29.0
96, 29.0
97, 29.0
98, 29.0
99, 29.0
100, 29.0
101, 29.0
102, 29.0
103, 29.0
104, 29.0
105, 29.0
