i, Result
0, 0.0
1, 0.0
2, 0.0
3, 0.0
4, 0.0
5, 1.0
6, 2.0
7, 3.0
8, 3.0
9, 3.0
10, 3.0
11, 3.0
12, 3.0
13, 4.0
14, 4.0
15, 4.0
16, 4.0
17, 4.0
18, 4.0
19, 5.0
20, 6.0
21, 7.0
22, 7.0
23, 7.0
24, 7.0
25, 8.0
26, 8.0
27, 8.0
28, 8.0
29, 9.0
30, 10.0
31, 10.0
32, 11.0
33, 12.0
34, 12.0
35, 13.0
36, 13.0
37, 14.0
38, 14.0
39, 14.0
40, 14.0
41, 14.0
42, 15.0
43, 16.0
44, 17.0
45, 18.0
46, 19.0
47, 19.0
48, 19.0
49, 19.0
50, 19.0
51, 19.0
52, 20.0
53, 20.0
54, 20.0
55, 21.0
56, 21.0
57, 22.0
58, 23.0
59, 23.0
60, 23.0
61, 23.0
62, 24.0
63, 24.0
64, 24.0
65, 24.0
66, 25.0
67, 26.0
68, 27.0
69, 28.0
70, 28.0
71, 28.0
72, 29.0
73, 29.0
74, 29.0
75, 29.0
76, 29.0
77, 29.0
78, 29.0
79, 29.0
80, 29.0
81, 29.0
82, 29.0
83, 29.0
84, 29.0
85, 29.0
86, 29.0
87, 29.0
88, 29.0
89, 29.0
90, 29.0
91, 29.0
92, 29.0
93, 29.0
94, 29.0
95, 29.0
96, 29.0
97, 29.0
98, 29.0
99, 29.0
100, 29.0
101, 29.0
102, 29.0
103, 29.0
104, 29.0
105, 29.0
