i, Result
0, 0.0
1, 0.0
2, 0.0
3, 0.0
4, 0.0
5, 0.0
6, 1.0
7, 2.0
8, 2.0
9, 2.0
10, 2.0
11, 3.0
12, 3.0
13, 4.0
14, 5.0
15, 6.0
16, 7.0
17, 7.0
18, 8.0
19, 8.0
20, 9.0
21, 9.0
22, 9.0
23, 9.0
24, 9.0
25, 9.0
26, 10.0
27, 10.0
28, 11.0
29, 11.0
30, 11.0
31, 11.0
32, 11.0
33, 11.0
34, 11.0
35, 11.0
36, 11.0
37, 12.0
38, 12.0
39, 12.0
40, 12.0
41, 13.0
42, 13.0
43, 13.0
44, 13.0
45, 14.0
46, 15.0
47, 15.0
48, 16.0
49, 16.0
50, 17.0
51, 17.0
52, 17.0
53, 17.0
54, 18.0
55, 18.0
56, 18.0
57, 18.0
58, 19.0
59, 20.0
60, 20.0
61, 21.0
62, 22.0
63, 22.0
64, 22.0
65, 22.0
66, 22.0
67, 22.0
68, 22.0
69, 22.0
70, 22.0
71, 22.0
72, 22.0
73, 22.0
74, 22.0
75, 22.0
76, 22.0
77, 22.0
78, 22.0
79, 22.0
80, 22.0
81, 22.0
82, 22.0
83, 22.0
84, 22.0
85, 22.0
86, 22.0
87, 22.0
88, 22.0
89, 22.0
90, 22.0
91, 22.0
92, 22.0
93, 22.0
94, 22.0
95, 22.0
96, 22.0
97, 22.0
98, 22.0
99, 22.0
100, 22.0
101, 22.0
102, 22.0
103, 22.0
104, 22.0
105, 22.0
