i, Result
0, 0.0
1, 0.0
2, 0.0
3, 0.0
4, 1.0
5, 1.0
6, 2.0
7, 2.0
8, 3.0
9, 4.0
10, 5.0
11, 5.0
12, 5.0
13, 5.0
14, 5.0
15, 5.0
16, 6.0
17, 7.0
18, 8.0
19, 8.0
20, 8.0
21, 8.0
22, 9.0
23, 9.0
24, 9.0
25, 10.0
26, 10.0
27, 11.0
28, 11.0
29, 12.0
30, 13.0
31, 14.0
32, 15.0
33, 16.0
34, 17.0
35, 18.0
36, 18.0
37, 18.0
38, 18.0
39, 19.0
40, 20.0
41, 21.0
42, 22.0
43, 22.0
44, 22.0
45, 23.0
46, 24.0
47, 24.0
48, 24.0
49, 24.0
50, 25.0
51, 26.0
52, 27.0
53, 28.0
54, 29.0
55, 29.0
56, 29.0
57, 30.0
58, 31.0
59, 32.0
60, 32.0
61, 32.0
62, 33.0
63, 33.0
64, 34.0
65, 34.0
66, 35.0
67, 35.0
68, 36.0
69, 36.0
70, 36.0
71, 37.0
72, 37.0
73, 37.0
74, 37.0
75, 37.0
76, 37.0
77, 37.0
78, 37.0
79, 37.0
80, 37.0
81, 37.0
82, 37.0
83, 37.0
84, 37.0
85, 37.0
86, 37.0
87, 37.0
88, 37.0
89, 37.0
90, 37.0
91, 37.0
92, 37.0
93, 37.0
94, 37.0
95, 37.0
96, 37.0
97, 37.0
98, 37.0
99, 37.0
100, 37.0
101, 37.0
102, 37.0
103, 37.0
104, 37.0
105, 37.0
