i, Result
0, 0.0
1, 0.0
2, 0.0
3, 0.0
4, 1.0
5, 2.0
6, 3.0
7, 4.0
8, 5.0
9, 6.0
10, 7.0
11, 7.0
12, 8.0
13, 8.0
14, 9.0
15, 9.0
16, 9.0
17, 10.0
18, 11.0
19, 12.0
20, 13.0
21, 14.0
22, 15.0
23, 15.0
24, 16.0
25, 16.0
26, 16.0
27, 16.0
28, 17.0
29, 17.0
30, 18.0
31, 18.0
32, 19.0
33, 19.0
34, 20.0
35, 20.0
36, 21.0
37, 22.0
38, 23.0
39, 24.0
40, 25.0
41, 26.0
42, 26.0
43, 27.0
44, 27.0
45, 28.0
46, 29.0
47, 30.0
48, 30.0
49, 31.0
50, 31.0
51, 32.0
52, 33.0
53, 34.0
54, 34.0
55, 35.0
56, 35.0
57, 36.0
58, 37.0
59, 38.0
60, 39.0
61, 39.0
62, 39.0
63, 40.0
64, 41.0
65, 42.0
66, 42.0
67, 43.0
68, 44.0
69, 45.0
70, 46.0
71, 46.0
72, 46.0
73, 46.0
74, 46.0
75, 47.0
76, 48.0
77, 48.0
78, 48.0
79, 48.0
80, 48.0
81, 48.0
82, 48.0
83, 48.0
84, 48.0
85, 48.0
86, 48.0
87, 48.0
88, 48.0
89, 48.0
90, 48.0
91, 48.0
92, 48.0
93, 48.0
94, 48.0
95, 48.0
96, 48.0
97, 48.0
98, 48.0
99, 48.0
100, 48.0
101, 48.0
102, 48.0
103, 48.0
104, 48.0
105, 48.0
