i, Result
0, 0.0
1, 0.0
2, 0.0
3, 1.0
4, 1.0
5, 2.0
6, 3.0
7, 4.0
8, 5.0
9, 5.0
10, 6.0
11, 6.0
12, 7.0
13, 8.0
14, 9.0
15, 10.0
16, 10.0
17, 11.0
18, 11.0
19, 12.0
20, 13.0
21, 14.0
22, 15.0
23, 16.0
24, 16.0
25, 17.0
26, 18.0
27, 18.0
28, 19.0
29, 20.0
30, 21.0
31, 21.0
32, 22.0
33, 23.0
34, 24.0
35, 24.0
36, 25.0
37, 25.0
38, 25.0
39, 26.0
40, 27.0
41, 28.0
42, 29.0
43, 30.0
44, 31.0
45, 32.0
46, 33.0
47, 33.0
48, 34.0
49, 35.0
50, 35.0
51, 36.0
52, 37.0
53, 38.0
54, 38.0
55, 39.0
56, 39.0
57, 40.0
58, 41.0
59, 42.0
60, 42.0
61, 42.0
62, 42.0
63, 42.0
64, 43.0
65, 44.0
66, 44.0
67, 45.0
68, 46.0
69, 46.0
70, 46.0
71, 47.0
72, 47.0
73, 48.0
74, 48.0
75, 48.0
76, 48.0
77, 48.0
78, 48.0
79, 48.0
80, 48.0
81, 48.0
82, 48.0
83, 48.0
84, 48.0
85, 48.0
86, 48.0
87, 48.0
88, 48.0
89, 48.0
90, 48.0
91, 48.0
92, 48.0
93, 48.0
94, 48.0
95, 48.0
96, 48.0
97, 48.0
98, 48.0
99, 48.0
100, 48.0
101, 48.0
102, 48.0
103, 48.0
104, 48.0
105, 48.0
