i, Result
0, 0.0
1, 0.0
2, 0.0
3, 1.0
4, 2.0
5, 2.0
6, 2.0
7, 3.0
8, 4.0
9, 4.0
10, 4.0
11, 4.0
12, 5.0
13, 5.0
14, 6.0
15, 7.0
16, 7.0
17, 7.0
18, 8.0
19, 8.0
20, 9.0
21, 10.0
22, 11.0
23, 12.0
24, 13.0
25, 13.0
26, 13.0
27, 14.0
28, 14.0
29, 14.0
30, 15.0
31, 16.0
32, 16.0
33, 17.0
34, 17.0
35, 17.0
36, 18.0
37, 18.0
38, 19.0
39, 20.0
40, 21.0
41, 21.0
42, 21.0
43, 22.0
44, 22.0
45, 23.0
46, 24.0
47, 24.0
48, 24.0
49, 24.0
50, 25.0
51, 26.0
52, 26.0
53, 26.0
54, 27.0
55, 27.0
56, 28.0
57, 29.0
58, 29.0
59, 29.0
60, 30.0
61, 31.0
62, 31.0
63, 32.0
64, 32.0
65, 33.0
66, 33.0
67, 33.0
68, 33.0
69, 33.0
70, 33.0
71, 33.0
72, 33.0
73, 33.0
74, 33.0
75, 33.0
76, 33.0
77, 33.0
78, 33.0
79, 33.0
80, 33.0
81, 33.0
82, 33.0
83, 33.0
84, 33.0
85, 33.0
86, 33.0
87, 33.0
88, 33.0
89, 33.0
90, 33.0
91, 33.0
92, 33.0
93, 33.0
94, 33.0
95, 33.0
96, 33.0
97, 33.0
98, 33.0
99, 33.0
100, 33.0
101, 33.0
102, 33.0
103, 33.0
104, 33.0
105, 33.0
