i, Result
0, 0.0
1, 0.0
2, 0.0
3, 1.0
4, 2.0
5, 3.0
6, 4.0
7, 4.0
8, 4.0
9, 4.0
10, 4.0
11, 5.0
12, 5.0
13, 5.0
14, 6.0
15, 6.0
16, 6.0
17, 6.0
18, 6.0
19, 7.0
20, 7.0
21, 7.0
22, 8.0
23, 8.0
24, 9.0
25, 9.0
26, 10.0
27, 10.0
28, 10.0
29, 11.0
30, 12.0
31, 12.0
32, 12.0
33, 13.0
34, 13.0
35, 14.0
36, 14.0
37, 14.0
38, 14.0
39, 15.0
40, 15.0
41, 16.0
42, 17.0
43, 17.0
44, 17.0
45, 17.0
46, 17.0
47, 18.0
48, 19.0
49, 19.0
50, 19.0
51, 19.0
52, 19.0
53, 20.0
54, 21.0
55, 21.0
56, 21.0
57, 22.0
58, 23.0
59, 24.0
60, 24.0
61, 25.0
62, 26.0
63, 26.0
64, 26.0
65, 26.0
66, 26.0
67, 26.0
68, 26.0
69, 26.0
70, 26.0
71, 26.0
72, 26.0
73, 26.0
74, 26.0
75, 26.0
76, 26.0
77, 26.0
78, 26.0
79, 26.0
80, 26.0
81, 26.0
82, 26.0
83, 26.0
84, 26.0
85, 26.0
86, 26.0
87, 26.0
88, 26.0
89, 26.0
90, 26.0
91, 26.0
92, 26.0
93, 26.0
94, 26.0
95, 26.0
96, 26.0
97, 26.0
98, 26.0
99, 26.0
100, 26.0
101, 26.0
102, 26.0
103, 26.0
104, 26.0
105, 26.0
