i, Result
0, 0.0
1, 0.0
2, 0.0
3, 0.0
4, 0.0
5, 1.0
6, 1.0
7, 1.0
8, 1.0
9, 2.0
10, 2.0
11, 3.0
12, 4.0
13, 4.0
14, 5.0
15, 6.0
16, 6.0
17, 6.0
18, 6.0
19, 6.0
20, 7.0
21, 8.0
22, 8.0
23, 9.0
24, 10.0
25, 10.0
26, 11.0
27, 12.0
28, 12.0
29, 12.0
30, 13.0
31, 13.0
32, 13.0
33, 13.0
34, 13.0
35, 14.0
36, 14.0
37, 15.0
38, 15.0
39, 15.0
40, 16.0
41, 17.0
42, 18.0
43, 19.0
44, 20.0
45, 21.0
46, 22.0
47, 22.0
48, 22.0
49, 23.0
50, 24.0
51, 25.0
52, 26.0
53, 26.0
54, 26.0
55, 27.0
56, 28.0
57, 28.0
58, 28.0
59, 28.0
60, 28.0
61, 28.0
62, 28.0
63, 28.0
64, 28.0
65, 28.0
66, 28.0
67, 28.0
68, 28.0
69, 28.0
70, 28.0
71, 28.0
72, 28.0
73, 28.0
74, 28.0
75, 28.0
76, 28.0
77, 28.0
78, 28.0
79, 28.0
80, 28.0
81, 28.0
82, 28.0
83, 28.0
84, 28.0
85, 28.0
86, 28.0
87, 28.0
88, 28.0
89, 28.0
90, 28.0
91, 28.0
92, 28.0
93, 28.0
94, 28.0
95, 28.0
96, 28.0
97, 28.0
98, 28.0
99, 28.0
100, 28.0
101, 28.0
102, 28.0
103, 28.0
104, 28.0
105, 28.0
