i, Result
0, 0.0
1, 0.0
2, 0.0
3, 1.0
4, 2.0
5, 3.0
6, 4.0
7, 5.0
8, 6.0
9, 6.0
10, 7.0
11, 8.0
12, 9.0
13, 9.0
14, 9.0
15, 10.0
16, 10.0
17, 10.0
18, 10.0
19, 10.0
20, 10.0
21, 11.0
22, 12.0
23, 12.0
24, 13.0
25, 13.0
26, 13.0
27, 13.0
28, 14.0
29, 15.0
30, 16.0
31, 17.0
32, 18.0
33, 18.0
34, 19.0
35, 20.0
36, 20.0
37, 21.0
38, 22.0
39, 23.0
40, 23.0
41, 24.0
42, 25.0
43, 25.0
44, 25.0
45, 25.0
46, 25.0
47, 26.0
48, 26.0
49, 27.0
50, 27.0
51, 27.0
52, 28.0
53, 28.0
54, 29.0
55, 30.0
56, 31.0
57, 31.0
58, 31.0
59, 32.0
60, 33.0
61, 34.0
62, 35.0
63, 36.0
64, 36.0
65, 37.0
66, 38.0
67, 39.0
68, 39.0
69, 40.0
70, 40.0
71, 40.0
72, 40.0
73, 41.0
74, 41.0
75, 41.0
76, 41.0
77, 41.0
78, 41.0
79, 41.0
80, 41.0
81, 41.0
82, 41.0
83, 41.0
84, 41.0
85, 41.0
86, 41.0
87, 41.0
88, 41.0
89, 41.0
90, 41.0
91, 41.0
92, 41.0
93, 41.0
94, 41.0
95, 41.0
96, 41.0
97, 41.0
98, 41.0
99, 41.0
100, 41.0
101, 41.0
102, 41.0
103, 41.0
104, 41.0
105, 41.0
