i, Result
0, 0.0
1, 0.0
2, 0.0
3, 0.0
4, 1.0
5, 1.0
6, 2.0
7, 2.0
8, 3.0
9, 3.0
10, 4.0
11, 5.0
12, 6.0
13, 7.0
14, 7.0
15, 8.0
16, 9.0
17, 10.0
18, 11.0
19, 12.0
20, 13.0
21, 13.0
22, 13.0
23, 13.0
24, 14.0
25, 15.0
26, 15.0
27, 16.0
28, 17.0
29, 17.0
30, 17.0
31, 17.0
32, 18.0
33, 19.0
34, 19.0
35, 19.0
36, 19.0
37, 20.0
38, 21.0
39, 22.0
40, 23.0
41, 23.0
42, 23.0
43, 24.0
44, 25.0
45, 25.0
46, 26.0
47, 26.0
48, 26.0
49, 27.0
50, 28.0
51, 29.0
52, 30.0
53, 31.0
54, 31.0
55, 31.0
56, 32.0
57, 32.0
58, 33.0
59, 34.0
60, 34.0
61, 34.0
62, 35.0
63, 35.0
64, 36.0
65, 36.0
66, 36.0
67, 36.0
68, 37.0
69, 38.0
70, 39.0
71, 40.0
72, 41.0
73, 41.0
74, 41.0
75, 41.0
76, 42.0
77, 42.0
78, 42.0
79, 42.0
80, 42.0
81, 42.0
82, 42.0
83, 42.0
84, 42.0
85, 42.0
86, 42.0
87, 42.0
88, 42.0
89, 42.0
90, 42.0
91, 42.0
92, 42.0
93, 42.0
94, 42.0
95, 42.0
96, 42.0
97, 42.0
98, 42.0
99, 42.0
100, 42.0
101, 42.0
102, 42.0
103, 42.0
104, 42.0
105, 42.0
