i, Result
0, 0.0
1, 0.0
2, 0.0
3, 1.0
4, 1.0
5, 2.0
6, 2.0
7, 3.0
8, 4.0
9, 4.0
10, 5.0
11, 6.0
12, 7.0
13, 8.0
14, 8.0
15, 9.0
16, 9.0
17, 10.0
18, 10.0
19, 10.0
20, 10.0
21, 10.0
22, 10.0
23, 10.0
24, 10.0
25, 10.0
26, 11.0
27, 12.0
28, 12.0
29, 12.0
30, 13.0
31, 14.0
32, 14.0
33, 15.0
34, 16.0
35, 16.0
36, 17.0
37, 17.0
38, 18.0
39, 19.0
40, 19.0
41, 20.0
42, 21.0
43, 21.0
44, 22.0
45, 22.0
46, 22.0
47, 22.0
48, 23.0
49, 24.0
50, 24.0
51, 24.0
52, 24.0
53, 24.0
54, 25.0
55, 26.0
56, 27.0
57, 27.0
58, 27.0
59, 27.0
60, 27.0
61, 28.0
62, 28.0
63, 29.0
64, 29.0
65, 29.0
66, 29.0
67, 30.0
68, 30.0
69, 30.0
70, 30.0
71, 30.0
72, 30.0
73, 30.0
74, 30.0
75, 30.0
76, 30.0
77, 30.0
78, 30.0
79, 30.0
80, 30.0
81, 30.0
82, 30.0
83, 30.0
84, 30.0
85, 30.0
86, 30.0
87, 30.0
88, 30.0
89, 30.0
90, 30.0
91, 30.0
92, 30.0
93, 30.0
94, 30.0
95, 30.0
96, 30.0
97, 30.0
98, 30.0
99, 30.0
100, 30.0
101, 30.0
102, 30.0
103, 30.0
104, 30.0
105, 30.0
