i, Result
0, 0.0
1, 0.0
2, 0.0
3, 0.0
4, 0.0
5, 0.0
6, 1.0
7, 2.0
8, 3.0
9, 3.0
10, 4.0
11, 5.0
12, 6.0
13, 6.0
14, 6.0
15, 7.0
16, 8.0
17, 8.0
18, 8.0
19, 8.0
20, 8.0
21, 9.0
22, 10.0
23, 10.0
24, 11.0
25, 12.0
26, 12.0
27, 13.0
28, 13.0
29, 14.0
30, 15.0
31, 15.0
32, 15.0
33, 16.0
34, 17.0
35, 18.0
36, 18.0
37, 18.0
38, 19.0
39, 19.0
40, 19.0
41, 20.0
42, 20.0
43, 20.0
44, 20.0
45, 21.0
46, 21.0
47, 21.0
48, 21.0
49, 22.0
50, 22.0
51, 22.0
52, 22.0
53, 22.0
54, 23.0
55, 24.0
56, 24.0
57, 24.0
58, 25.0
59, 26.0
60, 26.0
61, 26.0
62, 26.0
63, 26.0
64, 26.0
65, 26.0
66, 26.0
67, 26.0
68, 26.0
69, 26.0
70, 26.0
71, 26.0
72, 26.0
73, 26.0
74, 26.0
75, 26.0
76, 26.0
77, 26.0
78, 26.0
79, 26.0
80, 26.0
81, 26.0
82, 26.0
83, 26.0
84, 26.0
85, 26.0
86, 26.0
87, 26.0
88, 26.0
89, 26.0
90, 26.0
91, 26.0
92, 26.0
93, 26.0
94, 26.0
95, 26.0
96, 26.0
97, 26.0
98, 26.0
99, 26.0
100, 26.0
101, 26.0
102, 26.0
103, 26.0
104, 26.0
105, 26.0
