i, Result
0, 0.0
1, 0.0
2, 0.0
3, 0.0
4, 1.0
5, 2.0
6, 3.0
7, 4.0
8, 4.0
9, 4.0
10, 4.0
11, 5.0
12, 5.0
13, 5.0
14, 5.0
15, 5.0
16, 6.0
17, 7.0
18, 8.0
19, 8.0
20, 9.0
21, 10.0
22, 11.0
23, 11.0
24, 11.0
25, 12.0
26, 13.0
27, 13.0
28, 13.0
29, 14.0
30, 14.0
31, 14.0
32, 15.0
33, 15.0
34, 16.0
35, 17.0
36, 18.0
37, 19.0
38, 20.0
39, 20.0
40, 20.0
41, 21.0
42, 22.0
43, 22.0
44, 23.0
45, 24.0
46, 24.0
47, 25.0
48, 25.0
49, 26.0
50, 26.0
51, 26.0
52, 27.0
53, 27.0
54, 28.0
55, 29.0
56, 29.0
57, 29.0
58, 29.0
59, 30.0
60, 30.0
61, 31.0
62, 31.0
63, 31.0
64, 31.0
65, 32.0
66, 32.0
67, 33.0
68, 33.0
69, 34.0
70, 35.0
71, 35.0
72, 35.0
73, 35.0
74, 35.0
75, 35.0
76, 35.0
77, 35.0
78, 35.0
79, 35.0
80, 35.0
81, 35.0
82, 35.0
83, 35.0
84, 35.0
85, 35.0
86, 35.0
87, 35.0
88, 35.0
89, 35.0
90, 35.0
91, 35.0
92, 35.0
93, 35.0
94, 35.0
95, 35.0
96, 35.0
97, 35.0
98, 35.0
99, 35.0
100, 35.0
101, 35.0
102, 35.0
103, 35.0
104, 35.0
105, 35.0
