i, Result
0, 0.0
1, 0.0
2, 0.0
3, 1.0
4, 1.0
5, 1.0
6, 2.0
7, 2.0
8, 3.0
9, 4.0
10, 5.0
11, 6.0
12, 7.0
13, 7.0
14, 8.0
15, 9.0
16, 9.0
17, 9.0
18, 10.0
19, 11.0
20, 12.0
21, 13.0
22, 14.0
23, 15.0
24, 15.0
25, 16.0
26, 16.0
27, 17.0
28, 18.0
29, 19.0
30, 20.0
31, 21.0
32, 22.0
33, 23.0
34, 23.0
35, 24.0
36, 25.0
37, 25.0
38, 25.0
39, 25.0
40, 26.0
41, 27.0
42, 27.0
43, 27.0
44, 28.0
45, 29.0
46, 29.0
47, 30.0
48, 30.0
49, 31.0
50, 31.0
51, 31.0
52, 32.0
53, 33.0
54, 33.0
55, 33.0
56, 33.0
57, 34.0
58, 34.0
59, 35.0
60, 36.0
61, 36.0
62, 37.0
63, 38.0
64, 39.0
65, 39.0
66, 39.0
67, 40.0
68, 41.0
69, 41.0
70, 41.0
71, 41.0
72, 41.0
73, 41.0
74, 41.0
75, 41.0
76, 41.0
77, 41.0
78, 41.0
79, 41.0
80, 41.0
81, 41.0
82, 41.0
83, 41.0
84, 41.0
85, 41.0
86, 41.0
87, 41.0
88, 41.0
89, 41.0
90, 41.0
91, 41.0
92, 41.0
93, 41.0
94, 41.0
95, 41.0
96, 41.0
97, 41.0
98, 41.0
99, 41.0
100, 41.0
101, 41.0
102, 41.0
103, 41.0
104, 41.0
105, 41.0
