i, Result
0, 0.0
1, 0.0
2, 0.0
3, 1.0
4, 2.0
5, 3.0
6, 4.0
7, 5.0
8, 6.0
9, 7.0
10, 7.0
11, 8.0
12, 8.0
13, 8.0
14, 9.0
15, 10.0
16, 10.0
17, 10.0
18, 10.0
19, 10.0
20, 10.0
21, 10.0
22, 11.0
23, 12.0
24, 13.0
25, 14.0
26, 15.0
27, 16.0
28, 16.0
29, 16.0
30, 16.0
31, 17.0
32, 17.0
33, 17.0
34, 17.0
35, 18.0
36, 18.0
37, 18.0
38, 19.0
39, 20.0
40, 21.0
41, 21.0
42, 21.0
43, 21.0
44, 21.0
45, 21.0
46, 22.0
47, 23.0
48, 23.0
49, 23.0
50, 24.0
51, 24.0
52, 25.0
53, 25.0
54, 26.0
55, 27.0
56, 27.0
57, 27.0
58, 27.0
59, 28.0
60, 29.0
61, 29.0
62, 29.0
63, 29.0
64, 29.0
65, 29.0
66, 29.0
67, 29.0
68, 29.0
69, 29.0
70, 29.0
71, 29.0
72, 29.0
73, 29.0
74, 29.0
75, 29.0
76, 29.0
77, 29.0
78, 29.0
79, 29.0
80, 29.0
81, 29.0
82, 29.0
83, 29.0
84, 29.0
85, 29.0
86, 29.0
87, 29.0
88, 29.0
89, 29.0
90, 29.0
91, 29.0
92, 29.0
93, 29.0
94, 29.0
95, 29.0
96, 29.0
97, 29.0
98, 29.0
99, 29.0
100, 29.0
101, 29.0
102, 29.0
103, 29.0
104, 29.0
105, 29.0
