i, Result
0, 0.0
1, 0.0
2, 0.0
3, 1.0
4, 2.0
5, 2.0
6, 3.0
7, 4.0
8, 4.0
9, 4.0
10, 4.0
11, 4.0
12, 5.0
13, 5.0
14, 5.0
15, 5.0
16, 5.0
17, 6.0
18, 6.0
19, 7.0
20, 7.0
21, 7.0
22, 8.0
23, 9.0
24, 9.0
25, 10.0
26, 10.0
27, 10.0
28, 11.0
29, 11.0
30, 12.0
31, 13.0
32, 13.0
33, 13.0
34, 13.0
35, 13.0
36, 13.0
37, 13.0
38, 14.0
39, 15.0
40, 16.0
41, 17.0
42, 18.0
43, 18.0
44, 19.0
45, 20.0
46, 20.0
47, 21.0
48, 22.0
49, 22.0
50, 23.0
51, 23.0
52, 24.0
53, 24.0
54, 25.0
55, 25.0
56, 25.0
57, 26.0
58, 27.0
59, 28.0
60, 28.0
61, 29.0
62, 29.0
63, 30.0
64, 31.0
65, 31.0
66, 31.0
67, 32.0
68, 33.0
69, 34.0
70, 35.0
71, 35.0
72, 35.0
73, 35.0
74, 35.0
75, 35.0
76, 35.0
77, 35.0
78, 35.0
79, 35.0
80, 35.0
81, 35.0
82, 35.0
83, 35.0
84, 35.0
85, 35.0
86, 35.0
87, 35.0
88, 35.0
89, 35.0
90, 35.0
91, 35.0
92, 35.0
93, 35.0
94, 35.0
95, 35.0
96, 35.0
97, 35.0
98, 35.0
99, 35.0
100, 35.0
101, 35.0
102, 35.0
103, 35.0
104, 35.0
105, 35.0
