i, Result
0, 0.0
1, 0.0
2, 0.0
3, 1.0
4, 1.0
5, 2.0
6, 3.0
7, 4.0
8, 4.0
9, 4.0
10, 4.0
11, 4.0
12, 5.0
13, 5.0
14, 5.0
15, 5.0
16, 5.0
17, 5.0
18, 5.0
19, 6.0
20, 6.0
21, 6.0
22, 6.0
23, 7.0
24, 8.0
25, 9.0
26, 10.0
27, 10.0
28, 11.0
29, 12.0
30, 13.0
31, 13.0
32, 14.0
33, 15.0
34, 15.0
35, 16.0
36, 16.0
37, 16.0
38, 16.0
39, 17.0
40, 18.0
41, 18.0
42, 18.0
43, 18.0
44, 18.0
45, 19.0
46, 20.0
47, 21.0
48, 22.0
49, 23.0
50, 24.0
51, 24.0
52, 25.0
53, 25.0
54, 26.0
55, 26.0
56, 27.0
57, 28.0
58, 29.0
59, 30.0
60, 30.0
61, 30.0
62, 31.0
63, 32.0
64, 33.0
65, 34.0
66, 34.0
67, 34.0
68, 34.0
69, 34.0
70, 34.0
71, 34.0
72, 34.0
73, 34.0
74, 34.0
75, 34.0
76, 34.0
77, 34.0
78, 34.0
79, 34.0
80, 34.0
81, 34.0
82, 34.0
83, 34.0
84, 34.0
85, 34.0
86, 34.0
87, 34.0
88, 34.0
89, 34.0
90, 34.0
91, 34.0
92, 34.0
93, 34.0
94, 34.0
95, 34.0
96, 34.0
97, 34.0
98, 34.0
99, 34.0
100, 34.0
101, 34.0
102, 34.0
103, 34.0
104, 34.0
105, 34.0
