i, Result
0, 0.0
1, 0.0
2, 0.0
3, 0.0
4, 1.0
5, 1.0
6, 1.0
7, 2.0
8, 2.0
9, 3.0
10, 3.0
11, 4.0
12, 4.0
13, 4.0
14, 5.0
15, 6.0
16, 6.0
17, 7.0
18, 7.0
19, 8.0
20, 9.0
21, 10.0
22, 11.0
23, 12.0
24, 13.0
25, 14.0
26, 14.0
27, 14.0
28, 15.0
29, 16.0
30, 16.0
31, 16.0
32, 16.0
33, 16.0
34, 17.0
35, 17.0
36, 18.0
37, 19.0
38, 20.0
39, 20.0
40, 21.0
41, 22.0
42, 23.0
43, 23.0
44, 24.0
45, 25.0
46, 25.0
47, 26.0
48, 27.0
49, 27.0
50, 27.0
51, 28.0
52, 29.0
53, 29.0
54, 29.0
55, 29.0
56, 29.0
57, 30.0
58, 31.0
59, 32.0
60, 33.0
61, 34.0
62, 34.0
63, 34.0
64, 34.0
65, 34.0
66, 34.0
67, 34.0
68, 34.0
69, 34.0
70, 34.0
71, 34.0
72, 34.0
73, 34.0
74, 34.0
75, 34.0
76, 34.0
77, 34.0
78, 34.0
79, 34.0
80, 34.0
81, 34.0
82, 34.0
83, 34.0
84, 34.0
85, 34.0
86, 34.0
87, 34.0
88, 34.0
89, 34.0
90, 34.0
91, 34.0
92, 34.0
93, 34.0
94, 34.0
95, 34.0
96, 34.0
97, 34.0
98, 34.0
99, 34.0
100, 34.0
101, 34.0
102, 34.0
103, 34.0
104, 34.0
105, 34.0
