i, Result
0, 0.0
1, 0.0
2, 0.0
3, 1.0
4, 2.0
5, 2.0
6, 2.0
7, 2.0
8, 2.0
9, 2.0
10, 2.0
11, 2.0
12, 2.0
13, 2.0
14, 2.0
15, 2.0
16, 2.0
17, 3.0
18, 4.0
19, 5.0
20, 5.0
21, 5.0
22, 6.0
23, 6.0
24, 7.0
25, 7.0
26, 7.0
27, 7.0
28, 8.0
29, 8.0
30, 8.0
31, 8.0
32, 8.0
33, 8.0
34, 9.0
35, 9.0
36, 10.0
37, 11.0
38, 12.0
39, 13.0
40, 13.0
41, 14.0
42, 14.0
43, 15.0
44, 15.0
45, 15.0
46, 15.0
47, 15.0
48, 15.0
49, 15.0
50, 16.0
51, 17.0
52, 18.0
53, 19.0
54, 19.0
55, 19.0
56, 20.0
57, 21.0
58, 22.0
59, 23.0
60, 24.0
61, 25.0
62, 26.0
63, 26.0
64, 27.0
65, 27.0
66, 27.0
67, 27.0
68, 27.0
69, 27.0
70, 27.0
71, 27.0
72, 27.0
73, 27.0
74, 27.0
75, 27.0
76, 27.0
77, 27.0
78, 27.0
79, 27.0
80, 27.0
81, 27.0
82, 27.0
83, 27.0
84, 27.0
85, 27.0
86, 27.0
87, 27.0
88, 27.0
89, 27.0
90, 27.0
91, 27.0
92, 27.0
93, 27.0
94, 27.0
95, 27.0
96, 27.0
97, 27.0
98, 27.0
99, 27.0
100, 27.0
101, 27.0
102, 27.0
103, 27.0
104, 27.0
105, 27.0
