i, Result
0, 0.0
1, 0.0
2, 0.0
3, 0.0
4, 1.0
5, 2.0
6, 2.0
7, 2.0
8, 3.0
9, 4.0
10, 5.0
11, 6.0
12, 6.0
13, 6.0
14, 6.0
15, 6.0
16, 7.0
17, 8.0
18, 9.0
19, 9.0
20, 10.0
21, 11.0
22, 11.0
23, 11.0
24, 12.0
25, 13.0
26, 14.0
27, 15.0
28, 16.0
29, 17.0
30, 18.0
31, 19.0
32, 20.0
33, 21.0
34, 21.0
35, 22.0
36, 23.0
37, 24.0
38, 24.0
39, 25.0
40, 25.0
41, 25.0
42, 25.0
43, 26.0
44, 26.0
45, 27.0
46, 28.0
47, 29.0
48, 30.0
49, 31.0
50, 31.0
51, 31.0
52, 32.0
53, 32.0
54, 32.0
55, 32.0
56, 33.0
57, 33.0
58, 34.0
59, 35.0
60, 36.0
61, 37.0
62, 37.0
63, 37.0
64, 37.0
65, 38.0
66, 38.0
67, 38.0
68, 39.0
69, 40.0
70, 40.0
71, 40.0
72, 40.0
73, 40.0
74, 40.0
75, 40.0
76, 40.0
77, 40.0
78, 40.0
79, 40.0
80, 40.0
81, 40.0
82, 40.0
83, 40.0
84, 40.0
85, 40.0
86, 40.0
87, 40.0
88, 40.0
89, 40.0
90, 40.0
91, 40.0
92, 40.0
93, 40.0
94, 40.0
95, 40.0
96, 40.0
97, 40.0
98, 40.0
99, 40.0
100, 40.0
101, 40.0
102, 40.0
103, 40.0
104, 40.0
105, 40.0
