i, Result
0, 0.0
1, 0.0
2, 0.0
3, 1.0
4, 1.0
5, 2.0
6, 3.0
7, 4.0
8, 4.0
9, 5.0
10, 6.0
11, 7.0
12, 7.0
13, 7.0
14, 8.0
15, 8.0
16, 8.0
17, 8.0
18, 8.0
19, 8.0
20, 8.0
21, 9.0
22, 9.0
23, 9.0
24, 9.0
25, 9.0
26, 9.0
27, 9.0
28, 10.0
29, 11.0
30, 11.0
31, 11.0
32, 12.0
33, 12.0
34, 12.0
35, 13.0
36, 14.0
37, 15.0
38, 16.0
39, 16.0
40, 16.0
41, 17.0
42, 18.0
43, 18.0
44, 18.0
45, 19.0
46, 19.0
47, 20.0
48, 20.0
49, 21.0
50, 21.0
51, 22.0
52, 22.0
53, 23.0
54, 23.0
55, 24.0
56, 25.0
57, 26.0
58, 26.0
59, 27.0
60, 27.0
61, 28.0
62, 29.0
63, 29.0
64, 29.0
65, 30.0
66, 31.0
67, 31.0
68, 32.0
69, 33.0
70, 33.0
71, 33.0
72, 34.0
73, 35.0
74, 35.0
75, 36.0
76, 37.0
77, 37.0
78, 37.0
79, 37.0
80, 37.0
81, 37.0
82, 37.0
83, 37.0
84, 37.0
85, 37.0
86, 37.0
87, 37.0
88, 37.0
89, 37.0
90, 37.0
91, 37.0
92, 37.0
93, 37.0
94, 37.0
95, 37.0
96, 37.0
97, 37.0
98, 37.0
99, 37.0
100, 37.0
101, 37.0
102, 37.0
103, 37.0
104, 37.0
105, 37.0
