i, Result
0, 0.0
1, 0.0
2, 0.0
3, 1.0
4, 1.0
5, 2.0
6, 3.0
7, 3.0
8, 3.0
9, 3.0
10, 3.0
11, 3.0
12, 3.0
13, 3.0
14, 4.0
15, 5.0
16, 6.0
17, 7.0
18, 7.0
19, 8.0
20, 8.0
21, 8.0
22, 9.0
23, 10.0
24, 11.0
25, 11.0
26, 12.0
27, 13.0
28, 13.0
29, 13.0
30, 14.0
31, 14.0
32, 15.0
33, 16.0
34, 17.0
35, 18.0
36, 19.0
37, 20.0
38, 20.0
39, 20.0
40, 21.0
41, 21.0
42, 21.0
43, 21.0
44, 21.0
45, 22.0
46, 22.0
47, 23.0
48, 24.0
49, 24.0
50, 25.0
51, 25.0
52, 25.0
53, 25.0
54, 26.0
55, 27.0
56, 28.0
57, 28.0
58, 29.0
59, 30.0
60, 30.0
61, 31.0
62, 31.0
63, 32.0
64, 33.0
65, 33.0
66, 34.0
67, 35.0
68, 36.0
69, 37.0
70, 38.0
71, 39.0
72, 40.0
73, 40.0
74, 40.0
75, 40.0
76, 40.0
77, 40.0
78, 40.0
79, 40.0
80, 40.0
81, 40.0
82, 40.0
83, 40.0
84, 40.0
85, 40.0
86, 40.0
87, 40.0
88, 40.0
89, 40.0
90, 40.0
91, 40.0
92, 40.0
93, 40.0
94, 40.0
95, 40.0
96, 40.0
97, 40.0
98, 40.0
99, 40.0
100, 40.0
101, 40.0
102, 40.0
103, 40.0
104, 40.0
105, 40.0
