i, Result
0, 0.0
1, 0.0
2, 0.0
3, 1.0
4, 1.0
5, 2.0
6, 3.0
7, 3.0
8, 3.0
9, 4.0
10, 5.0
11, 5.0
12, 5.0
13, 6.0
14, 6.0
15, 7.0
16, 8.0
17, 8.0
18, 9.0
19, 10.0
20, 10.0
21, 10.0
22, 10.0
23, 10.0
24, 10.0
25, 10.0
26, 11.0
27, 11.0
28, 11.0
29, 12.0
30, 13.0
31, 14.0
32, 14.0
33, 14.0
34, 14.0
35, 15.0
36, 15.0
37, 15.0
38, 16.0
39, 16.0
40, 17.0
41, 18.0
42, 18.0
43, 19.0
44, 19.0
45, 19.0
46, 20.0
47, 21.0
48, 21.0
49, 21.0
50, 22.0
51, 22.0
52, 22.0
53, 22.0
54, 23.0
55, 24.0
56, 25.0
57, 25.0
58, 26.0
59, 27.0
60, 28.0
61, 29.0
62, 29.0
63, 30.0
64, 31.0
65, 32.0
66, 32.0
67, 33.0
68, 33.0
69, 34.0
70, 34.0
71, 34.0
72, 35.0
73, 35.0
74, 36.0
75, 36.0
76, 36.0
77, 36.0
78, 36.0
79, 36.0
80, 36.0
81, 36.0
82, 36.0
83, 36.0
84, 36.0
85, 36.0
86, 36.0
87, 36.0
88, 36.0
89, 36.0
90, 36.0
91, 36.0
92, 36.0
93, 36.0
94, 36.0
95, 36.0
96, 36.0
97, 36.0
98, 36.0
99, 36.0
100, 36.0
101, 36.0
102, 36.0
103, 36.0
104, 36.0
105, 36.0
