i, Result
0, 0.0
1, 0.0
2, 0.0
3, 1.0
4, 2.0
5, 3.0
6, 3.0
7, 4.0
8, 5.0
9, 6.0
10, 6.0
11, 6.0
12, 7.0
13, 8.0
14, 8.0
15, 8.0
16, 8.0
17, 8.0
18, 8.0
19, 8.0
20, 8.0
21, 9.0
22, 10.0
23, 11.0
24, 11.0
25, 11.0
26, 12.0
27, 12.0
28, 12.0
29, 13.0
30, 13.0
31, 13.0
32, 14.0
33, 14.0
34, 15.0
35, 15.0
36, 16.0
37, 17.0
38, 17.0
39, 17.0
40, 18.0
41, 19.0
42, 20.0
43, 21.0
44, 21.0
45, 22.0
46, 22.0
47, 23.0
48, 23.0
49, 23.0
50, 23.0
51, 24.0
52, 25.0
53, 26.0
54, 26.0
55, 27.0
56, 28.0
57, 28.0
58, 28.0
59, 29.0
60, 30.0
61, 30.0
62, 31.0
63, 31.0
64, 31.0
65, 31.0
66, 31.0
67, 31.0
68, 31.0
69, 31.0
70, 31.0
71, 31.0
72, 31.0
73, 31.0
74, 31.0
75, 31.0
76, 31.0
77, 31.0
78, 31.0
79, 31.0
80, 31.0
81, 31.0
82, 31.0
83, 31.0
84, 31.0
85, 31.0
86, 31.0
87, 31.0
88, 31.0
89, 31.0
90, 31.0
91, 31.0
92, 31.0
93, 31.0
94, 31.0
95, 31.0
96, 31.0
97, 31.0
98, 31.0
99, 31.0
100, 31.0
101, 31.0
102, 31.0
103, 31.0
104, 31.0
105, 31.0
