i, Result
0, 0.0
1, 0.0
2, 0.0
3, 0.0
4, 0.0
5, 0.0
6, 0.0
7, 1.0
8, 1.0
9, 1.0
10, 2.0
11, 3.0
12, 3.0
13, 3.0
14, 4.0
15, 5.0
16, 5.0
17, 5.0
18, 6.0
19, 6.0
20, 7.0
21, 7.0
22, 8.0
23, 8.0
24, 8.0
25, 8.0
26, 8.0
27, 9.0
28, 9.0
29, 9.0
30, 10.0
31, 11.0
32, 11.0
33, 11.0
34, 12.0
35, 12.0
36, 12.0
37, 13.0
38, 13.0
39, 14.0
40, 15.0
41, 15.0
42, 15.0
43, 15.0
44, 15.0
45, 15.0
46, 15.0
47, 15.0
48, 16.0
49, 16.0
50, 16.0
51, 16.0
52, 16.0
53, 16.0
54, 17.0
55, 18.0
56, 18.0
57, 18.0
58, 18.0
59, 18.0
60, 18.0
61, 18.0
62, 18.0
63, 18.0
64, 18.0
65, 18.0
66, 18.0
67, 18.0
68, 18.0
69, 18.0
70, 18.0
71, 18.0
72, 18.0
73, 18.0
74, 18.0
75, 18.0
76, 18.0
77, 18.0
78, 18.0
79, 18.0
80, 18.0
81, 18.0
82, 18.0
83, 18.0
84, 18.0
85, 18.0
86, 18.0
87, 18.0
88, 18.0
89, 18.0
90, 18.0
91, 18.0
92, 18.0
93, 18.0
94, 18.0
95, 18.0
96, 18.0
97, 18.0
98, 18.0
99, 18.0
100, 18.0
101, 18.0
102, 18.0
103, 18.0
104, 18.0
105, 18.0
