i, Result
0, 0.0
1, 0.0
2, 0.0
3, 0.0
4, 1.0
5, 1.0
6, 2.0
7, 3.0
8, 4.0
9, 5.0
10, 5.0
11, 6.0
12, 6.0
13, 6.0
14, 7.0
15, 8.0
16, 8.0
17, 8.0
18, 8.0
19, 8.0
20, 8.0
21, 9.0
22, 9.0
23, 10.0
24, 10.0
25, 11.0
26, 11.0
27, 11.0
28, 12.0
29, 13.0
30, 13.0
31, 13.0
32, 13.0
33, 14.0
34, 14.0
35, 15.0
36, 16.0
37, 17.0
38, 18.0
39, 19.0
40, 19.0
41, 19.0
42, 20.0
43, 20.0
44, 21.0
45, 22.0
46, 22.0
47, 23.0
48, 23.0
49, 24.0
50, 24.0
51, 25.0
52, 26.0
53, 26.0
54, 27.0
55, 28.0
56, 29.0
57, 30.0
58, 30.0
59, 31.0
60, 31.0
61, 32.0
62, 32.0
63, 32.0
64, 33.0
65, 33.0
66, 34.0
67, 35.0
68, 36.0
69, 36.0
70, 37.0
71, 37.0
72, 37.0
73, 37.0
74, 37.0
75, 37.0
76, 37.0
77, 37.0
78, 37.0
79, 37.0
80, 37.0
81, 37.0
82, 37.0
83, 37.0
84, 37.0
85, 37.0
86, 37.0
87, 37.0
88, 37.0
89, 37.0
90, 37.0
91, 37.0
92, 37.0
93, 37.0
94, 37.0
95, 37.0
96, 37.0
97, 37.0
98, 37.0
99, 37.0
100, 37.0
101, 37.0
102, 37.0
103, 37.0
104, 37.0
105, 37.0
