i, Result
0, 0.0
1, 0.0
2, 0.0
3, 1.0
4, 2.0
5, 3.0
6, 4.0
7, 5.0
8, 5.0
9, 5.0
10, 5.0
11, 5.0
12, 5.0
13, 6.0
14, 6.0
15, 7.0
16, 7.0
17, 7.0
18, 8.0
19, 8.0
20, 8.0
21, 8.0
22, 8.0
23, 8.0
24, 9.0
25, 9.0
26, 9.0
27, 9.0
28, 9.0
29, 10.0
30, 11.0
31, 12.0
32, 12.0
33, 13.0
34, 13.0
35, 13.0
36, 13.0
37, 14.0
38, 14.0
39, 14.0
40, 15.0
41, 16.0
42, 16.0
43, 17.0
44, 17.0
45, 17.0
46, 17.0
47, 17.0
48, 17.0
49, 18.0
50, 18.0
51, 19.0
52, 19.0
53, 19.0
54, 20.0
55, 21.0
56, 22.0
57, 23.0
58, 23.0
59, 23.0
60, 24.0
61, 24.0
62, 25.0
63, 26.0
64, 26.0
65, 27.0
66, 27.0
67, 27.0
68, 27.0
69, 27.0
70, 27.0
71, 27.0
72, 27.0
73, 27.0
74, 27.0
75, 27.0
76, 27.0
77, 27.0
78, 27.0
79, 27.0
80, 27.0
81, 27.0
82, 27.0
83, 27.0
84, 27.0
85, 27.0
86, 27.0
87, 27.0
88, 27.0
89, 27.0
90, 27.0
91, 27.0
92, 27.0
93, 27.0
94, 27.0
95, 27.0
96, 27.0
97, 27.0
98, 27.0
99, 27.0
100, 27.0
101, 27.0
102, 27.0
103, 27.0
104, 27.0
105, 27.0
