i, Result
0, 0.0
1, 0.0
2, 0.0
3, 1.0
4, 1.0
5, 2.0
6, 3.0
7, 4.0
8, 5.0
9, 6.0
10, 6.0
11, 7.0
12, 8.0
13, 9.0
14, 10.0
15, 11.0
16, 12.0
17, 12.0
18, 12.0
19, 12.0
20, 13.0
21, 13.0
22, 14.0
23, 14.0
24, 14.0
25, 15.0
26, 15.0
27, 16.0
28, 17.0
29, 18.0
30, 19.0
31, 19.0
32, 19.0
33, 20.0
34, 21.0
35, 22.0
36, 22.0
37, 22.0
38, 23.0
39, 23.0
40, 24.0
41, 24.0
42, 25.0
43, 26.0
44, 27.0
45, 28.0
46, 28.0
47, 29.0
48, 29.0
49, 29.0
50, 29.0
51, 29.0
52, 29.0
53, 29.0
54, 29.0
55, 29.0
56, 29.0
57, 30.0
58, 30.0
59, 31.0
60, 31.0
61, 31.0
62, 31.0
63, 32.0
64, 33.0
65, 33.0
66, 34.0
67, 35.0
68, 35.0
69, 35.0
70, 35.0
71, 35.0
72, 35.0
73, 35.0
74, 35.0
75, 35.0
76, 35.0
77, 35.0
78, 35.0
79, 35.0
80, 35.0
81, 35.0
82, 35.0
83, 35.0
84, 35.0
85, 35.0
86, 35.0
87, 35.0
88, 35.0
89, 35.0
90, 35.0
91, 35.0
92, 35.0
93, 35.0
94, 35.0
95, 35.0
96, 35.0
97, 35.0
98, 35.0
99, 35.0
100, 35.0
101, 35.0
102, 35.0
103, 35.0
104, 35.0
105, 35.0
