i, Result
0, 0.0
1, 0.0
2, 0.0
3, 0.0
4, 0.0
5, 1.0
6, 1.0
7, 1.0
8, 2.0
9, 2.0
10, 2.0
11, 2.0
12, 3.0
13, 4.0
14, 5.0
15, 5.0
16, 6.0
17, 7.0
18, 8.0
19, 9.0
20, 10.0
21, 10.0
22, 11.0
23, 11.0
24, 12.0
25, 12.0
26, 12.0
27, 13.0
28, 14.0
29, 14.0
30, 14.0
31, 14.0
32, 15.0
33, 15.0
34, 15.0
35, 15.0
36, 15.0
37, 16.0
38, 17.0
39, 17.0
40, 18.0
41, 19.0
42, 19.0
43, 20.0
44, 20.0
45, 20.0
46, 21.0
47, 21.0
48, 21.0
49, 21.0
50, 22.0
51, 23.0
52, 23.0
53, 24.0
54, 24.0
55, 25.0
56, 26.0
57, 27.0
58, 28.0
59, 29.0
60, 30.0
61, 31.0
62, 32.0
63, 33.0
64, 33.0
65, 34.0
66, 34.0
67, 34.0
68, 34.0
69, 34.0
70, 34.0
71, 34.0
72, 34.0
73, 34.0
74, 34.0
75, 34.0
76, 34.0
77, 34.0
78, 34.0
79, 34.0
80, 34.0
81, 34.0
82, 34.0
83, 34.0
84, 34.0
85, 34.0
86, 34.0
87, 34.0
88, 34.0
89, 34.0
90, 34.0
91, 34.0
92, 34.0
93, 34.0
94, 34.0
95, 34.0
96, 34.0
97, 34.0
98, 34.0
99, 34.0
100, 34.0
101, 34.0
102, 34.0
103, 34.0
104, 34.0
105, 34.0
