i, Result
0, 0.0
1, 0.0
2, 0.0
3, 1.0
4, 2.0
5, 3.0
6, 3.0
7, 3.0
8, 3.0
9, 3.0
10, 4.0
11, 5.0
12, 5.0
13, 5.0
14, 5.0
15, 6.0
16, 6.0
17, 6.0
18, 6.0
19, 6.0
20, 7.0
21, 8.0
22, 9.0
23, 10.0
24, 10.0
25, 11.0
26, 11.0
27, 11.0
28, 12.0
29, 13.0
30, 14.0
31, 14.0
32, 15.0
33, 15.0
34, 16.0
35, 16.0
36, 16.0
37, 17.0
38, 17.0
39, 17.0
40, 18.0
41, 18.0
42, 19.0
43, 19.0
44, 19.0
45, 19.0
46, 19.0
47, 20.0
48, 21.0
49, 21.0
50, 22.0
51, 22.0
52, 23.0
53, 23.0
54, 24.0
55, 24.0
56, 24.0
57, 25.0
58, 26.0
59, 26.0
60, 27.0
61, 27.0
62, 27.0
63, 27.0
64, 27.0
65, 28.0
66, 28.0
67, 29.0
68, 30.0
69, 30.0
70, 31.0
71, 31.0
72, 31.0
73, 31.0
74, 31.0
75, 31.0
76, 31.0
77, 31.0
78, 31.0
79, 31.0
80, 31.0
81, 31.0
82, 31.0
83, 31.0
84, 31.0
85, 31.0
86, 31.0
87, 31.0
88, 31.0
89, 31.0
90, 31.0
91, 31.0
92, 31.0
93, 31.0
94, 31.0
95, 31.0
96, 31.0
97, 31.0
98, 31.0
99, 31.0
100, 31.0
101, 31.0
102, 31.0
103, 31.0
104, 31.0
105, 31.0
