i, Result
0, 0.0
1, 0.0
2, 0.0
3, 0.0
4, 0.0
5, 0.0
6, 0.0
7, 0.0
8, 0.0
9, 0.0
10, 0.0
11, 1.0
12, 1.0
13, 2.0
14, 2.0
15, 2.0
16, 3.0
17, 3.0
18, 4.0
19, 5.0
20, 5.0
21, 5.0
22, 6.0
23, 7.0
24, 8.0
25, 9.0
26, 10.0
27, 11.0
28, 11.0
29, 11.0
30, 11.0
31, 11.0
32, 12.0
33, 13.0
34, 14.0
35, 14.0
36, 15.0
37, 15.0
38, 16.0
39, 17.0
40, 18.0
41, 19.0
42, 19.0
43, 20.0
44, 21.0
45, 22.0
46, 22.0
47, 22.0
48, 22.0
49, 23.0
50, 24.0
51, 24.0
52, 25.0
53, 26.0
54, 26.0
55, 26.0
56, 26.0
57, 27.0
58, 28.0
59, 28.0
60, 28.0
61, 28.0
62, 29.0
63, 30.0
64, 30.0
65, 31.0
66, 31.0
67, 31.0
68, 32.0
69, 32.0
70, 32.0
71, 32.0
72, 33.0
73, 33.0
74, 33.0
75, 33.0
76, 33.0
77, 33.0
78, 33.0
79, 33.0
80, 33.0
81, 33.0
82, 33.0
83, 33.0
84, 33.0
85, 33.0
86, 33.0
87, 33.0
88, 33.0
89, 33.0
90, 33.0
91, 33.0
92, 33.0
93, 33.0
94, 33.0
95, 33.0
96, 33.0
97, 33.0
98, 33.0
99, 33.0
100, 33.0
101, 33.0
102, 33.0
103, 33.0
104, 33.0
105, 33.0
