i, Result
0, 0.0
1, 0.0
2, 0.0
3, 1.0
4, 1.0
5, 2.0
6, 2.0
7, 3.0
8, 4.0
9, 4.0
10, 5.0
11, 5.0
12, 6.0
13, 6.0
14, 7.0
15, 7.0
16, 8.0
17, 9.0
18, 9.0
19, 10.0
20, 10.0
21, 11.0
22, 12.0
23, 13.0
24, 13.0
25, 13.0
26, 13.0
27, 14.0
28, 15.0
29, 15.0
30, 16.0
31, 17.0
32, 17.0
33, 17.0
34, 18.0
35, 18.0
36, 19.0
37, 20.0
38, 20.0
39, 20.0
40, 21.0
41, 21.0
42, 21.0
43, 22.0
44, 23.0
45, 24.0
46, 24.0
47, 25.0
48, 25.0
49, 26.0
50, 26.0
51, 26.0
52, 27.0
53, 27.0
54, 27.0
55, 28.0
56, 29.0
57, 29.0
58, 30.0
59, 31.0
60, 31.0
61, 31.0
62, 31.0
63, 31.0
64, 31.0
65, 31.0
66, 31.0
67, 32.0
68, 33.0
69, 34.0
70, 35.0
71, 36.0
72, 37.0
73, 37.0
74, 38.0
75, 38.0
76, 38.0
77, 38.0
78, 38.0
79, 38.0
80, 38.0
81, 38.0
82, 38.0
83, 38.0
84, 38.0
85, 38.0
86, 38.0
87, 38.0
88, 38.0
89, 38.0
90, 38.0
91, 38.0
92, 38.0
93, 38.0
94, 38.0
95, 38.0
96, 38.0
97, 38.0
98, 38.0
99, 38.0
100, 38.0
101, 38.0
102, 38.0
103, 38.0
104, 38.0
105, 38.0
