i, Result
0, 0.0
1, 0.0
2, 0.0
3, 0.0
4, 0.0
5, 1.0
6, 2.0
7, 3.0
8, 4.0
9, 5.0
10, 6.0
11, 7.0
12, 7.0
13, 8.0
14, 9.0
15, 9.0
16, 9.0
17, 10.0
18, 10.0
19, 10.0
20, 11.0
21, 11.0
22, 11.0
23, 12.0
24, 13.0
25, 14.0
26, 14.0
27, 14.0
28, 14.0
29, 15.0
30, 16.0
31, 16.0
32, 16.0
33, 16.0
34, 16.0
35, 17.0
36, 17.0
37, 17.0
38, 18.0
39, 19.0
40, 19.0
41, 20.0
42, 20.0
43, 21.0
44, 22.0
45, 22.0
46, 22.0
47, 22.0
48, 23.0
49, 23.0
50, 24.0
51, 25.0
52, 26.0
53, 27.0
54, 27.0
55, 27.0
56, 28.0
57, 29.0
58, 30.0
59, 30.0
60, 31.0
61, 32.0
62, 32.0
63, 33.0
64, 33.0
65, 33.0
66, 33.0
67, 33.0
68, 33.0
69, 33.0
70, 33.0
71, 33.0
72, 33.0
73, 33.0
74, 33.0
75, 33.0
76, 33.0
77, 33.0
78, 33.0
79, 33.0
80, 33.0
81, 33.0
82, 33.0
83, 33.0
84, 33.0
85, 33.0
86, 33.0
87, 33.0
88, 33.0
89, 33.0
90, 33.0
91, 33.0
92, 33.0
93, 33.0
94, 33.0
95, 33.0
96, 33.0
97, 33.0
98, 33.0
99, 33.0
100, 33.0
101, 33.0
102, 33.0
103, 33.0
104, 33.0
105, 33.0
