i, Result
0, 0.0
1, 0.0
2, 0.0
3, 1.0
4, 2.0
5, 2.0
6, 2.0
7, 2.0
8, 3.0
9, 4.0
10, 5.0
11, 5.0
12, 6.0
13, 7.0
14, 8.0
15, 9.0
16, 10.0
17, 10.0
18, 11.0
19, 12.0
20, 13.0
21, 14.0
22, 14.0
23, 14.0
24, 14.0
25, 14.0
26, 15.0
27, 16.0
28, 17.0
29, 18.0
30, 18.0
31, 18.0
32, 19.0
33, 19.0
34, 19.0
35, 20.0
36, 21.0
37, 22.0
38, 22.0
39, 23.0
40, 23.0
41, 24.0
42, 25.0
43, 26.0
44, 27.0
45, 27.0
46, 28.0
47, 28.0
48, 29.0
49, 30.0
50, 31.0
51, 32.0
52, 33.0
53, 33.0
54, 33.0
55, 33.0
56, 33.0
57, 34.0
58, 35.0
59, 36.0
60, 36.0
61, 36.0
62, 36.0
63, 37.0
64, 37.0
65, 38.0
66, 39.0
67, 40.0
68, 41.0
69, 41.0
70, 41.0
71, 42.0
72, 43.0
73, 43.0
74, 43.0
75, 43.0
76, 43.0
77, 43.0
78, 43.0
79, 43.0
80, 43.0
81, 43.0
82, 43.0
83, 43.0
84, 43.0
85, 43.0
86, 43.0
87, 43.0
88, 43.0
89, 43.0
90, 43.0
91, 43.0
92, 43.0
93, 43.0
94, 43.0
95, 43.0
96, 43.0
97, 43.0
98, 43.0
99, 43.0
100, 43.0
101, 43.0
102, 43.0
103, 43.0
104, 43.0
105, 43.0
