i, Result
0, 0.0
1, 0.0
2, 0.0
3, 1.0
4, 2.0
5, 2.0
6, 3.0
7, 3.0
8, 4.0
9, 4.0
10, 5.0
11, 5.0
12, 6.0
13, 7.0
14, 7.0
15, 8.0
16, 8.0
17, 9.0
18, 10.0
19, 10.0
20, 11.0
21, 12.0
22, 12.0
23, 13.0
24, 13.0
25, 14.0
26, 14.0
27, 15.0
28, 16.0
29, 17.0
30, 18.0
31, 18.0
32, 18.0
33, 19.0
34, 20.0
35, 21.0
36, 22.0
37, 22.0
38, 22.0
39, 23.0
40, 24.0
41, 25.0
42, 25.0
43, 26.0
44, 26.0
45, 27.0
46, 27.0
47, 27.0
48, 28.0
49, 29.0
50, 30.0
51, 30.0
52, 30.0
53, 30.0
54, 31.0
55, 32.0
56, 33.0
57, 34.0
58, 35.0
59, 36.0
60, 36.0
61, 37.0
62, 37.0
63, 38.0
64, 39.0
65, 40.0
66, 40.0
67, 41.0
68, 42.0
69, 43.0
70, 44.0
71, 44.0
72, 45.0
73, 46.0
74, 47.0
75, 47.0
76, 48.0
77, 48.0
78, 49.0
79, 49.0
80, 49.0
81, 49.0
82, 49.0
83, 49.0
84, 49.0
85, 49.0
86, 49.0
87, 49.0
88, 49.0
89, 49.0
90, 49.0
91, 49.0
92, 49.0
93, 49.0
94, 49.0
95, 49.0
96, 49.0
97, 49.0
98, 49.0
99, 49.0
100, 49.0
101, 49.0
102, 49.0
103, 49.0
104, 49.0
105, 49.0
