i, Result
0, 0.0
1, 0.0
2, 0.0
3, 0.0
4, 0.0
5, 0.0
6, 0.0
7, 0.0
8, 1.0
9, 1.0
10, 1.0
11, 2.0
12, 2.0
13, 3.0
14, 3.0
15, 3.0
16, 4.0
17, 5.0
18, 6.0
19, 6.0
20, 7.0
21, 8.0
22, 8.0
23, 9.0
24, 9.0
25, 9.0
26, 9.0
27, 9.0
28, 9.0
29, 9.0
30, 10.0
31, 11.0
32, 11.0
33, 12.0
34, 12.0
35, 12.0
36, 13.0
37, 14.0
38, 15.0
39, 16.0
40, 16.0
41, 17.0
42, 18.0
43, 19.0
44, 20.0
45, 21.0
46, 21.0
47, 22.0
48, 23.0
49, 24.0
50, 25.0
51, 26.0
52, 27.0
53, 28.0
54, 29.0
55, 30.0
56, 30.0
57, 30.0
58, 31.0
59, 31.0
60, 31.0
61, 31.0
62, 32.0
63, 33.0
64, 34.0
65, 34.0
66, 34.0
67, 34.0
68, 34.0
69, 34.0
70, 34.0
71, 34.0
72, 34.0
73, 34.0
74, 34.0
75, 34.0
76, 34.0
77, 34.0
78, 34.0
79, 34.0
80, 34.0
81, 34.0
82, 34.0
83, 34.0
84, 34.0
85, 34.0
86, 34.0
87, 34.0
88, 34.0
89, 34.0
90, 34.0
91, 34.0
92, 34.0
93, 34.0
94, 34.0
95, 34.0
96, 34.0
97, 34.0
98, 34.0
99, 34.0
100, 34.0
101, 34.0
102, 34.0
103, 34.0
104, 34.0
105, 34.0
