i, Result
0, 0.0
1, 0.0
2, 0.0
3, 0.0
4, 1.0
5, 2.0
6, 2.0
7, 2.0
8, 2.0
9, 2.0
10, 2.0
11, 3.0
12, 3.0
13, 3.0
14, 4.0
15, 4.0
16, 4.0
17, 4.0
18, 4.0
19, 5.0
20, 5.0
21, 6.0
22, 7.0
23, 7.0
24, 7.0
25, 7.0
26, 7.0
27, 7.0
28, 8.0
29, 9.0
30, 10.0
31, 10.0
32, 10.0
33, 10.0
34, 11.0
35, 12.0
36, 13.0
37, 14.0
38, 15.0
39, 16.0
40, 16.0
41, 16.0
42, 16.0
43, 16.0
44, 17.0
45, 17.0
46, 17.0
47, 18.0
48, 18.0
49, 18.0
50, 18.0
51, 18.0
52, 18.0
53, 18.0
54, 19.0
55, 19.0
56, 20.0
57, 20.0
58, 20.0
59, 21.0
60, 22.0
61, 23.0
62, 24.0
63, 25.0
64, 26.0
65, 26.0
66, 26.0
67, 26.0
68, 26.0
69, 26.0
70, 26.0
71, 26.0
72, 26.0
73, 26.0
74, 26.0
75, 26.0
76, 26.0
77, 26.0
78, 26.0
79, 26.0
80, 26.0
81, 26.0
82, 26.0
83, 26.0
84, 26.0
85, 26.0
86, 26.0
87, 26.0
88, 26.0
89, 26.0
90, 26.0
91, 26.0
92, 26.0
93, 26.0
94, 26.0
95, 26.0
96, 26.0
97, 26.0
98, 26.0
99, 26.0
100, 26.0
101, 26.0
102, 26.0
103, 26.0
104, 26.0
105, 26.0
