i, Result
0, 0.0
1, 0.0
2, 0.0
3, 1.0
4, 2.0
5, 2.0
6, 3.0
7, 4.0
8, 5.0
9, 5.0
10, 6.0
11, 7.0
12, 7.0
13, 8.0
14, 8.0
15, 8.0
16, 9.0
17, 10.0
18, 11.0
19, 11.0
20, 11.0
21, 11.0
22, 12.0
23, 12.0
24, 13.0
25, 14.0
26, 15.0
27, 16.0
28, 17.0
29, 17.0
30, 18.0
31, 19.0
32, 20.0
33, 20.0
34, 21.0
35, 22.0
36, 23.0
37, 23.0
38, 24.0
39, 25.0
40, 25.0
41, 25.0
42, 26.0
43, 27.0
44, 27.0
45, 28.0
46, 29.0
47, 30.0
48, 31.0
49, 32.0
50, 33.0
51, 33.0
52, 33.0
53, 33.0
54, 34.0
55, 34.0
56, 35.0
57, 35.0
58, 35.0
59, 36.0
60, 36.0
61, 36.0
62, 36.0
63, 36.0
64, 36.0
65, 36.0
66, 36.0
67, 36.0
68, 36.0
69, 36.0
70, 36.0
71, 36.0
72, 36.0
73, 36.0
74, 36.0
75, 36.0
76, 36.0
77, 36.0
78, 36.0
79, 36.0
80, 36.0
81, 36.0
82, 36.0
83, 36.0
84, 36.0
85, 36.0
86, 36.0
87, 36.0
88, 36.0
89, 36.0
90, 36.0
91, 36.0
92, 36.0
93, 36.0
94, 36.0
95, 36.0
96, 36.0
97, 36.0
98, 36.0
99, 36.0
100, 36.0
101, 36.0
102, 36.0
103, 36.0
104, 36.0
105, 36.0
