i, Result
0, 0.0
1, 0.0
2, 0.0
3, 1.0
4, 2.0
5, 3.0
6, 4.0
7, 5.0
8, 5.0
9, 6.0
10, 7.0
11, 7.0
12, 8.0
13, 8.0
14, 9.0
15, 10.0
16, 11.0
17, 12.0
18, 13.0
19, 14.0
20, 14.0
21, 15.0
22, 16.0
23, 16.0
24, 17.0
25, 18.0
26, 19.0
27, 20.0
28, 20.0
29, 20.0
30, 20.0
31, 20.0
32, 21.0
33, 22.0
34, 22.0
35, 23.0
36, 24.0
37, 24.0
38, 24.0
39, 25.0
40, 25.0
41, 25.0
42, 26.0
43, 26.0
44, 27.0
45, 28.0
46, 28.0
47, 28.0
48, 28.0
49, 29.0
50, 30.0
51, 30.0
52, 30.0
53, 30.0
54, 31.0
55, 32.0
56, 32.0
57, 32.0
58, 33.0
59, 33.0
60, 33.0
61, 34.0
62, 34.0
63, 34.0
64, 35.0
65, 36.0
66, 36.0
67, 36.0
68, 36.0
69, 36.0
70, 36.0
71, 36.0
72, 36.0
73, 36.0
74, 36.0
75, 36.0
76, 36.0
77, 36.0
78, 36.0
79, 36.0
80, 36.0
81, 36.0
82, 36.0
83, 36.0
84, 36.0
85, 36.0
86, 36.0
87, 36.0
88, 36.0
89, 36.0
90, 36.0
91, 36.0
92, 36.0
93, 36.0
94, 36.0
95, 36.0
96, 36.0
97, 36.0
98, 36.0
99, 36.0
100, 36.0
101, 36.0
102, 36.0
103, 36.0
104, 36.0
105, 36.0
