i, Result
0, 0.0
1, 0.0
2, 0.0
3, 0.0
4, 0.0
5, 0.0
6, 1.0
7, 1.0
8, 2.0
9, 3.0
10, 3.0
11, 4.0
12, 5.0
13, 6.0
14, 7.0
15, 7.0
16, 8.0
17, 9.0
18, 10.0
19, 10.0
20, 11.0
21, 12.0
22, 13.0
23, 14.0
24, 15.0
25, 16.0
26, 16.0
27, 17.0
28, 17.0
29, 17.0
30, 17.0
31, 17.0
32, 17.0
33, 17.0
34, 18.0
35, 18.0
36, 19.0
37, 20.0
38, 21.0
39, 22.0
40, 22.0
41, 22.0
42, 23.0
43, 24.0
44, 25.0
45, 25.0
46, 26.0
47, 27.0
48, 28.0
49, 29.0
50, 30.0
51, 30.0
52, 31.0
53, 32.0
54, 32.0
55, 33.0
56, 34.0
57, 35.0
58, 35.0
59, 36.0
60, 36.0
61, 37.0
62, 38.0
63, 38.0
64, 38.0
65, 38.0
66, 39.0
67, 40.0
68, 40.0
69, 40.0
70, 40.0
71, 41.0
72, 41.0
73, 41.0
74, 41.0
75, 41.0
76, 41.0
77, 41.0
78, 41.0
79, 41.0
80, 41.0
81, 41.0
82, 41.0
83, 41.0
84, 41.0
85, 41.0
86, 41.0
87, 41.0
88, 41.0
89, 41.0
90, 41.0
91, 41.0
92, 41.0
93, 41.0
94, 41.0
95, 41.0
96, 41.0
97, 41.0
98, 41.0
99, 41.0
100, 41.0
101, 41.0
102, 41.0
103, 41.0
104, 41.0
105, 41.0
