i, Result
0, 0.0
1, 0.0
2, 0.0
3, 0.0
4, 1.0
5, 1.0
6, 2.0
7, 3.0
8, 3.0
9, 4.0
10, 4.0
11, 4.0
12, 4.0
13, 4.0
14, 4.0
15, 5.0
16, 6.0
17, 7.0
18, 7.0
19, 8.0
20, 9.0
21, 10.0
22, 11.0
23, 12.0
24, 13.0
25, 14.0
26, 14.0
27, 15.0
28, 15.0
29, 16.0
30, 17.0
31, 17.0
32, 18.0
33, 19.0
34, 19.0
35, 19.0
36, 19.0
37, 20.0
38, 21.0
39, 21.0
40, 21.0
41, 21.0
42, 21.0
43, 21.0
44, 21.0
45, 21.0
46, 21.0
47, 21.0
48, 21.0
49, 21.0
50, 21.0
51, 21.0
52, 21.0
53, 21.0
54, 21.0
55, 21.0
56, 21.0
57, 21.0
58, 21.0
59, 21.0
60, 21.0
61, 21.0
62, 21.0
63, 21.0
64, 21.0
65, 21.0
66, 21.0
67, 21.0
68, 21.0
69, 21.0
70, 21.0
71, 21.0
72, 21.0
73, 21.0
74, 21.0
75, 21.0
76, 21.0
77, 21.0
78, 21.0
79, 21.0
80, 21.0
81, 21.0
82, 21.0
83, 21.0
84, 21.0
85, 21.0
86, 21.0
87, 21.0
88, 21.0
89, 21.0
90, 21.0
91, 21.0
92, 21.0
93, 21.0
94, 21.0
95, 21.0
96, 21.0
97, 21.0
98, 21.0
99, 21.0
100, 21.0
101, 21.0
102, 21.0
103, 21.0
104, 21.0
105, 21.0
