i, Result
0, 0.0
1, 0.0
2, 0.0
3, 0.0
4, 0.0
5, 0.0
6, 0.0
7, 1.0
8, 1.0
9, 2.0
10, 3.0
11, 3.0
12, 3.0
13, 4.0
14, 5.0
15, 6.0
16, 6.0
17, 7.0
18, 7.0
19, 8.0
20, 9.0
21, 10.0
22, 10.0
23, 10.0
24, 11.0
25, 11.0
26, 12.0
27, 12.0
28, 13.0
29, 13.0
30, 14.0
31, 15.0
32, 16.0
33, 17.0
34, 18.0
35, 18.0
36, 18.0
37, 18.0
38, 18.0
39, 18.0
40, 18.0
41, 19.0
42, 20.0
43, 21.0
44, 22.0
45, 23.0
46, 24.0
47, 24.0
48, 25.0
49, 26.0
50, 27.0
51, 27.0
52, 28.0
53, 29.0
54, 30.0
55, 30.0
56, 31.0
57, 32.0
58, 32.0
59, 32.0
60, 32.0
61, 32.0
62, 32.0
63, 33.0
64, 33.0
65, 33.0
66, 33.0
67, 33.0
68, 33.0
69, 33.0
70, 33.0
71, 33.0
72, 33.0
73, 33.0
74, 33.0
75, 33.0
76, 33.0
77, 33.0
78, 33.0
79, 33.0
80, 33.0
81, 33.0
82, 33.0
83, 33.0
84, 33.0
85, 33.0
86, 33.0
87, 33.0
88, 33.0
89, 33.0
90, 33.0
91, 33.0
92, 33.0
93, 33.0
94, 33.0
95, 33.0
96, 33.0
97, 33.0
98, 33.0
99, 33.0
100, 33.0
101, 33.0
102, 33.0
103, 33.0
104, 33.0
105, 33.0
