i, Result
0, 0.0
1, 0.0
2, 0.0
3, 1.0
4, 1.0
5, 1.0
6, 2.0
7, 2.0
8, 3.0
9, 3.0
10, 3.0
11, 3.0
12, 3.0
13, 3.0
14, 3.0
15, 3.0
16, 3.0
17, 4.0
18, 4.0
19, 4.0
20, 4.0
21, 5.0
22, 5.0
23, 5.0
24, 5.0
25, 5.0
26, 5.0
27, 6.0
28, 7.0
29, 7.0
30, 7.0
31, 8.0
32, 8.0
33, 9.0
34, 9.0
35, 10.0
36, 11.0
37, 11.0
38, 12.0
39, 12.0
40, 12.0
41, 13.0
42, 13.0
43, 14.0
44, 15.0
45, 15.0
46, 15.0
47, 16.0
48, 17.0
49, 18.0
50, 18.0
51, 19.0
52, 20.0
53, 20.0
54, 20.0
55, 20.0
56, 20.0
57, 21.0
58, 21.0
59, 22.0
60, 23.0
61, 23.0
62, 23.0
63, 23.0
64, 23.0
65, 23.0
66, 23.0
67, 23.0
68, 23.0
69, 23.0
70, 23.0
71, 23.0
72, 23.0
73, 23.0
74, 23.0
75, 23.0
76, 23.0
77, 23.0
78, 23.0
79, 23.0
80, 23.0
81, 23.0
82, 23.0
83, 23.0
84, 23.0
85, 23.0
86, 23.0
87, 23.0
88, 23.0
89, 23.0
90, 23.0
91, 23.0
92, 23.0
93, 23.0
94, 23.0
95, 23.0
96, 23.0
97, 23.0
98, 23.0
99, 23.0
100, 23.0
101, 23.0
102, 23.0
103, 23.0
104, 23.0
105, 23.0
