i, Result
0, 0.0
1, 0.0
2, 0.0
3, 1.0
4, 2.0
5, 2.0
6, 2.0
7, 3.0
8, 4.0
9, 5.0
10, 5.0
11, 6.0
12, 6.0
13, 6.0
14, 6.0
15, 6.0
16, 6.0
17, 6.0
18, 6.0
19, 6.0
20, 6.0
21, 6.0
22, 7.0
23, 8.0
24, 9.0
25, 10.0
26, 11.0
27, 12.0
28, 13.0
29, 13.0
30, 14.0
31, 14.0
32, 14.0
33, 15.0
34, 16.0
35, 17.0
36, 18.0
37, 19.0
38, 20.0
39, 20.0
40, 21.0
41, 22.0
42, 23.0
43, 23.0
44, 24.0
45, 24.0
46, 25.0
47, 25.0
48, 25.0
49, 26.0
50, 27.0
51, 28.0
52, 29.0
53, 30.0
54, 30.0
55, 31.0
56, 32.0
57, 32.0
58, 32.0
59, 33.0
60, 33.0
61, 33.0
62, 33.0
63, 33.0
64, 34.0
65, 34.0
66, 35.0
67, 36.0
68, 36.0
69, 36.0
70, 36.0
71, 36.0
72, 36.0
73, 36.0
74, 36.0
75, 36.0
76, 36.0
77, 36.0
78, 36.0
79, 36.0
80, 36.0
81, 36.0
82, 36.0
83, 36.0
84, 36.0
85, 36.0
86, 36.0
87, 36.0
88, 36.0
89, 36.0
90, 36.0
91, 36.0
92, 36.0
93, 36.0
94, 36.0
95, 36.0
96, 36.0
97, 36.0
98, 36.0
99, 36.0
100, 36.0
101, 36.0
102, 36.0
103, 36.0
104, 36.0
105, 36.0
