i, Result
0, 0.0
1, 0.0
2, 0.0
3, 0.0
4, 1.0
5, 2.0
6, 3.0
7, 3.0
8, 4.0
9, 5.0
10, 6.0
11, 6.0
12, 7.0
13, 8.0
14, 8.0
15, 9.0
16, 10.0
17, 11.0
18, 12.0
19, 13.0
20, 14.0
21, 15.0
22, 15.0
23, 16.0
24, 17.0
25, 18.0
26, 18.0
27, 19.0
28, 20.0
29, 21.0
30, 21.0
31, 22.0
32, 22.0
33, 22.0
34, 23.0
35, 24.0
36, 25.0
37, 26.0
38, 27.0
39, 28.0
40, 29.0
41, 29.0
42, 29.0
43, 30.0
44, 30.0
45, 30.0
46, 31.0
47, 31.0
48, 31.0
49, 32.0
50, 32.0
51, 32.0
52, 33.0
53, 33.0
54, 34.0
55, 34.0
56, 35.0
57, 36.0
58, 36.0
59, 37.0
60, 37.0
61, 37.0
62, 37.0
63, 37.0
64, 38.0
65, 38.0
66, 39.0
67, 39.0
68, 39.0
69, 39.0
70, 39.0
71, 39.0
72, 39.0
73, 39.0
74, 39.0
75, 39.0
76, 39.0
77, 39.0
78, 39.0
79, 39.0
80, 39.0
81, 39.0
82, 39.0
83, 39.0
84, 39.0
85, 39.0
86, 39.0
87, 39.0
88, 39.0
89, 39.0
90, 39.0
91, 39.0
92, 39.0
93, 39.0
94, 39.0
95, 39.0
96, 39.0
97, 39.0
98, 39.0
99, 39.0
100, 39.0
101, 39.0
102, 39.0
103, 39.0
104, 39.0
105, 39.0
