i, Result
0, 0.0
1, 0.0
2, 0.0
3, 1.0
4, 2.0
5, 3.0
6, 4.0
7, 4.0
8, 4.0
9, 4.0
10, 5.0
11, 5.0
12, 5.0
13, 5.0
14, 5.0
15, 6.0
16, 7.0
17, 8.0
18, 8.0
19, 8.0
20, 8.0
21, 8.0
22, 9.0
23, 9.0
24, 9.0
25, 10.0
26, 11.0
27, 12.0
28, 13.0
29, 13.0
30, 13.0
31, 14.0
32, 15.0
33, 16.0
34, 17.0
35, 18.0
36, 18.0
37, 19.0
38, 20.0
39, 21.0
40, 22.0
41, 22.0
42, 22.0
43, 22.0
44, 23.0
45, 24.0
46, 25.0
47, 26.0
48, 26.0
49, 27.0
50, 27.0
51, 28.0
52, 29.0
53, 29.0
54, 29.0
55, 30.0
56, 30.0
57, 30.0
58, 30.0
59, 31.0
60, 31.0
61, 32.0
62, 32.0
63, 33.0
64, 34.0
65, 35.0
66, 35.0
67, 36.0
68, 37.0
69, 37.0
70, 38.0
71, 38.0
72, 39.0
73, 39.0
74, 39.0
75, 39.0
76, 39.0
77, 39.0
78, 39.0
79, 39.0
80, 39.0
81, 39.0
82, 39.0
83, 39.0
84, 39.0
85, 39.0
86, 39.0
87, 39.0
88, 39.0
89, 39.0
90, 39.0
91, 39.0
92, 39.0
93, 39.0
94, 39.0
95, 39.0
96, 39.0
97, 39.0
98, 39.0
99, 39.0
100, 39.0
101, 39.0
102, 39.0
103, 39.0
104, 39.0
105, 39.0
