i, Result
0, 0.0
1, 0.0
2, 0.0
3, 1.0
4, 2.0
5, 3.0
6, 4.0
7, 4.0
8, 5.0
9, 6.0
10, 7.0
11, 7.0
12, 8.0
13, 9.0
14, 10.0
15, 10.0
16, 11.0
17, 12.0
18, 13.0
19, 14.0
20, 15.0
21, 15.0
22, 15.0
23, 15.0
24, 16.0
25, 17.0
26, 18.0
27, 19.0
28, 20.0
29, 20.0
30, 21.0
31, 21.0
32, 22.0
33, 22.0
34, 22.0
35, 23.0
36, 24.0
37, 24.0
38, 25.0
39, 25.0
40, 25.0
41, 26.0
42, 26.0
43, 27.0
44, 28.0
45, 28.0
46, 28.0
47, 29.0
48, 29.0
49, 29.0
50, 29.0
51, 29.0
52, 30.0
53, 31.0
54, 32.0
55, 32.0
56, 32.0
57, 33.0
58, 34.0
59, 34.0
60, 34.0
61, 35.0
62, 35.0
63, 35.0
64, 35.0
65, 36.0
66, 37.0
67, 38.0
68, 38.0
69, 39.0
70, 39.0
71, 39.0
72, 40.0
73, 40.0
74, 40.0
75, 40.0
76, 40.0
77, 40.0
78, 40.0
79, 40.0
80, 40.0
81, 40.0
82, 40.0
83, 40.0
84, 40.0
85, 40.0
86, 40.0
87, 40.0
88, 40.0
89, 40.0
90, 40.0
91, 40.0
92, 40.0
93, 40.0
94, 40.0
95, 40.0
96, 40.0
97, 40.0
98, 40.0
99, 40.0
100, 40.0
101, 40.0
102, 40.0
103, 40.0
104, 40.0
105, 40.0
