i, Result
0, 0.0
1, 0.0
2, 0.0
3, 0.0
4, 0.0
5, 1.0
6, 1.0
7, 2.0
8, 2.0
9, 3.0
10, 3.0
11, 3.0
12, 3.0
13, 3.0
14, 3.0
15, 4.0
16, 5.0
17, 5.0
18, 5.0
19, 6.0
20, 6.0
21, 7.0
22, 7.0
23, 7.0
24, 8.0
25, 8.0
26, 9.0
27, 9.0
28, 9.0
29, 9.0
30, 9.0
31, 9.0
32, 9.0
33, 10.0
34, 11.0
35, 12.0
36, 12.0
37, 12.0
38, 12.0
39, 12.0
40, 12.0
41, 12.0
42, 12.0
43, 12.0
44, 12.0
45, 13.0
46, 13.0
47, 13.0
48, 14.0
49, 15.0
50, 15.0
51, 15.0
52, 15.0
53, 15.0
54, 15.0
55, 15.0
56, 15.0
57, 15.0
58, 15.0
59, 15.0
60, 15.0
61, 15.0
62, 15.0
63, 15.0
64, 15.0
65, 15.0
66, 15.0
67, 15.0
68, 15.0
69, 15.0
70, 15.0
71, 15.0
72, 15.0
73, 15.0
74, 15.0
75, 15.0
76, 15.0
77, 15.0
78, 15.0
79, 15.0
80, 15.0
81, 15.0
82, 15.0
83, 15.0
84, 15.0
85, 15.0
86, 15.0
87, 15.0
88, 15.0
89, 15.0
90, 15.0
91, 15.0
92, 15.0
93, 15.0
94, 15.0
95, 15.0
96, 15.0
97, 15.0
98, 15.0
99, 15.0
100, 15.0
101, 15.0
102, 15.0
103, 15.0
104, 15.0
105, 15.0
