i, Result
0, 0.0
1, 0.0
2, 0.0
3, 1.0
4, 2.0
5, 2.0
6, 2.0
7, 3.0
8, 3.0
9, 3.0
10, 4.0
11, 4.0
12, 4.0
13, 4.0
14, 4.0
15, 5.0
16, 5.0
17, 5.0
18, 6.0
19, 7.0
20, 7.0
21, 7.0
22, 7.0
23, 8.0
24, 8.0
25, 9.0
26, 9.0
27, 9.0
28, 10.0
29, 10.0
30, 10.0
31, 11.0
32, 12.0
33, 12.0
34, 12.0
35, 12.0
36, 12.0
37, 12.0
38, 13.0
39, 13.0
40, 13.0
41, 14.0
42, 14.0
43, 15.0
44, 16.0
45, 17.0
46, 18.0
47, 19.0
48, 19.0
49, 20.0
50, 21.0
51, 21.0
52, 21.0
53, 22.0
54, 22.0
55, 23.0
56, 23.0
57, 24.0
58, 25.0
59, 26.0
60, 26.0
61, 26.0
62, 27.0
63, 27.0
64, 28.0
65, 28.0
66, 28.0
67, 28.0
68, 28.0
69, 28.0
70, 28.0
71, 28.0
72, 28.0
73, 28.0
74, 28.0
75, 28.0
76, 28.0
77, 28.0
78, 28.0
79, 28.0
80, 28.0
81, 28.0
82, 28.0
83, 28.0
84, 28.0
85, 28.0
86, 28.0
87, 28.0
88, 28.0
89, 28.0
90, 28.0
91, 28.0
92, 28.0
93, 28.0
94, 28.0
95, 28.0
96, 28.0
97, 28.0
98, 28.0
99, 28.0
100, 28.0
101, 28.0
102, 28.0
103, 28.0
104, 28.0
105, 28.0
