i, Result
0, 0.0
1, 0.0
2, 0.0
3, 0.0
4, 1.0
5, 2.0
6, 2.0
7, 2.0
8, 2.0
9, 2.0
10, 2.0
11, 3.0
12, 3.0
13, 3.0
14, 4.0
15, 4.0
16, 4.0
17, 4.0
18, 5.0
19, 6.0
20, 6.0
21, 7.0
22, 7.0
23, 8.0
24, 8.0
25, 8.0
26, 9.0
27, 9.0
28, 9.0
29, 9.0
30, 10.0
31, 10.0
32, 10.0
33, 10.0
34, 10.0
35, 10.0
36, 11.0
37, 11.0
38, 11.0
39, 11.0
40, 12.0
41, 12.0
42, 12.0
43, 13.0
44, 14.0
45, 14.0
46, 14.0
47, 15.0
48, 15.0
49, 15.0
50, 15.0
51, 16.0
52, 17.0
53, 18.0
54, 19.0
55, 19.0
56, 19.0
57, 20.0
58, 20.0
59, 20.0
60, 20.0
61, 20.0
62, 20.0
63, 20.0
64, 20.0
65, 20.0
66, 20.0
67, 20.0
68, 20.0
69, 20.0
70, 20.0
71, 20.0
72, 20.0
73, 20.0
74, 20.0
75, 20.0
76, 20.0
77, 20.0
78, 20.0
79, 20.0
80, 20.0
81, 20.0
82, 20.0
83, 20.0
84, 20.0
85, 20.0
86, 20.0
87, 20.0
88, 20.0
89, 20.0
90, 20.0
91, 20.0
92, 20.0
93, 20.0
94, 20.0
95, 20.0
96, 20.0
97, 20.0
98, 20.0
99, 20.0
100, 20.0
101, 20.0
102, 20.0
103, 20.0
104, 20.0
105, 20.0
