i, Result
0, 0.0
1, 0.0
2, 0.0
3, 1.0
4, 2.0
5, 3.0
6, 3.0
7, 3.0
8, 3.0
9, 4.0
10, 4.0
11, 5.0
12, 6.0
13, 7.0
14, 8.0
15, 8.0
16, 8.0
17, 9.0
18, 9.0
19, 9.0
20, 9.0
21, 9.0
22, 9.0
23, 9.0
24, 10.0
25, 11.0
26, 12.0
27, 13.0
28, 13.0
29, 14.0
30, 15.0
31, 16.0
32, 17.0
33, 17.0
34, 18.0
35, 18.0
36, 19.0
37, 20.0
38, 21.0
39, 21.0
40, 22.0
41, 23.0
42, 23.0
43, 23.0
44, 23.0
45, 23.0
46, 23.0
47, 23.0
48, 23.0
49, 23.0
50, 23.0
51, 24.0
52, 24.0
53, 25.0
54, 25.0
55, 25.0
56, 26.0
57, 27.0
58, 27.0
59, 27.0
60, 27.0
61, 28.0
62, 28.0
63, 29.0
64, 30.0
65, 30.0
66, 30.0
67, 30.0
68, 30.0
69, 30.0
70, 30.0
71, 30.0
72, 30.0
73, 30.0
74, 30.0
75, 30.0
76, 30.0
77, 30.0
78, 30.0
79, 30.0
80, 30.0
81, 30.0
82, 30.0
83, 30.0
84, 30.0
85, 30.0
86, 30.0
87, 30.0
88, 30.0
89, 30.0
90, 30.0
91, 30.0
92, 30.0
93, 30.0
94, 30.0
95, 30.0
96, 30.0
97, 30.0
98, 30.0
99, 30.0
100, 30.0
101, 30.0
102, 30.0
103, 30.0
104, 30.0
105, 30.0
