i, Result
0, 0.0
1, 0.0
2, 0.0
3, 0.0
4, 1.0
5, 1.0
6, 1.0
7, 2.0
8, 2.0
9, 2.0
10, 3.0
11, 3.0
12, 3.0
13, 3.0
14, 4.0
15, 5.0
16, 5.0
17, 6.0
18, 6.0
19, 6.0
20, 6.0
21, 7.0
22, 8.0
23, 9.0
24, 10.0
25, 11.0
26, 11.0
27, 11.0
28, 11.0
29, 12.0
30, 13.0
31, 14.0
32, 14.0
33, 15.0
34, 16.0
35, 17.0
36, 18.0
37, 18.0
38, 19.0
39, 20.0
40, 21.0
41, 21.0
42, 22.0
43, 22.0
44, 22.0
45, 23.0
46, 23.0
47, 23.0
48, 24.0
49, 24.0
50, 24.0
51, 25.0
52, 26.0
53, 27.0
54, 27.0
55, 27.0
56, 27.0
57, 27.0
58, 27.0
59, 28.0
60, 29.0
61, 29.0
62, 30.0
63, 31.0
64, 32.0
65, 32.0
66, 33.0
67, 34.0
68, 34.0
69, 34.0
70, 35.0
71, 36.0
72, 36.0
73, 37.0
74, 38.0
75, 38.0
76, 39.0
77, 39.0
78, 39.0
79, 39.0
80, 39.0
81, 39.0
82, 39.0
83, 39.0
84, 39.0
85, 39.0
86, 39.0
87, 39.0
88, 39.0
89, 39.0
90, 39.0
91, 39.0
92, 39.0
93, 39.0
94, 39.0
95, 39.0
96, 39.0
97, 39.0
98, 39.0
99, 39.0
100, 39.0
101, 39.0
102, 39.0
103, 39.0
104, 39.0
105, 39.0
