i, Result
0, 0.0
1, 0.0
2, 0.0
3, 0.0
4, 1.0
5, 1.0
6, 1.0
7, 2.0
8, 3.0
9, 4.0
10, 5.0
11, 6.0
12, 6.0
13, 7.0
14, 8.0
15, 9.0
16, 9.0
17, 10.0
18, 10.0
19, 10.0
20, 10.0
21, 11.0
22, 11.0
23, 11.0
24, 12.0
25, 13.0
26, 13.0
27, 14.0
28, 15.0
29, 16.0
30, 17.0
31, 18.0
32, 18.0
33, 18.0
34, 19.0
35, 20.0
36, 20.0
37, 21.0
38, 21.0
39, 21.0
40, 21.0
41, 21.0
42, 21.0
43, 21.0
44, 21.0
45, 22.0
46, 23.0
47, 24.0
48, 25.0
49, 25.0
50, 25.0
51, 25.0
52, 26.0
53, 27.0
54, 27.0
55, 27.0
56, 28.0
57, 28.0
58, 28.0
59, 28.0
60, 28.0
61, 28.0
62, 29.0
63, 30.0
64, 31.0
65, 32.0
66, 33.0
67, 34.0
68, 35.0
69, 36.0
70, 37.0
71, 37.0
72, 38.0
73, 38.0
74, 38.0
75, 38.0
76, 38.0
77, 38.0
78, 38.0
79, 38.0
80, 38.0
81, 38.0
82, 38.0
83, 38.0
84, 38.0
85, 38.0
86, 38.0
87, 38.0
88, 38.0
89, 38.0
90, 38.0
91, 38.0
92, 38.0
93, 38.0
94, 38.0
95, 38.0
96, 38.0
97, 38.0
98, 38.0
99, 38.0
100, 38.0
101, 38.0
102, 38.0
103, 38.0
104, 38.0
105, 38.0
