i, Result
0, 0.0
1, 0.0
2, 0.0
3, 0.0
4, 0.0
5, 1.0
6, 1.0
7, 2.0
8, 3.0
9, 3.0
10, 3.0
11, 3.0
12, 3.0
13, 3.0
14, 4.0
15, 4.0
16, 5.0
17, 5.0
18, 6.0
19, 7.0
20, 8.0
21, 9.0
22, 9.0
23, 9.0
24, 9.0
25, 10.0
26, 11.0
27, 12.0
28, 13.0
29, 13.0
30, 13.0
31, 13.0
32, 14.0
33, 15.0
34, 16.0
35, 16.0
36, 17.0
37, 18.0
38, 19.0
39, 20.0
40, 20.0
41, 21.0
42, 22.0
43, 23.0
44, 24.0
45, 25.0
46, 25.0
47, 26.0
48, 27.0
49, 28.0
50, 29.0
51, 29.0
52, 29.0
53, 30.0
54, 30.0
55, 31.0
56, 32.0
57, 32.0
58, 32.0
59, 32.0
60, 33.0
61, 34.0
62, 35.0
63, 35.0
64, 36.0
65, 36.0
66, 37.0
67, 38.0
68, 39.0
69, 39.0
70, 40.0
71, 41.0
72, 42.0
73, 42.0
74, 43.0
75, 43.0
76, 43.0
77, 43.0
78, 43.0
79, 43.0
80, 43.0
81, 43.0
82, 43.0
83, 43.0
84, 43.0
85, 43.0
86, 43.0
87, 43.0
88, 43.0
89, 43.0
90, 43.0
91, 43.0
92, 43.0
93, 43.0
94, 43.0
95, 43.0
96, 43.0
97, 43.0
98, 43.0
99, 43.0
100, 43.0
101, 43.0
102, 43.0
103, 43.0
104, 43.0
105, 43.0
