i, Result
0, 0.0
1, 0.0
2, 0.0
3, 0.0
4, 0.0
5, 0.0
6, 1.0
7, 1.0
8, 1.0
9, 2.0
10, 3.0
11, 4.0
12, 5.0
13, 6.0
14, 7.0
15, 7.0
16, 7.0
17, 7.0
18, 7.0
19, 8.0
20, 9.0
21, 9.0
22, 9.0
23, 10.0
24, 10.0
25, 11.0
26, 11.0
27, 12.0
28, 13.0
29, 14.0
30, 15.0
31, 16.0
32, 17.0
33, 17.0
34, 18.0
35, 18.0
36, 19.0
37, 19.0
38, 19.0
39, 20.0
40, 20.0
41, 21.0
42, 21.0
43, 22.0
44, 23.0
45, 24.0
46, 25.0
47, 25.0
48, 26.0
49, 27.0
50, 27.0
51, 27.0
52, 28.0
53, 29.0
54, 30.0
55, 31.0
56, 31.0
57, 32.0
58, 33.0
59, 33.0
60, 33.0
61, 33.0
62, 34.0
63, 34.0
64, 35.0
65, 35.0
66, 35.0
67, 36.0
68, 36.0
69, 37.0
70, 38.0
71, 39.0
72, 40.0
73, 40.0
74, 40.0
75, 41.0
76, 41.0
77, 42.0
78, 42.0
79, 42.0
80, 42.0
81, 42.0
82, 42.0
83, 42.0
84, 42.0
85, 42.0
86, 42.0
87, 42.0
88, 42.0
89, 42.0
90, 42.0
91, 42.0
92, 42.0
93, 42.0
94, 42.0
95, 42.0
96, 42.0
97, 42.0
98, 42.0
99, 42.0
100, 42.0
101, 42.0
102, 42.0
103, 42.0
104, 42.0
105, 42.0
