i, Result
0, 0.0
1, 0.0
2, 0.0
3, 1.0
4, 1.0
5, 1.0
6, 2.0
7, 2.0
8, 3.0
9, 4.0
10, 5.0
11, 5.0
12, 5.0
13, 6.0
14, 7.0
15, 8.0
16, 9.0
17, 10.0
18, 11.0
19, 12.0
20, 13.0
21, 14.0
22, 14.0
23, 15.0
24, 15.0
25, 15.0
26, 15.0
27, 15.0
28, 16.0
29, 17.0
30, 18.0
31, 19.0
32, 19.0
33, 20.0
34, 21.0
35, 22.0
36, 22.0
37, 22.0
38, 23.0
39, 24.0
40, 25.0
41, 25.0
42, 26.0
43, 26.0
44, 26.0
45, 26.0
46, 27.0
47, 27.0
48, 28.0
49, 28.0
50, 28.0
51, 28.0
52, 28.0
53, 29.0
54, 30.0
55, 31.0
56, 31.0
57, 31.0
58, 32.0
59, 32.0
60, 32.0
61, 33.0
62, 34.0
63, 34.0
64, 34.0
65, 34.0
66, 35.0
67, 36.0
68, 36.0
69, 36.0
70, 36.0
71, 36.0
72, 36.0
73, 36.0
74, 36.0
75, 36.0
76, 36.0
77, 36.0
78, 36.0
79, 36.0
80, 36.0
81, 36.0
82, 36.0
83, 36.0
84, 36.0
85, 36.0
86, 36.0
87, 36.0
88, 36.0
89, 36.0
90, 36.0
91, 36.0
92, 36.0
93, 36.0
94, 36.0
95, 36.0
96, 36.0
97, 36.0
98, 36.0
99, 36.0
100, 36.0
101, 36.0
102, 36.0
103, 36.0
104, 36.0
105, 36.0
