i, Result
0, 0.0
1, 0.0
2, 0.0
3, 0.0
4, 0.0
5, 1.0
6, 1.0
7, 2.0
8, 2.0
9, 3.0
10, 3.0
11, 4.0
12, 5.0
13, 5.0
14, 6.0
15, 7.0
16, 7.0
17, 8.0
18, 9.0
19, 10.0
20, 10.0
21, 10.0
22, 10.0
23, 11.0
24, 12.0
25, 13.0
26, 13.0
27, 13.0
28, 14.0
29, 15.0
30, 16.0
31, 17.0
32, 18.0
33, 18.0
34, 19.0
35, 19.0
36, 20.0
37, 20.0
38, 20.0
39, 20.0
40, 21.0
41, 21.0
42, 21.0
43, 22.0
44, 23.0
45, 24.0
46, 25.0
47, 25.0
48, 26.0
49, 26.0
50, 26.0
51, 26.0
52, 26.0
53, 27.0
54, 28.0
55, 29.0
56, 30.0
57, 30.0
58, 31.0
59, 32.0
60, 33.0
61, 34.0
62, 35.0
63, 36.0
64, 37.0
65, 38.0
66, 38.0
67, 38.0
68, 38.0
69, 38.0
70, 38.0
71, 39.0
72, 39.0
73, 39.0
74, 39.0
75, 39.0
76, 39.0
77, 39.0
78, 39.0
79, 39.0
80, 39.0
81, 39.0
82, 39.0
83, 39.0
84, 39.0
85, 39.0
86, 39.0
87, 39.0
88, 39.0
89, 39.0
90, 39.0
91, 39.0
92, 39.0
93, 39.0
94, 39.0
95, 39.0
96, 39.0
97, 39.0
98, 39.0
99, 39.0
100, 39.0
101, 39.0
102, 39.0
103, 39.0
104, 39.0
105, 39.0
