i, Result
0, 0.0
1, 0.0
2, 0.0
3, 1.0
4, 2.0
5, 2.0
6, 3.0
7, 4.0
8, 4.0
9, 5.0
10, 6.0
11, 7.0
12, 8.0
13, 9.0
14, 9.0
15, 9.0
16, 9.0
17, 9.0
18, 10.0
19, 11.0
20, 11.0
21, 11.0
22, 12.0
23, 13.0
24, 13.0
25, 14.0
26, 14.0
27, 14.0
28, 14.0
29, 15.0
30, 15.0
31, 16.0
32, 17.0
33, 17.0
34, 17.0
35, 18.0
36, 19.0
37, 19.0
38, 19.0
39, 19.0
40, 19.0
41, 20.0
42, 20.0
43, 20.0
44, 20.0
45, 20.0
46, 21.0
47, 21.0
48, 21.0
49, 21.0
50, 22.0
51, 23.0
52, 24.0
53, 24.0
54, 25.0
55, 26.0
56, 27.0
57, 27.0
58, 28.0
59, 29.0
60, 29.0
61, 30.0
62, 30.0
63, 31.0
64, 32.0
65, 33.0
66, 33.0
67, 34.0
68, 35.0
69, 35.0
70, 36.0
71, 36.0
72, 36.0
73, 36.0
74, 36.0
75, 36.0
76, 36.0
77, 36.0
78, 36.0
79, 36.0
80, 36.0
81, 36.0
82, 36.0
83, 36.0
84, 36.0
85, 36.0
86, 36.0
87, 36.0
88, 36.0
89, 36.0
90, 36.0
91, 36.0
92, 36.0
93, 36.0
94, 36.0
95, 36.0
96, 36.0
97, 36.0
98, 36.0
99, 36.0
100, 36.0
101, 36.0
102, 36.0
103, 36.0
104, 36.0
105, 36.0
