i, Result
0, 0.0
1, 0.0
2, 0.0
3, 0.0
4, 0.0
5, 0.0
6, 1.0
7, 2.0
8, 3.0
9, 3.0
10, 3.0
11, 4.0
12, 4.0
13, 4.0
14, 5.0
15, 6.0
16, 7.0
17, 8.0
18, 9.0
19, 9.0
20, 9.0
21, 9.0
22, 10.0
23, 10.0
24, 10.0
25, 11.0
26, 11.0
27, 11.0
28, 11.0
29, 11.0
30, 11.0
31, 12.0
32, 12.0
33, 13.0
34, 14.0
35, 14.0
36, 14.0
37, 15.0
38, 16.0
39, 17.0
40, 18.0
41, 19.0
42, 20.0
43, 21.0
44, 22.0
45, 23.0
46, 23.0
47, 23.0
48, 23.0
49, 23.0
50, 24.0
51, 24.0
52, 24.0
53, 25.0
54, 25.0
55, 26.0
56, 26.0
57, 26.0
58, 26.0
59, 27.0
60, 28.0
61, 29.0
62, 30.0
63, 31.0
64, 32.0
65, 32.0
66, 32.0
67, 32.0
68, 32.0
69, 32.0
70, 32.0
71, 32.0
72, 32.0
73, 32.0
74, 32.0
75, 32.0
76, 32.0
77, 32.0
78, 32.0
79, 32.0
80, 32.0
81, 32.0
82, 32.0
83, 32.0
84, 32.0
85, 32.0
86, 32.0
87, 32.0
88, 32.0
89, 32.0
90, 32.0
91, 32.0
92, 32.0
93, 32.0
94, 32.0
95, 32.0
96, 32.0
97, 32.0
98, 32.0
99, 32.0
100, 32.0
101, 32.0
102, 32.0
103, 32.0
104, 32.0
105, 32.0
