i, Result
0, 0.0
1, 0.0
2, 0.0
3, 1.0
4, 1.0
5, 1.0
6, 2.0
7, 3.0
8, 3.0
9, 4.0
10, 4.0
11, 4.0
12, 5.0
13, 6.0
14, 7.0
15, 8.0
16, 9.0
17, 10.0
18, 11.0
19, 12.0
20, 12.0
21, 13.0
22, 14.0
23, 15.0
24, 16.0
25, 17.0
26, 18.0
27, 18.0
28, 19.0
29, 20.0
30, 20.0
31, 21.0
32, 21.0
33, 22.0
34, 23.0
35, 23.0
36, 24.0
37, 24.0
38, 24.0
39, 25.0
40, 25.0
41, 26.0
42, 27.0
43, 27.0
44, 28.0
45, 28.0
46, 28.0
47, 29.0
48, 30.0
49, 31.0
50, 31.0
51, 32.0
52, 32.0
53, 32.0
54, 33.0
55, 34.0
56, 34.0
57, 35.0
58, 36.0
59, 37.0
60, 38.0
61, 39.0
62, 39.0
63, 39.0
64, 39.0
65, 40.0
66, 41.0
67, 42.0
68, 43.0
69, 44.0
70, 45.0
71, 45.0
72, 45.0
73, 45.0
74, 45.0
75, 45.0
76, 45.0
77, 45.0
78, 45.0
79, 45.0
80, 45.0
81, 45.0
82, 45.0
83, 45.0
84, 45.0
85, 45.0
86, 45.0
87, 45.0
88, 45.0
89, 45.0
90, 45.0
91, 45.0
92, 45.0
93, 45.0
94, 45.0
95, 45.0
96, 45.0
97, 45.0
98, 45.0
99, 45.0
100, 45.0
101, 45.0
102, 45.0
103, 45.0
104, 45.0
105, 45.0
