i, Result
0, 0.0
1, 0.0
2, 0.0
3, 1.0
4, 1.0
5, 1.0
6, 2.0
7, 3.0
8, 3.0
9, 3.0
10, 3.0
11, 3.0
12, 3.0
13, 4.0
14, 4.0
15, 4.0
16, 5.0
17, 5.0
18, 5.0
19, 5.0
20, 6.0
21, 6.0
22, 7.0
23, 7.0
24, 7.0
25, 7.0
26, 7.0
27, 7.0
28, 8.0
29, 8.0
30, 9.0
31, 10.0
32, 10.0
33, 10.0
34, 11.0
35, 11.0
36, 11.0
37, 12.0
38, 12.0
39, 12.0
40, 13.0
41, 13.0
42, 13.0
43, 14.0
44, 15.0
45, 15.0
46, 16.0
47, 17.0
48, 17.0
49, 17.0
50, 17.0
51, 17.0
52, 17.0
53, 18.0
54, 18.0
55, 18.0
56, 19.0
57, 20.0
58, 21.0
59, 22.0
60, 23.0
61, 23.0
62, 23.0
63, 23.0
64, 24.0
65, 24.0
66, 24.0
67, 24.0
68, 24.0
69, 24.0
70, 24.0
71, 24.0
72, 24.0
73, 24.0
74, 24.0
75, 24.0
76, 24.0
77, 24.0
78, 24.0
79, 24.0
80, 24.0
81, 24.0
82, 24.0
83, 24.0
84, 24.0
85, 24.0
86, 24.0
87, 24.0
88, 24.0
89, 24.0
90, 24.0
91, 24.0
92, 24.0
93, 24.0
94, 24.0
95, 24.0
96, 24.0
97, 24.0
98, 24.0
99, 24.0
100, 24.0
101, 24.0
102, 24.0
103, 24.0
104, 24.0
105, 24.0
