i, Result
0, 0.0
1, 0.0
2, 0.0
3, 0.0
4, 0.0
5, 1.0
6, 1.0
7, 1.0
8, 1.0
9, 2.0
10, 3.0
11, 4.0
12, 5.0
13, 6.0
14, 7.0
15, 7.0
16, 7.0
17, 8.0
18, 9.0
19, 10.0
20, 11.0
21, 11.0
22, 11.0
23, 11.0
24, 11.0
25, 12.0
26, 12.0
27, 13.0
28, 14.0
29, 15.0
30, 15.0
31, 16.0
32, 16.0
33, 16.0
34, 16.0
35, 16.0
36, 16.0
37, 16.0
38, 16.0
39, 16.0
40, 16.0
41, 16.0
42, 16.0
43, 16.0
44, 16.0
45, 16.0
46, 16.0
47, 16.0
48, 16.0
49, 16.0
50, 16.0
51, 16.0
52, 16.0
53, 16.0
54, 16.0
55, 16.0
56, 16.0
57, 16.0
58, 16.0
59, 16.0
60, 16.0
61, 16.0
62, 16.0
63, 16.0
64, 16.0
65, 16.0
66, 16.0
67, 16.0
68, 16.0
69, 16.0
70, 16.0
71, 16.0
72, 16.0
73, 16.0
74, 16.0
75, 16.0
76, 16.0
77, 16.0
78, 16.0
79, 16.0
80, 16.0
81, 16.0
82, 16.0
83, 16.0
84, 16.0
85, 16.0
86, 16.0
87, 16.0
88, 16.0
89, 16.0
90, 16.0
91, 16.0
92, 16.0
93, 16.0
94, 16.0
95, 16.0
96, 16.0
97, 16.0
98, 16.0
99, 16.0
100, 16.0
101, 16.0
102, 16.0
103, 16.0
104, 16.0
105, 16.0
