i, Result
0, 0.0
1, 0.0
2, 0.0
3, 0.0
4, 1.0
5, 1.0
6, 1.0
7, 1.0
8, 1.0
9, 1.0
10, 1.0
11, 1.0
12, 1.0
13, 1.0
14, 1.0
15, 2.0
16, 2.0
17, 2.0
18, 2.0
19, 3.0
20, 4.0
21, 4.0
22, 4.0
23, 4.0
24, 4.0
25, 5.0
26, 5.0
27, 6.0
28, 7.0
29, 7.0
30, 8.0
31, 8.0
32, 8.0
33, 9.0
34, 9.0
35, 9.0
36, 10.0
37, 11.0
38, 12.0
39, 13.0
40, 14.0
41, 15.0
42, 15.0
43, 16.0
44, 17.0
45, 18.0
46, 18.0
47, 19.0
48, 19.0
49, 20.0
50, 21.0
51, 21.0
52, 22.0
53, 23.0
54, 23.0
55, 23.0
56, 24.0
57, 24.0
58, 24.0
59, 24.0
60, 24.0
61, 24.0
62, 24.0
63, 24.0
64, 24.0
65, 24.0
66, 24.0
67, 24.0
68, 24.0
69, 24.0
70, 24.0
71, 24.0
72, 24.0
73, 24.0
74, 24.0
75, 24.0
76, 24.0
77, 24.0
78, 24.0
79, 24.0
80, 24.0
81, 24.0
82, 24.0
83, 24.0
84, 24.0
85, 24.0
86, 24.0
87, 24.0
88, 24.0
89, 24.0
90, 24.0
91, 24.0
92, 24.0
93, 24.0
94, 24.0
95, 24.0
96, 24.0
97, 24.0
98, 24.0
99, 24.0
100, 24.0
101, 24.0
102, 24.0
103, 24.0
104, 24.0
105, 24.0
