i, Result
0, 0.0
1, 0.0
2, 0.0
3, 1.0
4, 1.0
5, 2.0
6, 3.0
7, 3.0
8, 3.0
9, 4.0
10, 4.0
11, 5.0
12, 5.0
13, 6.0
14, 7.0
15, 7.0
16, 8.0
17, 8.0
18, 8.0
19, 9.0
20, 10.0
21, 10.0
22, 11.0
23, 12.0
24, 13.0
25, 14.0
26, 15.0
27, 16.0
28, 16.0
29, 16.0
30, 16.0
31, 17.0
32, 18.0
33, 19.0
34, 19.0
35, 20.0
36, 21.0
37, 22.0
38, 23.0
39, 24.0
40, 25.0
41, 26.0
42, 26.0
43, 27.0
44, 28.0
45, 28.0
46, 29.0
47, 29.0
48, 29.0
49, 29.0
50, 30.0
51, 30.0
52, 31.0
53, 31.0
54, 31.0
55, 32.0
56, 33.0
57, 34.0
58, 35.0
59, 36.0
60, 37.0
61, 38.0
62, 38.0
63, 39.0
64, 39.0
65, 39.0
66, 39.0
67, 40.0
68, 40.0
69, 41.0
70, 42.0
71, 42.0
72, 43.0
73, 43.0
74, 43.0
75, 43.0
76, 43.0
77, 43.0
78, 43.0
79, 43.0
80, 43.0
81, 43.0
82, 43.0
83, 43.0
84, 43.0
85, 43.0
86, 43.0
87, 43.0
88, 43.0
89, 43.0
90, 43.0
91, 43.0
92, 43.0
93, 43.0
94, 43.0
95, 43.0
96, 43.0
97, 43.0
98, 43.0
99, 43.0
100, 43.0
101, 43.0
102, 43.0
103, 43.0
104, 43.0
105, 43.0
