i, Result
0, 0.0
1, 0.0
2, 0.0
3, 0.0
4, 1.0
5, 2.0
6, 2.0
7, 3.0
8, 3.0
9, 4.0
10, 5.0
11, 5.0
12, 5.0
13, 6.0
14, 7.0
15, 7.0
16, 7.0
17, 8.0
18, 8.0
19, 9.0
20, 9.0
21, 10.0
22, 11.0
23, 12.0
24, 13.0
25, 14.0
26, 15.0
27, 16.0
28, 16.0
29, 16.0
30, 16.0
31, 17.0
32, 18.0
33, 19.0
34, 20.0
35, 20.0
36, 20.0
37, 21.0
38, 22.0
39, 23.0
40, 24.0
41, 25.0
42, 25.0
43, 26.0
44, 27.0
45, 28.0
46, 28.0
47, 28.0
48, 29.0
49, 30.0
50, 30.0
51, 31.0
52, 32.0
53, 33.0
54, 33.0
55, 34.0
56, 34.0
57, 35.0
58, 36.0
59, 36.0
60, 37.0
61, 38.0
62, 39.0
63, 39.0
64, 40.0
65, 40.0
66, 41.0
67, 41.0
68, 42.0
69, 43.0
70, 44.0
71, 44.0
72, 44.0
73, 44.0
74, 44.0
75, 44.0
76, 44.0
77, 44.0
78, 44.0
79, 44.0
80, 44.0
81, 44.0
82, 44.0
83, 44.0
84, 44.0
85, 44.0
86, 44.0
87, 44.0
88, 44.0
89, 44.0
90, 44.0
91, 44.0
92, 44.0
93, 44.0
94, 44.0
95, 44.0
96, 44.0
97, 44.0
98, 44.0
99, 44.0
100, 44.0
101, 44.0
102, 44.0
103, 44.0
104, 44.0
105, 44.0
