i, Result
0, 0.0
1, 0.0
2, 0.0
3, 1.0
4, 1.0
5, 2.0
6, 2.0
7, 3.0
8, 4.0
9, 4.0
10, 5.0
11, 6.0
12, 7.0
13, 7.0
14, 7.0
15, 8.0
16, 8.0
17, 9.0
18, 10.0
19, 11.0
20, 12.0
21, 13.0
22, 14.0
23, 15.0
24, 16.0
25, 17.0
26, 17.0
27, 17.0
28, 17.0
29, 18.0
30, 18.0
31, 18.0
32, 19.0
33, 19.0
34, 20.0
35, 21.0
36, 22.0
37, 22.0
38, 23.0
39, 24.0
40, 24.0
41, 25.0
42, 25.0
43, 25.0
44, 25.0
45, 26.0
46, 27.0
47, 28.0
48, 29.0
49, 30.0
50, 31.0
51, 31.0
52, 32.0
53, 32.0
54, 32.0
55, 33.0
56, 34.0
57, 35.0
58, 36.0
59, 37.0
60, 37.0
61, 37.0
62, 38.0
63, 39.0
64, 39.0
65, 39.0
66, 40.0
67, 41.0
68, 42.0
69, 43.0
70, 44.0
71, 44.0
72, 44.0
73, 44.0
74, 44.0
75, 44.0
76, 44.0
77, 44.0
78, 44.0
79, 44.0
80, 44.0
81, 44.0
82, 44.0
83, 44.0
84, 44.0
85, 44.0
86, 44.0
87, 44.0
88, 44.0
89, 44.0
90, 44.0
91, 44.0
92, 44.0
93, 44.0
94, 44.0
95, 44.0
96, 44.0
97, 44.0
98, 44.0
99, 44.0
100, 44.0
101, 44.0
102, 44.0
103, 44.0
104, 44.0
105, 44.0
