i, Result
0, 0.0
1, 0.0
2, 0.0
3, 0.0
4, 1.0
5, 2.0
6, 3.0
7, 4.0
8, 4.0
9, 5.0
10, 6.0
11, 7.0
12, 7.0
13, 7.0
14, 7.0
15, 8.0
16, 8.0
17, 8.0
18, 9.0
19, 10.0
20, 11.0
21, 11.0
22, 11.0
23, 11.0
24, 12.0
25, 13.0
26, 13.0
27, 14.0
28, 15.0
29, 16.0
30, 16.0
31, 17.0
32, 17.0
33, 17.0
34, 17.0
35, 17.0
36, 17.0
37, 17.0
38, 17.0
39, 18.0
40, 18.0
41, 18.0
42, 19.0
43, 19.0
44, 20.0
45, 21.0
46, 22.0
47, 23.0
48, 24.0
49, 25.0
50, 26.0
51, 26.0
52, 27.0
53, 28.0
54, 28.0
55, 29.0
56, 29.0
57, 30.0
58, 30.0
59, 31.0
60, 32.0
61, 33.0
62, 33.0
63, 34.0
64, 34.0
65, 34.0
66, 34.0
67, 34.0
68, 34.0
69, 34.0
70, 34.0
71, 34.0
72, 34.0
73, 34.0
74, 34.0
75, 34.0
76, 34.0
77, 34.0
78, 34.0
79, 34.0
80, 34.0
81, 34.0
82, 34.0
83, 34.0
84, 34.0
85, 34.0
86, 34.0
87, 34.0
88, 34.0
89, 34.0
90, 34.0
91, 34.0
92, 34.0
93, 34.0
94, 34.0
95, 34.0
96, 34.0
97, 34.0
98, 34.0
99, 34.0
100, 34.0
101, 34.0
102, 34.0
103, 34.0
104, 34.0
105, 34.0
