i, Result
0, 0.0
1, 0.0
2, 0.0
3, 1.0
4, 1.0
5, 1.0
6, 1.0
7, 2.0
8, 3.0
9, 3.0
10, 3.0
11, 3.0
12, 3.0
13, 3.0
14, 4.0
15, 5.0
16, 5.0
17, 5.0
18, 6.0
19, 6.0
20, 6.0
21, 6.0
22, 7.0
23, 7.0
24, 8.0
25, 8.0
26, 8.0
27, 9.0
28, 10.0
29, 10.0
30, 10.0
31, 10.0
32, 10.0
33, 10.0
34, 11.0
35, 11.0
36, 12.0
37, 12.0
38, 12.0
39, 12.0
40, 12.0
41, 13.0
42, 14.0
43, 15.0
44, 16.0
45, 16.0
46, 16.0
47, 17.0
48, 17.0
49, 17.0
50, 17.0
51, 17.0
52, 18.0
53, 18.0
54, 19.0
55, 19.0
56, 19.0
57, 19.0
58, 19.0
59, 19.0
60, 19.0
61, 19.0
62, 19.0
63, 19.0
64, 19.0
65, 19.0
66, 19.0
67, 19.0
68, 19.0
69, 19.0
70, 19.0
71, 19.0
72, 19.0
73, 19.0
74, 19.0
75, 19.0
76, 19.0
77, 19.0
78, 19.0
79, 19.0
80, 19.0
81, 19.0
82, 19.0
83, 19.0
84, 19.0
85, 19.0
86, 19.0
87, 19.0
88, 19.0
89, 19.0
90, 19.0
91, 19.0
92, 19.0
93, 19.0
94, 19.0
95, 19.0
96, 19.0
97, 19.0
98, 19.0
99, 19.0
100, 19.0
101, 19.0
102, 19.0
103, 19.0
104, 19.0
105, 19.0
