i, Result
0, 0.0
1, 0.0
2, 0.0
3, 1.0
4, 2.0
5, 3.0
6, 4.0
7, 4.0
8, 5.0
9, 5.0
10, 6.0
11, 6.0
12, 6.0
13, 6.0
14, 6.0
15, 6.0
16, 7.0
17, 7.0
18, 8.0
19, 9.0
20, 9.0
21, 9.0
22, 9.0
23, 9.0
24, 10.0
25, 11.0
26, 12.0
27, 12.0
28, 12.0
29, 12.0
30, 13.0
31, 14.0
32, 14.0
33, 15.0
34, 15.0
35, 15.0
36, 15.0
37, 16.0
38, 17.0
39, 17.0
40, 17.0
41, 18.0
42, 19.0
43, 20.0
44, 21.0
45, 22.0
46, 23.0
47, 24.0
48, 25.0
49, 26.0
50, 27.0
51, 28.0
52, 29.0
53, 30.0
54, 31.0
55, 31.0
56, 31.0
57, 32.0
58, 32.0
59, 32.0
60, 33.0
61, 33.0
62, 34.0
63, 34.0
64, 35.0
65, 36.0
66, 36.0
67, 37.0
68, 38.0
69, 39.0
70, 39.0
71, 39.0
72, 39.0
73, 39.0
74, 39.0
75, 39.0
76, 39.0
77, 39.0
78, 39.0
79, 39.0
80, 39.0
81, 39.0
82, 39.0
83, 39.0
84, 39.0
85, 39.0
86, 39.0
87, 39.0
88, 39.0
89, 39.0
90, 39.0
91, 39.0
92, 39.0
93, 39.0
94, 39.0
95, 39.0
96, 39.0
97, 39.0
98, 39.0
99, 39.0
100, 39.0
101, 39.0
102, 39.0
103, 39.0
104, 39.0
105, 39.0
