i, Result
0, 0.0
1, 0.0
2, 0.0
3, 1.0
4, 1.0
5, 1.0
6, 1.0
7, 2.0
8, 3.0
9, 4.0
10, 5.0
11, 6.0
12, 6.0
13, 7.0
14, 8.0
15, 8.0
16, 8.0
17, 8.0
18, 9.0
19, 10.0
20, 11.0
21, 12.0
22, 13.0
23, 14.0
24, 15.0
25, 15.0
26, 15.0
27, 15.0
28, 15.0
29, 16.0
30, 16.0
31, 17.0
32, 18.0
33, 19.0
34, 19.0
35, 20.0
36, 21.0
37, 21.0
38, 21.0
39, 22.0
40, 23.0
41, 23.0
42, 23.0
43, 23.0
44, 24.0
45, 25.0
46, 26.0
47, 27.0
48, 28.0
49, 29.0
50, 30.0
51, 30.0
52, 30.0
53, 31.0
54, 31.0
55, 31.0
56, 31.0
57, 31.0
58, 31.0
59, 32.0
60, 33.0
61, 33.0
62, 33.0
63, 33.0
64, 33.0
65, 33.0
66, 33.0
67, 33.0
68, 33.0
69, 33.0
70, 33.0
71, 33.0
72, 33.0
73, 33.0
74, 33.0
75, 33.0
76, 33.0
77, 33.0
78, 33.0
79, 33.0
80, 33.0
81, 33.0
82, 33.0
83, 33.0
84, 33.0
85, 33.0
86, 33.0
87, 33.0
88, 33.0
89, 33.0
90, 33.0
91, 33.0
92, 33.0
93, 33.0
94, 33.0
95, 33.0
96, 33.0
97, 33.0
98, 33.0
99, 33.0
100, 33.0
101, 33.0
102, 33.0
103, 33.0
104, 33.0
105, 33.0
