i, Result
0, 0.0
1, 0.0
2, 0.0
3, 0.0
4, 0.0
5, 1.0
6, 1.0
7, 1.0
8, 1.0
9, 2.0
10, 3.0
11, 3.0
12, 4.0
13, 4.0
14, 4.0
15, 4.0
16, 5.0
17, 5.0
18, 5.0
19, 5.0
20, 5.0
21, 5.0
22, 5.0
23, 5.0
24, 6.0
25, 6.0
26, 6.0
27, 6.0
28, 6.0
29, 7.0
30, 7.0
31, 8.0
32, 8.0
33, 9.0
34, 9.0
35, 9.0
36, 10.0
37, 11.0
38, 11.0
39, 11.0
40, 11.0
41, 11.0
42, 12.0
43, 12.0
44, 12.0
45, 12.0
46, 13.0
47, 13.0
48, 13.0
49, 14.0
50, 15.0
51, 16.0
52, 17.0
53, 17.0
54, 17.0
55, 18.0
56, 18.0
57, 19.0
58, 20.0
59, 21.0
60, 21.0
61, 21.0
62, 22.0
63, 23.0
64, 24.0
65, 24.0
66, 24.0
67, 24.0
68, 24.0
69, 24.0
70, 24.0
71, 24.0
72, 24.0
73, 24.0
74, 24.0
75, 24.0
76, 24.0
77, 24.0
78, 24.0
79, 24.0
80, 24.0
81, 24.0
82, 24.0
83, 24.0
84, 24.0
85, 24.0
86, 24.0
87, 24.0
88, 24.0
89, 24.0
90, 24.0
91, 24.0
92, 24.0
93, 24.0
94, 24.0
95, 24.0
96, 24.0
97, 24.0
98, 24.0
99, 24.0
100, 24.0
101, 24.0
102, 24.0
103, 24.0
104, 24.0
105, 24.0
