i, Result
0, 0.0
1, 0.0
2, 0.0
3, 1.0
4, 2.0
5, 2.0
6, 2.0
7, 3.0
8, 3.0
9, 3.0
10, 3.0
11, 4.0
12, 4.0
13, 4.0
14, 5.0
15, 6.0
16, 7.0
17, 8.0
18, 8.0
19, 9.0
20, 10.0
21, 11.0
22, 11.0
23, 12.0
24, 13.0
25, 13.0
26, 14.0
27, 15.0
28, 15.0
29, 15.0
30, 16.0
31, 17.0
32, 18.0
33, 18.0
34, 19.0
35, 20.0
36, 21.0
37, 22.0
38, 22.0
39, 22.0
40, 22.0
41, 22.0
42, 22.0
43, 23.0
44, 23.0
45, 23.0
46, 24.0
47, 24.0
48, 25.0
49, 25.0
50, 25.0
51, 26.0
52, 26.0
53, 27.0
54, 27.0
55, 27.0
56, 27.0
57, 27.0
58, 27.0
59, 27.0
60, 27.0
61, 27.0
62, 27.0
63, 27.0
64, 27.0
65, 27.0
66, 27.0
67, 27.0
68, 27.0
69, 27.0
70, 27.0
71, 27.0
72, 27.0
73, 27.0
74, 27.0
75, 27.0
76, 27.0
77, 27.0
78, 27.0
79, 27.0
80, 27.0
81, 27.0
82, 27.0
83, 27.0
84, 27.0
85, 27.0
86, 27.0
87, 27.0
88, 27.0
89, 27.0
90, 27.0
91, 27.0
92, 27.0
93, 27.0
94, 27.0
95, 27.0
96, 27.0
97, 27.0
98, 27.0
99, 27.0
100, 27.0
101, 27.0
102, 27.0
103, 27.0
104, 27.0
105, 27.0
