i, Result
0, 0.0
1, 0.0
2, 0.0
3, 1.0
4, 1.0
5, 1.0
6, 2.0
7, 2.0
8, 2.0
9, 3.0
10, 4.0
11, 4.0
12, 5.0
13, 5.0
14, 6.0
15, 6.0
16, 6.0
17, 6.0
18, 7.0
19, 7.0
20, 7.0
21, 8.0
22, 8.0
23, 8.0
24, 9.0
25, 10.0
26, 10.0
27, 10.0
28, 11.0
29, 11.0
30, 12.0
31, 12.0
32, 13.0
33, 13.0
34, 13.0
35, 13.0
36, 14.0
37, 14.0
38, 15.0
39, 16.0
40, 16.0
41, 16.0
42, 17.0
43, 17.0
44, 18.0
45, 19.0
46, 20.0
47, 20.0
48, 21.0
49, 21.0
50, 22.0
51, 22.0
52, 23.0
53, 24.0
54, 25.0
55, 25.0
56, 26.0
57, 26.0
58, 27.0
59, 27.0
60, 28.0
61, 28.0
62, 28.0
63, 29.0
64, 30.0
65, 30.0
66, 30.0
67, 31.0
68, 31.0
69, 32.0
70, 33.0
71, 34.0
72, 35.0
73, 35.0
74, 35.0
75, 35.0
76, 35.0
77, 35.0
78, 35.0
79, 35.0
80, 35.0
81, 35.0
82, 35.0
83, 35.0
84, 35.0
85, 35.0
86, 35.0
87, 35.0
88, 35.0
89, 35.0
90, 35.0
91, 35.0
92, 35.0
93, 35.0
94, 35.0
95, 35.0
96, 35.0
97, 35.0
98, 35.0
99, 35.0
100, 35.0
101, 35.0
102, 35.0
103, 35.0
104, 35.0
105, 35.0
