i, Result
0, 0.0
1, 0.0
2, 0.0
3, 0.0
4, 0.0
5, 1.0
6, 1.0
7, 2.0
8, 2.0
9, 2.0
10, 2.0
11, 3.0
12, 4.0
13, 5.0
14, 5.0
15, 6.0
16, 7.0
17, 7.0
18, 8.0
19, 8.0
20, 9.0
21, 10.0
22, 11.0
23, 12.0
24, 13.0
25, 14.0
26, 15.0
27, 15.0
28, 16.0
29, 16.0
30, 16.0
31, 17.0
32, 17.0
33, 18.0
34, 18.0
35, 19.0
36, 20.0
37, 20.0
38, 20.0
39, 20.0
40, 20.0
41, 21.0
42, 22.0
43, 22.0
44, 23.0
45, 24.0
46, 25.0
47, 25.0
48, 25.0
49, 26.0
50, 27.0
51, 28.0
52, 28.0
53, 29.0
54, 30.0
55, 31.0
56, 32.0
57, 33.0
58, 34.0
59, 34.0
60, 34.0
61, 35.0
62, 35.0
63, 35.0
64, 35.0
65, 36.0
66, 37.0
67, 38.0
68, 39.0
69, 40.0
70, 40.0
71, 41.0
72, 42.0
73, 43.0
74, 44.0
75, 44.0
76, 44.0
77, 45.0
78, 45.0
79, 45.0
80, 45.0
81, 45.0
82, 45.0
83, 45.0
84, 45.0
85, 45.0
86, 45.0
87, 45.0
88, 45.0
89, 45.0
90, 45.0
91, 45.0
92, 45.0
93, 45.0
94, 45.0
95, 45.0
96, 45.0
97, 45.0
98, 45.0
99, 45.0
100, 45.0
101, 45.0
102, 45.0
103, 45.0
104, 45.0
105, 45.0
