i, Result
0, 0.0
1, 0.0
2, 0.0
3, 0.0
4, 0.0
5, 1.0
6, 1.0
7, 1.0
8, 2.0
9, 2.0
10, 2.0
11, 2.0
12, 2.0
13, 2.0
14, 2.0
15, 2.0
16, 2.0
17, 3.0
18, 4.0
19, 5.0
20, 6.0
21, 7.0
22, 7.0
23, 8.0
24, 9.0
25, 9.0
26, 9.0
27, 10.0
28, 10.0
29, 11.0
30, 12.0
31, 13.0
32, 13.0
33, 13.0
34, 13.0
35, 14.0
36, 14.0
37, 14.0
38, 14.0
39, 14.0
40, 15.0
41, 16.0
42, 17.0
43, 18.0
44, 19.0
45, 20.0
46, 21.0
47, 22.0
48, 22.0
49, 22.0
50, 22.0
51, 23.0
52, 24.0
53, 24.0
54, 25.0
55, 25.0
56, 26.0
57, 26.0
58, 27.0
59, 27.0
60, 27.0
61, 27.0
62, 27.0
63, 27.0
64, 27.0
65, 27.0
66, 27.0
67, 27.0
68, 27.0
69, 27.0
70, 27.0
71, 27.0
72, 27.0
73, 27.0
74, 27.0
75, 27.0
76, 27.0
77, 27.0
78, 27.0
79, 27.0
80, 27.0
81, 27.0
82, 27.0
83, 27.0
84, 27.0
85, 27.0
86, 27.0
87, 27.0
88, 27.0
89, 27.0
90, 27.0
91, 27.0
92, 27.0
93, 27.0
94, 27.0
95, 27.0
96, 27.0
97, 27.0
98, 27.0
99, 27.0
100, 27.0
101, 27.0
102, 27.0
103, 27.0
104, 27.0
105, 27.0
