i, Result
0, 0.0
1, 0.0
2, 0.0
3, 1.0
4, 1.0
5, 1.0
6, 2.0
7, 3.0
8, 4.0
9, 5.0
10, 6.0
11, 7.0
12, 7.0
13, 7.0
14, 8.0
15, 9.0
16, 9.0
17, 10.0
18, 10.0
19, 11.0
20, 12.0
21, 13.0
22, 13.0
23, 13.0
24, 14.0
25, 14.0
26, 15.0
27, 15.0
28, 16.0
29, 17.0
30, 18.0
31, 18.0
32, 18.0
33, 19.0
34, 19.0
35, 20.0
36, 21.0
37, 21.0
38, 22.0
39, 22.0
40, 23.0
41, 23.0
42, 23.0
43, 24.0
44, 25.0
45, 26.0
46, 27.0
47, 28.0
48, 28.0
49, 28.0
50, 29.0
51, 30.0
52, 31.0
53, 31.0
54, 32.0
55, 32.0
56, 33.0
57, 33.0
58, 33.0
59, 33.0
60, 33.0
61, 34.0
62, 34.0
63, 34.0
64, 35.0
65, 36.0
66, 36.0
67, 37.0
68, 37.0
69, 37.0
70, 38.0
71, 39.0
72, 39.0
73, 39.0
74, 39.0
75, 39.0
76, 39.0
77, 39.0
78, 39.0
79, 39.0
80, 39.0
81, 39.0
82, 39.0
83, 39.0
84, 39.0
85, 39.0
86, 39.0
87, 39.0
88, 39.0
89, 39.0
90, 39.0
91, 39.0
92, 39.0
93, 39.0
94, 39.0
95, 39.0
96, 39.0
97, 39.0
98, 39.0
99, 39.0
100, 39.0
101, 39.0
102, 39.0
103, 39.0
104, 39.0
105, 39.0
