i, Result
0, 0.0
1, 0.0
2, 0.0
3, 0.0
4, 0.0
5, 0.0
6, 0.0
7, 0.0
8, 0.0
9, 1.0
10, 1.0
11, 2.0
12, 2.0
13, 3.0
14, 3.0
15, 3.0
16, 3.0
17, 3.0
18, 3.0
19, 4.0
20, 4.0
21, 5.0
22, 5.0
23, 6.0
24, 7.0
25, 7.0
26, 7.0
27, 7.0
28, 7.0
29, 7.0
30, 7.0
31, 8.0
32, 9.0
33, 9.0
34, 9.0
35, 9.0
36, 9.0
37, 9.0
38, 10.0
39, 11.0
40, 11.0
41, 11.0
42, 12.0
43, 13.0
44, 14.0
45, 14.0
46, 14.0
47, 14.0
48, 15.0
49, 15.0
50, 15.0
51, 15.0
52, 15.0
53, 15.0
54, 15.0
55, 15.0
56, 15.0
57, 15.0
58, 15.0
59, 15.0
60, 15.0
61, 15.0
62, 15.0
63, 15.0
64, 15.0
65, 15.0
66, 15.0
67, 15.0
68, 15.0
69, 15.0
70, 15.0
71, 15.0
72, 15.0
73, 15.0
74, 15.0
75, 15.0
76, 15.0
77, 15.0
78, 15.0
79, 15.0
80, 15.0
81, 15.0
82, 15.0
83, 15.0
84, 15.0
85, 15.0
86, 15.0
87, 15.0
88, 15.0
89, 15.0
90, 15.0
91, 15.0
92, 15.0
93, 15.0
94, 15.0
95, 15.0
96, 15.0
97, 15.0
98, 15.0
99, 15.0
100, 15.0
101, 15.0
102, 15.0
103, 15.0
104, 15.0
105, 15.0
