i, Result
0, 0.0
1, 0.0
2, 0.0
3, 1.0
4, 1.0
5, 1.0
6, 1.0
7, 2.0
8, 3.0
9, 3.0
10, 3.0
11, 3.0
12, 4.0
13, 4.0
14, 4.0
15, 4.0
16, 4.0
17, 5.0
18, 5.0
19, 5.0
20, 5.0
21, 6.0
22, 7.0
23, 7.0
24, 7.0
25, 7.0
26, 7.0
27, 7.0
28, 7.0
29, 7.0
30, 8.0
31, 9.0
32, 10.0
33, 11.0
34, 11.0
35, 12.0
36, 13.0
37, 14.0
38, 15.0
39, 16.0
40, 16.0
41, 17.0
42, 18.0
43, 18.0
44, 18.0
45, 18.0
46, 19.0
47, 19.0
48, 20.0
49, 20.0
50, 21.0
51, 22.0
52, 22.0
53, 22.0
54, 22.0
55, 23.0
56, 23.0
57, 23.0
58, 23.0
59, 24.0
60, 25.0
61, 25.0
62, 25.0
63, 26.0
64, 27.0
65, 27.0
66, 28.0
67, 28.0
68, 28.0
69, 28.0
70, 28.0
71, 28.0
72, 28.0
73, 28.0
74, 28.0
75, 28.0
76, 28.0
77, 28.0
78, 28.0
79, 28.0
80, 28.0
81, 28.0
82, 28.0
83, 28.0
84, 28.0
85, 28.0
86, 28.0
87, 28.0
88, 28.0
89, 28.0
90, 28.0
91, 28.0
92, 28.0
93, 28.0
94, 28.0
95, 28.0
96, 28.0
97, 28.0
98, 28.0
99, 28.0
100, 28.0
101, 28.0
102, 28.0
103, 28.0
104, 28.0
105, 28.0
