i, Result
0, 0.0
1, 0.0
2, 0.0
3, 1.0
4, 2.0
5, 3.0
6, 4.0
7, 4.0
8, 5.0
9, 5.0
10, 5.0
11, 6.0
12, 6.0
13, 6.0
14, 6.0
15, 6.0
16, 6.0
17, 7.0
18, 7.0
19, 7.0
20, 8.0
21, 8.0
22, 9.0
23, 10.0
24, 11.0
25, 11.0
26, 12.0
27, 12.0
28, 12.0
29, 13.0
30, 14.0
31, 14.0
32, 14.0
33, 14.0
34, 15.0
35, 16.0
36, 16.0
37, 17.0
38, 18.0
39, 18.0
40, 19.0
41, 20.0
42, 21.0
43, 22.0
44, 22.0
45, 23.0
46, 23.0
47, 24.0
48, 24.0
49, 24.0
50, 25.0
51, 26.0
52, 27.0
53, 28.0
54, 29.0
55, 29.0
56, 30.0
57, 31.0
58, 31.0
59, 32.0
60, 32.0
61, 33.0
62, 33.0
63, 33.0
64, 34.0
65, 35.0
66, 36.0
67, 36.0
68, 37.0
69, 37.0
70, 37.0
71, 37.0
72, 37.0
73, 37.0
74, 37.0
75, 37.0
76, 37.0
77, 37.0
78, 37.0
79, 37.0
80, 37.0
81, 37.0
82, 37.0
83, 37.0
84, 37.0
85, 37.0
86, 37.0
87, 37.0
88, 37.0
89, 37.0
90, 37.0
91, 37.0
92, 37.0
93, 37.0
94, 37.0
95, 37.0
96, 37.0
97, 37.0
98, 37.0
99, 37.0
100, 37.0
101, 37.0
102, 37.0
103, 37.0
104, 37.0
105, 37.0
