i, Result
0, 0.0
1, 0.0
2, 0.0
3, 0.0
4, 1.0
5, 2.0
6, 2.0
7, 2.0
8, 2.0
9, 2.0
10, 3.0
11, 3.0
12, 3.0
13, 4.0
14, 4.0
15, 5.0
16, 6.0
17, 7.0
18, 7.0
19, 7.0
20, 8.0
21, 9.0
22, 9.0
23, 10.0
24, 11.0
25, 12.0
26, 13.0
27, 14.0
28, 15.0
29, 16.0
30, 17.0
31, 18.0
32, 19.0
33, 19.0
34, 20.0
35, 21.0
36, 22.0
37, 22.0
38, 23.0
39, 24.0
40, 24.0
41, 25.0
42, 26.0
43, 27.0
44, 28.0
45, 28.0
46, 29.0
47, 30.0
48, 31.0
49, 31.0
50, 31.0
51, 32.0
52, 33.0
53, 33.0
54, 34.0
55, 35.0
56, 36.0
57, 37.0
58, 38.0
59, 38.0
60, 39.0
61, 40.0
62, 41.0
63, 42.0
64, 43.0
65, 43.0
66, 44.0
67, 44.0
68, 45.0
69, 46.0
70, 47.0
71, 48.0
72, 49.0
73, 50.0
74, 51.0
75, 52.0
76, 52.0
77, 53.0
78, 53.0
79, 53.0
80, 53.0
81, 53.0
82, 53.0
83, 53.0
84, 53.0
85, 53.0
86, 53.0
87, 53.0
88, 53.0
89, 53.0
90, 53.0
91, 53.0
92, 53.0
93, 53.0
94, 53.0
95, 53.0
96, 53.0
97, 53.0
98, 53.0
99, 53.0
100, 53.0
101, 53.0
102, 53.0
103, 53.0
104, 53.0
105, 53.0
