i, Result
0, 0.0
1, 0.0
2, 0.0
3, 1.0
4, 1.0
5, 1.0
6, 1.0
7, 2.0
8, 2.0
9, 2.0
10, 3.0
11, 4.0
12, 5.0
13, 6.0
14, 7.0
15, 8.0
16, 9.0
17, 10.0
18, 10.0
19, 11.0
20, 11.0
21, 12.0
22, 12.0
23, 13.0
24, 14.0
25, 14.0
26, 15.0
27, 15.0
28, 16.0
29, 16.0
30, 16.0
31, 17.0
32, 17.0
33, 18.0
34, 18.0
35, 19.0
36, 19.0
37, 19.0
38, 19.0
39, 20.0
40, 20.0
41, 21.0
42, 21.0
43, 22.0
44, 22.0
45, 22.0
46, 22.0
47, 23.0
48, 24.0
49, 24.0
50, 24.0
51, 25.0
52, 26.0
53, 26.0
54, 27.0
55, 28.0
56, 29.0
57, 29.0
58, 30.0
59, 31.0
60, 32.0
61, 33.0
62, 33.0
63, 34.0
64, 34.0
65, 35.0
66, 36.0
67, 37.0
68, 38.0
69, 38.0
70, 39.0
71, 40.0
72, 40.0
73, 40.0
74, 40.0
75, 40.0
76, 40.0
77, 40.0
78, 40.0
79, 40.0
80, 40.0
81, 40.0
82, 40.0
83, 40.0
84, 40.0
85, 40.0
86, 40.0
87, 40.0
88, 40.0
89, 40.0
90, 40.0
91, 40.0
92, 40.0
93, 40.0
94, 40.0
95, 40.0
96, 40.0
97, 40.0
98, 40.0
99, 40.0
100, 40.0
101, 40.0
102, 40.0
103, 40.0
104, 40.0
105, 40.0
