i, Result
0, 0.0
1, 0.0
2, 0.0
3, 1.0
4, 2.0
5, 3.0
6, 3.0
7, 3.0
8, 3.0
9, 4.0
10, 5.0
11, 6.0
12, 7.0
13, 8.0
14, 9.0
15, 9.0
16, 10.0
17, 11.0
18, 11.0
19, 12.0
20, 12.0
21, 13.0
22, 13.0
23, 13.0
24, 14.0
25, 14.0
26, 15.0
27, 15.0
28, 15.0
29, 16.0
30, 17.0
31, 17.0
32, 18.0
33, 18.0
34, 19.0
35, 20.0
36, 21.0
37, 21.0
38, 22.0
39, 23.0
40, 24.0
41, 25.0
42, 25.0
43, 26.0
44, 27.0
45, 28.0
46, 28.0
47, 29.0
48, 30.0
49, 30.0
50, 30.0
51, 31.0
52, 32.0
53, 32.0
54, 33.0
55, 33.0
56, 33.0
57, 34.0
58, 34.0
59, 34.0
60, 35.0
61, 36.0
62, 36.0
63, 37.0
64, 38.0
65, 38.0
66, 39.0
67, 40.0
68, 41.0
69, 41.0
70, 41.0
71, 41.0
72, 41.0
73, 41.0
74, 41.0
75, 41.0
76, 41.0
77, 41.0
78, 41.0
79, 41.0
80, 41.0
81, 41.0
82, 41.0
83, 41.0
84, 41.0
85, 41.0
86, 41.0
87, 41.0
88, 41.0
89, 41.0
90, 41.0
91, 41.0
92, 41.0
93, 41.0
94, 41.0
95, 41.0
96, 41.0
97, 41.0
98, 41.0
99, 41.0
100, 41.0
101, 41.0
102, 41.0
103, 41.0
104, 41.0
105, 41.0
