i, Result
0, 0.0
1, 0.0
2, 0.0
3, 1.0
4, 2.0
5, 3.0
6, 4.0
7, 5.0
8, 6.0
9, 7.0
10, 7.0
11, 7.0
12, 7.0
13, 8.0
14, 9.0
15, 10.0
16, 10.0
17, 11.0
18, 11.0
19, 11.0
20, 12.0
21, 13.0
22, 14.0
23, 15.0
24, 16.0
25, 17.0
26, 17.0
27, 17.0
28, 18.0
29, 19.0
30, 20.0
31, 21.0
32, 21.0
33, 22.0
34, 22.0
35, 23.0
36, 24.0
37, 25.0
38, 25.0
39, 26.0
40, 26.0
41, 26.0
42, 26.0
43, 27.0
44, 27.0
45, 27.0
46, 27.0
47, 27.0
48, 27.0
49, 27.0
50, 27.0
51, 27.0
52, 27.0
53, 28.0
54, 28.0
55, 28.0
56, 28.0
57, 29.0
58, 30.0
59, 30.0
60, 30.0
61, 30.0
62, 30.0
63, 30.0
64, 31.0
65, 31.0
66, 32.0
67, 32.0
68, 33.0
69, 34.0
70, 34.0
71, 34.0
72, 34.0
73, 34.0
74, 34.0
75, 34.0
76, 34.0
77, 34.0
78, 34.0
79, 34.0
80, 34.0
81, 34.0
82, 34.0
83, 34.0
84, 34.0
85, 34.0
86, 34.0
87, 34.0
88, 34.0
89, 34.0
90, 34.0
91, 34.0
92, 34.0
93, 34.0
94, 34.0
95, 34.0
96, 34.0
97, 34.0
98, 34.0
99, 34.0
100, 34.0
101, 34.0
102, 34.0
103, 34.0
104, 34.0
105, 34.0
