i, Result
0, 0.0
1, 0.0
2, 0.0
3, 1.0
4, 1.0
5, 1.0
6, 1.0
7, 1.0
8, 1.0
9, 2.0
10, 2.0
11, 2.0
12, 2.0
13, 3.0
14, 3.0
15, 4.0
16, 4.0
17, 5.0
18, 5.0
19, 6.0
20, 7.0
21, 7.0
22, 8.0
23, 9.0
24, 9.0
25, 9.0
26, 9.0
27, 10.0
28, 10.0
29, 10.0
30, 11.0
31, 12.0
32, 12.0
33, 12.0
34, 13.0
35, 14.0
36, 14.0
37, 14.0
38, 15.0
39, 16.0
40, 17.0
41, 17.0
42, 18.0
43, 18.0
44, 18.0
45, 19.0
46, 20.0
47, 20.0
48, 20.0
49, 20.0
50, 20.0
51, 20.0
52, 21.0
53, 21.0
54, 21.0
55, 22.0
56, 22.0
57, 23.0
58, 23.0
59, 24.0
60, 25.0
61, 26.0
62, 26.0
63, 26.0
64, 26.0
65, 26.0
66, 27.0
67, 28.0
68, 28.0
69, 28.0
70, 28.0
71, 28.0
72, 28.0
73, 28.0
74, 28.0
75, 28.0
76, 28.0
77, 28.0
78, 28.0
79, 28.0
80, 28.0
81, 28.0
82, 28.0
83, 28.0
84, 28.0
85, 28.0
86, 28.0
87, 28.0
88, 28.0
89, 28.0
90, 28.0
91, 28.0
92, 28.0
93, 28.0
94, 28.0
95, 28.0
96, 28.0
97, 28.0
98, 28.0
99, 28.0
100, 28.0
101, 28.0
102, 28.0
103, 28.0
104, 28.0
105, 28.0
