i, Result
0, 0.0
1, 0.0
2, 0.0
3, 1.0
4, 1.0
5, 1.0
6, 2.0
7, 3.0
8, 3.0
9, 3.0
10, 3.0
11, 3.0
12, 4.0
13, 5.0
14, 6.0
15, 6.0
16, 6.0
17, 6.0
18, 6.0
19, 6.0
20, 7.0
21, 8.0
22, 9.0
23, 10.0
24, 11.0
25, 12.0
26, 13.0
27, 14.0
28, 15.0
29, 15.0
30, 16.0
31, 17.0
32, 18.0
33, 19.0
34, 20.0
35, 20.0
36, 21.0
37, 22.0
38, 22.0
39, 23.0
40, 24.0
41, 24.0
42, 25.0
43, 25.0
44, 26.0
45, 26.0
46, 26.0
47, 27.0
48, 27.0
49, 27.0
50, 27.0
51, 28.0
52, 28.0
53, 28.0
54, 28.0
55, 29.0
56, 29.0
57, 29.0
58, 30.0
59, 30.0
60, 31.0
61, 32.0
62, 33.0
63, 34.0
64, 35.0
65, 36.0
66, 36.0
67, 37.0
68, 37.0
69, 38.0
70, 38.0
71, 38.0
72, 38.0
73, 38.0
74, 38.0
75, 38.0
76, 38.0
77, 38.0
78, 38.0
79, 38.0
80, 38.0
81, 38.0
82, 38.0
83, 38.0
84, 38.0
85, 38.0
86, 38.0
87, 38.0
88, 38.0
89, 38.0
90, 38.0
91, 38.0
92, 38.0
93, 38.0
94, 38.0
95, 38.0
96, 38.0
97, 38.0
98, 38.0
99, 38.0
100, 38.0
101, 38.0
102, 38.0
103, 38.0
104, 38.0
105, 38.0
