i, Result
0, 0.0
1, 0.0
2, 0.0
3, 1.0
4, 2.0
5, 2.0
6, 3.0
7, 4.0
8, 5.0
9, 5.0
10, 5.0
11, 6.0
12, 7.0
13, 8.0
14, 8.0
15, 9.0
16, 10.0
17, 10.0
18, 11.0
19, 11.0
20, 12.0
21, 12.0
22, 13.0
23, 14.0
24, 15.0
25, 15.0
26, 15.0
27, 16.0
28, 17.0
29, 18.0
30, 19.0
31, 19.0
32, 19.0
33, 20.0
34, 20.0
35, 21.0
36, 22.0
37, 23.0
38, 24.0
39, 25.0
40, 25.0
41, 26.0
42, 27.0
43, 27.0
44, 28.0
45, 29.0
46, 30.0
47, 31.0
48, 31.0
49, 32.0
50, 33.0
51, 33.0
52, 33.0
53, 33.0
54, 34.0
55, 34.0
56, 35.0
57, 35.0
58, 36.0
59, 37.0
60, 38.0
61, 39.0
62, 39.0
63, 39.0
64, 39.0
65, 40.0
66, 41.0
67, 41.0
68, 42.0
69, 43.0
70, 43.0
71, 43.0
72, 44.0
73, 44.0
74, 44.0
75, 44.0
76, 44.0
77, 44.0
78, 44.0
79, 44.0
80, 44.0
81, 44.0
82, 44.0
83, 44.0
84, 44.0
85, 44.0
86, 44.0
87, 44.0
88, 44.0
89, 44.0
90, 44.0
91, 44.0
92, 44.0
93, 44.0
94, 44.0
95, 44.0
96, 44.0
97, 44.0
98, 44.0
99, 44.0
100, 44.0
101, 44.0
102, 44.0
103, 44.0
104, 44.0
105, 44.0
