i, Result
0, 0.0
1, 0.0
2, 0.0
3, 1.0
4, 1.0
5, 2.0
6, 2.0
7, 2.0
8, 2.0
9, 3.0
10, 3.0
11, 3.0
12, 3.0
13, 4.0
14, 4.0
15, 4.0
16, 4.0
17, 5.0
18, 5.0
19, 5.0
20, 6.0
21, 7.0
22, 8.0
23, 9.0
24, 10.0
25, 11.0
26, 11.0
27, 11.0
28, 12.0
29, 12.0
30, 12.0
31, 13.0
32, 13.0
33, 14.0
34, 15.0
35, 16.0
36, 16.0
37, 17.0
38, 17.0
39, 18.0
40, 18.0
41, 19.0
42, 20.0
43, 20.0
44, 21.0
45, 22.0
46, 22.0
47, 23.0
48, 23.0
49, 24.0
50, 25.0
51, 25.0
52, 25.0
53, 25.0
54, 25.0
55, 26.0
56, 27.0
57, 27.0
58, 28.0
59, 29.0
60, 29.0
61, 30.0
62, 31.0
63, 31.0
64, 31.0
65, 32.0
66, 33.0
67, 33.0
68, 33.0
69, 33.0
70, 33.0
71, 33.0
72, 34.0
73, 34.0
74, 34.0
75, 34.0
76, 34.0
77, 34.0
78, 34.0
79, 34.0
80, 34.0
81, 34.0
82, 34.0
83, 34.0
84, 34.0
85, 34.0
86, 34.0
87, 34.0
88, 34.0
89, 34.0
90, 34.0
91, 34.0
92, 34.0
93, 34.0
94, 34.0
95, 34.0
96, 34.0
97, 34.0
98, 34.0
99, 34.0
100, 34.0
101, 34.0
102, 34.0
103, 34.0
104, 34.0
105, 34.0
