i, Result
0, 0.0
1, 0.0
2, 0.0
3, 1.0
4, 2.0
5, 3.0
6, 4.0
7, 5.0
8, 5.0
9, 6.0
10, 6.0
11, 7.0
12, 7.0
13, 8.0
14, 9.0
15, 9.0
16, 9.0
17, 10.0
18, 11.0
19, 12.0
20, 12.0
21, 13.0
22, 14.0
23, 14.0
24, 15.0
25, 16.0
26, 17.0
27, 17.0
28, 18.0
29, 18.0
30, 19.0
31, 20.0
32, 21.0
33, 21.0
34, 21.0
35, 21.0
36, 22.0
37, 23.0
38, 23.0
39, 23.0
40, 24.0
41, 25.0
42, 25.0
43, 25.0
44, 25.0
45, 26.0
46, 26.0
47, 26.0
48, 26.0
49, 26.0
50, 26.0
51, 27.0
52, 27.0
53, 27.0
54, 28.0
55, 29.0
56, 30.0
57, 31.0
58, 32.0
59, 33.0
60, 34.0
61, 35.0
62, 36.0
63, 37.0
64, 38.0
65, 39.0
66, 40.0
67, 41.0
68, 41.0
69, 41.0
70, 41.0
71, 41.0
72, 41.0
73, 41.0
74, 41.0
75, 41.0
76, 41.0
77, 41.0
78, 41.0
79, 41.0
80, 41.0
81, 41.0
82, 41.0
83, 41.0
84, 41.0
85, 41.0
86, 41.0
87, 41.0
88, 41.0
89, 41.0
90, 41.0
91, 41.0
92, 41.0
93, 41.0
94, 41.0
95, 41.0
96, 41.0
97, 41.0
98, 41.0
99, 41.0
100, 41.0
101, 41.0
102, 41.0
103, 41.0
104, 41.0
105, 41.0
