i, Result
0, 0.0
1, 0.0
2, 0.0
3, 0.0
4, 1.0
5, 2.0
6, 2.0
7, 3.0
8, 3.0
9, 4.0
10, 5.0
11, 6.0
12, 6.0
13, 6.0
14, 6.0
15, 6.0
16, 6.0
17, 7.0
18, 7.0
19, 7.0
20, 8.0
21, 9.0
22, 9.0
23, 10.0
24, 10.0
25, 11.0
26, 12.0
27, 13.0
28, 13.0
29, 14.0
30, 14.0
31, 15.0
32, 15.0
33, 16.0
34, 17.0
35, 18.0
36, 18.0
37, 19.0
38, 19.0
39, 20.0
40, 20.0
41, 21.0
42, 22.0
43, 22.0
44, 22.0
45, 23.0
46, 23.0
47, 23.0
48, 23.0
49, 24.0
50, 24.0
51, 25.0
52, 26.0
53, 26.0
54, 27.0
55, 28.0
56, 28.0
57, 29.0
58, 30.0
59, 31.0
60, 32.0
61, 32.0
62, 32.0
63, 33.0
64, 33.0
65, 33.0
66, 33.0
67, 34.0
68, 34.0
69, 35.0
70, 35.0
71, 36.0
72, 36.0
73, 36.0
74, 36.0
75, 36.0
76, 36.0
77, 36.0
78, 36.0
79, 36.0
80, 36.0
81, 36.0
82, 36.0
83, 36.0
84, 36.0
85, 36.0
86, 36.0
87, 36.0
88, 36.0
89, 36.0
90, 36.0
91, 36.0
92, 36.0
93, 36.0
94, 36.0
95, 36.0
96, 36.0
97, 36.0
98, 36.0
99, 36.0
100, 36.0
101, 36.0
102, 36.0
103, 36.0
104, 36.0
105, 36.0
