i, Result
0, 0.0
1, 0.0
2, 0.0
3, 0.0
4, 1.0
5, 2.0
6, 3.0
7, 3.0
8, 3.0
9, 3.0
10, 3.0
11, 4.0
12, 4.0
13, 4.0
14, 5.0
15, 6.0
16, 7.0
17, 7.0
18, 8.0
19, 9.0
20, 10.0
21, 11.0
22, 12.0
23, 13.0
24, 14.0
25, 15.0
26, 16.0
27, 17.0
28, 17.0
29, 18.0
30, 19.0
31, 19.0
32, 19.0
33, 19.0
34, 20.0
35, 20.0
36, 20.0
37, 20.0
38, 21.0
39, 21.0
40, 21.0
41, 21.0
42, 21.0
43, 22.0
44, 23.0
45, 24.0
46, 25.0
47, 26.0
48, 27.0
49, 27.0
50, 27.0
51, 27.0
52, 28.0
53, 28.0
54, 28.0
55, 28.0
56, 28.0
57, 29.0
58, 29.0
59, 29.0
60, 30.0
61, 30.0
62, 30.0
63, 31.0
64, 31.0
65, 31.0
66, 32.0
67, 33.0
68, 33.0
69, 34.0
70, 34.0
71, 35.0
72, 35.0
73, 35.0
74, 35.0
75, 35.0
76, 35.0
77, 35.0
78, 35.0
79, 35.0
80, 35.0
81, 35.0
82, 35.0
83, 35.0
84, 35.0
85, 35.0
86, 35.0
87, 35.0
88, 35.0
89, 35.0
90, 35.0
91, 35.0
92, 35.0
93, 35.0
94, 35.0
95, 35.0
96, 35.0
97, 35.0
98, 35.0
99, 35.0
100, 35.0
101, 35.0
102, 35.0
103, 35.0
104, 35.0
105, 35.0
