i, Result
0, 0.0
1, 0.0
2, 0.0
3, 1.0
4, 1.0
5, 1.0
6, 2.0
7, 3.0
8, 4.0
9, 5.0
10, 6.0
11, 7.0
12, 8.0
13, 8.0
14, 8.0
15, 8.0
16, 8.0
17, 9.0
18, 9.0
19, 10.0
20, 11.0
21, 11.0
22, 11.0
23, 12.0
24, 13.0
25, 14.0
26, 14.0
27, 15.0
28, 16.0
29, 16.0
30, 16.0
31, 17.0
32, 17.0
33, 17.0
34, 18.0
35, 19.0
36, 19.0
37, 20.0
38, 20.0
39, 21.0
40, 22.0
41, 22.0
42, 23.0
43, 23.0
44, 23.0
45, 24.0
46, 24.0
47, 25.0
48, 26.0
49, 27.0
50, 28.0
51, 28.0
52, 29.0
53, 29.0
54, 30.0
55, 31.0
56, 32.0
57, 33.0
58, 33.0
59, 34.0
60, 35.0
61, 36.0
62, 37.0
63, 38.0
64, 38.0
65, 38.0
66, 39.0
67, 39.0
68, 39.0
69, 40.0
70, 40.0
71, 41.0
72, 42.0
73, 42.0
74, 42.0
75, 42.0
76, 42.0
77, 42.0
78, 42.0
79, 42.0
80, 42.0
81, 42.0
82, 42.0
83, 42.0
84, 42.0
85, 42.0
86, 42.0
87, 42.0
88, 42.0
89, 42.0
90, 42.0
91, 42.0
92, 42.0
93, 42.0
94, 42.0
95, 42.0
96, 42.0
97, 42.0
98, 42.0
99, 42.0
100, 42.0
101, 42.0
102, 42.0
103, 42.0
104, 42.0
105, 42.0
