i, Result
0, 0.0
1, 0.0
2, 0.0
3, 0.0
4, 0.0
5, 1.0
6, 2.0
7, 3.0
8, 3.0
9, 4.0
10, 4.0
11, 4.0
12, 4.0
13, 4.0
14, 4.0
15, 4.0
16, 5.0
17, 6.0
18, 6.0
19, 6.0
20, 6.0
21, 7.0
22, 8.0
23, 8.0
24, 9.0
25, 9.0
26, 9.0
27, 10.0
28, 10.0
29, 11.0
30, 12.0
31, 13.0
32, 13.0
33, 14.0
34, 14.0
35, 15.0
36, 15.0
37, 16.0
38, 16.0
39, 17.0
40, 18.0
41, 19.0
42, 20.0
43, 20.0
44, 21.0
45, 22.0
46, 22.0
47, 23.0
48, 23.0
49, 24.0
50, 24.0
51, 24.0
52, 24.0
53, 25.0
54, 26.0
55, 27.0
56, 28.0
57, 28.0
58, 29.0
59, 29.0
60, 29.0
61, 29.0
62, 30.0
63, 31.0
64, 31.0
65, 32.0
66, 33.0
67, 33.0
68, 34.0
69, 34.0
70, 34.0
71, 34.0
72, 34.0
73, 34.0
74, 34.0
75, 34.0
76, 34.0
77, 34.0
78, 34.0
79, 34.0
80, 34.0
81, 34.0
82, 34.0
83, 34.0
84, 34.0
85, 34.0
86, 34.0
87, 34.0
88, 34.0
89, 34.0
90, 34.0
91, 34.0
92, 34.0
93, 34.0
94, 34.0
95, 34.0
96, 34.0
97, 34.0
98, 34.0
99, 34.0
100, 34.0
101, 34.0
102, 34.0
103, 34.0
104, 34.0
105, 34.0
