i, Result
0, 0.0
1, 0.0
2, 0.0
3, 0.0
4, 0.0
5, 1.0
6, 1.0
7, 1.0
8, 2.0
9, 2.0
10, 2.0
11, 2.0
12, 3.0
13, 4.0
14, 5.0
15, 5.0
16, 5.0
17, 5.0
18, 6.0
19, 7.0
20, 8.0
21, 8.0
22, 9.0
23, 10.0
24, 10.0
25, 11.0
26, 11.0
27, 12.0
28, 13.0
29, 13.0
30, 14.0
31, 15.0
32, 15.0
33, 16.0
34, 16.0
35, 16.0
36, 17.0
37, 17.0
38, 18.0
39, 19.0
40, 20.0
41, 20.0
42, 20.0
43, 20.0
44, 21.0
45, 22.0
46, 23.0
47, 23.0
48, 24.0
49, 25.0
50, 26.0
51, 26.0
52, 27.0
53, 27.0
54, 28.0
55, 29.0
56, 30.0
57, 31.0
58, 31.0
59, 31.0
60, 32.0
61, 32.0
62, 33.0
63, 34.0
64, 34.0
65, 35.0
66, 35.0
67, 36.0
68, 36.0
69, 37.0
70, 38.0
71, 38.0
72, 38.0
73, 39.0
74, 39.0
75, 39.0
76, 39.0
77, 39.0
78, 39.0
79, 39.0
80, 39.0
81, 39.0
82, 39.0
83, 39.0
84, 39.0
85, 39.0
86, 39.0
87, 39.0
88, 39.0
89, 39.0
90, 39.0
91, 39.0
92, 39.0
93, 39.0
94, 39.0
95, 39.0
96, 39.0
97, 39.0
98, 39.0
99, 39.0
100, 39.0
101, 39.0
102, 39.0
103, 39.0
104, 39.0
105, 39.0
