i, Result
0, 0.0
1, 0.0
2, 0.0
3, 1.0
4, 1.0
5, 1.0
6, 1.0
7, 1.0
8, 2.0
9, 3.0
10, 4.0
11, 4.0
12, 4.0
13, 5.0
14, 6.0
15, 7.0
16, 7.0
17, 8.0
18, 8.0
19, 8.0
20, 9.0
21, 10.0
22, 10.0
23, 10.0
24, 10.0
25, 11.0
26, 12.0
27, 13.0
28, 13.0
29, 13.0
30, 13.0
31, 13.0
32, 13.0
33, 13.0
34, 14.0
35, 14.0
36, 15.0
37, 15.0
38, 15.0
39, 15.0
40, 15.0
41, 15.0
42, 15.0
43, 16.0
44, 16.0
45, 17.0
46, 18.0
47, 18.0
48, 18.0
49, 18.0
50, 19.0
51, 20.0
52, 21.0
53, 22.0
54, 23.0
55, 24.0
56, 24.0
57, 24.0
58, 25.0
59, 26.0
60, 27.0
61, 28.0
62, 29.0
63, 29.0
64, 30.0
65, 30.0
66, 30.0
67, 31.0
68, 31.0
69, 31.0
70, 31.0
71, 31.0
72, 31.0
73, 31.0
74, 31.0
75, 31.0
76, 31.0
77, 31.0
78, 31.0
79, 31.0
80, 31.0
81, 31.0
82, 31.0
83, 31.0
84, 31.0
85, 31.0
86, 31.0
87, 31.0
88, 31.0
89, 31.0
90, 31.0
91, 31.0
92, 31.0
93, 31.0
94, 31.0
95, 31.0
96, 31.0
97, 31.0
98, 31.0
99, 31.0
100, 31.0
101, 31.0
102, 31.0
103, 31.0
104, 31.0
105, 31.0
