i, Result
0, 0.0
1, 0.0
2, 0.0
3, 0.0
4, 1.0
5, 2.0
6, 2.0
7, 3.0
8, 4.0
9, 5.0
10, 5.0
11, 6.0
12, 7.0
13, 8.0
14, 9.0
15, 9.0
16, 10.0
17, 10.0
18, 11.0
19, 11.0
20, 11.0
21, 11.0
22, 11.0
23, 11.0
24, 11.0
25, 11.0
26, 11.0
27, 11.0
28, 12.0
29, 13.0
30, 14.0
31, 15.0
32, 15.0
33, 16.0
34, 17.0
35, 17.0
36, 18.0
37, 18.0
38, 19.0
39, 20.0
40, 21.0
41, 21.0
42, 21.0
43, 22.0
44, 23.0
45, 23.0
46, 23.0
47, 24.0
48, 25.0
49, 25.0
50, 25.0
51, 25.0
52, 26.0
53, 27.0
54, 28.0
55, 29.0
56, 30.0
57, 30.0
58, 30.0
59, 30.0
60, 31.0
61, 31.0
62, 32.0
63, 33.0
64, 33.0
65, 33.0
66, 33.0
67, 33.0
68, 34.0
69, 34.0
70, 35.0
71, 36.0
72, 37.0
73, 37.0
74, 38.0
75, 38.0
76, 38.0
77, 38.0
78, 38.0
79, 38.0
80, 38.0
81, 38.0
82, 38.0
83, 38.0
84, 38.0
85, 38.0
86, 38.0
87, 38.0
88, 38.0
89, 38.0
90, 38.0
91, 38.0
92, 38.0
93, 38.0
94, 38.0
95, 38.0
96, 38.0
97, 38.0
98, 38.0
99, 38.0
100, 38.0
101, 38.0
102, 38.0
103, 38.0
104, 38.0
105, 38.0
