i, Result
0, 0.0
1, 0.0
2, 0.0
3, 1.0
4, 1.0
5, 1.0
6, 1.0
7, 1.0
8, 1.0
9, 2.0
10, 2.0
11, 2.0
12, 2.0
13, 3.0
14, 3.0
15, 3.0
16, 4.0
17, 4.0
18, 5.0
19, 5.0
20, 6.0
21, 6.0
22, 6.0
23, 7.0
24, 7.0
25, 7.0
26, 7.0
27, 7.0
28, 8.0
29, 8.0
30, 9.0
31, 9.0
32, 9.0
33, 9.0
34, 9.0
35, 9.0
36, 9.0
37, 10.0
38, 10.0
39, 10.0
40, 11.0
41, 12.0
42, 13.0
43, 13.0
44, 13.0
45, 13.0
46, 13.0
47, 14.0
48, 14.0
49, 15.0
50, 15.0
51, 16.0
52, 16.0
53, 16.0
54, 17.0
55, 18.0
56, 18.0
57, 19.0
58, 20.0
59, 21.0
60, 22.0
61, 22.0
62, 22.0
63, 22.0
64, 22.0
65, 22.0
66, 22.0
67, 22.0
68, 22.0
69, 22.0
70, 22.0
71, 22.0
72, 22.0
73, 22.0
74, 22.0
75, 22.0
76, 22.0
77, 22.0
78, 22.0
79, 22.0
80, 22.0
81, 22.0
82, 22.0
83, 22.0
84, 22.0
85, 22.0
86, 22.0
87, 22.0
88, 22.0
89, 22.0
90, 22.0
91, 22.0
92, 22.0
93, 22.0
94, 22.0
95, 22.0
96, 22.0
97, 22.0
98, 22.0
99, 22.0
100, 22.0
101, 22.0
102, 22.0
103, 22.0
104, 22.0
105, 22.0
