i, Result
0, 0.0
1, 0.0
2, 0.0
3, 0.0
4, 0.0
5, 1.0
6, 1.0
7, 2.0
8, 3.0
9, 3.0
10, 4.0
11, 5.0
12, 6.0
13, 7.0
14, 7.0
15, 8.0
16, 8.0
17, 9.0
18, 10.0
19, 11.0
20, 11.0
21, 12.0
22, 12.0
23, 12.0
24, 12.0
25, 13.0
26, 13.0
27, 14.0
28, 14.0
29, 14.0
30, 15.0
31, 15.0
32, 15.0
33, 16.0
34, 16.0
35, 16.0
36, 17.0
37, 17.0
38, 18.0
39, 19.0
40, 19.0
41, 20.0
42, 21.0
43, 22.0
44, 22.0
45, 22.0
46, 23.0
47, 23.0
48, 23.0
49, 23.0
50, 24.0
51, 25.0
52, 25.0
53, 25.0
54, 25.0
55, 25.0
56, 25.0
57, 26.0
58, 26.0
59, 26.0
60, 26.0
61, 26.0
62, 26.0
63, 26.0
64, 26.0
65, 26.0
66, 26.0
67, 26.0
68, 26.0
69, 26.0
70, 26.0
71, 26.0
72, 26.0
73, 26.0
74, 26.0
75, 26.0
76, 26.0
77, 26.0
78, 26.0
79, 26.0
80, 26.0
81, 26.0
82, 26.0
83, 26.0
84, 26.0
85, 26.0
86, 26.0
87, 26.0
88, 26.0
89, 26.0
90, 26.0
91, 26.0
92, 26.0
93, 26.0
94, 26.0
95, 26.0
96, 26.0
97, 26.0
98, 26.0
99, 26.0
100, 26.0
101, 26.0
102, 26.0
103, 26.0
104, 26.0
105, 26.0
