i, Result
0, 0.0
1, 0.0
2, 0.0
3, 1.0
4, 1.0
5, 1.0
6, 1.0
7, 1.0
8, 2.0
9, 3.0
10, 3.0
11, 4.0
12, 5.0
13, 5.0
14, 5.0
15, 5.0
16, 5.0
17, 6.0
18, 7.0
19, 8.0
20, 8.0
21, 8.0
22, 8.0
23, 9.0
24, 9.0
25, 10.0
26, 11.0
27, 12.0
28, 12.0
29, 12.0
30, 13.0
31, 13.0
32, 13.0
33, 13.0
34, 14.0
35, 14.0
36, 14.0
37, 14.0
38, 15.0
39, 16.0
40, 17.0
41, 18.0
42, 18.0
43, 18.0
44, 18.0
45, 18.0
46, 18.0
47, 18.0
48, 19.0
49, 20.0
50, 20.0
51, 21.0
52, 22.0
53, 23.0
54, 24.0
55, 24.0
56, 24.0
57, 24.0
58, 24.0
59, 25.0
60, 26.0
61, 26.0
62, 27.0
63, 27.0
64, 27.0
65, 28.0
66, 28.0
67, 28.0
68, 28.0
69, 28.0
70, 28.0
71, 28.0
72, 28.0
73, 28.0
74, 28.0
75, 28.0
76, 28.0
77, 28.0
78, 28.0
79, 28.0
80, 28.0
81, 28.0
82, 28.0
83, 28.0
84, 28.0
85, 28.0
86, 28.0
87, 28.0
88, 28.0
89, 28.0
90, 28.0
91, 28.0
92, 28.0
93, 28.0
94, 28.0
95, 28.0
96, 28.0
97, 28.0
98, 28.0
99, 28.0
100, 28.0
101, 28.0
102, 28.0
103, 28.0
104, 28.0
105, 28.0
