i, Result
0, 0.0
1, 0.0
2, 0.0
3, 1.0
4, 1.0
5, 2.0
6, 2.0
7, 3.0
8, 4.0
9, 4.0
10, 5.0
11, 5.0
12, 5.0
13, 5.0
14, 5.0
15, 6.0
16, 6.0
17, 6.0
18, 7.0
19, 7.0
20, 7.0
21, 7.0
22, 8.0
23, 8.0
24, 9.0
25, 10.0
26, 10.0
27, 11.0
28, 11.0
29, 12.0
30, 12.0
31, 12.0
32, 13.0
33, 13.0
34, 14.0
35, 15.0
36, 15.0
37, 15.0
38, 16.0
39, 17.0
40, 17.0
41, 18.0
42, 19.0
43, 20.0
44, 21.0
45, 21.0
46, 22.0
47, 22.0
48, 23.0
49, 24.0
50, 25.0
51, 26.0
52, 26.0
53, 27.0
54, 28.0
55, 29.0
56, 30.0
57, 31.0
58, 31.0
59, 32.0
60, 33.0
61, 33.0
62, 34.0
63, 35.0
64, 36.0
65, 37.0
66, 38.0
67, 39.0
68, 39.0
69, 39.0
70, 39.0
71, 40.0
72, 41.0
73, 41.0
74, 41.0
75, 42.0
76, 42.0
77, 43.0
78, 43.0
79, 43.0
80, 43.0
81, 43.0
82, 43.0
83, 43.0
84, 43.0
85, 43.0
86, 43.0
87, 43.0
88, 43.0
89, 43.0
90, 43.0
91, 43.0
92, 43.0
93, 43.0
94, 43.0
95, 43.0
96, 43.0
97, 43.0
98, 43.0
99, 43.0
100, 43.0
101, 43.0
102, 43.0
103, 43.0
104, 43.0
105, 43.0
