i, Result
0, 0.0
1, 0.0
2, 0.0
3, 0.0
4, 0.0
5, 1.0
6, 1.0
7, 2.0
8, 2.0
9, 3.0
10, 3.0
11, 4.0
12, 4.0
13, 4.0
14, 4.0
15, 4.0
16, 4.0
17, 5.0
18, 5.0
19, 5.0
20, 5.0
21, 5.0
22, 5.0
23, 5.0
24, 5.0
25, 5.0
26, 5.0
27, 6.0
28, 7.0
29, 8.0
30, 8.0
31, 8.0
32, 8.0
33, 8.0
34, 9.0
35, 9.0
36, 10.0
37, 11.0
38, 12.0
39, 12.0
40, 12.0
41, 13.0
42, 13.0
43, 14.0
44, 14.0
45, 14.0
46, 15.0
47, 16.0
48, 17.0
49, 17.0
50, 18.0
51, 19.0
52, 20.0
53, 21.0
54, 22.0
55, 22.0
56, 23.0
57, 23.0
58, 23.0
59, 24.0
60, 25.0
61, 26.0
62, 27.0
63, 28.0
64, 29.0
65, 30.0
66, 31.0
67, 32.0
68, 33.0
69, 33.0
70, 33.0
71, 33.0
72, 33.0
73, 33.0
74, 33.0
75, 33.0
76, 33.0
77, 33.0
78, 33.0
79, 33.0
80, 33.0
81, 33.0
82, 33.0
83, 33.0
84, 33.0
85, 33.0
86, 33.0
87, 33.0
88, 33.0
89, 33.0
90, 33.0
91, 33.0
92, 33.0
93, 33.0
94, 33.0
95, 33.0
96, 33.0
97, 33.0
98, 33.0
99, 33.0
100, 33.0
101, 33.0
102, 33.0
103, 33.0
104, 33.0
105, 33.0
