i, Result
0, 0.0
1, 0.0
2, 0.0
3, 1.0
4, 2.0
5, 2.0
6, 2.0
7, 3.0
8, 4.0
9, 4.0
10, 4.0
11, 4.0
12, 4.0
13, 5.0
14, 5.0
15, 5.0
16, 6.0
17, 7.0
18, 8.0
19, 8.0
20, 9.0
21, 9.0
22, 10.0
23, 10.0
24, 10.0
25, 10.0
26, 11.0
27, 11.0
28, 11.0
29, 11.0
30, 11.0
31, 12.0
32, 13.0
33, 13.0
34, 13.0
35, 13.0
36, 13.0
37, 14.0
38, 14.0
39, 14.0
40, 15.0
41, 16.0
42, 16.0
43, 17.0
44, 18.0
45, 18.0
46, 18.0
47, 18.0
48, 18.0
49, 18.0
50, 18.0
51, 18.0
52, 18.0
53, 18.0
54, 18.0
55, 18.0
56, 19.0
57, 20.0
58, 21.0
59, 22.0
60, 23.0
61, 24.0
62, 25.0
63, 25.0
64, 25.0
65, 26.0
66, 26.0
67, 26.0
68, 26.0
69, 26.0
70, 26.0
71, 26.0
72, 26.0
73, 26.0
74, 26.0
75, 26.0
76, 26.0
77, 26.0
78, 26.0
79, 26.0
80, 26.0
81, 26.0
82, 26.0
83, 26.0
84, 26.0
85, 26.0
86, 26.0
87, 26.0
88, 26.0
89, 26.0
90, 26.0
91, 26.0
92, 26.0
93, 26.0
94, 26.0
95, 26.0
96, 26.0
97, 26.0
98, 26.0
99, 26.0
100, 26.0
101, 26.0
102, 26.0
103, 26.0
104, 26.0
105, 26.0
