i, Result
0, 0.0
1, 0.0
2, 0.0
3, 1.0
4, 1.0
5, 2.0
6, 3.0
7, 4.0
8, 5.0
9, 6.0
10, 7.0
11, 8.0
12, 8.0
13, 9.0
14, 9.0
15, 10.0
16, 10.0
17, 11.0
18, 12.0
19, 13.0
20, 13.0
21, 13.0
22, 14.0
23, 14.0
24, 14.0
25, 14.0
26, 14.0
27, 14.0
28, 15.0
29, 15.0
30, 15.0
31, 15.0
32, 15.0
33, 16.0
34, 16.0
35, 17.0
36, 18.0
37, 19.0
38, 19.0
39, 19.0
40, 20.0
41, 21.0
42, 21.0
43, 22.0
44, 23.0
45, 23.0
46, 24.0
47, 25.0
48, 26.0
49, 27.0
50, 27.0
51, 28.0
52, 28.0
53, 29.0
54, 29.0
55, 29.0
56, 29.0
57, 29.0
58, 30.0
59, 30.0
60, 30.0
61, 31.0
62, 32.0
63, 33.0
64, 34.0
65, 35.0
66, 36.0
67, 36.0
68, 36.0
69, 36.0
70, 36.0
71, 36.0
72, 36.0
73, 36.0
74, 36.0
75, 36.0
76, 36.0
77, 36.0
78, 36.0
79, 36.0
80, 36.0
81, 36.0
82, 36.0
83, 36.0
84, 36.0
85, 36.0
86, 36.0
87, 36.0
88, 36.0
89, 36.0
90, 36.0
91, 36.0
92, 36.0
93, 36.0
94, 36.0
95, 36.0
96, 36.0
97, 36.0
98, 36.0
99, 36.0
100, 36.0
101, 36.0
102, 36.0
103, 36.0
104, 36.0
105, 36.0
