i, Result
0, 0.0
1, 0.0
2, 0.0
3, 0.0
4, 0.0
5, 0.0
6, 1.0
7, 1.0
8, 1.0
9, 1.0
10, 1.0
11, 1.0
12, 1.0
13, 1.0
14, 2.0
15, 2.0
16, 3.0
17, 3.0
18, 4.0
19, 5.0
20, 5.0
21, 6.0
22, 6.0
23, 7.0
24, 8.0
25, 9.0
26, 9.0
27, 9.0
28, 10.0
29, 10.0
30, 10.0
31, 10.0
32, 10.0
33, 10.0
34, 11.0
35, 11.0
36, 12.0
37, 12.0
38, 12.0
39, 12.0
40, 12.0
41, 13.0
42, 13.0
43, 14.0
44, 14.0
45, 15.0
46, 15.0
47, 16.0
48, 16.0
49, 16.0
50, 17.0
51, 17.0
52, 17.0
53, 17.0
54, 17.0
55, 18.0
56, 18.0
57, 18.0
58, 19.0
59, 20.0
60, 21.0
61, 22.0
62, 23.0
63, 24.0
64, 25.0
65, 25.0
66, 25.0
67, 25.0
68, 25.0
69, 25.0
70, 25.0
71, 25.0
72, 25.0
73, 25.0
74, 25.0
75, 25.0
76, 25.0
77, 25.0
78, 25.0
79, 25.0
80, 25.0
81, 25.0
82, 25.0
83, 25.0
84, 25.0
85, 25.0
86, 25.0
87, 25.0
88, 25.0
89, 25.0
90, 25.0
91, 25.0
92, 25.0
93, 25.0
94, 25.0
95, 25.0
96, 25.0
97, 25.0
98, 25.0
99, 25.0
100, 25.0
101, 25.0
102, 25.0
103, 25.0
104, 25.0
105, 25.0
