i, Result
0, 0.0
1, 0.0
2, 0.0
3, 1.0
4, 1.0
5, 2.0
6, 3.0
7, 3.0
8, 3.0
9, 4.0
10, 5.0
11, 6.0
12, 7.0
13, 8.0
14, 8.0
15, 8.0
16, 9.0
17, 10.0
18, 11.0
19, 11.0
20, 11.0
21, 12.0
22, 13.0
23, 13.0
24, 14.0
25, 14.0
26, 15.0
27, 16.0
28, 16.0
29, 16.0
30, 16.0
31, 16.0
32, 17.0
33, 18.0
34, 18.0
35, 18.0
36, 18.0
37, 19.0
38, 20.0
39, 20.0
40, 21.0
41, 22.0
42, 22.0
43, 23.0
44, 23.0
45, 23.0
46, 24.0
47, 24.0
48, 25.0
49, 25.0
50, 25.0
51, 26.0
52, 26.0
53, 27.0
54, 28.0
55, 28.0
56, 29.0
57, 30.0
58, 31.0
59, 32.0
60, 33.0
61, 33.0
62, 34.0
63, 34.0
64, 34.0
65, 34.0
66, 35.0
67, 36.0
68, 37.0
69, 37.0
70, 37.0
71, 37.0
72, 37.0
73, 37.0
74, 37.0
75, 37.0
76, 37.0
77, 37.0
78, 37.0
79, 37.0
80, 37.0
81, 37.0
82, 37.0
83, 37.0
84, 37.0
85, 37.0
86, 37.0
87, 37.0
88, 37.0
89, 37.0
90, 37.0
91, 37.0
92, 37.0
93, 37.0
94, 37.0
95, 37.0
96, 37.0
97, 37.0
98, 37.0
99, 37.0
100, 37.0
101, 37.0
102, 37.0
103, 37.0
104, 37.0
105, 37.0
