i, Result
0, 0.0
1, 0.0
2, 0.0
3, 1.0
4, 1.0
5, 1.0
6, 2.0
7, 2.0
8, 2.0
9, 2.0
10, 3.0
11, 4.0
12, 4.0
13, 4.0
14, 5.0
15, 6.0
16, 7.0
17, 8.0
18, 8.0
19, 9.0
20, 10.0
21, 10.0
22, 11.0
23, 11.0
24, 11.0
25, 11.0
26, 12.0
27, 13.0
28, 13.0
29, 13.0
30, 14.0
31, 14.0
32, 15.0
33, 15.0
34, 15.0
35, 15.0
36, 16.0
37, 17.0
38, 18.0
39, 18.0
40, 19.0
41, 19.0
42, 19.0
43, 19.0
44, 19.0
45, 19.0
46, 20.0
47, 20.0
48, 20.0
49, 21.0
50, 22.0
51, 23.0
52, 23.0
53, 23.0
54, 24.0
55, 24.0
56, 25.0
57, 26.0
58, 26.0
59, 26.0
60, 26.0
61, 27.0
62, 28.0
63, 28.0
64, 28.0
65, 28.0
66, 29.0
67, 29.0
68, 29.0
69, 30.0
70, 31.0
71, 31.0
72, 31.0
73, 31.0
74, 31.0
75, 31.0
76, 31.0
77, 31.0
78, 31.0
79, 31.0
80, 31.0
81, 31.0
82, 31.0
83, 31.0
84, 31.0
85, 31.0
86, 31.0
87, 31.0
88, 31.0
89, 31.0
90, 31.0
91, 31.0
92, 31.0
93, 31.0
94, 31.0
95, 31.0
96, 31.0
97, 31.0
98, 31.0
99, 31.0
100, 31.0
101, 31.0
102, 31.0
103, 31.0
104, 31.0
105, 31.0
