i, Result
0, 0.0
1, 0.0
2, 0.0
3, 0.0
4, 0.0
5, 0.0
6, 1.0
7, 2.0
8, 2.0
9, 2.0
10, 2.0
11, 2.0
12, 3.0
13, 3.0
14, 3.0
15, 4.0
16, 4.0
17, 4.0
18, 4.0
19, 4.0
20, 4.0
21, 4.0
22, 4.0
23, 5.0
24, 5.0
25, 5.0
26, 5.0
27, 5.0
28, 5.0
29, 6.0
30, 6.0
31, 6.0
32, 6.0
33, 6.0
34, 6.0
35, 6.0
36, 6.0
37, 6.0
38, 6.0
39, 6.0
40, 7.0
41, 8.0
42, 8.0
43, 9.0
44, 9.0
45, 10.0
46, 10.0
47, 11.0
48, 12.0
49, 13.0
50, 13.0
51, 14.0
52, 14.0
53, 14.0
54, 14.0
55, 14.0
56, 15.0
57, 16.0
58, 17.0
59, 18.0
60, 19.0
61, 19.0
62, 19.0
63, 19.0
64, 19.0
65, 19.0
66, 19.0
67, 19.0
68, 19.0
69, 19.0
70, 19.0
71, 19.0
72, 19.0
73, 19.0
74, 19.0
75, 19.0
76, 19.0
77, 19.0
78, 19.0
79, 19.0
80, 19.0
81, 19.0
82, 19.0
83, 19.0
84, 19.0
85, 19.0
86, 19.0
87, 19.0
88, 19.0
89, 19.0
90, 19.0
91, 19.0
92, 19.0
93, 19.0
94, 19.0
95, 19.0
96, 19.0
97, 19.0
98, 19.0
99, 19.0
100, 19.0
101, 19.0
102, 19.0
103, 19.0
104, 19.0
105, 19.0
