Property,Time for model construction,States,Transitions,Result,Time for model checking 
P=? [ G (n_STr<=10&n_STr>=0) ],52.107 ,1070831 ,10708310,1.0,0.357 
P=? [ G (n_SNr<=10&n_SNr>=0) ],53.021 ,1070831 ,10708310,1.0,0.369 
P=? [ G (n_GPe<=10&n_GPe>=0) ],51.557 ,1070831 ,10708310,1.0,0.38 
P=? [ G (n_Delay<=10&n_Delay>=0) ],52.449 ,1070831 ,10708310,1.0,0.374 
P=? [ G (n_STN<=10&n_STN>=0) ],51.969 ,1070831 ,10708310,1.0,0.396 
P=? [ G (n_Th<=10&n_Th>=0) ],52.655 ,1070831 ,10708310,1.0,0.386 
P=? [ G (potentiel_STr<=800&potentiel_STr>=0) ],53.132 ,1070831 ,10708310,1.0,0.626 
P=? [ G (potentiel_SNr<=800&potentiel_SNr>=0) ],52.947 ,1070831 ,10708310,1.0,0.358 
P=? [ G (potentiel_GPe<=800&potentiel_GPe>=0) ],52.308 ,1070831 ,10708310,1.0,0.627 
P=? [ G (potentiel_Delay<=800&potentiel_Delay>=0) ],53.023 ,1070831 ,10708310,1.0,0.381 
P=? [ G (potentiel_STN<=800&potentiel_STN>=0) ],52.302 ,1070831 ,10708310,1.0,0.374 
P=? [ G (potentiel_Th<=800&potentiel_Th>=0) ],52.542 ,1070831 ,10708310,1.0,0.381 
P=? [ n_STr=0 U potentiel_STr>=80 ],52.734 ,1070831 ,10708310,1.0,1.028 
P=? [ n_SNr=0 U potentiel_SNr>=80 ],53.175 ,1070831 ,10708310,1.0,1.147 
P=? [ n_GPe=0 U potentiel_GPe>=80 ],52.512 ,1070831 ,10708310,1.0,1.468 
P=? [ n_Delay=0 U potentiel_Delay>=80 ],51.941 ,1070831 ,10708310,1.0,1.249 
P=? [ n_STN=0 U potentiel_STN>=80 ],52.014 ,1070831 ,10708310,1.0,1.468 
P=? [ n_Th=0 U potentiel_Th>=80 ],53.544 ,1070831 ,10708310,1.0,1.009 
P=? [ (X (G n_STN=0&n_GPe=0&n_STr=0&n_Delay=0&n_SNr=0&n_Th=0)) ],51.822 ,1070831 ,10708310,0.0,5.189 
P=? [ (F n_STN>5&(X n_GPe>5&(X n_STr<5))) ],52.387 ,1070831 ,10708310,1.0,10.169 
P=? [ (F n_STN>5&(X n_Delay>5&(X n_SNr>5))) ],52.619 ,1070831 ,10708310,1.0,9.667 
P=? [ F=10 n_STN>3 ],52.204 ,1070831 ,10708310,1.0,0.24 
P=? [ F=11 n_GPe>3&n_Delay>3 ],52.798 ,1070831 ,10708310,1.0,0.289 
P=? [ F=12 n_STr<5&n_SNr>3 ],52.538 ,1070831 ,10708310,1.0,0.308 
P=? [ G<11 n_GPe=0&n_Delay=0 ],54.039 ,1070831 ,10708310,1.0,0.298 
