i, Result
0, 0.0
1, 0.0
2, 0.0
3, 1.0
4, 2.0
5, 3.0
6, 3.0
7, 3.0
8, 3.0
9, 4.0
10, 4.0
11, 4.0
12, 5.0
13, 5.0
14, 6.0
15, 6.0
16, 7.0
17, 8.0
18, 8.0
19, 9.0
20, 9.0
21, 10.0
22, 10.0
23, 10.0
24, 10.0
25, 11.0
26, 12.0
27, 13.0
28, 14.0
29, 15.0
30, 16.0
31, 17.0
32, 17.0
33, 18.0
34, 18.0
35, 19.0
36, 20.0
37, 21.0
38, 22.0
39, 22.0
40, 23.0
41, 23.0
42, 24.0
43, 24.0
44, 24.0
45, 24.0
46, 25.0
47, 26.0
48, 27.0
49, 27.0
50, 27.0
51, 27.0
52, 27.0
53, 27.0
54, 27.0
55, 28.0
56, 28.0
57, 29.0
58, 30.0
59, 30.0
60, 30.0
61, 31.0
62, 31.0
63, 31.0
64, 32.0
65, 32.0
66, 33.0
67, 33.0
68, 33.0
69, 33.0
70, 33.0
71, 33.0
72, 33.0
73, 33.0
74, 33.0
75, 33.0
76, 33.0
77, 33.0
78, 33.0
79, 33.0
80, 33.0
81, 33.0
82, 33.0
83, 33.0
84, 33.0
85, 33.0
86, 33.0
87, 33.0
88, 33.0
89, 33.0
90, 33.0
91, 33.0
92, 33.0
93, 33.0
94, 33.0
95, 33.0
96, 33.0
97, 33.0
98, 33.0
99, 33.0
100, 33.0
101, 33.0
102, 33.0
103, 33.0
104, 33.0
105, 33.0
