i, Result
0, 0.0
1, 0.0
2, 0.0
3, 0.0
4, 1.0
5, 2.0
6, 2.0
7, 2.0
8, 2.0
9, 3.0
10, 3.0
11, 4.0
12, 4.0
13, 5.0
14, 5.0
15, 5.0
16, 5.0
17, 5.0
18, 5.0
19, 6.0
20, 7.0
21, 7.0
22, 8.0
23, 8.0
24, 8.0
25, 8.0
26, 8.0
27, 8.0
28, 8.0
29, 9.0
30, 10.0
31, 11.0
32, 11.0
33, 12.0
34, 12.0
35, 13.0
36, 14.0
37, 14.0
38, 14.0
39, 14.0
40, 15.0
41, 16.0
42, 16.0
43, 17.0
44, 18.0
45, 18.0
46, 19.0
47, 19.0
48, 20.0
49, 21.0
50, 21.0
51, 22.0
52, 23.0
53, 23.0
54, 23.0
55, 24.0
56, 25.0
57, 25.0
58, 26.0
59, 27.0
60, 27.0
61, 27.0
62, 27.0
63, 27.0
64, 28.0
65, 28.0
66, 28.0
67, 29.0
68, 29.0
69, 29.0
70, 29.0
71, 29.0
72, 29.0
73, 29.0
74, 29.0
75, 29.0
76, 29.0
77, 29.0
78, 29.0
79, 29.0
80, 29.0
81, 29.0
82, 29.0
83, 29.0
84, 29.0
85, 29.0
86, 29.0
87, 29.0
88, 29.0
89, 29.0
90, 29.0
91, 29.0
92, 29.0
93, 29.0
94, 29.0
95, 29.0
96, 29.0
97, 29.0
98, 29.0
99, 29.0
100, 29.0
101, 29.0
102, 29.0
103, 29.0
104, 29.0
105, 29.0
