i, Result
0, 0.0
1, 0.0
2, 0.0
3, 0.0
4, 0.0
5, 0.0
6, 1.0
7, 1.0
8, 1.0
9, 1.0
10, 2.0
11, 2.0
12, 2.0
13, 2.0
14, 2.0
15, 3.0
16, 4.0
17, 4.0
18, 5.0
19, 5.0
20, 6.0
21, 6.0
22, 6.0
23, 6.0
24, 7.0
25, 8.0
26, 9.0
27, 10.0
28, 11.0
29, 11.0
30, 12.0
31, 12.0
32, 12.0
33, 13.0
34, 13.0
35, 13.0
36, 13.0
37, 13.0
38, 13.0
39, 13.0
40, 14.0
41, 15.0
42, 16.0
43, 17.0
44, 17.0
45, 17.0
46, 18.0
47, 18.0
48, 18.0
49, 18.0
50, 19.0
51, 19.0
52, 19.0
53, 19.0
54, 19.0
55, 19.0
56, 19.0
57, 19.0
58, 19.0
59, 19.0
60, 19.0
61, 19.0
62, 19.0
63, 19.0
64, 19.0
65, 19.0
66, 19.0
67, 19.0
68, 19.0
69, 19.0
70, 19.0
71, 19.0
72, 19.0
73, 19.0
74, 19.0
75, 19.0
76, 19.0
77, 19.0
78, 19.0
79, 19.0
80, 19.0
81, 19.0
82, 19.0
83, 19.0
84, 19.0
85, 19.0
86, 19.0
87, 19.0
88, 19.0
89, 19.0
90, 19.0
91, 19.0
92, 19.0
93, 19.0
94, 19.0
95, 19.0
96, 19.0
97, 19.0
98, 19.0
99, 19.0
100, 19.0
101, 19.0
102, 19.0
103, 19.0
104, 19.0
105, 19.0
