i, Result
0, 0.0
1, 0.0
2, 0.0
3, 0.0
4, 1.0
5, 2.0
6, 3.0
7, 4.0
8, 5.0
9, 6.0
10, 6.0
11, 7.0
12, 7.0
13, 7.0
14, 8.0
15, 9.0
16, 9.0
17, 10.0
18, 10.0
19, 10.0
20, 11.0
21, 12.0
22, 13.0
23, 13.0
24, 13.0
25, 13.0
26, 13.0
27, 13.0
28, 13.0
29, 14.0
30, 15.0
31, 15.0
32, 15.0
33, 15.0
34, 15.0
35, 15.0
36, 16.0
37, 16.0
38, 16.0
39, 17.0
40, 18.0
41, 19.0
42, 20.0
43, 21.0
44, 21.0
45, 21.0
46, 22.0
47, 22.0
48, 22.0
49, 22.0
50, 23.0
51, 24.0
52, 24.0
53, 25.0
54, 25.0
55, 26.0
56, 26.0
57, 26.0
58, 27.0
59, 28.0
60, 28.0
61, 28.0
62, 28.0
63, 29.0
64, 29.0
65, 29.0
66, 29.0
67, 30.0
68, 31.0
69, 31.0
70, 32.0
71, 32.0
72, 32.0
73, 32.0
74, 32.0
75, 32.0
76, 32.0
77, 32.0
78, 32.0
79, 32.0
80, 32.0
81, 32.0
82, 32.0
83, 32.0
84, 32.0
85, 32.0
86, 32.0
87, 32.0
88, 32.0
89, 32.0
90, 32.0
91, 32.0
92, 32.0
93, 32.0
94, 32.0
95, 32.0
96, 32.0
97, 32.0
98, 32.0
99, 32.0
100, 32.0
101, 32.0
102, 32.0
103, 32.0
104, 32.0
105, 32.0
