i, Result
0, 0.0
1, 0.0
2, 0.0
3, 1.0
4, 1.0
5, 2.0
6, 2.0
7, 2.0
8, 2.0
9, 2.0
10, 3.0
11, 3.0
12, 4.0
13, 5.0
14, 5.0
15, 6.0
16, 6.0
17, 7.0
18, 8.0
19, 8.0
20, 9.0
21, 9.0
22, 10.0
23, 10.0
24, 11.0
25, 11.0
26, 11.0
27, 12.0
28, 13.0
29, 13.0
30, 13.0
31, 14.0
32, 15.0
33, 16.0
34, 17.0
35, 18.0
36, 18.0
37, 19.0
38, 20.0
39, 20.0
40, 20.0
41, 21.0
42, 22.0
43, 22.0
44, 23.0
45, 24.0
46, 24.0
47, 25.0
48, 25.0
49, 25.0
50, 25.0
51, 25.0
52, 26.0
53, 27.0
54, 27.0
55, 27.0
56, 28.0
57, 29.0
58, 29.0
59, 29.0
60, 30.0
61, 31.0
62, 31.0
63, 32.0
64, 32.0
65, 33.0
66, 33.0
67, 33.0
68, 33.0
69, 33.0
70, 34.0
71, 34.0
72, 34.0
73, 34.0
74, 34.0
75, 34.0
76, 34.0
77, 34.0
78, 34.0
79, 34.0
80, 34.0
81, 34.0
82, 34.0
83, 34.0
84, 34.0
85, 34.0
86, 34.0
87, 34.0
88, 34.0
89, 34.0
90, 34.0
91, 34.0
92, 34.0
93, 34.0
94, 34.0
95, 34.0
96, 34.0
97, 34.0
98, 34.0
99, 34.0
100, 34.0
101, 34.0
102, 34.0
103, 34.0
104, 34.0
105, 34.0
