i, Result
0, 0.0
1, 0.0
2, 0.0
3, 1.0
4, 2.0
5, 3.0
6, 4.0
7, 5.0
8, 6.0
9, 6.0
10, 7.0
11, 8.0
12, 8.0
13, 9.0
14, 10.0
15, 11.0
16, 12.0
17, 13.0
18, 13.0
19, 13.0
20, 13.0
21, 14.0
22, 14.0
23, 15.0
24, 15.0
25, 16.0
26, 17.0
27, 18.0
28, 19.0
29, 20.0
30, 21.0
31, 22.0
32, 22.0
33, 22.0
34, 22.0
35, 23.0
36, 23.0
37, 23.0
38, 24.0
39, 24.0
40, 25.0
41, 25.0
42, 25.0
43, 25.0
44, 26.0
45, 27.0
46, 28.0
47, 28.0
48, 29.0
49, 30.0
50, 30.0
51, 30.0
52, 31.0
53, 31.0
54, 31.0
55, 31.0
56, 32.0
57, 32.0
58, 33.0
59, 33.0
60, 33.0
61, 34.0
62, 34.0
63, 34.0
64, 35.0
65, 35.0
66, 35.0
67, 36.0
68, 37.0
69, 37.0
70, 38.0
71, 38.0
72, 39.0
73, 40.0
74, 41.0
75, 41.0
76, 41.0
77, 41.0
78, 41.0
79, 41.0
80, 41.0
81, 41.0
82, 41.0
83, 41.0
84, 41.0
85, 41.0
86, 41.0
87, 41.0
88, 41.0
89, 41.0
90, 41.0
91, 41.0
92, 41.0
93, 41.0
94, 41.0
95, 41.0
96, 41.0
97, 41.0
98, 41.0
99, 41.0
100, 41.0
101, 41.0
102, 41.0
103, 41.0
104, 41.0
105, 41.0
