i, Result
0, 0.0
1, 0.0
2, 0.0
3, 0.0
4, 0.0
5, 0.0
6, 0.0
7, 1.0
8, 1.0
9, 1.0
10, 1.0
11, 1.0
12, 1.0
13, 1.0
14, 1.0
15, 2.0
16, 3.0
17, 4.0
18, 5.0
19, 5.0
20, 6.0
21, 6.0
22, 7.0
23, 7.0
24, 8.0
25, 8.0
26, 9.0
27, 10.0
28, 11.0
29, 12.0
30, 13.0
31, 13.0
32, 13.0
33, 13.0
34, 14.0
35, 14.0
36, 15.0
37, 15.0
38, 16.0
39, 17.0
40, 18.0
41, 19.0
42, 20.0
43, 20.0
44, 21.0
45, 22.0
46, 23.0
47, 23.0
48, 24.0
49, 24.0
50, 24.0
51, 24.0
52, 25.0
53, 26.0
54, 27.0
55, 28.0
56, 29.0
57, 30.0
58, 31.0
59, 31.0
60, 31.0
61, 32.0
62, 33.0
63, 34.0
64, 34.0
65, 34.0
66, 34.0
67, 34.0
68, 34.0
69, 34.0
70, 34.0
71, 34.0
72, 34.0
73, 34.0
74, 34.0
75, 34.0
76, 34.0
77, 34.0
78, 34.0
79, 34.0
80, 34.0
81, 34.0
82, 34.0
83, 34.0
84, 34.0
85, 34.0
86, 34.0
87, 34.0
88, 34.0
89, 34.0
90, 34.0
91, 34.0
92, 34.0
93, 34.0
94, 34.0
95, 34.0
96, 34.0
97, 34.0
98, 34.0
99, 34.0
100, 34.0
101, 34.0
102, 34.0
103, 34.0
104, 34.0
105, 34.0
