i, Result
0, 0.0
1, 0.0
2, 0.0
3, 1.0
4, 2.0
5, 3.0
6, 3.0
7, 4.0
8, 5.0
9, 6.0
10, 7.0
11, 8.0
12, 9.0
13, 9.0
14, 10.0
15, 11.0
16, 12.0
17, 12.0
18, 13.0
19, 13.0
20, 13.0
21, 14.0
22, 15.0
23, 15.0
24, 15.0
25, 15.0
26, 15.0
27, 15.0
28, 15.0
29, 15.0
30, 15.0
31, 15.0
32, 15.0
33, 15.0
34, 16.0
35, 17.0
36, 18.0
37, 19.0
38, 19.0
39, 20.0
40, 21.0
41, 22.0
42, 22.0
43, 23.0
44, 23.0
45, 23.0
46, 23.0
47, 24.0
48, 25.0
49, 25.0
50, 26.0
51, 27.0
52, 27.0
53, 28.0
54, 28.0
55, 29.0
56, 29.0
57, 30.0
58, 30.0
59, 30.0
60, 31.0
61, 31.0
62, 32.0
63, 32.0
64, 33.0
65, 33.0
66, 33.0
67, 33.0
68, 34.0
69, 35.0
70, 35.0
71, 35.0
72, 35.0
73, 35.0
74, 35.0
75, 35.0
76, 35.0
77, 35.0
78, 35.0
79, 35.0
80, 35.0
81, 35.0
82, 35.0
83, 35.0
84, 35.0
85, 35.0
86, 35.0
87, 35.0
88, 35.0
89, 35.0
90, 35.0
91, 35.0
92, 35.0
93, 35.0
94, 35.0
95, 35.0
96, 35.0
97, 35.0
98, 35.0
99, 35.0
100, 35.0
101, 35.0
102, 35.0
103, 35.0
104, 35.0
105, 35.0
