i, Result
0, 0.0
1, 0.0
2, 0.0
3, 0.0
4, 1.0
5, 2.0
6, 3.0
7, 4.0
8, 4.0
9, 5.0
10, 5.0
11, 5.0
12, 6.0
13, 7.0
14, 7.0
15, 7.0
16, 8.0
17, 9.0
18, 9.0
19, 10.0
20, 11.0
21, 11.0
22, 12.0
23, 13.0
24, 14.0
25, 14.0
26, 15.0
27, 15.0
28, 16.0
29, 16.0
30, 17.0
31, 18.0
32, 18.0
33, 19.0
34, 19.0
35, 19.0
36, 20.0
37, 21.0
38, 22.0
39, 23.0
40, 23.0
41, 24.0
42, 25.0
43, 25.0
44, 26.0
45, 26.0
46, 27.0
47, 28.0
48, 28.0
49, 28.0
50, 29.0
51, 30.0
52, 31.0
53, 31.0
54, 31.0
55, 32.0
56, 32.0
57, 32.0
58, 32.0
59, 33.0
60, 34.0
61, 35.0
62, 36.0
63, 36.0
64, 36.0
65, 36.0
66, 37.0
67, 37.0
68, 38.0
69, 39.0
70, 40.0
71, 41.0
72, 42.0
73, 42.0
74, 42.0
75, 42.0
76, 42.0
77, 42.0
78, 42.0
79, 42.0
80, 42.0
81, 42.0
82, 42.0
83, 42.0
84, 42.0
85, 42.0
86, 42.0
87, 42.0
88, 42.0
89, 42.0
90, 42.0
91, 42.0
92, 42.0
93, 42.0
94, 42.0
95, 42.0
96, 42.0
97, 42.0
98, 42.0
99, 42.0
100, 42.0
101, 42.0
102, 42.0
103, 42.0
104, 42.0
105, 42.0
