i, Result
0, 0.0
1, 0.0
2, 0.0
3, 1.0
4, 2.0
5, 2.0
6, 3.0
7, 4.0
8, 5.0
9, 6.0
10, 7.0
11, 8.0
12, 9.0
13, 9.0
14, 10.0
15, 10.0
16, 11.0
17, 12.0
18, 12.0
19, 12.0
20, 12.0
21, 12.0
22, 12.0
23, 12.0
24, 12.0
25, 13.0
26, 14.0
27, 14.0
28, 15.0
29, 15.0
30, 16.0
31, 17.0
32, 18.0
33, 19.0
34, 19.0
35, 19.0
36, 20.0
37, 21.0
38, 21.0
39, 21.0
40, 22.0
41, 23.0
42, 23.0
43, 24.0
44, 25.0
45, 25.0
46, 25.0
47, 25.0
48, 25.0
49, 26.0
50, 27.0
51, 28.0
52, 29.0
53, 30.0
54, 30.0
55, 31.0
56, 32.0
57, 32.0
58, 32.0
59, 33.0
60, 34.0
61, 35.0
62, 36.0
63, 37.0
64, 37.0
65, 38.0
66, 39.0
67, 39.0
68, 40.0
69, 40.0
70, 40.0
71, 41.0
72, 41.0
73, 41.0
74, 41.0
75, 41.0
76, 41.0
77, 41.0
78, 41.0
79, 41.0
80, 41.0
81, 41.0
82, 41.0
83, 41.0
84, 41.0
85, 41.0
86, 41.0
87, 41.0
88, 41.0
89, 41.0
90, 41.0
91, 41.0
92, 41.0
93, 41.0
94, 41.0
95, 41.0
96, 41.0
97, 41.0
98, 41.0
99, 41.0
100, 41.0
101, 41.0
102, 41.0
103, 41.0
104, 41.0
105, 41.0
