i, Result
0, 0.0
1, 0.0
2, 0.0
3, 0.0
4, 0.0
5, 1.0
6, 2.0
7, 3.0
8, 3.0
9, 4.0
10, 4.0
11, 5.0
12, 6.0
13, 6.0
14, 7.0
15, 7.0
16, 8.0
17, 8.0
18, 8.0
19, 9.0
20, 10.0
21, 11.0
22, 11.0
23, 11.0
24, 11.0
25, 12.0
26, 12.0
27, 13.0
28, 14.0
29, 14.0
30, 14.0
31, 14.0
32, 15.0
33, 15.0
34, 16.0
35, 17.0
36, 17.0
37, 17.0
38, 17.0
39, 17.0
40, 17.0
41, 17.0
42, 18.0
43, 18.0
44, 18.0
45, 18.0
46, 19.0
47, 19.0
48, 19.0
49, 19.0
50, 20.0
51, 21.0
52, 21.0
53, 21.0
54, 21.0
55, 22.0
56, 22.0
57, 22.0
58, 23.0
59, 23.0
60, 24.0
61, 24.0
62, 24.0
63, 25.0
64, 25.0
65, 25.0
66, 25.0
67, 25.0
68, 25.0
69, 25.0
70, 25.0
71, 25.0
72, 25.0
73, 25.0
74, 25.0
75, 25.0
76, 25.0
77, 25.0
78, 25.0
79, 25.0
80, 25.0
81, 25.0
82, 25.0
83, 25.0
84, 25.0
85, 25.0
86, 25.0
87, 25.0
88, 25.0
89, 25.0
90, 25.0
91, 25.0
92, 25.0
93, 25.0
94, 25.0
95, 25.0
96, 25.0
97, 25.0
98, 25.0
99, 25.0
100, 25.0
101, 25.0
102, 25.0
103, 25.0
104, 25.0
105, 25.0
