i, Result
0, 0.0
1, 0.0
2, 0.0
3, 1.0
4, 2.0
5, 3.0
6, 3.0
7, 4.0
8, 5.0
9, 6.0
10, 7.0
11, 8.0
12, 9.0
13, 9.0
14, 9.0
15, 9.0
16, 10.0
17, 10.0
18, 11.0
19, 11.0
20, 12.0
21, 13.0
22, 14.0
23, 14.0
24, 15.0
25, 15.0
26, 15.0
27, 15.0
28, 15.0
29, 16.0
30, 16.0
31, 16.0
32, 17.0
33, 17.0
34, 18.0
35, 19.0
36, 20.0
37, 21.0
38, 22.0
39, 22.0
40, 23.0
41, 23.0
42, 24.0
43, 25.0
44, 25.0
45, 26.0
46, 26.0
47, 27.0
48, 27.0
49, 27.0
50, 28.0
51, 28.0
52, 28.0
53, 29.0
54, 29.0
55, 29.0
56, 30.0
57, 31.0
58, 32.0
59, 33.0
60, 33.0
61, 33.0
62, 34.0
63, 35.0
64, 35.0
65, 35.0
66, 36.0
67, 37.0
68, 38.0
69, 38.0
70, 39.0
71, 40.0
72, 40.0
73, 40.0
74, 40.0
75, 40.0
76, 40.0
77, 40.0
78, 40.0
79, 40.0
80, 40.0
81, 40.0
82, 40.0
83, 40.0
84, 40.0
85, 40.0
86, 40.0
87, 40.0
88, 40.0
89, 40.0
90, 40.0
91, 40.0
92, 40.0
93, 40.0
94, 40.0
95, 40.0
96, 40.0
97, 40.0
98, 40.0
99, 40.0
100, 40.0
101, 40.0
102, 40.0
103, 40.0
104, 40.0
105, 40.0
