i, Result
0, 0.0
1, 0.0
2, 0.0
3, 0.0
4, 0.0
5, 0.0
6, 0.0
7, 1.0
8, 2.0
9, 2.0
10, 2.0
11, 3.0
12, 3.0
13, 3.0
14, 3.0
15, 3.0
16, 3.0
17, 4.0
18, 4.0
19, 4.0
20, 4.0
21, 5.0
22, 6.0
23, 7.0
24, 8.0
25, 8.0
26, 9.0
27, 10.0
28, 10.0
29, 11.0
30, 12.0
31, 13.0
32, 13.0
33, 14.0
34, 14.0
35, 15.0
36, 16.0
37, 16.0
38, 16.0
39, 17.0
40, 17.0
41, 18.0
42, 19.0
43, 20.0
44, 21.0
45, 22.0
46, 22.0
47, 22.0
48, 23.0
49, 24.0
50, 24.0
51, 25.0
52, 26.0
53, 27.0
54, 28.0
55, 28.0
56, 29.0
57, 29.0
58, 30.0
59, 31.0
60, 32.0
61, 33.0
62, 34.0
63, 34.0
64, 34.0
65, 35.0
66, 36.0
67, 37.0
68, 37.0
69, 37.0
70, 37.0
71, 37.0
72, 38.0
73, 38.0
74, 38.0
75, 38.0
76, 38.0
77, 38.0
78, 38.0
79, 38.0
80, 38.0
81, 38.0
82, 38.0
83, 38.0
84, 38.0
85, 38.0
86, 38.0
87, 38.0
88, 38.0
89, 38.0
90, 38.0
91, 38.0
92, 38.0
93, 38.0
94, 38.0
95, 38.0
96, 38.0
97, 38.0
98, 38.0
99, 38.0
100, 38.0
101, 38.0
102, 38.0
103, 38.0
104, 38.0
105, 38.0
