i, Result
0, 0.0
1, 0.0
2, 0.0
3, 0.0
4, 0.0
5, 0.0
6, 0.0
7, 0.0
8, 1.0
9, 1.0
10, 2.0
11, 2.0
12, 2.0
13, 2.0
14, 3.0
15, 4.0
16, 5.0
17, 5.0
18, 6.0
19, 6.0
20, 6.0
21, 6.0
22, 6.0
23, 7.0
24, 8.0
25, 9.0
26, 9.0
27, 10.0
28, 11.0
29, 12.0
30, 12.0
31, 13.0
32, 13.0
33, 13.0
34, 14.0
35, 14.0
36, 15.0
37, 15.0
38, 15.0
39, 15.0
40, 15.0
41, 15.0
42, 16.0
43, 16.0
44, 17.0
45, 18.0
46, 18.0
47, 19.0
48, 20.0
49, 21.0
50, 21.0
51, 21.0
52, 22.0
53, 22.0
54, 22.0
55, 22.0
56, 23.0
57, 24.0
58, 25.0
59, 25.0
60, 26.0
61, 26.0
62, 26.0
63, 26.0
64, 26.0
65, 26.0
66, 26.0
67, 26.0
68, 26.0
69, 26.0
70, 26.0
71, 26.0
72, 26.0
73, 26.0
74, 26.0
75, 26.0
76, 26.0
77, 26.0
78, 26.0
79, 26.0
80, 26.0
81, 26.0
82, 26.0
83, 26.0
84, 26.0
85, 26.0
86, 26.0
87, 26.0
88, 26.0
89, 26.0
90, 26.0
91, 26.0
92, 26.0
93, 26.0
94, 26.0
95, 26.0
96, 26.0
97, 26.0
98, 26.0
99, 26.0
100, 26.0
101, 26.0
102, 26.0
103, 26.0
104, 26.0
105, 26.0
