i, Result
0, 0.0
1, 0.0
2, 0.0
3, 0.0
4, 1.0
5, 1.0
6, 1.0
7, 2.0
8, 2.0
9, 3.0
10, 3.0
11, 3.0
12, 3.0
13, 4.0
14, 4.0
15, 4.0
16, 4.0
17, 5.0
18, 5.0
19, 6.0
20, 6.0
21, 7.0
22, 8.0
23, 8.0
24, 9.0
25, 10.0
26, 11.0
27, 12.0
28, 12.0
29, 12.0
30, 12.0
31, 12.0
32, 13.0
33, 13.0
34, 14.0
35, 15.0
36, 16.0
37, 17.0
38, 18.0
39, 18.0
40, 18.0
41, 19.0
42, 19.0
43, 19.0
44, 20.0
45, 20.0
46, 21.0
47, 22.0
48, 22.0
49, 23.0
50, 24.0
51, 24.0
52, 24.0
53, 24.0
54, 25.0
55, 26.0
56, 27.0
57, 28.0
58, 28.0
59, 28.0
60, 28.0
61, 28.0
62, 28.0
63, 29.0
64, 30.0
65, 30.0
66, 30.0
67, 31.0
68, 31.0
69, 32.0
70, 33.0
71, 34.0
72, 34.0
73, 34.0
74, 34.0
75, 34.0
76, 34.0
77, 34.0
78, 34.0
79, 34.0
80, 34.0
81, 34.0
82, 34.0
83, 34.0
84, 34.0
85, 34.0
86, 34.0
87, 34.0
88, 34.0
89, 34.0
90, 34.0
91, 34.0
92, 34.0
93, 34.0
94, 34.0
95, 34.0
96, 34.0
97, 34.0
98, 34.0
99, 34.0
100, 34.0
101, 34.0
102, 34.0
103, 34.0
104, 34.0
105, 34.0
