i, Result
0, 0.0
1, 0.0
2, 0.0
3, 1.0
4, 1.0
5, 1.0
6, 2.0
7, 2.0
8, 2.0
9, 2.0
10, 2.0
11, 3.0
12, 3.0
13, 4.0
14, 5.0
15, 6.0
16, 7.0
17, 7.0
18, 7.0
19, 7.0
20, 7.0
21, 7.0
22, 8.0
23, 8.0
24, 8.0
25, 8.0
26, 8.0
27, 9.0
28, 9.0
29, 10.0
30, 11.0
31, 12.0
32, 12.0
33, 13.0
34, 14.0
35, 14.0
36, 15.0
37, 16.0
38, 17.0
39, 18.0
40, 19.0
41, 19.0
42, 20.0
43, 21.0
44, 21.0
45, 21.0
46, 21.0
47, 21.0
48, 21.0
49, 21.0
50, 21.0
51, 21.0
52, 21.0
53, 22.0
54, 22.0
55, 22.0
56, 23.0
57, 23.0
58, 24.0
59, 24.0
60, 24.0
61, 24.0
62, 24.0
63, 25.0
64, 25.0
65, 26.0
66, 26.0
67, 27.0
68, 27.0
69, 27.0
70, 27.0
71, 27.0
72, 27.0
73, 27.0
74, 27.0
75, 27.0
76, 27.0
77, 27.0
78, 27.0
79, 27.0
80, 27.0
81, 27.0
82, 27.0
83, 27.0
84, 27.0
85, 27.0
86, 27.0
87, 27.0
88, 27.0
89, 27.0
90, 27.0
91, 27.0
92, 27.0
93, 27.0
94, 27.0
95, 27.0
96, 27.0
97, 27.0
98, 27.0
99, 27.0
100, 27.0
101, 27.0
102, 27.0
103, 27.0
104, 27.0
105, 27.0
