i, Result
0, 0.0
1, 0.0
2, 0.0
3, 0.0
4, 1.0
5, 1.0
6, 2.0
7, 3.0
8, 4.0
9, 5.0
10, 5.0
11, 5.0
12, 6.0
13, 7.0
14, 7.0
15, 7.0
16, 8.0
17, 9.0
18, 9.0
19, 10.0
20, 11.0
21, 12.0
22, 13.0
23, 14.0
24, 14.0
25, 15.0
26, 16.0
27, 17.0
28, 17.0
29, 18.0
30, 19.0
31, 19.0
32, 20.0
33, 21.0
34, 22.0
35, 23.0
36, 24.0
37, 25.0
38, 25.0
39, 26.0
40, 27.0
41, 27.0
42, 27.0
43, 28.0
44, 29.0
45, 29.0
46, 29.0
47, 30.0
48, 31.0
49, 32.0
50, 33.0
51, 33.0
52, 34.0
53, 35.0
54, 36.0
55, 37.0
56, 38.0
57, 38.0
58, 39.0
59, 39.0
60, 39.0
61, 39.0
62, 40.0
63, 40.0
64, 40.0
65, 41.0
66, 41.0
67, 41.0
68, 42.0
69, 43.0
70, 44.0
71, 45.0
72, 45.0
73, 45.0
74, 45.0
75, 45.0
76, 45.0
77, 45.0
78, 45.0
79, 45.0
80, 45.0
81, 45.0
82, 45.0
83, 45.0
84, 45.0
85, 45.0
86, 45.0
87, 45.0
88, 45.0
89, 45.0
90, 45.0
91, 45.0
92, 45.0
93, 45.0
94, 45.0
95, 45.0
96, 45.0
97, 45.0
98, 45.0
99, 45.0
100, 45.0
101, 45.0
102, 45.0
103, 45.0
104, 45.0
105, 45.0
