i, Result
0, 0.0
1, 0.0
2, 0.0
3, 1.0
4, 1.0
5, 1.0
6, 1.0
7, 2.0
8, 3.0
9, 4.0
10, 5.0
11, 6.0
12, 6.0
13, 7.0
14, 7.0
15, 8.0
16, 8.0
17, 8.0
18, 9.0
19, 9.0
20, 9.0
21, 9.0
22, 9.0
23, 10.0
24, 11.0
25, 12.0
26, 12.0
27, 12.0
28, 12.0
29, 13.0
30, 13.0
31, 14.0
32, 15.0
33, 16.0
34, 16.0
35, 16.0
36, 16.0
37, 16.0
38, 17.0
39, 18.0
40, 19.0
41, 20.0
42, 21.0
43, 22.0
44, 22.0
45, 22.0
46, 22.0
47, 22.0
48, 23.0
49, 23.0
50, 24.0
51, 25.0
52, 25.0
53, 25.0
54, 26.0
55, 26.0
56, 26.0
57, 27.0
58, 28.0
59, 28.0
60, 29.0
61, 29.0
62, 29.0
63, 29.0
64, 29.0
65, 29.0
66, 29.0
67, 29.0
68, 29.0
69, 29.0
70, 29.0
71, 29.0
72, 29.0
73, 29.0
74, 29.0
75, 29.0
76, 29.0
77, 29.0
78, 29.0
79, 29.0
80, 29.0
81, 29.0
82, 29.0
83, 29.0
84, 29.0
85, 29.0
86, 29.0
87, 29.0
88, 29.0
89, 29.0
90, 29.0
91, 29.0
92, 29.0
93, 29.0
94, 29.0
95, 29.0
96, 29.0
97, 29.0
98, 29.0
99, 29.0
100, 29.0
101, 29.0
102, 29.0
103, 29.0
104, 29.0
105, 29.0
