i, Result
0, 0.0
1, 0.0
2, 0.0
3, 1.0
4, 2.0
5, 2.0
6, 2.0
7, 3.0
8, 3.0
9, 4.0
10, 5.0
11, 6.0
12, 6.0
13, 6.0
14, 6.0
15, 6.0
16, 6.0
17, 6.0
18, 7.0
19, 7.0
20, 8.0
21, 9.0
22, 9.0
23, 9.0
24, 9.0
25, 9.0
26, 10.0
27, 10.0
28, 11.0
29, 12.0
30, 12.0
31, 13.0
32, 13.0
33, 14.0
34, 14.0
35, 14.0
36, 15.0
37, 15.0
38, 15.0
39, 15.0
40, 15.0
41, 16.0
42, 16.0
43, 16.0
44, 17.0
45, 17.0
46, 18.0
47, 19.0
48, 20.0
49, 21.0
50, 21.0
51, 22.0
52, 22.0
53, 23.0
54, 23.0
55, 24.0
56, 25.0
57, 25.0
58, 25.0
59, 25.0
60, 25.0
61, 25.0
62, 26.0
63, 27.0
64, 27.0
65, 27.0
66, 27.0
67, 27.0
68, 27.0
69, 27.0
70, 27.0
71, 27.0
72, 27.0
73, 27.0
74, 27.0
75, 27.0
76, 27.0
77, 27.0
78, 27.0
79, 27.0
80, 27.0
81, 27.0
82, 27.0
83, 27.0
84, 27.0
85, 27.0
86, 27.0
87, 27.0
88, 27.0
89, 27.0
90, 27.0
91, 27.0
92, 27.0
93, 27.0
94, 27.0
95, 27.0
96, 27.0
97, 27.0
98, 27.0
99, 27.0
100, 27.0
101, 27.0
102, 27.0
103, 27.0
104, 27.0
105, 27.0
