i, Result
0, 0.0
1, 0.0
2, 0.0
3, 1.0
4, 1.0
5, 1.0
6, 2.0
7, 2.0
8, 3.0
9, 4.0
10, 4.0
11, 5.0
12, 6.0
13, 6.0
14, 6.0
15, 6.0
16, 7.0
17, 7.0
18, 8.0
19, 9.0
20, 10.0
21, 11.0
22, 11.0
23, 12.0
24, 13.0
25, 14.0
26, 14.0
27, 14.0
28, 15.0
29, 16.0
30, 17.0
31, 18.0
32, 18.0
33, 18.0
34, 19.0
35, 19.0
36, 19.0
37, 19.0
38, 20.0
39, 20.0
40, 20.0
41, 21.0
42, 22.0
43, 22.0
44, 22.0
45, 22.0
46, 23.0
47, 24.0
48, 25.0
49, 25.0
50, 26.0
51, 26.0
52, 26.0
53, 27.0
54, 27.0
55, 28.0
56, 29.0
57, 30.0
58, 31.0
59, 31.0
60, 32.0
61, 32.0
62, 32.0
63, 33.0
64, 33.0
65, 34.0
66, 34.0
67, 35.0
68, 35.0
69, 35.0
70, 35.0
71, 35.0
72, 35.0
73, 35.0
74, 35.0
75, 35.0
76, 35.0
77, 35.0
78, 35.0
79, 35.0
80, 35.0
81, 35.0
82, 35.0
83, 35.0
84, 35.0
85, 35.0
86, 35.0
87, 35.0
88, 35.0
89, 35.0
90, 35.0
91, 35.0
92, 35.0
93, 35.0
94, 35.0
95, 35.0
96, 35.0
97, 35.0
98, 35.0
99, 35.0
100, 35.0
101, 35.0
102, 35.0
103, 35.0
104, 35.0
105, 35.0
