i, Result
0, 0.0
1, 0.0
2, 0.0
3, 0.0
4, 1.0
5, 2.0
6, 2.0
7, 2.0
8, 2.0
9, 2.0
10, 2.0
11, 2.0
12, 3.0
13, 4.0
14, 4.0
15, 5.0
16, 5.0
17, 6.0
18, 6.0
19, 7.0
20, 8.0
21, 9.0
22, 9.0
23, 9.0
24, 10.0
25, 10.0
26, 10.0
27, 11.0
28, 11.0
29, 11.0
30, 12.0
31, 13.0
32, 14.0
33, 14.0
34, 15.0
35, 15.0
36, 16.0
37, 17.0
38, 18.0
39, 18.0
40, 18.0
41, 18.0
42, 18.0
43, 19.0
44, 19.0
45, 19.0
46, 19.0
47, 19.0
48, 19.0
49, 20.0
50, 20.0
51, 21.0
52, 21.0
53, 21.0
54, 21.0
55, 22.0
56, 22.0
57, 22.0
58, 22.0
59, 22.0
60, 22.0
61, 23.0
62, 24.0
63, 24.0
64, 24.0
65, 24.0
66, 24.0
67, 24.0
68, 24.0
69, 24.0
70, 24.0
71, 24.0
72, 24.0
73, 24.0
74, 24.0
75, 24.0
76, 24.0
77, 24.0
78, 24.0
79, 24.0
80, 24.0
81, 24.0
82, 24.0
83, 24.0
84, 24.0
85, 24.0
86, 24.0
87, 24.0
88, 24.0
89, 24.0
90, 24.0
91, 24.0
92, 24.0
93, 24.0
94, 24.0
95, 24.0
96, 24.0
97, 24.0
98, 24.0
99, 24.0
100, 24.0
101, 24.0
102, 24.0
103, 24.0
104, 24.0
105, 24.0
