i, Result
0, 0.0
1, 0.0
2, 0.0
3, 1.0
4, 2.0
5, 3.0
6, 4.0
7, 4.0
8, 5.0
9, 5.0
10, 6.0
11, 7.0
12, 8.0
13, 8.0
14, 9.0
15, 9.0
16, 9.0
17, 9.0
18, 9.0
19, 9.0
20, 10.0
21, 10.0
22, 10.0
23, 10.0
24, 11.0
25, 11.0
26, 12.0
27, 12.0
28, 12.0
29, 12.0
30, 12.0
31, 12.0
32, 12.0
33, 12.0
34, 12.0
35, 12.0
36, 12.0
37, 12.0
38, 13.0
39, 13.0
40, 13.0
41, 14.0
42, 15.0
43, 16.0
44, 17.0
45, 17.0
46, 18.0
47, 18.0
48, 18.0
49, 18.0
50, 19.0
51, 19.0
52, 20.0
53, 21.0
54, 22.0
55, 22.0
56, 23.0
57, 24.0
58, 25.0
59, 25.0
60, 26.0
61, 27.0
62, 27.0
63, 28.0
64, 28.0
65, 28.0
66, 28.0
67, 28.0
68, 28.0
69, 28.0
70, 28.0
71, 28.0
72, 28.0
73, 28.0
74, 28.0
75, 28.0
76, 28.0
77, 28.0
78, 28.0
79, 28.0
80, 28.0
81, 28.0
82, 28.0
83, 28.0
84, 28.0
85, 28.0
86, 28.0
87, 28.0
88, 28.0
89, 28.0
90, 28.0
91, 28.0
92, 28.0
93, 28.0
94, 28.0
95, 28.0
96, 28.0
97, 28.0
98, 28.0
99, 28.0
100, 28.0
101, 28.0
102, 28.0
103, 28.0
104, 28.0
105, 28.0
