i, Result
0, 0.0
1, 0.0
2, 0.0
3, 0.0
4, 1.0
5, 1.0
6, 2.0
7, 2.0
8, 3.0
9, 4.0
10, 4.0
11, 4.0
12, 5.0
13, 6.0
14, 6.0
15, 7.0
16, 8.0
17, 8.0
18, 9.0
19, 9.0
20, 9.0
21, 9.0
22, 10.0
23, 11.0
24, 11.0
25, 12.0
26, 12.0
27, 13.0
28, 13.0
29, 14.0
30, 15.0
31, 15.0
32, 16.0
33, 17.0
34, 17.0
35, 18.0
36, 19.0
37, 19.0
38, 19.0
39, 20.0
40, 21.0
41, 22.0
42, 23.0
43, 24.0
44, 25.0
45, 25.0
46, 25.0
47, 25.0
48, 25.0
49, 25.0
50, 26.0
51, 26.0
52, 27.0
53, 27.0
54, 27.0
55, 27.0
56, 27.0
57, 27.0
58, 27.0
59, 27.0
60, 27.0
61, 28.0
62, 29.0
63, 29.0
64, 29.0
65, 30.0
66, 30.0
67, 31.0
68, 32.0
69, 33.0
70, 34.0
71, 34.0
72, 34.0
73, 34.0
74, 34.0
75, 34.0
76, 34.0
77, 34.0
78, 34.0
79, 34.0
80, 34.0
81, 34.0
82, 34.0
83, 34.0
84, 34.0
85, 34.0
86, 34.0
87, 34.0
88, 34.0
89, 34.0
90, 34.0
91, 34.0
92, 34.0
93, 34.0
94, 34.0
95, 34.0
96, 34.0
97, 34.0
98, 34.0
99, 34.0
100, 34.0
101, 34.0
102, 34.0
103, 34.0
104, 34.0
105, 34.0
