i, Result
0, 0.0
1, 0.0
2, 0.0
3, 1.0
4, 2.0
5, 3.0
6, 3.0
7, 4.0
8, 5.0
9, 6.0
10, 7.0
11, 7.0
12, 8.0
13, 9.0
14, 10.0
15, 11.0
16, 12.0
17, 12.0
18, 12.0
19, 13.0
20, 13.0
21, 13.0
22, 13.0
23, 13.0
24, 14.0
25, 14.0
26, 15.0
27, 16.0
28, 16.0
29, 16.0
30, 17.0
31, 18.0
32, 19.0
33, 19.0
34, 19.0
35, 19.0
36, 20.0
37, 20.0
38, 21.0
39, 21.0
40, 22.0
41, 23.0
42, 24.0
43, 24.0
44, 25.0
45, 25.0
46, 25.0
47, 25.0
48, 25.0
49, 26.0
50, 26.0
51, 27.0
52, 27.0
53, 27.0
54, 28.0
55, 29.0
56, 30.0
57, 30.0
58, 30.0
59, 31.0
60, 32.0
61, 32.0
62, 33.0
63, 33.0
64, 34.0
65, 34.0
66, 34.0
67, 35.0
68, 36.0
69, 37.0
70, 38.0
71, 38.0
72, 38.0
73, 38.0
74, 38.0
75, 38.0
76, 38.0
77, 38.0
78, 38.0
79, 38.0
80, 38.0
81, 38.0
82, 38.0
83, 38.0
84, 38.0
85, 38.0
86, 38.0
87, 38.0
88, 38.0
89, 38.0
90, 38.0
91, 38.0
92, 38.0
93, 38.0
94, 38.0
95, 38.0
96, 38.0
97, 38.0
98, 38.0
99, 38.0
100, 38.0
101, 38.0
102, 38.0
103, 38.0
104, 38.0
105, 38.0
