i, Result
0, 0.0
1, 0.0
2, 0.0
3, 1.0
4, 1.0
5, 1.0
6, 1.0
7, 2.0
8, 2.0
9, 2.0
10, 3.0
11, 3.0
12, 4.0
13, 5.0
14, 5.0
15, 6.0
16, 7.0
17, 7.0
18, 8.0
19, 8.0
20, 9.0
21, 10.0
22, 11.0
23, 12.0
24, 13.0
25, 14.0
26, 14.0
27, 15.0
28, 16.0
29, 16.0
30, 17.0
31, 17.0
32, 18.0
33, 19.0
34, 19.0
35, 20.0
36, 20.0
37, 21.0
38, 22.0
39, 22.0
40, 23.0
41, 24.0
42, 24.0
43, 25.0
44, 25.0
45, 25.0
46, 25.0
47, 26.0
48, 26.0
49, 26.0
50, 26.0
51, 27.0
52, 28.0
53, 29.0
54, 30.0
55, 30.0
56, 31.0
57, 31.0
58, 31.0
59, 31.0
60, 31.0
61, 32.0
62, 32.0
63, 33.0
64, 34.0
65, 35.0
66, 35.0
67, 35.0
68, 36.0
69, 37.0
70, 37.0
71, 37.0
72, 37.0
73, 37.0
74, 37.0
75, 37.0
76, 37.0
77, 37.0
78, 37.0
79, 37.0
80, 37.0
81, 37.0
82, 37.0
83, 37.0
84, 37.0
85, 37.0
86, 37.0
87, 37.0
88, 37.0
89, 37.0
90, 37.0
91, 37.0
92, 37.0
93, 37.0
94, 37.0
95, 37.0
96, 37.0
97, 37.0
98, 37.0
99, 37.0
100, 37.0
101, 37.0
102, 37.0
103, 37.0
104, 37.0
105, 37.0
