i, Result
0, 0.0
1, 0.0
2, 0.0
3, 1.0
4, 2.0
5, 3.0
6, 4.0
7, 4.0
8, 5.0
9, 5.0
10, 6.0
11, 7.0
12, 8.0
13, 9.0
14, 9.0
15, 9.0
16, 10.0
17, 11.0
18, 12.0
19, 13.0
20, 14.0
21, 15.0
22, 16.0
23, 16.0
24, 16.0
25, 16.0
26, 17.0
27, 17.0
28, 17.0
29, 18.0
30, 18.0
31, 19.0
32, 20.0
33, 21.0
34, 22.0
35, 23.0
36, 24.0
37, 24.0
38, 24.0
39, 25.0
40, 26.0
41, 27.0
42, 28.0
43, 28.0
44, 28.0
45, 29.0
46, 30.0
47, 30.0
48, 31.0
49, 32.0
50, 33.0
51, 33.0
52, 33.0
53, 33.0
54, 33.0
55, 34.0
56, 34.0
57, 35.0
58, 35.0
59, 35.0
60, 36.0
61, 37.0
62, 38.0
63, 39.0
64, 39.0
65, 39.0
66, 40.0
67, 41.0
68, 42.0
69, 43.0
70, 43.0
71, 43.0
72, 43.0
73, 43.0
74, 43.0
75, 43.0
76, 43.0
77, 43.0
78, 43.0
79, 43.0
80, 43.0
81, 43.0
82, 43.0
83, 43.0
84, 43.0
85, 43.0
86, 43.0
87, 43.0
88, 43.0
89, 43.0
90, 43.0
91, 43.0
92, 43.0
93, 43.0
94, 43.0
95, 43.0
96, 43.0
97, 43.0
98, 43.0
99, 43.0
100, 43.0
101, 43.0
102, 43.0
103, 43.0
104, 43.0
105, 43.0
