i, Result
0, 0.0
1, 0.0
2, 0.0
3, 1.0
4, 1.0
5, 2.0
6, 3.0
7, 3.0
8, 3.0
9, 3.0
10, 4.0
11, 4.0
12, 4.0
13, 4.0
14, 5.0
15, 6.0
16, 6.0
17, 7.0
18, 7.0
19, 8.0
20, 9.0
21, 10.0
22, 11.0
23, 12.0
24, 12.0
25, 13.0
26, 13.0
27, 14.0
28, 15.0
29, 15.0
30, 15.0
31, 15.0
32, 15.0
33, 16.0
34, 17.0
35, 17.0
36, 17.0
37, 17.0
38, 17.0
39, 17.0
40, 18.0
41, 18.0
42, 19.0
43, 19.0
44, 20.0
45, 21.0
46, 21.0
47, 22.0
48, 22.0
49, 23.0
50, 24.0
51, 25.0
52, 25.0
53, 25.0
54, 25.0
55, 26.0
56, 26.0
57, 26.0
58, 26.0
59, 27.0
60, 27.0
61, 27.0
62, 27.0
63, 28.0
64, 28.0
65, 29.0
66, 29.0
67, 29.0
68, 30.0
69, 31.0
70, 31.0
71, 31.0
72, 32.0
73, 33.0
74, 34.0
75, 34.0
76, 34.0
77, 34.0
78, 34.0
79, 34.0
80, 34.0
81, 34.0
82, 34.0
83, 34.0
84, 34.0
85, 34.0
86, 34.0
87, 34.0
88, 34.0
89, 34.0
90, 34.0
91, 34.0
92, 34.0
93, 34.0
94, 34.0
95, 34.0
96, 34.0
97, 34.0
98, 34.0
99, 34.0
100, 34.0
101, 34.0
102, 34.0
103, 34.0
104, 34.0
105, 34.0
