i, Result
0, 0.0
1, 0.0
2, 0.0
3, 0.0
4, 1.0
5, 1.0
6, 1.0
7, 1.0
8, 1.0
9, 1.0
10, 1.0
11, 1.0
12, 1.0
13, 2.0
14, 3.0
15, 3.0
16, 4.0
17, 5.0
18, 5.0
19, 5.0
20, 6.0
21, 7.0
22, 8.0
23, 8.0
24, 9.0
25, 9.0
26, 9.0
27, 10.0
28, 10.0
29, 11.0
30, 11.0
31, 12.0
32, 13.0
33, 14.0
34, 15.0
35, 16.0
36, 17.0
37, 18.0
38, 18.0
39, 19.0
40, 20.0
41, 21.0
42, 22.0
43, 23.0
44, 24.0
45, 25.0
46, 26.0
47, 27.0
48, 28.0
49, 29.0
50, 30.0
51, 30.0
52, 31.0
53, 31.0
54, 31.0
55, 32.0
56, 33.0
57, 34.0
58, 35.0
59, 36.0
60, 36.0
61, 37.0
62, 38.0
63, 39.0
64, 39.0
65, 40.0
66, 41.0
67, 41.0
68, 41.0
69, 42.0
70, 43.0
71, 43.0
72, 43.0
73, 43.0
74, 43.0
75, 43.0
76, 43.0
77, 43.0
78, 43.0
79, 43.0
80, 43.0
81, 43.0
82, 43.0
83, 43.0
84, 43.0
85, 43.0
86, 43.0
87, 43.0
88, 43.0
89, 43.0
90, 43.0
91, 43.0
92, 43.0
93, 43.0
94, 43.0
95, 43.0
96, 43.0
97, 43.0
98, 43.0
99, 43.0
100, 43.0
101, 43.0
102, 43.0
103, 43.0
104, 43.0
105, 43.0
