i, Result
0, 0.0
1, 0.0
2, 0.0
3, 0.0
4, 1.0
5, 2.0
6, 3.0
7, 4.0
8, 5.0
9, 6.0
10, 6.0
11, 7.0
12, 7.0
13, 8.0
14, 8.0
15, 9.0
16, 10.0
17, 11.0
18, 12.0
19, 13.0
20, 14.0
21, 15.0
22, 15.0
23, 16.0
24, 17.0
25, 18.0
26, 19.0
27, 19.0
28, 19.0
29, 20.0
30, 20.0
31, 21.0
32, 21.0
33, 22.0
34, 23.0
35, 24.0
36, 24.0
37, 25.0
38, 25.0
39, 26.0
40, 27.0
41, 28.0
42, 29.0
43, 29.0
44, 30.0
45, 31.0
46, 31.0
47, 32.0
48, 32.0
49, 33.0
50, 34.0
51, 34.0
52, 34.0
53, 35.0
54, 35.0
55, 35.0
56, 35.0
57, 36.0
58, 37.0
59, 37.0
60, 37.0
61, 38.0
62, 39.0
63, 39.0
64, 39.0
65, 39.0
66, 39.0
67, 40.0
68, 41.0
69, 42.0
70, 43.0
71, 43.0
72, 44.0
73, 44.0
74, 44.0
75, 44.0
76, 44.0
77, 44.0
78, 44.0
79, 44.0
80, 44.0
81, 44.0
82, 44.0
83, 44.0
84, 44.0
85, 44.0
86, 44.0
87, 44.0
88, 44.0
89, 44.0
90, 44.0
91, 44.0
92, 44.0
93, 44.0
94, 44.0
95, 44.0
96, 44.0
97, 44.0
98, 44.0
99, 44.0
100, 44.0
101, 44.0
102, 44.0
103, 44.0
104, 44.0
105, 44.0
