i, Result
0, 0.0
1, 0.0
2, 0.0
3, 0.0
4, 1.0
5, 2.0
6, 2.0
7, 3.0
8, 3.0
9, 3.0
10, 3.0
11, 3.0
12, 3.0
13, 4.0
14, 5.0
15, 6.0
16, 6.0
17, 7.0
18, 8.0
19, 9.0
20, 10.0
21, 10.0
22, 11.0
23, 12.0
24, 13.0
25, 14.0
26, 14.0
27, 14.0
28, 15.0
29, 15.0
30, 15.0
31, 15.0
32, 15.0
33, 15.0
34, 15.0
35, 16.0
36, 17.0
37, 18.0
38, 18.0
39, 18.0
40, 19.0
41, 19.0
42, 20.0
43, 20.0
44, 21.0
45, 21.0
46, 22.0
47, 23.0
48, 24.0
49, 25.0
50, 25.0
51, 26.0
52, 27.0
53, 28.0
54, 29.0
55, 29.0
56, 30.0
57, 31.0
58, 32.0
59, 33.0
60, 34.0
61, 34.0
62, 35.0
63, 35.0
64, 35.0
65, 35.0
66, 36.0
67, 37.0
68, 37.0
69, 37.0
70, 37.0
71, 37.0
72, 37.0
73, 37.0
74, 37.0
75, 37.0
76, 37.0
77, 37.0
78, 37.0
79, 37.0
80, 37.0
81, 37.0
82, 37.0
83, 37.0
84, 37.0
85, 37.0
86, 37.0
87, 37.0
88, 37.0
89, 37.0
90, 37.0
91, 37.0
92, 37.0
93, 37.0
94, 37.0
95, 37.0
96, 37.0
97, 37.0
98, 37.0
99, 37.0
100, 37.0
101, 37.0
102, 37.0
103, 37.0
104, 37.0
105, 37.0
