i, Result
0, 0.0
1, 0.0
2, 0.0
3, 1.0
4, 1.0
5, 2.0
6, 2.0
7, 2.0
8, 3.0
9, 3.0
10, 3.0
11, 4.0
12, 5.0
13, 6.0
14, 6.0
15, 6.0
16, 7.0
17, 7.0
18, 8.0
19, 8.0
20, 9.0
21, 9.0
22, 9.0
23, 9.0
24, 9.0
25, 10.0
26, 11.0
27, 11.0
28, 11.0
29, 12.0
30, 13.0
31, 14.0
32, 14.0
33, 15.0
34, 15.0
35, 16.0
36, 17.0
37, 17.0
38, 17.0
39, 17.0
40, 17.0
41, 17.0
42, 18.0
43, 18.0
44, 18.0
45, 18.0
46, 18.0
47, 19.0
48, 20.0
49, 20.0
50, 20.0
51, 20.0
52, 20.0
53, 21.0
54, 22.0
55, 23.0
56, 23.0
57, 23.0
58, 23.0
59, 23.0
60, 23.0
61, 23.0
62, 23.0
63, 23.0
64, 23.0
65, 23.0
66, 23.0
67, 23.0
68, 23.0
69, 23.0
70, 23.0
71, 23.0
72, 23.0
73, 23.0
74, 23.0
75, 23.0
76, 23.0
77, 23.0
78, 23.0
79, 23.0
80, 23.0
81, 23.0
82, 23.0
83, 23.0
84, 23.0
85, 23.0
86, 23.0
87, 23.0
88, 23.0
89, 23.0
90, 23.0
91, 23.0
92, 23.0
93, 23.0
94, 23.0
95, 23.0
96, 23.0
97, 23.0
98, 23.0
99, 23.0
100, 23.0
101, 23.0
102, 23.0
103, 23.0
104, 23.0
105, 23.0
