i, Result
0, 0.0
1, 0.0
2, 0.0
3, 0.0
4, 1.0
5, 2.0
6, 2.0
7, 2.0
8, 2.0
9, 2.0
10, 3.0
11, 3.0
12, 3.0
13, 4.0
14, 4.0
15, 5.0
16, 5.0
17, 5.0
18, 6.0
19, 7.0
20, 7.0
21, 8.0
22, 8.0
23, 8.0
24, 9.0
25, 10.0
26, 11.0
27, 12.0
28, 12.0
29, 13.0
30, 14.0
31, 15.0
32, 15.0
33, 16.0
34, 17.0
35, 18.0
36, 19.0
37, 20.0
38, 21.0
39, 22.0
40, 23.0
41, 24.0
42, 24.0
43, 25.0
44, 26.0
45, 26.0
46, 27.0
47, 28.0
48, 29.0
49, 30.0
50, 30.0
51, 31.0
52, 31.0
53, 32.0
54, 33.0
55, 34.0
56, 35.0
57, 36.0
58, 37.0
59, 37.0
60, 38.0
61, 38.0
62, 39.0
63, 39.0
64, 39.0
65, 39.0
66, 40.0
67, 40.0
68, 40.0
69, 41.0
70, 41.0
71, 41.0
72, 42.0
73, 43.0
74, 43.0
75, 44.0
76, 45.0
77, 46.0
78, 46.0
79, 47.0
80, 47.0
81, 47.0
82, 47.0
83, 47.0
84, 47.0
85, 47.0
86, 47.0
87, 47.0
88, 47.0
89, 47.0
90, 47.0
91, 47.0
92, 47.0
93, 47.0
94, 47.0
95, 47.0
96, 47.0
97, 47.0
98, 47.0
99, 47.0
100, 47.0
101, 47.0
102, 47.0
103, 47.0
104, 47.0
105, 47.0
