i, Result
0, 0.0
1, 0.0
2, 0.0
3, 1.0
4, 2.0
5, 2.0
6, 3.0
7, 4.0
8, 4.0
9, 4.0
10, 4.0
11, 5.0
12, 5.0
13, 6.0
14, 7.0
15, 8.0
16, 8.0
17, 8.0
18, 9.0
19, 10.0
20, 11.0
21, 12.0
22, 12.0
23, 12.0
24, 13.0
25, 14.0
26, 15.0
27, 16.0
28, 17.0
29, 18.0
30, 19.0
31, 19.0
32, 19.0
33, 19.0
34, 20.0
35, 21.0
36, 22.0
37, 22.0
38, 22.0
39, 23.0
40, 24.0
41, 24.0
42, 25.0
43, 26.0
44, 27.0
45, 28.0
46, 29.0
47, 29.0
48, 30.0
49, 30.0
50, 31.0
51, 32.0
52, 33.0
53, 33.0
54, 33.0
55, 34.0
56, 35.0
57, 36.0
58, 37.0
59, 37.0
60, 37.0
61, 38.0
62, 39.0
63, 40.0
64, 41.0
65, 42.0
66, 42.0
67, 42.0
68, 42.0
69, 43.0
70, 44.0
71, 45.0
72, 45.0
73, 45.0
74, 46.0
75, 47.0
76, 47.0
77, 47.0
78, 47.0
79, 47.0
80, 47.0
81, 47.0
82, 47.0
83, 47.0
84, 47.0
85, 47.0
86, 47.0
87, 47.0
88, 47.0
89, 47.0
90, 47.0
91, 47.0
92, 47.0
93, 47.0
94, 47.0
95, 47.0
96, 47.0
97, 47.0
98, 47.0
99, 47.0
100, 47.0
101, 47.0
102, 47.0
103, 47.0
104, 47.0
105, 47.0
