i, Result
0, 0.0
1, 0.0
2, 0.0
3, 0.0
4, 1.0
5, 2.0
6, 2.0
7, 2.0
8, 2.0
9, 2.0
10, 2.0
11, 2.0
12, 2.0
13, 2.0
14, 2.0
15, 2.0
16, 2.0
17, 3.0
18, 3.0
19, 4.0
20, 5.0
21, 5.0
22, 6.0
23, 6.0
24, 7.0
25, 7.0
26, 7.0
27, 7.0
28, 8.0
29, 9.0
30, 9.0
31, 9.0
32, 9.0
33, 10.0
34, 11.0
35, 12.0
36, 13.0
37, 14.0
38, 14.0
39, 14.0
40, 14.0
41, 14.0
42, 14.0
43, 15.0
44, 15.0
45, 15.0
46, 15.0
47, 15.0
48, 15.0
49, 16.0
50, 16.0
51, 16.0
52, 16.0
53, 16.0
54, 16.0
55, 16.0
56, 16.0
57, 16.0
58, 16.0
59, 16.0
60, 16.0
61, 16.0
62, 16.0
63, 16.0
64, 16.0
65, 16.0
66, 16.0
67, 16.0
68, 16.0
69, 16.0
70, 16.0
71, 16.0
72, 16.0
73, 16.0
74, 16.0
75, 16.0
76, 16.0
77, 16.0
78, 16.0
79, 16.0
80, 16.0
81, 16.0
82, 16.0
83, 16.0
84, 16.0
85, 16.0
86, 16.0
87, 16.0
88, 16.0
89, 16.0
90, 16.0
91, 16.0
92, 16.0
93, 16.0
94, 16.0
95, 16.0
96, 16.0
97, 16.0
98, 16.0
99, 16.0
100, 16.0
101, 16.0
102, 16.0
103, 16.0
104, 16.0
105, 16.0
