i, Result
0, 0.0
1, 0.0
2, 0.0
3, 1.0
4, 1.0
5, 1.0
6, 1.0
7, 1.0
8, 2.0
9, 2.0
10, 3.0
11, 4.0
12, 5.0
13, 5.0
14, 5.0
15, 6.0
16, 7.0
17, 8.0
18, 8.0
19, 9.0
20, 9.0
21, 9.0
22, 10.0
23, 10.0
24, 11.0
25, 11.0
26, 11.0
27, 12.0
28, 12.0
29, 12.0
30, 13.0
31, 13.0
32, 14.0
33, 15.0
34, 15.0
35, 15.0
36, 16.0
37, 16.0
38, 17.0
39, 17.0
40, 17.0
41, 18.0
42, 19.0
43, 20.0
44, 20.0
45, 20.0
46, 20.0
47, 21.0
48, 22.0
49, 23.0
50, 23.0
51, 23.0
52, 23.0
53, 23.0
54, 23.0
55, 24.0
56, 25.0
57, 25.0
58, 25.0
59, 26.0
60, 27.0
61, 28.0
62, 29.0
63, 30.0
64, 30.0
65, 30.0
66, 30.0
67, 30.0
68, 30.0
69, 30.0
70, 30.0
71, 30.0
72, 30.0
73, 30.0
74, 30.0
75, 30.0
76, 30.0
77, 30.0
78, 30.0
79, 30.0
80, 30.0
81, 30.0
82, 30.0
83, 30.0
84, 30.0
85, 30.0
86, 30.0
87, 30.0
88, 30.0
89, 30.0
90, 30.0
91, 30.0
92, 30.0
93, 30.0
94, 30.0
95, 30.0
96, 30.0
97, 30.0
98, 30.0
99, 30.0
100, 30.0
101, 30.0
102, 30.0
103, 30.0
104, 30.0
105, 30.0
