i, Result
0, 0.0
1, 0.0
2, 0.0
3, 1.0
4, 2.0
5, 3.0
6, 3.0
7, 4.0
8, 4.0
9, 5.0
10, 5.0
11, 5.0
12, 6.0
13, 6.0
14, 6.0
15, 7.0
16, 7.0
17, 8.0
18, 8.0
19, 8.0
20, 9.0
21, 9.0
22, 9.0
23, 9.0
24, 10.0
25, 11.0
26, 11.0
27, 11.0
28, 11.0
29, 11.0
30, 11.0
31, 11.0
32, 11.0
33, 12.0
34, 12.0
35, 13.0
36, 14.0
37, 14.0
38, 15.0
39, 16.0
40, 17.0
41, 18.0
42, 19.0
43, 20.0
44, 21.0
45, 21.0
46, 21.0
47, 22.0
48, 23.0
49, 23.0
50, 23.0
51, 23.0
52, 23.0
53, 24.0
54, 24.0
55, 24.0
56, 24.0
57, 25.0
58, 25.0
59, 26.0
60, 26.0
61, 27.0
62, 28.0
63, 29.0
64, 29.0
65, 29.0
66, 29.0
67, 30.0
68, 30.0
69, 30.0
70, 30.0
71, 30.0
72, 30.0
73, 30.0
74, 30.0
75, 30.0
76, 30.0
77, 30.0
78, 30.0
79, 30.0
80, 30.0
81, 30.0
82, 30.0
83, 30.0
84, 30.0
85, 30.0
86, 30.0
87, 30.0
88, 30.0
89, 30.0
90, 30.0
91, 30.0
92, 30.0
93, 30.0
94, 30.0
95, 30.0
96, 30.0
97, 30.0
98, 30.0
99, 30.0
100, 30.0
101, 30.0
102, 30.0
103, 30.0
104, 30.0
105, 30.0
