i, Result
0, 0.0
1, 0.0
2, 0.0
3, 0.0
4, 1.0
5, 2.0
6, 2.0
7, 3.0
8, 4.0
9, 5.0
10, 6.0
11, 6.0
12, 7.0
13, 8.0
14, 9.0
15, 9.0
16, 10.0
17, 10.0
18, 11.0
19, 11.0
20, 12.0
21, 12.0
22, 12.0
23, 12.0
24, 12.0
25, 13.0
26, 14.0
27, 14.0
28, 15.0
29, 15.0
30, 16.0
31, 16.0
32, 16.0
33, 17.0
34, 18.0
35, 19.0
36, 19.0
37, 19.0
38, 19.0
39, 20.0
40, 21.0
41, 22.0
42, 23.0
43, 24.0
44, 25.0
45, 26.0
46, 27.0
47, 28.0
48, 29.0
49, 29.0
50, 30.0
51, 31.0
52, 32.0
53, 32.0
54, 32.0
55, 32.0
56, 33.0
57, 33.0
58, 33.0
59, 33.0
60, 34.0
61, 35.0
62, 36.0
63, 37.0
64, 38.0
65, 38.0
66, 38.0
67, 39.0
68, 39.0
69, 39.0
70, 39.0
71, 39.0
72, 39.0
73, 39.0
74, 39.0
75, 39.0
76, 39.0
77, 39.0
78, 39.0
79, 39.0
80, 39.0
81, 39.0
82, 39.0
83, 39.0
84, 39.0
85, 39.0
86, 39.0
87, 39.0
88, 39.0
89, 39.0
90, 39.0
91, 39.0
92, 39.0
93, 39.0
94, 39.0
95, 39.0
96, 39.0
97, 39.0
98, 39.0
99, 39.0
100, 39.0
101, 39.0
102, 39.0
103, 39.0
104, 39.0
105, 39.0
