i, Result
0, 0.0
1, 0.0
2, 0.0
3, 0.0
4, 1.0
5, 2.0
6, 2.0
7, 2.0
8, 3.0
9, 4.0
10, 4.0
11, 4.0
12, 5.0
13, 6.0
14, 7.0
15, 8.0
16, 9.0
17, 10.0
18, 11.0
19, 12.0
20, 12.0
21, 13.0
22, 14.0
23, 14.0
24, 15.0
25, 16.0
26, 16.0
27, 16.0
28, 16.0
29, 17.0
30, 18.0
31, 18.0
32, 19.0
33, 19.0
34, 20.0
35, 21.0
36, 22.0
37, 23.0
38, 23.0
39, 23.0
40, 24.0
41, 24.0
42, 25.0
43, 26.0
44, 27.0
45, 27.0
46, 28.0
47, 28.0
48, 29.0
49, 29.0
50, 29.0
51, 30.0
52, 31.0
53, 31.0
54, 32.0
55, 32.0
56, 32.0
57, 32.0
58, 33.0
59, 34.0
60, 35.0
61, 36.0
62, 37.0
63, 38.0
64, 39.0
65, 39.0
66, 39.0
67, 39.0
68, 39.0
69, 39.0
70, 39.0
71, 39.0
72, 39.0
73, 39.0
74, 39.0
75, 39.0
76, 39.0
77, 39.0
78, 39.0
79, 39.0
80, 39.0
81, 39.0
82, 39.0
83, 39.0
84, 39.0
85, 39.0
86, 39.0
87, 39.0
88, 39.0
89, 39.0
90, 39.0
91, 39.0
92, 39.0
93, 39.0
94, 39.0
95, 39.0
96, 39.0
97, 39.0
98, 39.0
99, 39.0
100, 39.0
101, 39.0
102, 39.0
103, 39.0
104, 39.0
105, 39.0
