i, Result
0, 0.0
1, 0.0
2, 0.0
3, 0.0
4, 0.0
5, 0.0
6, 0.0
7, 1.0
8, 1.0
9, 1.0
10, 1.0
11, 2.0
12, 3.0
13, 3.0
14, 4.0
15, 5.0
16, 6.0
17, 6.0
18, 6.0
19, 7.0
20, 7.0
21, 7.0
22, 7.0
23, 7.0
24, 8.0
25, 9.0
26, 9.0
27, 10.0
28, 11.0
29, 12.0
30, 13.0
31, 13.0
32, 13.0
33, 14.0
34, 14.0
35, 14.0
36, 15.0
37, 15.0
38, 16.0
39, 16.0
40, 17.0
41, 18.0
42, 19.0
43, 20.0
44, 21.0
45, 22.0
46, 23.0
47, 24.0
48, 25.0
49, 25.0
50, 26.0
51, 26.0
52, 26.0
53, 27.0
54, 28.0
55, 28.0
56, 29.0
57, 30.0
58, 30.0
59, 30.0
60, 30.0
61, 30.0
62, 31.0
63, 32.0
64, 33.0
65, 34.0
66, 34.0
67, 35.0
68, 35.0
69, 35.0
70, 35.0
71, 35.0
72, 35.0
73, 35.0
74, 35.0
75, 35.0
76, 35.0
77, 35.0
78, 35.0
79, 35.0
80, 35.0
81, 35.0
82, 35.0
83, 35.0
84, 35.0
85, 35.0
86, 35.0
87, 35.0
88, 35.0
89, 35.0
90, 35.0
91, 35.0
92, 35.0
93, 35.0
94, 35.0
95, 35.0
96, 35.0
97, 35.0
98, 35.0
99, 35.0
100, 35.0
101, 35.0
102, 35.0
103, 35.0
104, 35.0
105, 35.0
