i, Result
0, 0.0
1, 0.0
2, 0.0
3, 1.0
4, 2.0
5, 3.0
6, 4.0
7, 5.0
8, 6.0
9, 7.0
10, 8.0
11, 9.0
12, 10.0
13, 11.0
14, 12.0
15, 12.0
16, 13.0
17, 14.0
18, 14.0
19, 14.0
20, 14.0
21, 15.0
22, 16.0
23, 16.0
24, 17.0
25, 18.0
26, 18.0
27, 19.0
28, 20.0
29, 21.0
30, 22.0
31, 22.0
32, 23.0
33, 23.0
34, 24.0
35, 25.0
36, 25.0
37, 25.0
38, 26.0
39, 26.0
40, 27.0
41, 27.0
42, 28.0
43, 28.0
44, 29.0
45, 30.0
46, 31.0
47, 31.0
48, 32.0
49, 33.0
50, 33.0
51, 34.0
52, 35.0
53, 36.0
54, 37.0
55, 38.0
56, 39.0
57, 40.0
58, 41.0
59, 41.0
60, 42.0
61, 42.0
62, 42.0
63, 43.0
64, 44.0
65, 44.0
66, 45.0
67, 45.0
68, 46.0
69, 46.0
70, 47.0
71, 47.0
72, 47.0
73, 47.0
74, 47.0
75, 47.0
76, 47.0
77, 47.0
78, 47.0
79, 47.0
80, 47.0
81, 47.0
82, 47.0
83, 47.0
84, 47.0
85, 47.0
86, 47.0
87, 47.0
88, 47.0
89, 47.0
90, 47.0
91, 47.0
92, 47.0
93, 47.0
94, 47.0
95, 47.0
96, 47.0
97, 47.0
98, 47.0
99, 47.0
100, 47.0
101, 47.0
102, 47.0
103, 47.0
104, 47.0
105, 47.0
