i, Result
0, 0.0
1, 0.0
2, 0.0
3, 1.0
4, 2.0
5, 3.0
6, 3.0
7, 3.0
8, 3.0
9, 4.0
10, 4.0
11, 5.0
12, 6.0
13, 6.0
14, 7.0
15, 7.0
16, 8.0
17, 8.0
18, 8.0
19, 9.0
20, 9.0
21, 10.0
22, 11.0
23, 12.0
24, 12.0
25, 12.0
26, 12.0
27, 13.0
28, 13.0
29, 14.0
30, 14.0
31, 15.0
32, 15.0
33, 16.0
34, 17.0
35, 18.0
36, 19.0
37, 20.0
38, 21.0
39, 22.0
40, 22.0
41, 22.0
42, 23.0
43, 24.0
44, 25.0
45, 25.0
46, 26.0
47, 26.0
48, 27.0
49, 28.0
50, 29.0
51, 30.0
52, 30.0
53, 30.0
54, 31.0
55, 32.0
56, 32.0
57, 33.0
58, 33.0
59, 33.0
60, 33.0
61, 34.0
62, 35.0
63, 35.0
64, 35.0
65, 35.0
66, 36.0
67, 36.0
68, 37.0
69, 37.0
70, 37.0
71, 37.0
72, 38.0
73, 38.0
74, 38.0
75, 38.0
76, 38.0
77, 38.0
78, 38.0
79, 38.0
80, 38.0
81, 38.0
82, 38.0
83, 38.0
84, 38.0
85, 38.0
86, 38.0
87, 38.0
88, 38.0
89, 38.0
90, 38.0
91, 38.0
92, 38.0
93, 38.0
94, 38.0
95, 38.0
96, 38.0
97, 38.0
98, 38.0
99, 38.0
100, 38.0
101, 38.0
102, 38.0
103, 38.0
104, 38.0
105, 38.0
