i, Result
0, 0.0
1, 0.0
2, 0.0
3, 1.0
4, 1.0
5, 2.0
6, 3.0
7, 3.0
8, 4.0
9, 4.0
10, 4.0
11, 4.0
12, 5.0
13, 6.0
14, 6.0
15, 6.0
16, 7.0
17, 7.0
18, 7.0
19, 7.0
20, 8.0
21, 9.0
22, 9.0
23, 9.0
24, 9.0
25, 10.0
26, 11.0
27, 11.0
28, 12.0
29, 13.0
30, 14.0
31, 14.0
32, 14.0
33, 15.0
34, 15.0
35, 15.0
36, 15.0
37, 15.0
38, 15.0
39, 15.0
40, 15.0
41, 15.0
42, 15.0
43, 15.0
44, 15.0
45, 15.0
46, 15.0
47, 15.0
48, 15.0
49, 15.0
50, 15.0
51, 15.0
52, 15.0
53, 15.0
54, 15.0
55, 15.0
56, 15.0
57, 15.0
58, 15.0
59, 15.0
60, 15.0
61, 15.0
62, 15.0
63, 15.0
64, 15.0
65, 15.0
66, 15.0
67, 15.0
68, 15.0
69, 15.0
70, 15.0
71, 15.0
72, 15.0
73, 15.0
74, 15.0
75, 15.0
76, 15.0
77, 15.0
78, 15.0
79, 15.0
80, 15.0
81, 15.0
82, 15.0
83, 15.0
84, 15.0
85, 15.0
86, 15.0
87, 15.0
88, 15.0
89, 15.0
90, 15.0
91, 15.0
92, 15.0
93, 15.0
94, 15.0
95, 15.0
96, 15.0
97, 15.0
98, 15.0
99, 15.0
100, 15.0
101, 15.0
102, 15.0
103, 15.0
104, 15.0
105, 15.0
