i, Result
0, 0.0
1, 0.0
2, 0.0
3, 0.0
4, 0.0
5, 0.0
6, 1.0
7, 2.0
8, 2.0
9, 2.0
10, 2.0
11, 3.0
12, 3.0
13, 3.0
14, 3.0
15, 3.0
16, 4.0
17, 5.0
18, 5.0
19, 6.0
20, 6.0
21, 6.0
22, 7.0
23, 7.0
24, 8.0
25, 8.0
26, 9.0
27, 9.0
28, 10.0
29, 10.0
30, 10.0
31, 10.0
32, 11.0
33, 11.0
34, 11.0
35, 12.0
36, 13.0
37, 13.0
38, 13.0
39, 13.0
40, 14.0
41, 15.0
42, 16.0
43, 16.0
44, 16.0
45, 17.0
46, 17.0
47, 17.0
48, 17.0
49, 18.0
50, 18.0
51, 18.0
52, 19.0
53, 20.0
54, 20.0
55, 20.0
56, 20.0
57, 21.0
58, 22.0
59, 22.0
60, 23.0
61, 24.0
62, 24.0
63, 25.0
64, 26.0
65, 26.0
66, 27.0
67, 27.0
68, 28.0
69, 29.0
70, 29.0
71, 29.0
72, 29.0
73, 29.0
74, 29.0
75, 29.0
76, 29.0
77, 29.0
78, 29.0
79, 29.0
80, 29.0
81, 29.0
82, 29.0
83, 29.0
84, 29.0
85, 29.0
86, 29.0
87, 29.0
88, 29.0
89, 29.0
90, 29.0
91, 29.0
92, 29.0
93, 29.0
94, 29.0
95, 29.0
96, 29.0
97, 29.0
98, 29.0
99, 29.0
100, 29.0
101, 29.0
102, 29.0
103, 29.0
104, 29.0
105, 29.0
