i, Result
0, 0.0
1, 0.0
2, 0.0
3, 0.0
4, 0.0
5, 0.0
6, 0.0
7, 0.0
8, 0.0
9, 0.0
10, 0.0
11, 1.0
12, 1.0
13, 1.0
14, 1.0
15, 2.0
16, 3.0
17, 4.0
18, 4.0
19, 4.0
20, 5.0
21, 5.0
22, 6.0
23, 6.0
24, 7.0
25, 8.0
26, 9.0
27, 9.0
28, 9.0
29, 9.0
30, 9.0
31, 10.0
32, 11.0
33, 12.0
34, 12.0
35, 13.0
36, 13.0
37, 14.0
38, 15.0
39, 16.0
40, 17.0
41, 18.0
42, 18.0
43, 18.0
44, 19.0
45, 19.0
46, 19.0
47, 19.0
48, 20.0
49, 20.0
50, 21.0
51, 21.0
52, 21.0
53, 22.0
54, 23.0
55, 24.0
56, 24.0
57, 24.0
58, 24.0
59, 24.0
60, 24.0
61, 24.0
62, 24.0
63, 24.0
64, 24.0
65, 24.0
66, 24.0
67, 24.0
68, 24.0
69, 24.0
70, 24.0
71, 24.0
72, 24.0
73, 24.0
74, 24.0
75, 24.0
76, 24.0
77, 24.0
78, 24.0
79, 24.0
80, 24.0
81, 24.0
82, 24.0
83, 24.0
84, 24.0
85, 24.0
86, 24.0
87, 24.0
88, 24.0
89, 24.0
90, 24.0
91, 24.0
92, 24.0
93, 24.0
94, 24.0
95, 24.0
96, 24.0
97, 24.0
98, 24.0
99, 24.0
100, 24.0
101, 24.0
102, 24.0
103, 24.0
104, 24.0
105, 24.0
