i, Result
0, 0.0
1, 0.0
2, 0.0
3, 1.0
4, 1.0
5, 1.0
6, 2.0
7, 3.0
8, 3.0
9, 4.0
10, 4.0
11, 5.0
12, 5.0
13, 6.0
14, 7.0
15, 8.0
16, 8.0
17, 8.0
18, 8.0
19, 9.0
20, 10.0
21, 11.0
22, 12.0
23, 13.0
24, 13.0
25, 14.0
26, 14.0
27, 14.0
28, 15.0
29, 15.0
30, 15.0
31, 15.0
32, 15.0
33, 15.0
34, 16.0
35, 16.0
36, 16.0
37, 17.0
38, 17.0
39, 18.0
40, 18.0
41, 19.0
42, 20.0
43, 20.0
44, 20.0
45, 20.0
46, 20.0
47, 21.0
48, 21.0
49, 21.0
50, 21.0
51, 21.0
52, 21.0
53, 22.0
54, 22.0
55, 23.0
56, 23.0
57, 24.0
58, 25.0
59, 26.0
60, 27.0
61, 27.0
62, 28.0
63, 29.0
64, 30.0
65, 31.0
66, 31.0
67, 32.0
68, 33.0
69, 33.0
70, 34.0
71, 34.0
72, 34.0
73, 34.0
74, 34.0
75, 34.0
76, 34.0
77, 34.0
78, 34.0
79, 34.0
80, 34.0
81, 34.0
82, 34.0
83, 34.0
84, 34.0
85, 34.0
86, 34.0
87, 34.0
88, 34.0
89, 34.0
90, 34.0
91, 34.0
92, 34.0
93, 34.0
94, 34.0
95, 34.0
96, 34.0
97, 34.0
98, 34.0
99, 34.0
100, 34.0
101, 34.0
102, 34.0
103, 34.0
104, 34.0
105, 34.0
