i, Result
0, 0.0
1, 0.0
2, 0.0
3, 1.0
4, 2.0
5, 2.0
6, 3.0
7, 3.0
8, 4.0
9, 4.0
10, 4.0
11, 5.0
12, 5.0
13, 6.0
14, 7.0
15, 8.0
16, 8.0
17, 9.0
18, 10.0
19, 10.0
20, 10.0
21, 10.0
22, 11.0
23, 12.0
24, 13.0
25, 13.0
26, 13.0
27, 14.0
28, 15.0
29, 15.0
30, 16.0
31, 17.0
32, 17.0
33, 18.0
34, 18.0
35, 18.0
36, 18.0
37, 19.0
38, 20.0
39, 20.0
40, 20.0
41, 21.0
42, 21.0
43, 21.0
44, 21.0
45, 21.0
46, 22.0
47, 22.0
48, 22.0
49, 23.0
50, 24.0
51, 25.0
52, 25.0
53, 26.0
54, 26.0
55, 27.0
56, 28.0
57, 28.0
58, 29.0
59, 30.0
60, 30.0
61, 31.0
62, 31.0
63, 32.0
64, 33.0
65, 33.0
66, 34.0
67, 34.0
68, 35.0
69, 35.0
70, 35.0
71, 35.0
72, 35.0
73, 35.0
74, 35.0
75, 35.0
76, 35.0
77, 35.0
78, 35.0
79, 35.0
80, 35.0
81, 35.0
82, 35.0
83, 35.0
84, 35.0
85, 35.0
86, 35.0
87, 35.0
88, 35.0
89, 35.0
90, 35.0
91, 35.0
92, 35.0
93, 35.0
94, 35.0
95, 35.0
96, 35.0
97, 35.0
98, 35.0
99, 35.0
100, 35.0
101, 35.0
102, 35.0
103, 35.0
104, 35.0
105, 35.0
