i, Result
0, 0.0
1, 0.0
2, 0.0
3, 1.0
4, 1.0
5, 2.0
6, 3.0
7, 3.0
8, 3.0
9, 4.0
10, 4.0
11, 4.0
12, 5.0
13, 6.0
14, 7.0
15, 8.0
16, 9.0
17, 10.0
18, 11.0
19, 11.0
20, 11.0
21, 11.0
22, 11.0
23, 12.0
24, 12.0
25, 12.0
26, 12.0
27, 12.0
28, 12.0
29, 13.0
30, 14.0
31, 14.0
32, 14.0
33, 15.0
34, 15.0
35, 16.0
36, 16.0
37, 17.0
38, 18.0
39, 19.0
40, 19.0
41, 19.0
42, 20.0
43, 20.0
44, 20.0
45, 20.0
46, 21.0
47, 21.0
48, 21.0
49, 22.0
50, 23.0
51, 23.0
52, 23.0
53, 24.0
54, 24.0
55, 25.0
56, 25.0
57, 25.0
58, 26.0
59, 26.0
60, 27.0
61, 28.0
62, 29.0
63, 30.0
64, 30.0
65, 31.0
66, 31.0
67, 32.0
68, 32.0
69, 32.0
70, 32.0
71, 32.0
72, 32.0
73, 32.0
74, 32.0
75, 32.0
76, 32.0
77, 32.0
78, 32.0
79, 32.0
80, 32.0
81, 32.0
82, 32.0
83, 32.0
84, 32.0
85, 32.0
86, 32.0
87, 32.0
88, 32.0
89, 32.0
90, 32.0
91, 32.0
92, 32.0
93, 32.0
94, 32.0
95, 32.0
96, 32.0
97, 32.0
98, 32.0
99, 32.0
100, 32.0
101, 32.0
102, 32.0
103, 32.0
104, 32.0
105, 32.0
