i, Result
0, 0.0
1, 0.0
2, 0.0
3, 0.0
4, 0.0
5, 0.0
6, 1.0
7, 2.0
8, 2.0
9, 2.0
10, 2.0
11, 2.0
12, 3.0
13, 3.0
14, 4.0
15, 5.0
16, 5.0
17, 6.0
18, 7.0
19, 7.0
20, 7.0
21, 8.0
22, 8.0
23, 9.0
24, 10.0
25, 10.0
26, 11.0
27, 12.0
28, 12.0
29, 12.0
30, 12.0
31, 13.0
32, 14.0
33, 15.0
34, 15.0
35, 16.0
36, 16.0
37, 16.0
38, 17.0
39, 17.0
40, 18.0
41, 19.0
42, 20.0
43, 20.0
44, 21.0
45, 22.0
46, 22.0
47, 22.0
48, 23.0
49, 24.0
50, 25.0
51, 25.0
52, 25.0
53, 26.0
54, 27.0
55, 27.0
56, 28.0
57, 29.0
58, 30.0
59, 31.0
60, 32.0
61, 32.0
62, 33.0
63, 33.0
64, 33.0
65, 34.0
66, 34.0
67, 35.0
68, 35.0
69, 35.0
70, 35.0
71, 35.0
72, 35.0
73, 35.0
74, 35.0
75, 35.0
76, 35.0
77, 35.0
78, 35.0
79, 35.0
80, 35.0
81, 35.0
82, 35.0
83, 35.0
84, 35.0
85, 35.0
86, 35.0
87, 35.0
88, 35.0
89, 35.0
90, 35.0
91, 35.0
92, 35.0
93, 35.0
94, 35.0
95, 35.0
96, 35.0
97, 35.0
98, 35.0
99, 35.0
100, 35.0
101, 35.0
102, 35.0
103, 35.0
104, 35.0
105, 35.0
