i, Result
0, 0.0
1, 0.0
2, 0.0
3, 1.0
4, 1.0
5, 1.0
6, 2.0
7, 2.0
8, 3.0
9, 4.0
10, 5.0
11, 6.0
12, 6.0
13, 7.0
14, 8.0
15, 9.0
16, 10.0
17, 11.0
18, 12.0
19, 13.0
20, 14.0
21, 15.0
22, 16.0
23, 17.0
24, 18.0
25, 18.0
26, 18.0
27, 19.0
28, 20.0
29, 20.0
30, 20.0
31, 21.0
32, 22.0
33, 23.0
34, 24.0
35, 24.0
36, 25.0
37, 26.0
38, 26.0
39, 26.0
40, 27.0
41, 27.0
42, 27.0
43, 28.0
44, 28.0
45, 29.0
46, 30.0
47, 30.0
48, 31.0
49, 32.0
50, 32.0
51, 32.0
52, 33.0
53, 34.0
54, 34.0
55, 34.0
56, 35.0
57, 35.0
58, 35.0
59, 36.0
60, 37.0
61, 37.0
62, 37.0
63, 38.0
64, 38.0
65, 39.0
66, 40.0
67, 41.0
68, 41.0
69, 41.0
70, 42.0
71, 43.0
72, 43.0
73, 44.0
74, 44.0
75, 44.0
76, 44.0
77, 44.0
78, 44.0
79, 44.0
80, 44.0
81, 44.0
82, 44.0
83, 44.0
84, 44.0
85, 44.0
86, 44.0
87, 44.0
88, 44.0
89, 44.0
90, 44.0
91, 44.0
92, 44.0
93, 44.0
94, 44.0
95, 44.0
96, 44.0
97, 44.0
98, 44.0
99, 44.0
100, 44.0
101, 44.0
102, 44.0
103, 44.0
104, 44.0
105, 44.0
