i, Result
0, 0.0
1, 0.0
2, 0.0
3, 0.0
4, 0.0
5, 0.0
6, 0.0
7, 1.0
8, 1.0
9, 1.0
10, 2.0
11, 3.0
12, 3.0
13, 3.0
14, 3.0
15, 4.0
16, 5.0
17, 5.0
18, 5.0
19, 5.0
20, 6.0
21, 6.0
22, 6.0
23, 6.0
24, 7.0
25, 7.0
26, 8.0
27, 9.0
28, 9.0
29, 10.0
30, 11.0
31, 11.0
32, 11.0
33, 12.0
34, 13.0
35, 14.0
36, 15.0
37, 16.0
38, 16.0
39, 17.0
40, 18.0
41, 19.0
42, 20.0
43, 21.0
44, 21.0
45, 22.0
46, 22.0
47, 22.0
48, 23.0
49, 23.0
50, 23.0
51, 24.0
52, 25.0
53, 25.0
54, 25.0
55, 25.0
56, 26.0
57, 27.0
58, 27.0
59, 28.0
60, 29.0
61, 29.0
62, 29.0
63, 29.0
64, 30.0
65, 30.0
66, 30.0
67, 30.0
68, 31.0
69, 32.0
70, 32.0
71, 32.0
72, 33.0
73, 34.0
74, 34.0
75, 35.0
76, 35.0
77, 36.0
78, 37.0
79, 37.0
80, 37.0
81, 37.0
82, 37.0
83, 37.0
84, 37.0
85, 37.0
86, 37.0
87, 37.0
88, 37.0
89, 37.0
90, 37.0
91, 37.0
92, 37.0
93, 37.0
94, 37.0
95, 37.0
96, 37.0
97, 37.0
98, 37.0
99, 37.0
100, 37.0
101, 37.0
102, 37.0
103, 37.0
104, 37.0
105, 37.0
