i, Result
0, 0.0
1, 0.0
2, 0.0
3, 0.0
4, 1.0
5, 2.0
6, 3.0
7, 4.0
8, 5.0
9, 6.0
10, 7.0
11, 8.0
12, 9.0
13, 10.0
14, 10.0
15, 10.0
16, 11.0
17, 12.0
18, 13.0
19, 14.0
20, 15.0
21, 16.0
22, 17.0
23, 17.0
24, 18.0
25, 19.0
26, 20.0
27, 21.0
28, 21.0
29, 22.0
30, 23.0
31, 24.0
32, 25.0
33, 26.0
34, 26.0
35, 27.0
36, 28.0
37, 28.0
38, 28.0
39, 28.0
40, 28.0
41, 29.0
42, 29.0
43, 30.0
44, 30.0
45, 30.0
46, 30.0
47, 30.0
48, 31.0
49, 31.0
50, 32.0
51, 32.0
52, 33.0
53, 34.0
54, 34.0
55, 34.0
56, 35.0
57, 36.0
58, 37.0
59, 38.0
60, 38.0
61, 38.0
62, 38.0
63, 39.0
64, 40.0
65, 41.0
66, 41.0
67, 41.0
68, 42.0
69, 42.0
70, 42.0
71, 42.0
72, 42.0
73, 42.0
74, 42.0
75, 42.0
76, 42.0
77, 42.0
78, 42.0
79, 42.0
80, 42.0
81, 42.0
82, 42.0
83, 42.0
84, 42.0
85, 42.0
86, 42.0
87, 42.0
88, 42.0
89, 42.0
90, 42.0
91, 42.0
92, 42.0
93, 42.0
94, 42.0
95, 42.0
96, 42.0
97, 42.0
98, 42.0
99, 42.0
100, 42.0
101, 42.0
102, 42.0
103, 42.0
104, 42.0
105, 42.0
