,,,,,
i,"""good_answered""","""good_answer_fold""","""good_answer_bin""","""total_time_hesitate""","""total_time_spent"""
0,0,0,0,0,0
,0,0,0,0,0
,0,0,0,0,0
,"0,80982","0,80982",0,"0,1","0,9998"
,"1,60791395192083","1,60791395192083",0,"0,21243825","1,99942004"
,"2,40333443385802","2,40333443385802",0,"0,327261225908333","2,998862643642"
,"3,19741222025173","3,19741222025173",0,"0,442991121042083","3,99812832335845"
,"3,97316808315945","3,97316808315945",0,"0,559340021067702","4,99721729591799"
,"4,75699121413797","4,75699121413797",0,"0,676116182100908","5,99612972046302"
,"5,54014081604831","5,54014081604831",0,"0,793402864627924","6,99486571775535"
10,"6,32598384090724","6,32598384090724",0,"0,911204083441684","7,99342542518473"
,"7,11315859404515","7,11315859404515",0,"1,029520000809","8,99180898091638"
,"7,89025305646146","7,89025305646146",0,"1,14835083025085","9,99001652312036"
,"8,42292319959514","8,66450787601358",0,"1,26769686710365","10,9880481899818"
,"8,96646737504754","9,19684258771314","0,028570488323162","1,38755841982657","11,9859041197172"
,"9,58261711592916","9,71838301409671","0,068832635203945","1,5079358338867","12,9835844505772"
,"10,2677508075122","10,3178868476877","0,102172278397114","1,62882945212874","13,9810893208539"
,"10,9968512142868","10,9921431295205","0,123792956894126","1,75023961693521","14,9784188688802"
,"11,6129499526094","11,716342277817","0,135944145031357","1,87216667088676","15,9755732330298"
,"12,1852144579909","12,3289382811293","0,158873473768399","1,99461095686489","16,9725525517173"
20,"12,7818472751882","12,8853349951772","0,191418399709155","2,11757281806082","17,9693569633984"
,"13,330565814194","13,4613049902433","0,223511654971885","2,24105259797982","18,9659866065693"
,"13,8602297242127","13,9905818958231","0,260608217955957","2,36505064043404","19,9624416197676"
,"14,4177855879192","14,4945470103789","0,302027428639995","2,48956728953894","20,9587221415717"
,"15,0274722831231","15,0235447257801","0,341308712572504","2,61460288971004","21,9548283106013"
,"15,6890546102545","15,6077008704648","0,373070274714663","2,74015778565959","22,9507602655171"
,"16,3357801327469","16,2498705022763","0,395678040422292","2,8662323223933","23,9465181450212"
,"16,9489233466632","16,8812466502744","0,417136467055312","2,99282684520696","24,9421020878566"
,"17,550110179097","17,4739255462261","0,443070226568909","3,11994169968304","25,9375122328081"
,"18,1673466314271","18,048285112629","0,472396531177294","3,24757723168738","26,9327487187015"
30,"18,8165410678739","18,6370095645313","0,500829469784708","3,3757337873657","27,9278116844041"
,"19,4994528866484","19,2604535062762","0,524784470735238","3,50441171314018","28,9227012688247"
,"20,1832847475891","19,9225331886896","0,542843789336858","3,63361135570601","29,9174176109135"
,"20,8410842016416","20,5906781791278","0,558738957897684","3,76333306202789","30,9119608496625"
,"21,4714781079522","21,2346416945495","0,577610595317346","3,89357717933653","31,906331124105"
,"22,0909039652045","21,8505009109129","0,601415119473102","4,0243440551251","32,900528573316"
,"22,7179724893734","22,4541607345499","0,628342988315038","4,15563403714572","33,8945533364124"
,"23,3646714240053","23,065773162127","0,654944933140694","4,28744747340581","34,8884055525525"
,"24,0225800693928","23,6993742736931","0,678291777577131","4,41978471216456","35,8820853609367"
,"24,6743487031988","24,3475076892896","0,698578360357529","4,55264610192928","36,875592900807"
40,"25,3102918972806","24,9912752306366","0,718431189565636","4,68603199145173","37,8689283114472"
,"25,9337942613084","25,6186127655765","0,740204155425273","4,81994272972448","38,8620917321832"
,"26,5564177869691","26,2316765106503","0,764261526656575","4,95437866597724","39,8550833023827"
,"27,1822665662294","26,8343317979013","0,78914188648273","5,08815176326171","40,8377190294491"
,"27,7981717730559","27,4187587919653","0,812719977272772","5,21791135271906","41,7828473317498"
,"28,3775468662537","27,9648328816992","0,833245227909921","5,3386760647819","42,6523237862222"
,"28,8921377979587","28,4491811714303","0,849808456081206","5,44547773760506","43,410571532356"
,"29,3224407801747","28,8548335587764","0,862317937802563","5,53493221431594","44,0359147423201"
,"29,6619490724844","29,1758493342227","0,871235176728917","5,60594798563117","44,5244227561136"
,"29,9157724255926","29,4166978678689","0,877277252469092","5,65953817368986","44,8871308771899"
50,"30,0964373664303","29,5887534326275","0,881191515737776","5,69812066798448","45,1441204635436"
,"30,2194241218765","29,706293460737","0,883627822429184","5,72472317889309","45,3185736414171"
,"30,2998300762764","29,7833936268642","0,885090645574866","5,74235337352571","45,4324577322162"
,"30,3505016171831","29,8321310138694","0,885940821967151","5,75362111938159","45,5041924288348"
,"30,3813825952978","29,8619168456539","0,886420487637925","5,76058673795351","45,5479223944766"
,"30,3996340497101","29,879566290514","0,886683850697288","5,7647629263967","45,5737904738371"
,"30,4101212066268","29,8897313110832","0,886824872044786","5,76719693924637","45,5886738372549"
,"30,4159922327515","29,8954341636054","0,886898651417066","5,76857890299608","45,5970200275917"
,"30,4192006837677","29,8985567936729","0,886936427013572","5,76934469068995","45,6015900846091"
,"30,4209151732334","29,9002284017646","0,886955382571127","5,76975952672701","45,6040375029856"
60,"30,4218123597437","29,9011045788417","0,886964716464509","5,76997953675205","45,6053212473856"
