PRISM
=====

Version: 4.6
Date: Wed May 12 00:17:44 CEST 2021
Hostname: PC
Memory limits: cudd=12g, java(heap)=12g
Command line: prism circuit_poids_classic.pm -pf 'S=? [n_Th<4]' -ex -javamaxmem 12g -cuddmaxmem 12g -epsilon 1e-12 -javastack 1g -maxiters 30000

Parsing model file "circuit_poids_classic.pm"...

Type:        DTMC
Modules:     temps entry STr GPe STN SNr Delay Th 
Variables:   time t1 potentiel_STr n_STr potentiel_GPe n_GPe potentiel_STN n_STN potentiel_SNr n_SNr potentiel_Delay n_Delay potentiel_Th n_Th 

1 property:
(1) S=? [ n_Th<4 ]

---------------------------------------------------------------------

Model checking: S=? [ n_Th<4 ]

Building model...

Computing reachable states... 53012 109993 173967 233238 296312 357031 420664 486229 556930 614517 671980 737223 801647 865299 928598 992564 1058588 1070831 states
Reachable states exploration and model construction done in 51.577 secs.
Sorting reachable states list...

Time for model construction: 52.459 seconds.

Type:        DTMC
States:      1070831 (1 initial)
Transitions: 10708310

Computing steady state probabilities for BSCC 1
Starting value iteration...
Power method: 14058 iterations in 311.22 seconds.

Value for BSCC 1: 0.10323869094174158

Computing probabilities of reaching BSCC 1

Starting probabilistic reachability...
Calculating predecessor relation for discrete-time Markov chain...  done (0.385 seconds)
Starting Prob0...
Prob0 took 0.366 seconds.
Starting Prob1...
Prob1 took 0.388 seconds.
target=1019890, yes=1070831, no=0, maybe=0
Probabilistic reachability took 1.15 seconds.

Value in the initial state: 0.10323869094174158

Time for model checking: 313.279 seconds.

Result: 0.10323869094174158 (value in the initial state)

PRISM
=====

Version: 4.6
Date: Wed May 12 00:23:51 CEST 2021
Hostname: PC
Memory limits: cudd=12g, java(heap)=12g
Command line: prism circuit_poids_cxstr.pm -pf 'S=? [n_Th<4]' -ex -javamaxmem 12g -cuddmaxmem 12g -epsilon 1e-12 -javastack 1g -maxiters 30000

Parsing model file "circuit_poids_cxstr.pm"...

Type:        DTMC
Modules:     temps entry STr GPe STN SNr Delay Th 
Variables:   time t1 potentiel_STr n_STr potentiel_GPe n_GPe potentiel_STN n_STN potentiel_SNr n_SNr potentiel_Delay n_Delay potentiel_Th n_Th 

1 property:
(1) S=? [ n_Th<4 ]

---------------------------------------------------------------------

Model checking: S=? [ n_Th<4 ]

Building model...

Computing reachable states... 61507 129602 195152 257446 319152 387699 453496 483061 states
Reachable states exploration and model construction done in 22.234 secs.
Sorting reachable states list...

Time for model construction: 22.605 seconds.

Type:        DTMC
States:      483061 (1 initial)
Transitions: 4830610

Computing steady state probabilities for BSCC 1
Starting value iteration...
Power method: 13311 iterations in 129.026 seconds.

Value for BSCC 1: 0.07589365140516345

Computing probabilities of reaching BSCC 1

Starting probabilistic reachability...
Calculating predecessor relation for discrete-time Markov chain...  done (0.127 seconds)
Starting Prob0...
Prob0 took 0.192 seconds.
Starting Prob1...
Prob1 took 0.207 seconds.
target=464150, yes=483061, no=0, maybe=0
Probabilistic reachability took 0.531 seconds.

Value in the initial state: 0.07589365140516345

Time for model checking: 130.031 seconds.

Result: 0.07589365140516345 (value in the initial state)

PRISM
=====

Version: 4.6
Date: Wed May 12 00:26:24 CEST 2021
Hostname: PC
Memory limits: cudd=12g, java(heap)=12g
Command line: prism circuit_poids_cxth.pm -pf 'S=? [n_Th<4]' -ex -javamaxmem 12g -cuddmaxmem 12g -epsilon 1e-12 -javastack 1g -maxiters 30000

Parsing model file "circuit_poids_cxth.pm"...

Type:        DTMC
Modules:     temps entry STr GPe STN SNr Delay Th 
Variables:   time t1 potentiel_STr n_STr potentiel_GPe n_GPe potentiel_STN n_STN potentiel_SNr n_SNr potentiel_Delay n_Delay potentiel_Th n_Th 

1 property:
(1) S=? [ n_Th<4 ]

---------------------------------------------------------------------

Model checking: S=? [ n_Th<4 ]

Building model...

Computing reachable states... 61548 129509 192807 255471 states
Reachable states exploration and model construction done in 11.765 secs.
Sorting reachable states list...

Time for model construction: 11.999 seconds.

Type:        DTMC
States:      255471 (1 initial)
Transitions: 2554710

Computing steady state probabilities for BSCC 1
Starting value iteration...
Power method: 14003 iterations in 67.365 seconds.

Value for BSCC 1: 0.016036541158023873

Computing probabilities of reaching BSCC 1

Starting probabilistic reachability...
Calculating predecessor relation for discrete-time Markov chain...  done (0.08 seconds)
Starting Prob0...
Prob0 took 0.138 seconds.
Starting Prob1...
Prob1 took 0.146 seconds.
target=242750, yes=255471, no=0, maybe=0
Probabilistic reachability took 0.367 seconds.

Value in the initial state: 0.016036541158023873

Time for model checking: 67.99 seconds.

Result: 0.016036541158023873 (value in the initial state)

PRISM
=====

Version: 4.6
Date: Wed May 12 00:27:44 CEST 2021
Hostname: PC
Memory limits: cudd=12g, java(heap)=12g
Command line: prism circuit_poids_Delaysnr.pm -pf 'S=? [n_Th<4]' -ex -javamaxmem 12g -cuddmaxmem 12g -epsilon 1e-12 -javastack 1g -maxiters 30000

Parsing model file "circuit_poids_Delaysnr.pm"...

Type:        DTMC
Modules:     temps entry STr GPe STN SNr Delay Th 
Variables:   time t1 potentiel_STr n_STr potentiel_GPe n_GPe potentiel_STN n_STN potentiel_SNr n_SNr potentiel_Delay n_Delay potentiel_Th n_Th 

1 property:
(1) S=? [ n_Th<4 ]

---------------------------------------------------------------------

Model checking: S=? [ n_Th<4 ]

Building model...

Computing reachable states... 56459 116182 174670 234670 298652 357991 423404 497398 565223 621669 684601 759942 830399 895043 954671 states
Reachable states exploration and model construction done in 44.641 secs.
Sorting reachable states list...

Time for model construction: 45.341 seconds.

Type:        DTMC
States:      954671 (1 initial)
Transitions: 9546710

Computing steady state probabilities for BSCC 1
Starting value iteration...
Power method: 14176 iterations in 267.114 seconds.

Value for BSCC 1: 0.11535715582011276

Computing probabilities of reaching BSCC 1

Starting probabilistic reachability...
Calculating predecessor relation for discrete-time Markov chain...  done (0.23 seconds)
Starting Prob0...
Prob0 took 0.378 seconds.
Starting Prob1...
Prob1 took 0.402 seconds.
target=871370, yes=954671, no=0, maybe=0
Probabilistic reachability took 1.022 seconds.

Value in the initial state: 0.11535715582011276

Time for model checking: 268.928 seconds.

Result: 0.11535715582011276 (value in the initial state)

PRISM
=====

Version: 4.6
Date: Wed May 12 00:32:59 CEST 2021
Hostname: PC
Memory limits: cudd=12g, java(heap)=12g
Command line: prism circuit_poids_gpegpe.pm -pf 'S=? [n_Th<4]' -ex -javamaxmem 12g -cuddmaxmem 12g -epsilon 1e-12 -javastack 1g -maxiters 30000

Parsing model file "circuit_poids_gpegpe.pm"...

Type:        DTMC
Modules:     temps entry STr GPe STN SNr Delay Th 
Variables:   time t1 potentiel_STr n_STr potentiel_GPe n_GPe potentiel_STN n_STN potentiel_SNr n_SNr potentiel_Delay n_Delay potentiel_Th n_Th 

1 property:
(1) S=? [ n_Th<4 ]

---------------------------------------------------------------------

Model checking: S=? [ n_Th<4 ]

Building model...

Computing reachable states... 53379 109246 163531 223230 281217 340325 398471 468278 543361 598967 659202 722449 788997 852082 911760 967355 1027413 1084387 1143593 1202402 1264081 1325043 1385423 1446963 1508048 1570003 1632295 1693913 1754298 1815012 1875484 1942903 2013561 2071549 2129607 2190296 2247333 2305311 2340561 states
Reachable states exploration and model construction done in 115.737 secs.
Sorting reachable states list...

Time for model construction: 117.843 seconds.

Type:        DTMC
States:      2340561 (1 initial)
Transitions: 23405610

Computing steady state probabilities for BSCC 1
Starting value iteration...
Power method: 14251 iterations in 735.121 seconds.

Value for BSCC 1: 0.10117554696965828

Computing probabilities of reaching BSCC 1

Starting probabilistic reachability...
Calculating predecessor relation for discrete-time Markov chain...  done (0.924 seconds)
Starting Prob0...
Prob0 took 0.358 seconds.
Starting Prob1...
Prob1 took 0.377 seconds.
target=2274320, yes=2340561, no=0, maybe=0
Probabilistic reachability took 1.683 seconds.

Value in the initial state: 0.10117554696965828

Time for model checking: 739.254 seconds.

Result: 0.10117554696965828 (value in the initial state)

PRISM
=====

Version: 4.6
Date: Wed May 12 00:47:17 CEST 2021
Hostname: PC
Memory limits: cudd=12g, java(heap)=12g
Command line: prism circuit_poids_gpesnr.pm -pf 'S=? [n_Th<4]' -ex -javamaxmem 12g -cuddmaxmem 12g -epsilon 1e-12 -javastack 1g -maxiters 30000

Parsing model file "circuit_poids_gpesnr.pm"...

Type:        DTMC
Modules:     temps entry STr GPe STN SNr Delay Th 
Variables:   time t1 potentiel_STr n_STr potentiel_GPe n_GPe potentiel_STN n_STN potentiel_SNr n_SNr potentiel_Delay n_Delay potentiel_Th n_Th 

1 property:
(1) S=? [ n_Th<4 ]

---------------------------------------------------------------------

Model checking: S=? [ n_Th<4 ]

Building model...

Computing reachable states... 54473 116364 174481 234550 300194 362440 428850 500118 566814 622502 682093 749266 812098 874871 935615 998695 1061657 1127275 1136021 states
Reachable states exploration and model construction done in 54.381 secs.
Sorting reachable states list...

Time for model construction: 55.213 seconds.

Type:        DTMC
States:      1136021 (1 initial)
Transitions: 11360210

Computing steady state probabilities for BSCC 1
Starting value iteration...
Power method: 14028 iterations in 316.045 seconds.

Value for BSCC 1: 0.06961314994688503

Computing probabilities of reaching BSCC 1

Starting probabilistic reachability...
Calculating predecessor relation for discrete-time Markov chain...  done (0.247 seconds)
Starting Prob0...
Prob0 took 0.411 seconds.
Starting Prob1...
Prob1 took 0.426 seconds.
target=1088450, yes=1136021, no=0, maybe=0
Probabilistic reachability took 1.096 seconds.

Value in the initial state: 0.06961314994688503

Time for model checking: 318.292 seconds.

Result: 0.06961314994688503 (value in the initial state)

PRISM
=====

Version: 4.6
Date: Wed May 12 00:53:31 CEST 2021
Hostname: PC
Memory limits: cudd=12g, java(heap)=12g
Command line: prism circuit_poids_gpestn.pm -pf 'S=? [n_Th<4]' -ex -javamaxmem 12g -cuddmaxmem 12g -epsilon 1e-12 -javastack 1g -maxiters 30000

Parsing model file "circuit_poids_gpestn.pm"...

Type:        DTMC
Modules:     temps entry STr GPe STN SNr Delay Th 
Variables:   time t1 potentiel_STr n_STr potentiel_GPe n_GPe potentiel_STN n_STN potentiel_SNr n_SNr potentiel_Delay n_Delay potentiel_Th n_Th 

1 property:
(1) S=? [ n_Th<4 ]

---------------------------------------------------------------------

Model checking: S=? [ n_Th<4 ]

Building model...

Computing reachable states... 55145 114916 172290 236531 297931 361829 424214 496502 564623 623145 683752 749829 814859 876791 940846 1003984 1068715 1070831 states
Reachable states exploration and model construction done in 51.161 secs.
Sorting reachable states list...

Time for model construction: 51.902 seconds.

Type:        DTMC
States:      1070831 (1 initial)
Transitions: 10708310

Computing steady state probabilities for BSCC 1
Starting value iteration...
Power method: 14058 iterations in 304.406 seconds.

Value for BSCC 1: 0.10323869094174158

Computing probabilities of reaching BSCC 1

Starting probabilistic reachability...
Calculating predecessor relation for discrete-time Markov chain...  done (0.464 seconds)
Starting Prob0...
Prob0 took 0.197 seconds.
Starting Prob1...
Prob1 took 0.225 seconds.
target=1019890, yes=1070831, no=0, maybe=0
Probabilistic reachability took 0.898 seconds.

Value in the initial state: 0.10323869094174158

Time for model checking: 306.201 seconds.

Result: 0.10323869094174158 (value in the initial state)

PRISM
=====

Version: 4.6
Date: Wed May 12 00:59:29 CEST 2021
Hostname: PC
Memory limits: cudd=12g, java(heap)=12g
Command line: prism circuit_poids_gpestr.pm -pf 'S=? [n_Th<4]' -ex -javamaxmem 12g -cuddmaxmem 12g -epsilon 1e-12 -javastack 1g -maxiters 30000

Parsing model file "circuit_poids_gpestr.pm"...

Type:        DTMC
Modules:     temps entry STr GPe STN SNr Delay Th 
Variables:   time t1 potentiel_STr n_STr potentiel_GPe n_GPe potentiel_STN n_STN potentiel_SNr n_SNr potentiel_Delay n_Delay potentiel_Th n_Th 

1 property:
(1) S=? [ n_Th<4 ]

---------------------------------------------------------------------

Model checking: S=? [ n_Th<4 ]

Building model...

Computing reachable states... 56211 116413 173343 235746 297938 362176 426327 501846 569123 630802 693798 761459 826251 889492 953332 1016502 1081550 1109401 states
Reachable states exploration and model construction done in 52.255 secs.
Sorting reachable states list...

Time for model construction: 53.038 seconds.

Type:        DTMC
States:      1109401 (1 initial)
Transitions: 11094010

Computing steady state probabilities for BSCC 1
Starting value iteration...
Power method: 14075 iterations in 327.708 seconds.

Value for BSCC 1: 0.10323869099184278

Computing probabilities of reaching BSCC 1

Starting probabilistic reachability...
Calculating predecessor relation for discrete-time Markov chain...  done (0.259 seconds)
Starting Prob0...
Prob0 took 0.406 seconds.
Starting Prob1...
Prob1 took 0.578 seconds.
target=1050510, yes=1109401, no=0, maybe=0
Probabilistic reachability took 1.256 seconds.

Value in the initial state: 0.10323869099184278

Time for model checking: 329.918 seconds.

Result: 0.10323869099184278 (value in the initial state)

PRISM
=====

Version: 4.6
Date: Wed May 12 01:05:53 CEST 2021
Hostname: PC
Memory limits: cudd=12g, java(heap)=12g
Command line: prism circuit_poids_sncstr.pm -pf 'S=? [n_Th<4]' -ex -javamaxmem 12g -cuddmaxmem 12g -epsilon 1e-12 -javastack 1g -maxiters 30000

Parsing model file "circuit_poids_sncstr.pm"...

Type:        DTMC
Modules:     temps entry STr GPe STN SNr Delay Th 
Variables:   time t1 potentiel_STr n_STr potentiel_GPe n_GPe potentiel_STN n_STN potentiel_SNr n_SNr potentiel_Delay n_Delay potentiel_Th n_Th 

1 property:
(1) S=? [ n_Th<4 ]

---------------------------------------------------------------------

Model checking: S=? [ n_Th<4 ]

Building model...

Computing reachable states... 54655 112075 166127 228706 290587 352560 413513 474016 539889 611352 678339 733612 792972 852624 916706 980839 1041929 1100568 1159923 1222389 1243281 states
Reachable states exploration and model construction done in 61.145 secs.
Sorting reachable states list...

Time for model construction: 62.023 seconds.

Type:        DTMC
States:      1243281 (1 initial)
Transitions: 12432810

Computing steady state probabilities for BSCC 1
Starting value iteration...
Power method: 14263 iterations in 353.606 seconds.

Value for BSCC 1: 0.11519603671377243

Computing probabilities of reaching BSCC 1

Starting probabilistic reachability...
Calculating predecessor relation for discrete-time Markov chain...  done (0.531 seconds)
Starting Prob0...
Prob0 took 0.161 seconds.
Starting Prob1...
Prob1 took 0.286 seconds.
target=1106260, yes=1243281, no=0, maybe=0
Probabilistic reachability took 0.994 seconds.

Value in the initial state: 0.11519603671377243

Time for model checking: 355.644 seconds.

Result: 0.11519603671377243 (value in the initial state)

PRISM
=====

Version: 4.6
Date: Wed May 12 01:12:51 CEST 2021
Hostname: PC
Memory limits: cudd=12g, java(heap)=12g
Command line: prism circuit_poids_snrth.pm -pf 'S=? [n_Th<4]' -ex -javamaxmem 12g -cuddmaxmem 12g -epsilon 1e-12 -javastack 1g -maxiters 30000

Parsing model file "circuit_poids_snrth.pm"...

Type:        DTMC
Modules:     temps entry STr GPe STN SNr Delay Th 
Variables:   time t1 potentiel_STr n_STr potentiel_GPe n_GPe potentiel_STN n_STN potentiel_SNr n_SNr potentiel_Delay n_Delay potentiel_Th n_Th 

1 property:
(1) S=? [ n_Th<4 ]

---------------------------------------------------------------------

Model checking: S=? [ n_Th<4 ]

Building model...

Computing reachable states... 53597 111452 167868 229963 289840 351144 412927 477332 547660 606668 663849 729297 797791 860846 901711 states
Reachable states exploration and model construction done in 43.875 secs.
Sorting reachable states list...

Time for model construction: 44.506 seconds.

Type:        DTMC
States:      901711 (1 initial)
Transitions: 9017110

Computing steady state probabilities for BSCC 1
Starting value iteration...
Power method: 14292 iterations in 251.888 seconds.

Value for BSCC 1: 0.12755757824032712

Computing probabilities of reaching BSCC 1

Starting probabilistic reachability...
Calculating predecessor relation for discrete-time Markov chain...  done (0.204 seconds)
Starting Prob0...
Prob0 took 0.45 seconds.
Starting Prob1...
Prob1 took 0.372 seconds.
target=784100, yes=901711, no=0, maybe=0
Probabilistic reachability took 1.037 seconds.

Value in the initial state: 0.12755757824032712

Time for model checking: 253.659 seconds.

Result: 0.12755757824032712 (value in the initial state)

PRISM
=====

Version: 4.6
Date: Wed May 12 01:17:50 CEST 2021
Hostname: PC
Memory limits: cudd=12g, java(heap)=12g
Command line: prism circuit_poids_stnDelay.pm -pf 'S=? [n_Th<4]' -ex -javamaxmem 12g -cuddmaxmem 12g -epsilon 1e-12 -javastack 1g -maxiters 30000

Parsing model file "circuit_poids_stnDelay.pm"...

Type:        DTMC
Modules:     temps entry STr GPe STN SNr Delay Th 
Variables:   time t1 potentiel_STr n_STr potentiel_GPe n_GPe potentiel_STN n_STN potentiel_SNr n_SNr potentiel_Delay n_Delay potentiel_Th n_Th 

1 property:
(1) S=? [ n_Th<4 ]

---------------------------------------------------------------------

Model checking: S=? [ n_Th<4 ]

Building model...

Computing reachable states... 55615 115458 172562 235299 297262 361408 423666 496190 565747 625440 686974 752614 817423 880646 943780 1008713 1070831 states
Reachable states exploration and model construction done in 50.885 secs.
Sorting reachable states list...

Time for model construction: 51.673 seconds.

Type:        DTMC
States:      1070831 (1 initial)
Transitions: 10708310

Computing steady state probabilities for BSCC 1
Starting value iteration...
Power method: 14058 iterations in 298.648 seconds.

Value for BSCC 1: 0.10323869094174158

Computing probabilities of reaching BSCC 1

Starting probabilistic reachability...
Calculating predecessor relation for discrete-time Markov chain...  done (0.47 seconds)
Starting Prob0...
Prob0 took 0.16 seconds.
Starting Prob1...
Prob1 took 0.228 seconds.
target=1019890, yes=1070831, no=0, maybe=0
Probabilistic reachability took 0.871 seconds.

Value in the initial state: 0.10323869094174158

Time for model checking: 300.422 seconds.

Result: 0.10323869094174158 (value in the initial state)

PRISM
=====

Version: 4.6
Date: Wed May 12 01:23:42 CEST 2021
Hostname: PC
Memory limits: cudd=12g, java(heap)=12g
Command line: prism circuit_poids_stngpe.pm -pf 'S=? [n_Th<4]' -ex -javamaxmem 12g -cuddmaxmem 12g -epsilon 1e-12 -javastack 1g -maxiters 30000

Parsing model file "circuit_poids_stngpe.pm"...

Type:        DTMC
Modules:     temps entry STr GPe STN SNr Delay Th 
Variables:   time t1 potentiel_STr n_STr potentiel_GPe n_GPe potentiel_STN n_STN potentiel_SNr n_SNr potentiel_Delay n_Delay potentiel_Th n_Th 

1 property:
(1) S=? [ n_Th<4 ]

---------------------------------------------------------------------

Model checking: S=? [ n_Th<4 ]

Building model...

Computing reachable states... 55601 114474 171692 236035 297550 361726 423853 494412 562497 622066 683880 749265 813505 875611 939763 1003722 1014861 states
Reachable states exploration and model construction done in 48.539 secs.
Sorting reachable states list...

Time for model construction: 49.218 seconds.

Type:        DTMC
States:      1014861 (1 initial)
Transitions: 10148610

Computing steady state probabilities for BSCC 1
Starting value iteration...
Power method: 14120 iterations in 291.963 seconds.

Value for BSCC 1: 0.10323869092606311

Computing probabilities of reaching BSCC 1

Starting probabilistic reachability...
Calculating predecessor relation for discrete-time Markov chain...  done (0.244 seconds)
Starting Prob0...
Prob0 took 0.391 seconds.
Starting Prob1...
Prob1 took 0.401 seconds.
target=955640, yes=1014861, no=0, maybe=0
Probabilistic reachability took 1.048 seconds.

Value in the initial state: 0.10323869092606311

Time for model checking: 293.877 seconds.

Result: 0.10323869092606311 (value in the initial state)

PRISM
=====

Version: 4.6
Date: Wed May 12 01:29:26 CEST 2021
Hostname: PC
Memory limits: cudd=12g, java(heap)=12g
Command line: prism circuit_poids_stop.pm -pf 'S=? [n_Th<4]' -ex -javamaxmem 12g -cuddmaxmem 12g -epsilon 1e-12 -javastack 1g -maxiters 30000

Parsing model file "circuit_poids_stop.pm"...

Type:        DTMC
Modules:     temps entry STr GPe STN SNr Delay Th 
Variables:   time t1 potentiel_STr n_STr potentiel_GPe n_GPe potentiel_STN n_STN potentiel_SNr n_SNr potentiel_Delay n_Delay potentiel_Th n_Th 

1 property:
(1) S=? [ n_Th<4 ]

---------------------------------------------------------------------

Model checking: S=? [ n_Th<4 ]

Building model...

Computing reachable states... 54023 111276 166258 226656 286823 346414 408529 477869 546531 601551 660062 725024 792466 854472 917112 980588 1044554 1070831 states
Reachable states exploration and model construction done in 52.196 secs.
Sorting reachable states list...

Time for model construction: 52.952 seconds.

Type:        DTMC
States:      1070831 (1 initial)
Transitions: 10708310

Computing steady state probabilities for BSCC 1
Starting value iteration...
Power method: 14058 iterations in 298.086 seconds.

Value for BSCC 1: 0.10323869094174158

Computing probabilities of reaching BSCC 1

Starting probabilistic reachability...
Calculating predecessor relation for discrete-time Markov chain...  done (0.374 seconds)
Starting Prob0...
Prob0 took 0.356 seconds.
Starting Prob1...
Prob1 took 0.382 seconds.
target=1019890, yes=1070831, no=0, maybe=0
Probabilistic reachability took 1.127 seconds.

Value in the initial state: 0.10323869094174158

Time for model checking: 300.114 seconds.

Result: 0.10323869094174158 (value in the initial state)

PRISM
=====

Version: 4.6
Date: Wed May 12 01:35:19 CEST 2021
Hostname: PC
Memory limits: cudd=12g, java(heap)=12g
Command line: prism circuit_poids_strgpe.pm -pf 'S=? [n_Th<4]' -ex -javamaxmem 12g -cuddmaxmem 12g -epsilon 1e-12 -javastack 1g -maxiters 30000

Parsing model file "circuit_poids_strgpe.pm"...

Type:        DTMC
Modules:     temps entry STr GPe STN SNr Delay Th 
Variables:   time t1 potentiel_STr n_STr potentiel_GPe n_GPe potentiel_STN n_STN potentiel_SNr n_SNr potentiel_Delay n_Delay potentiel_Th n_Th 

1 property:
(1) S=? [ n_Th<4 ]

---------------------------------------------------------------------

Model checking: S=? [ n_Th<4 ]

Building model...

Computing reachable states... 56171 117300 174663 236181 300304 364678 429770 501798 567289 624304 683819 745603 810398 865053 922812 981432 1038339 1097493 1155867 1183521 states
Reachable states exploration and model construction done in 58.328 secs.
Sorting reachable states list...

Time for model construction: 59.18 seconds.

Type:        DTMC
States:      1183521 (1 initial)
Transitions: 11835210

Computing steady state probabilities for BSCC 1
Starting value iteration...
Power method: 13861 iterations in 340.948 seconds.

Value for BSCC 1: 0.1108495612659358

Computing probabilities of reaching BSCC 1

Starting probabilistic reachability...
Calculating predecessor relation for discrete-time Markov chain...  done (0.462 seconds)
Starting Prob0...
Prob0 took 0.288 seconds.
Starting Prob1...
Prob1 took 0.265 seconds.
target=1147530, yes=1183521, no=0, maybe=0
Probabilistic reachability took 1.028 seconds.

Value in the initial state: 0.1108495612659358

Time for model checking: 343.011 seconds.

Result: 0.1108495612659358 (value in the initial state)

PRISM
=====

Version: 4.6
Date: Wed May 12 01:42:02 CEST 2021
Hostname: PC
Memory limits: cudd=12g, java(heap)=12g
Command line: prism circuit_poids_strsnr.pm -pf 'S=? [n_Th<4]' -ex -javamaxmem 12g -cuddmaxmem 12g -epsilon 1e-12 -javastack 1g -maxiters 30000

Parsing model file "circuit_poids_strsnr.pm"...

Type:        DTMC
Modules:     temps entry STr GPe STN SNr Delay Th 
Variables:   time t1 potentiel_STr n_STr potentiel_GPe n_GPe potentiel_STN n_STN potentiel_SNr n_SNr potentiel_Delay n_Delay potentiel_Th n_Th 

1 property:
(1) S=? [ n_Th<4 ]

---------------------------------------------------------------------

Model checking: S=? [ n_Th<4 ]

Building model...

Computing reachable states... 55493 115113 172653 232899 297947 357709 423033 495895 561725 618987 677542 741210 802963 863134 923086 985620 1047234 1110073 1129121 states
Reachable states exploration and model construction done in 54.941 secs.
Sorting reachable states list...

Time for model construction: 55.715 seconds.

Type:        DTMC
States:      1129121 (1 initial)
Transitions: 11291210

Computing steady state probabilities for BSCC 1
Starting value iteration...
Power method: 13988 iterations in 336.143 seconds.

Value for BSCC 1: 0.06596933727644758

Computing probabilities of reaching BSCC 1

Starting probabilistic reachability...
Calculating predecessor relation for discrete-time Markov chain...  done (0.272 seconds)
Starting Prob0...
Prob0 took 0.424 seconds.
Starting Prob1...
Prob1 took 0.439 seconds.
target=1084440, yes=1129121, no=0, maybe=0
Probabilistic reachability took 1.148 seconds.

Value in the initial state: 0.06596933727644758

Time for model checking: 338.245 seconds.

Result: 0.06596933727644758 (value in the initial state)

PRISM
=====

Version: 4.7
Date: Thu Dec 23 23:48:05 CET 2021
Hostname: foramen
Memory limits: cudd=12g, java(heap)=12g
Command line: prism circuit_poids_classic.pm -pf 'S=? [n_Th<4]' -ex -javamaxmem 12g -cuddmaxmem 12g -epsilon 1e-12 -javastack 1g -maxiters 30000

Parsing model file "circuit_poids_classic.pm"...

Type:        DTMC
Modules:     temps entry STr GPe STN SNr Delay Th 
Variables:   time t1 potentiel_STr n_STr potentiel_GPe n_GPe potentiel_STN n_STN potentiel_SNr n_SNr potentiel_Delay n_Delay potentiel_Th n_Th 

1 property:
(1) S=? [ n_Th<4 ]

---------------------------------------------------------------------

Model checking: S=? [ n_Th<4 ]

Building model...

Computing reachable states... 57825 120654 182603 249852 308963 375791 442751 510719 572410 634622 700312 769514 838072 904980 973320 1044355 1070831 states
Reachable states exploration and model construction done in 49.161 secs.
Sorting reachable states list...

Time for model construction: 49.841 seconds.

Type:        DTMC
States:      1070831 (1 initial)
Transitions: 10708310

Computing steady state probabilities for BSCC 1
Starting value iteration...
Power method: 14058 iterations in 373.643 seconds.

Value for BSCC 1: 0.10323869094174158

Computing probabilities of reaching BSCC 1

Starting probabilistic reachability...
Calculating predecessor relation for discrete-time Markov chain...  done (0.236 seconds)
Starting Prob0...
Prob0 took 0.304 seconds.
Starting Prob1...
Prob1 took 0.358 seconds.
target=1019890, yes=1070831, no=0, maybe=0
Probabilistic reachability took 0.918 seconds.

Value in the initial state: 0.10323869094174158

Time for model checking: 375.41 seconds.

Result: 0.10323869094174158

PRISM
=====

Version: 4.7
Date: Thu Dec 23 23:55:11 CET 2021
Hostname: foramen
Memory limits: cudd=12g, java(heap)=12g
Command line: prism circuit_poids_cxstr.pm -pf 'S=? [n_Th<4]' -ex -javamaxmem 12g -cuddmaxmem 12g -epsilon 1e-12 -javastack 1g -maxiters 30000

Parsing model file "circuit_poids_cxstr.pm"...

Type:        DTMC
Modules:     temps entry STr GPe STN SNr Delay Th 
Variables:   time t1 potentiel_STr n_STr potentiel_GPe n_GPe potentiel_STN n_STN potentiel_SNr n_SNr potentiel_Delay n_Delay potentiel_Th n_Th 

1 property:
(1) S=? [ n_Th<4 ]

---------------------------------------------------------------------

Model checking: S=? [ n_Th<4 ]

Building model...

Computing reachable states... 64079 133777 198381 265292 332975 407106 479151 483061 states
Reachable states exploration and model construction done in 21.152 secs.
Sorting reachable states list...

Time for model construction: 21.466 seconds.

Type:        DTMC
States:      483061 (1 initial)
Transitions: 4830610

Computing steady state probabilities for BSCC 1
Starting value iteration...
Power method: 13311 iterations in 169.119 seconds.

Value for BSCC 1: 0.07589365140516345

Computing probabilities of reaching BSCC 1

Starting probabilistic reachability...
Calculating predecessor relation for discrete-time Markov chain...  done (0.139 seconds)
Starting Prob0...
Prob0 took 0.177 seconds.
Starting Prob1...
Prob1 took 0.189 seconds.
target=464150, yes=483061, no=0, maybe=0
Probabilistic reachability took 0.517 seconds.

Value in the initial state: 0.07589365140516345

Time for model checking: 170.017 seconds.

Result: 0.07589365140516345

PRISM
=====

Version: 4.7
Date: Thu Dec 23 23:58:23 CET 2021
Hostname: foramen
Memory limits: cudd=12g, java(heap)=12g
Command line: prism circuit_poids_cxth.pm -pf 'S=? [n_Th<4]' -ex -javamaxmem 12g -cuddmaxmem 12g -epsilon 1e-12 -javastack 1g -maxiters 30000

Parsing model file "circuit_poids_cxth.pm"...

Type:        DTMC
Modules:     temps entry STr GPe STN SNr Delay Th 
Variables:   time t1 potentiel_STr n_STr potentiel_GPe n_GPe potentiel_STN n_STN potentiel_SNr n_SNr potentiel_Delay n_Delay potentiel_Th n_Th 

1 property:
(1) S=? [ n_Th<4 ]

---------------------------------------------------------------------

Model checking: S=? [ n_Th<4 ]

Building model...

Computing reachable states... 64504 135088 201392 255471 states
Reachable states exploration and model construction done in 11.149 secs.
Sorting reachable states list...

Time for model construction: 11.352 seconds.

Type:        DTMC
States:      255471 (1 initial)
Transitions: 2554710

Computing steady state probabilities for BSCC 1
Starting value iteration...
Power method: 14004 iterations in 85.437 seconds.

Value for BSCC 1: 0.016036541158036613

Computing probabilities of reaching BSCC 1

Starting probabilistic reachability...
Calculating predecessor relation for discrete-time Markov chain...  done (0.077 seconds)
Starting Prob0...
Prob0 took 0.109 seconds.
Starting Prob1...
Prob1 took 0.126 seconds.
target=242750, yes=255471, no=0, maybe=0
Probabilistic reachability took 0.323 seconds.

Value in the initial state: 0.016036541158036613

Time for model checking: 85.988 seconds.

Result: 0.016036541158036613

PRISM
=====

Version: 4.7
Date: Fri Dec 24 00:00:01 CET 2021
Hostname: foramen
Memory limits: cudd=12g, java(heap)=12g
Command line: prism circuit_poids_Delaysnr.pm -pf 'S=? [n_Th<4]' -ex -javamaxmem 12g -cuddmaxmem 12g -epsilon 1e-12 -javastack 1g -maxiters 30000

Parsing model file "circuit_poids_Delaysnr.pm"...

Type:        DTMC
Modules:     temps entry STr GPe STN SNr Delay Th 
Variables:   time t1 potentiel_STr n_STr potentiel_GPe n_GPe potentiel_STN n_STN potentiel_SNr n_SNr potentiel_Delay n_Delay potentiel_Th n_Th 

1 property:
(1) S=? [ n_Th<4 ]

---------------------------------------------------------------------

Model checking: S=? [ n_Th<4 ]

Building model...

Computing reachable states... 56718 117208 187978 248654 316967 383342 459312 537736 597565 662664 738695 814514 884757 954522 954671 states
Reachable states exploration and model construction done in 42.083 secs.
Sorting reachable states list...

Time for model construction: 42.698 seconds.

Type:        DTMC
States:      954671 (1 initial)
Transitions: 9546710

Computing steady state probabilities for BSCC 1
Starting value iteration...
Power method: 14176 iterations in 323.948 seconds.

Value for BSCC 1: 0.11535715582011276

Computing probabilities of reaching BSCC 1

Starting probabilistic reachability...
Calculating predecessor relation for discrete-time Markov chain...  done (0.211 seconds)
Starting Prob0...
Prob0 took 0.309 seconds.
Starting Prob1...
Prob1 took 0.361 seconds.
target=871370, yes=954671, no=0, maybe=0
Probabilistic reachability took 0.901 seconds.

Value in the initial state: 0.11535715582011276

Time for model checking: 325.601 seconds.

Result: 0.11535715582011276

PRISM
=====

Version: 4.7
Date: Fri Dec 24 00:06:10 CET 2021
Hostname: foramen
Memory limits: cudd=12g, java(heap)=12g
Command line: prism circuit_poids_gpegpe.pm -pf 'S=? [n_Th<4]' -ex -javamaxmem 12g -cuddmaxmem 12g -epsilon 1e-12 -javastack 1g -maxiters 30000

Parsing model file "circuit_poids_gpegpe.pm"...

Type:        DTMC
Modules:     temps entry STr GPe STN SNr Delay Th 
Variables:   time t1 potentiel_STr n_STr potentiel_GPe n_GPe potentiel_STN n_STN potentiel_SNr n_SNr potentiel_Delay n_Delay potentiel_Th n_Th 

1 property:
(1) S=? [ n_Th<4 ]

---------------------------------------------------------------------

Model checking: S=? [ n_Th<4 ]

Building model...

Computing reachable states... 56558 117257 186016 247545 317096 381674 453527 535563 597182 663932 732344 804115 870641 936728 1001819 1070451 1137985 1204421 1273054 1340999 1409211 1476536 1545507 1610491 1674432 1741253 1810238 1879599 1959589 2030970 2089939 2153744 2215677 2276507 2339772 2340561 states
Reachable states exploration and model construction done in 105.276 secs.
Sorting reachable states list...

Time for model construction: 107.121 seconds.

Type:        DTMC
States:      2340561 (1 initial)
Transitions: 23405610

Computing steady state probabilities for BSCC 1
Starting value iteration...
Power method: 14251 iterations in 862.15 seconds.

Value for BSCC 1: 0.10117554696965828

Computing probabilities of reaching BSCC 1

Starting probabilistic reachability...
Calculating predecessor relation for discrete-time Markov chain...  done (0.958 seconds)
Starting Prob0...
Prob0 took 0.297 seconds.
Starting Prob1...
Prob1 took 0.388 seconds.
target=2274320, yes=2340561, no=0, maybe=0
Probabilistic reachability took 1.678 seconds.

Value in the initial state: 0.10117554696965828

Time for model checking: 866.167 seconds.

Result: 0.10117554696965828

PRISM
=====

Version: 4.7
Date: Fri Dec 24 00:22:25 CET 2021
Hostname: foramen
Memory limits: cudd=12g, java(heap)=12g
Command line: prism circuit_poids_gpesnr.pm -pf 'S=? [n_Th<4]' -ex -javamaxmem 12g -cuddmaxmem 12g -epsilon 1e-12 -javastack 1g -maxiters 30000

Parsing model file "circuit_poids_gpesnr.pm"...

Type:        DTMC
Modules:     temps entry STr GPe STN SNr Delay Th 
Variables:   time t1 potentiel_STr n_STr potentiel_GPe n_GPe potentiel_STN n_STN potentiel_SNr n_SNr potentiel_Delay n_Delay potentiel_Th n_Th 

1 property:
(1) S=? [ n_Th<4 ]

---------------------------------------------------------------------

Model checking: S=? [ n_Th<4 ]

Building model...

Computing reachable states... 53677 116351 183548 248128 317096 381780 454259 530474 594856 662804 731940 802660 868457 937153 1005068 1076225 1136021 states
Reachable states exploration and model construction done in 50.664 secs.
Sorting reachable states list...

Time for model construction: 51.275 seconds.

Type:        DTMC
States:      1136021 (1 initial)
Transitions: 11360210

Computing steady state probabilities for BSCC 1
Starting value iteration...
Power method: 14028 iterations in 397.278 seconds.

Value for BSCC 1: 0.06961314994688503

Computing probabilities of reaching BSCC 1

Starting probabilistic reachability...
Calculating predecessor relation for discrete-time Markov chain...  done (0.242 seconds)
Starting Prob0...
Prob0 took 0.327 seconds.
Starting Prob1...
Prob1 took 0.371 seconds.
target=1088450, yes=1136021, no=0, maybe=0
Probabilistic reachability took 0.962 seconds.

Value in the initial state: 0.06961314994688503

Time for model checking: 399.14 seconds.

Result: 0.06961314994688503

PRISM
=====

Version: 4.7
Date: Fri Dec 24 00:29:56 CET 2021
Hostname: foramen
Memory limits: cudd=12g, java(heap)=12g
Command line: prism circuit_poids_gpestn.pm -pf 'S=? [n_Th<4]' -ex -javamaxmem 12g -cuddmaxmem 12g -epsilon 1e-12 -javastack 1g -maxiters 30000

Parsing model file "circuit_poids_gpestn.pm"...

Type:        DTMC
Modules:     temps entry STr GPe STN SNr Delay Th 
Variables:   time t1 potentiel_STr n_STr potentiel_GPe n_GPe potentiel_STN n_STN potentiel_SNr n_SNr potentiel_Delay n_Delay potentiel_Th n_Th 

1 property:
(1) S=? [ n_Th<4 ]

---------------------------------------------------------------------

Model checking: S=? [ n_Th<4 ]

Building model...

Computing reachable states... 56829 118398 188024 246473 314393 380487 452501 534812 594718 659595 728361 798056 865513 931425 1001978 1070831 states
Reachable states exploration and model construction done in 48.031 secs.
Sorting reachable states list...

Time for model construction: 48.709 seconds.

Type:        DTMC
States:      1070831 (1 initial)
Transitions: 10708310

Computing steady state probabilities for BSCC 1
Starting value iteration...
Power method: 14058 iterations in 372.638 seconds.

Value for BSCC 1: 0.10323869094174158

Computing probabilities of reaching BSCC 1

Starting probabilistic reachability...
Calculating predecessor relation for discrete-time Markov chain...  done (0.24 seconds)
Starting Prob0...
Prob0 took 0.311 seconds.
Starting Prob1...
Prob1 took 0.36 seconds.
target=1019890, yes=1070831, no=0, maybe=0
Probabilistic reachability took 0.933 seconds.

Value in the initial state: 0.10323869094174158

Time for model checking: 374.411 seconds.

Result: 0.10323869094174158

PRISM
=====

Version: 4.7
Date: Fri Dec 24 00:37:00 CET 2021
Hostname: foramen
Memory limits: cudd=12g, java(heap)=12g
Command line: prism circuit_poids_gpestr.pm -pf 'S=? [n_Th<4]' -ex -javamaxmem 12g -cuddmaxmem 12g -epsilon 1e-12 -javastack 1g -maxiters 30000

Parsing model file "circuit_poids_gpestr.pm"...

Type:        DTMC
Modules:     temps entry STr GPe STN SNr Delay Th 
Variables:   time t1 potentiel_STr n_STr potentiel_GPe n_GPe potentiel_STN n_STN potentiel_SNr n_SNr potentiel_Delay n_Delay potentiel_Th n_Th 

1 property:
(1) S=? [ n_Th<4 ]

---------------------------------------------------------------------

Model checking: S=? [ n_Th<4 ]

Building model...

Computing reachable states... 56934 117973 187020 249308 317970 380735 451357 526397 592525 657075 725321 796909 862077 930534 997859 1068459 1109401 states
Reachable states exploration and model construction done in 49.778 secs.
Sorting reachable states list...

Time for model construction: 50.394 seconds.

Type:        DTMC
States:      1109401 (1 initial)
Transitions: 11094010

Computing steady state probabilities for BSCC 1
Starting value iteration...
Power method: 14075 iterations in 389.397 seconds.

Value for BSCC 1: 0.10323869099184278

Computing probabilities of reaching BSCC 1

Starting probabilistic reachability...
Calculating predecessor relation for discrete-time Markov chain...  done (0.248 seconds)
Starting Prob0...
Prob0 took 0.312 seconds.
Starting Prob1...
Prob1 took 0.374 seconds.
target=1050510, yes=1109401, no=0, maybe=0
Probabilistic reachability took 0.957 seconds.

Value in the initial state: 0.10323869099184278

Time for model checking: 391.233 seconds.

Result: 0.10323869099184278

PRISM
=====

Version: 4.7
Date: Fri Dec 24 00:44:22 CET 2021
Hostname: foramen
Memory limits: cudd=12g, java(heap)=12g
Command line: prism circuit_poids_sncstr.pm -pf 'S=? [n_Th<4]' -ex -javamaxmem 12g -cuddmaxmem 12g -epsilon 1e-12 -javastack 1g -maxiters 30000

Parsing model file "circuit_poids_sncstr.pm"...

Type:        DTMC
Modules:     temps entry STr GPe STN SNr Delay Th 
Variables:   time t1 potentiel_STr n_STr potentiel_GPe n_GPe potentiel_STN n_STN potentiel_SNr n_SNr potentiel_Delay n_Delay potentiel_Th n_Th 

1 property:
(1) S=? [ n_Th<4 ]

---------------------------------------------------------------------

Model checking: S=? [ n_Th<4 ]

Building model...

Computing reachable states... 56425 116834 183087 240956 309532 371310 439642 507908 581149 660779 720526 785691 852299 920174 989281 1055467 1120047 1187378 1243281 states
Reachable states exploration and model construction done in 56.39 secs.
Sorting reachable states list...

Time for model construction: 57.217 seconds.

Type:        DTMC
States:      1243281 (1 initial)
Transitions: 12432810

Computing steady state probabilities for BSCC 1
Starting value iteration...
Power method: 14263 iterations in 456.054 seconds.

Value for BSCC 1: 0.11519603671377243

Computing probabilities of reaching BSCC 1

Starting probabilistic reachability...
Calculating predecessor relation for discrete-time Markov chain...  done (0.275 seconds)
Starting Prob0...
Prob0 took 0.378 seconds.
Starting Prob1...
Prob1 took 0.488 seconds.
target=1106260, yes=1243281, no=0, maybe=0
Probabilistic reachability took 1.164 seconds.

Value in the initial state: 0.11519603671377243

Time for model checking: 458.204 seconds.

Result: 0.11519603671377243

PRISM
=====

Version: 4.7
Date: Fri Dec 24 00:52:58 CET 2021
Hostname: foramen
Memory limits: cudd=12g, java(heap)=12g
Command line: prism circuit_poids_snrth.pm -pf 'S=? [n_Th<4]' -ex -javamaxmem 12g -cuddmaxmem 12g -epsilon 1e-12 -javastack 1g -maxiters 30000

Parsing model file "circuit_poids_snrth.pm"...

Type:        DTMC
Modules:     temps entry STr GPe STN SNr Delay Th 
Variables:   time t1 potentiel_STr n_STr potentiel_GPe n_GPe potentiel_STN n_STN potentiel_SNr n_SNr potentiel_Delay n_Delay potentiel_Th n_Th 

1 property:
(1) S=? [ n_Th<4 ]

---------------------------------------------------------------------

Model checking: S=? [ n_Th<4 ]

Building model...

Computing reachable states... 56655 118442 186579 249395 316292 380137 450268 528978 593439 660853 726492 795717 865784 901711 states
Reachable states exploration and model construction done in 40.549 secs.
Sorting reachable states list...

Time for model construction: 41.129 seconds.

Type:        DTMC
States:      901711 (1 initial)
Transitions: 9017110

Computing steady state probabilities for BSCC 1
Starting value iteration...
Power method: 14292 iterations in 313.11 seconds.

Value for BSCC 1: 0.12755757824032712

Computing probabilities of reaching BSCC 1

Starting probabilistic reachability...
Calculating predecessor relation for discrete-time Markov chain...  done (0.201 seconds)
Starting Prob0...
Prob0 took 0.299 seconds.
Starting Prob1...
Prob1 took 0.302 seconds.
target=784100, yes=901711, no=0, maybe=0
Probabilistic reachability took 0.821 seconds.

Value in the initial state: 0.12755757824032712

Time for model checking: 314.628 seconds.

Result: 0.12755757824032712

PRISM
=====

Version: 4.7
Date: Fri Dec 24 00:58:55 CET 2021
Hostname: foramen
Memory limits: cudd=12g, java(heap)=12g
Command line: prism circuit_poids_stnDelay.pm -pf 'S=? [n_Th<4]' -ex -javamaxmem 12g -cuddmaxmem 12g -epsilon 1e-12 -javastack 1g -maxiters 30000

Parsing model file "circuit_poids_stnDelay.pm"...

Type:        DTMC
Modules:     temps entry STr GPe STN SNr Delay Th 
Variables:   time t1 potentiel_STr n_STr potentiel_GPe n_GPe potentiel_STN n_STN potentiel_SNr n_SNr potentiel_Delay n_Delay potentiel_Th n_Th 

1 property:
(1) S=? [ n_Th<4 ]

---------------------------------------------------------------------

Model checking: S=? [ n_Th<4 ]

Building model...

Computing reachable states... 56444 118099 186004 246551 313678 380285 451554 534559 593549 659838 728977 798408 866682 933726 1004449 1070831 states
Reachable states exploration and model construction done in 47.875 secs.
Sorting reachable states list...

Time for model construction: 48.512 seconds.

Type:        DTMC
States:      1070831 (1 initial)
Transitions: 10708310

Computing steady state probabilities for BSCC 1
Starting value iteration...
Power method: 14058 iterations in 374.713 seconds.

Value for BSCC 1: 0.10323869094174158

Computing probabilities of reaching BSCC 1

Starting probabilistic reachability...
Calculating predecessor relation for discrete-time Markov chain...  done (0.242 seconds)
Starting Prob0...
Prob0 took 0.308 seconds.
Starting Prob1...
Prob1 took 0.37 seconds.
target=1019890, yes=1070831, no=0, maybe=0
Probabilistic reachability took 0.942 seconds.

Value in the initial state: 0.10323869094174158

Time for model checking: 376.528 seconds.

Result: 0.10323869094174158

PRISM
=====

Version: 4.7
Date: Fri Dec 24 01:06:00 CET 2021
Hostname: foramen
Memory limits: cudd=12g, java(heap)=12g
Command line: prism circuit_poids_stngpe.pm -pf 'S=? [n_Th<4]' -ex -javamaxmem 12g -cuddmaxmem 12g -epsilon 1e-12 -javastack 1g -maxiters 30000

Parsing model file "circuit_poids_stngpe.pm"...

Type:        DTMC
Modules:     temps entry STr GPe STN SNr Delay Th 
Variables:   time t1 potentiel_STr n_STr potentiel_GPe n_GPe potentiel_STN n_STN potentiel_SNr n_SNr potentiel_Delay n_Delay potentiel_Th n_Th 

1 property:
(1) S=? [ n_Th<4 ]

---------------------------------------------------------------------

Model checking: S=? [ n_Th<4 ]

Building model...

Computing reachable states... 56796 119423 188387 248615 318042 385121 455925 540194 600964 669723 739525 810582 877432 948296 1014861 states
Reachable states exploration and model construction done in 44.917 secs.
Sorting reachable states list...

Time for model construction: 45.593 seconds.

Type:        DTMC
States:      1014861 (1 initial)
Transitions: 10148610

Computing steady state probabilities for BSCC 1
Starting value iteration...
Power method: 14120 iterations in 379.958 seconds.

Value for BSCC 1: 0.10323869092606311

Computing probabilities of reaching BSCC 1

Starting probabilistic reachability...
Calculating predecessor relation for discrete-time Markov chain...  done (0.228 seconds)
Starting Prob0...
Prob0 took 0.294 seconds.
Starting Prob1...
Prob1 took 0.356 seconds.
target=955640, yes=1014861, no=0, maybe=0
Probabilistic reachability took 0.9 seconds.

Value in the initial state: 0.10323869092606311

Time for model checking: 381.648 seconds.

Result: 0.10323869092606311

PRISM
=====

Version: 4.7
Date: Fri Dec 24 01:13:08 CET 2021
Hostname: foramen
Memory limits: cudd=12g, java(heap)=12g
Command line: prism circuit_poids_stop.pm -pf 'S=? [n_Th<4]' -ex -javamaxmem 12g -cuddmaxmem 12g -epsilon 1e-12 -javastack 1g -maxiters 30000

Parsing model file "circuit_poids_stop.pm"...

Type:        DTMC
Modules:     temps entry STr GPe STN SNr Delay Th 
Variables:   time t1 potentiel_STr n_STr potentiel_GPe n_GPe potentiel_STN n_STN potentiel_SNr n_SNr potentiel_Delay n_Delay potentiel_Th n_Th 

1 property:
(1) S=? [ n_Th<4 ]

---------------------------------------------------------------------

Model checking: S=? [ n_Th<4 ]

Building model...

Computing reachable states... 56018 117218 183862 243320 312104 375212 446357 525827 592931 655340 723759 795184 861004 930498 1001086 1070831 states
Reachable states exploration and model construction done in 48.011 secs.
Sorting reachable states list...

Time for model construction: 48.579 seconds.

Type:        DTMC
States:      1070831 (1 initial)
Transitions: 10708310

Computing steady state probabilities for BSCC 1
Starting value iteration...
Power method: 14058 iterations in 373.373 seconds.

Value for BSCC 1: 0.10323869094174158

Computing probabilities of reaching BSCC 1

Starting probabilistic reachability...
Calculating predecessor relation for discrete-time Markov chain...  done (0.237 seconds)
Starting Prob0...
Prob0 took 0.317 seconds.
Starting Prob1...
Prob1 took 0.369 seconds.
target=1019890, yes=1070831, no=0, maybe=0
Probabilistic reachability took 0.946 seconds.

Value in the initial state: 0.10323869094174158

Time for model checking: 375.168 seconds.

Result: 0.10323869094174158

PRISM
=====

Version: 4.7
Date: Fri Dec 24 01:20:13 CET 2021
Hostname: foramen
Memory limits: cudd=12g, java(heap)=12g
Command line: prism circuit_poids_strgpe.pm -pf 'S=? [n_Th<4]' -ex -javamaxmem 12g -cuddmaxmem 12g -epsilon 1e-12 -javastack 1g -maxiters 30000

Parsing model file "circuit_poids_strgpe.pm"...

Type:        DTMC
Modules:     temps entry STr GPe STN SNr Delay Th 
Variables:   time t1 potentiel_STr n_STr potentiel_GPe n_GPe potentiel_STN n_STN potentiel_SNr n_SNr potentiel_Delay n_Delay potentiel_Th n_Th 

1 property:
(1) S=? [ n_Th<4 ]

---------------------------------------------------------------------

Model checking: S=? [ n_Th<4 ]

Building model...

Computing reachable states... 56518 117279 184572 247098 313361 375040 446751 522137 588299 653363 719264 793803 856744 923850 990474 1059534 1126366 1183521 states
Reachable states exploration and model construction done in 53.528 secs.
Sorting reachable states list...

Time for model construction: 54.259 seconds.

Type:        DTMC
States:      1183521 (1 initial)
Transitions: 11835210

Computing steady state probabilities for BSCC 1
Starting value iteration...
Power method: 13861 iterations in 412.027 seconds.

Value for BSCC 1: 0.1108495612659358

Computing probabilities of reaching BSCC 1

Starting probabilistic reachability...
Calculating predecessor relation for discrete-time Markov chain...  done (0.256 seconds)
Starting Prob0...
Prob0 took 0.496 seconds.
Starting Prob1...
Prob1 took 0.225 seconds.
target=1147530, yes=1183521, no=0, maybe=0
Probabilistic reachability took 1.001 seconds.

Value in the initial state: 0.1108495612659358

Time for model checking: 413.993 seconds.

Result: 0.1108495612659358

PRISM
=====

Version: 4.7
Date: Fri Dec 24 01:28:01 CET 2021
Hostname: foramen
Memory limits: cudd=12g, java(heap)=12g
Command line: prism circuit_poids_strsnr.pm -pf 'S=? [n_Th<4]' -ex -javamaxmem 12g -cuddmaxmem 12g -epsilon 1e-12 -javastack 1g -maxiters 30000

Parsing model file "circuit_poids_strsnr.pm"...

Type:        DTMC
Modules:     temps entry STr GPe STN SNr Delay Th 
Variables:   time t1 potentiel_STr n_STr potentiel_GPe n_GPe potentiel_STN n_STN potentiel_SNr n_SNr potentiel_Delay n_Delay potentiel_Th n_Th 

1 property:
(1) S=? [ n_Th<4 ]

---------------------------------------------------------------------

Model checking: S=? [ n_Th<4 ]

Building model...

Computing reachable states... 56145 119148 184744 245711 314852 379139 450854 531141 593367 661912 731749 802477 870453 939293 1007478 1078660 1129121 states
Reachable states exploration and model construction done in 50.251 secs.
Sorting reachable states list...

Time for model construction: 50.851 seconds.

Type:        DTMC
States:      1129121 (1 initial)
Transitions: 11291210

Computing steady state probabilities for BSCC 1
Starting value iteration...
Power method: 13988 iterations in 394.441 seconds.

Value for BSCC 1: 0.06596933727644758

Computing probabilities of reaching BSCC 1

Starting probabilistic reachability...
Calculating predecessor relation for discrete-time Markov chain...  done (0.242 seconds)
Starting Prob0...
Prob0 took 0.347 seconds.
Starting Prob1...
Prob1 took 0.372 seconds.
target=1084440, yes=1129121, no=0, maybe=0
Probabilistic reachability took 0.981 seconds.

Value in the initial state: 0.06596933727644758

Time for model checking: 396.324 seconds.

Result: 0.06596933727644758

