poids_classic,0.1032386922
poids_cxstr,0.07589365409
poids_cxth,0.01603654286
poids_Delaysnr,0.1153571563
poids_gpegpe,0.1011755003
poids_gpesnr,0.06961315197
poids_gpestn,0.1032386922
poids_gpestr,0.1032386926
poids_sncstr,0.115196038
poids_snrth,0.1275575794
poids_stnDelay,0.1032386922
poids_stngpe,0.1032386922
poids_stop,0.1032386922
poids_strgpe,0.1108495626
poids_strsnr,0.06596934093
poids_classic,0.1032386922
poids_cxstr,0.07589365409
poids_cxth,0.01603654286
poids_Delaysnr,0.1153571563
poids_gpegpe,0.1011755003
poids_gpesnr,0.06961315197
poids_gpestn,0.1032386922
poids_gpestr,0.1032386926
poids_sncstr,0.115196038
poids_snrth,0.1275575794
poids_stnDelay,0.1032386922
poids_stngpe,0.1032386922
poids_stop,0.1032386922
poids_strgpe,0.1108495626
poids_strsnr,0.06596934093
poids_classic --verbose,poids_classic --precision 1e-12,0.103238690941621
poids_cxstr --precision 1e-12,0.07589365140504296
poids_cxth --precision 1e-12,0.01603654115798893
poids_Delaysnr --precision 1e-12,0.1153571558199706
poids_gpegpe --precision 1e-12,0.1011755469658018
poids_gpesnr --precision 1e-12,0.06961314994682553
poids_gpestn --precision 1e-12,0.103238690941621
poids_gpestr --precision 1e-12,0.1032386909917619
poids_sncstr --precision 1e-12,0.1151960367141401
poids_snrth --precision 1e-12,poids_stnDelay --precision 1e-12,0.103238690941621
poids_stngpe --precision 1e-12,0.1032386909260895
poids_stop --precision 1e-12,poids_strgpe --precision 1e-12,poids_strsnr --precision 1e-12,0.06596933727649107
poids_classic,0.1032386922
poids_cxstr,0.07589365409
poids_cxth,0.01603654286
poids_Delaysnr,0.1153571563
poids_gpegpe,0.1011755003
poids_gpesnr,0.06961315197
poids_gpestn,0.1032386922
poids_gpestr,0.1032386926
poids_sncstr,0.115196038
poids_snrth,0.1275575794
poids_stnDelay,0.1032386922
poids_stngpe,0.1032386922
poids_stop,0.1032386922
poids_strgpe,0.1108495626
poids_strsnr,0.06596934093
poids_classic --verbose,poids_classic --precision 1e-12,0.103238690941621
poids_cxstr --precision 1e-12,0.07589365140504296
poids_cxth --precision 1e-12,0.01603654115798893
poids_Delaysnr --precision 1e-12,0.1153571558199706
poids_gpegpe --precision 1e-12,0.1011755469658018
poids_gpesnr --precision 1e-12,0.06961314994682553
poids_gpestn --precision 1e-12,0.103238690941621
poids_gpestr --precision 1e-12,0.1032386909917619
poids_sncstr --precision 1e-12,0.1151960367141401
poids_snrth --precision 1e-12,poids_stnDelay --precision 1e-12,0.103238690941621
poids_stngpe --precision 1e-12,0.1032386909260895
poids_stop --precision 1e-12,poids_strgpe --precision 1e-12,poids_strsnr --precision 1e-12,0.06596933727649107
poids_classic --precision 1e-12,0.103238690941621
poids_cxstr --precision 1e-12,0.07589365140504296
poids_cxth --precision 1e-12,0.01603654115798893
poids_Delaysnr --precision 1e-12,0.1153571558199706
poids_gpegpe --precision 1e-12,0.1011755469658018
poids_gpesnr --precision 1e-12,0.06961314994682553
poids_gpestn --precision 1e-12,0.103238690941621
poids_gpestr --precision 1e-12,0.1032386909917619
poids_sncstr --precision 1e-12,0.1151960367141401
poids_snrth --precision 1e-12,0.1275575782403877
poids_stnDelay --precision 1e-12,0.103238690941621
poids_stngpe --precision 1e-12,0.1032386909260895
poids_stop --precision 1e-12,0.103238690941621
poids_strgpe --precision 1e-12,0.1108495612660819
poids_strsnr --precision 1e-12,0.06596933727649107
